synth-diodes-1f-1r-out/1kHz-2V/scope.csv

#Digilent WaveForms Oscilloscope Acquisition
#Device Name: Discovery3
#Serial Number: SN:210415BD5874
#Date Time: 2025-04-06 18:45:08.417.821.730
#Sample rate: 200803Hz
#Samples: 32768
#Trigger: Source: Channel 1 Type: Edge Condition: Rising Level: 0 V Hyst.: Auto HoldOff: 0 s
#Channel 1: Range: 500 mV/div Offset: 0 V Sample Mode: Average
#Wavegen Channel 1: Running
#Mode: Simple
#Type: Sine
#Frequency: 1 kHz
#Period: 1 ms
#Amplitude: 2 V
#Offset: 0 V
#Symmetry: 50 %
#Phase: 0 °

Time (s),Channel 1 (V)
-0.1287253160468443,0.4475794115090143
-0.1287203360468443,0.4494077426767814
-0.1287153560468443,0.4474204261900924
-0.1287103760468443,0.4487718014010386
-0.1287053960468443,0.4486128160821032
-0.1287004160468443,0.4476589041684887
-0.1286954360468443,0.4412994914110727
-0.1286904560468443,0.4419354326868016
-0.1286854760468443,0.436609424502468
-0.1286804960468443,0.4343836300373668
-0.1286755160468443,0.432157835572259
-0.1286705360468443,0.4305679823829079
-0.1286655560468443,0.4211083559062286
-0.1286605760468443,0.4218237898414379
-0.1286555960468443,0.4172132155922983
-0.1286506160468443,0.4139540165541285
-0.1286456360468443,0.4070381551804452
-0.1286406560468443,0.4061637359262738
-0.1286356760468443,0.3865290490377876
-0.1286306960468443,0.3888343361622836
-0.1286257160468443,0.3841442692536894
-0.1286207360468443,0.367132840127562
-0.1286157560468443,0.3648275530029988
-0.1286107760468443,0.3587066182239482
-0.1286057960468443,0.3464647486659447
-0.1286008160468443,0.3445569248387011
-0.1285958360468443,0.3350972983620206
-0.1285908560468443,0.3321560699617211
-0.1285858760468443,0.3269890470963004
-0.1285808960468443,0.3173704353007087
-0.1285759160468443,0.2997230648988297
-0.1285709360468443,0.2989281383041527
-0.1285659560468443,0.280247363329187
-0.1285609760468443,0.2688004203658589
-0.1285559960468443,0.2651437580303306
-0.1285510160468443,0.24328327667666
-0.1285460360468443,0.2384342244491391
-0.1285410560468443,0.2384342244491215
-0.1285360760468443,0.2103733156570233
-0.1285310960468443,0.205365278110498
-0.1285261160468443,0.2041728882184825
-0.1285211360468443,0.1733297363450688
-0.1285161560468443,0.1733297363449566
-0.1285111760468443,0.1561593218999646
-0.1285061960468443,0.1389889074548477
-0.1285012160468443,0.1362861570329459
-0.1284962360468443,0.1311986268269989
-0.1284912560468443,0.106794380370415
-0.1284862760468443,0.1067943803703394
-0.1284812960468443,0.08962396592534735
-0.1284763160468443,0.07173811754511614
-0.1284713360468443,0.07078420563143693
-0.1284663560468443,0.04812879768318361
-0.1284613760468443,0.03262772908687148
-0.1284563960468443,0.03143533919485598
-0.1284514160468443,0.001148635937604965
-0.1284464360468443,-0.004892806181940244
-0.1284414560468443,-0.004336357565742112
-0.1284364760468443,-0.04050551762347987
-0.1284314960468443,-0.04296979006703988
-0.1284265160468443,-0.04360573134279161
-0.1284215360468443,-0.07683366300022981
-0.1284165560468443,-0.07460786853525106
-0.1284115760468443,-0.07897996480597456
-0.1284065960468443,-0.1021123287111253
-0.1284016160468443,-0.1032252259436731
-0.1283966360468443,-0.118805787199316
-0.1283916560468443,-0.1351017823902512
-0.1283866760468443,-0.139553371320464
-0.1283816960468443,-0.1535440793868209
-0.1283767160468443,-0.1679322507504484
-0.1283717360468443,-0.1681707287289043
-0.1283667560468443,-0.1812075248816071
-0.1283617760468443,-0.1933699017802108
-0.1283567960468443,-0.1932109164612756
-0.1283518160468443,-0.2146739345175153
-0.1283468360468443,-0.2184100895125821
-0.1283418560468443,-0.2157868317501528
-0.1283368760468443,-0.232321304919455
-0.1283318960468443,-0.233116231514132
-0.1283269160468443,-0.24098600480145
-0.1283219360468443,-0.2700008255071605
-0.1283169560468443,-0.2709547374208405
-0.1283119760468443,-0.2781090767729205
-0.1283069960468443,-0.2941665939853798
-0.1283020160468443,-0.2920997848392742
-0.1282970360468443,-0.291940799520339
-0.1282920560468443,-0.3092701992843286
-0.1282870760468443,-0.305216073651476
-0.1282820960468443,-0.3169809872527096
-0.1282771160468443,-0.3214325761829008
-0.1282721360468443,-0.3205581569287743
-0.1282671560468443,-0.3269970623456463
-0.1282621760468443,-0.3330385044651922
-0.1282571960468443,-0.3320845925516001
-0.1282522160468443,-0.3413057410498365
-0.1282472360468443,-0.3396363952010453
-0.1282422560468443,-0.3367746594602081
-0.1282372760468443,-0.3390004539253026
-0.1282322960468443,-0.336774659460207
-0.1282273160468443,-0.3354232842492545
-0.1282223360468443,-0.3378875566927527
-0.1282173560468443,-0.3332769824436345
-0.1282123760468443,-0.3343103870166997
-0.1282073960468443,-0.3339129237193612
-0.1282024160468443,-0.3312896659569216
-0.1281974360468443,-0.332243577870534
-0.1281924560468443,-0.3305742320217041
-0.1281874760468443,-0.3267585843672614
-0.1281824960468443,-0.3263611210699167
-0.1281775160468443,-0.3205581569287626
-0.1281725360468443,-0.3196042450151519
-0.1281675560468443,-0.311654979068364
-0.1281625760468443,-0.3099856332195423
-0.1281575960468443,-0.3055340442893399
-0.1281526160468443,-0.3029107865269058
-0.1281476360468443,-0.2957564471747927
-0.1281426560468443,-0.2944845646233119
-0.1281376760468443,-0.2850249381466704
-0.1281326960468443,-0.2823221877247293
-0.1281277160468443,-0.2742139364590386
-0.1281227360468443,-0.2646748173228677
-0.1281177560468443,-0.260382213711612
-0.1281127760468443,-0.2603027210521363
-0.1281077960468443,-0.2457555643695472
-0.1281028160468443,-0.2437682478828318
-0.1280978360468443,-0.2349445626819099
-0.1280928560468443,-0.2258823995025925
-0.1280878760468443,-0.222066751848103
-0.1280828960468443,-0.2130840813282692
-0.1280779160468443,-0.1971060567751997
-0.1280729360468443,-0.196788086137329
-0.1280679560468443,-0.1874874449795554
-0.1280629760468443,-0.1681707287289394
-0.1280579960468443,-0.1642755884149941
-0.1280530160468443,-0.1532261087489495
-0.1280480360468443,-0.140427790574673
-0.1280430560468443,-0.1409047465314335
-0.1280380760468443,-0.113479779015077
-0.1280330960468443,-0.1103000726363133
-0.1280281160468443,-0.1066434103007991
-0.1280231360468443,-0.08549836288233406
-0.1280181560468443,-0.07905945746546207
-0.1280131760468443,-0.07866199416811258
-0.1280081960468443,-0.05179347526797962
-0.1280032160468443,-0.04583152580791296
-0.1279982360468443,-0.04273131208864532
-0.1279932560468443,-0.01164968223677457
-0.1279882760468443,-0.009662365750021917
-0.1279832960468443,0.006713122100324312
-0.1279783160468443,0.0233270879290732
-0.1279733360468443,0.02388353654540754
-0.1279683560468443,0.03803322993063345
-0.1279633760468443,0.05623704894882135
-0.1279583960468443,0.0561575562893538
-0.1279534160468443,0.07571275051844331
-0.1279484360468443,0.09057787783890324
-0.1279434560468443,0.09240620900674289
-0.1279384760468443,0.1211030590745305
-0.1279334960468443,0.1310396415080271
-0.1279285160468443,0.1304037002323205
-0.1279235360468443,0.1634726465708236
-0.1279185560468443,0.1616443154031835
-0.1279135760468443,0.163631631889876
-0.1279085960468443,0.1897052241953326
-0.1279036160468443,0.1910565994062835
-0.1278986360468443,0.1946337690823932
-0.1278936560468443,0.2244435163827266
-0.1278886760468443,0.2219792439392866
-0.1278836960468443,0.2357314740272147
-0.1278787160468443,0.2552866682562334
-0.1278737360468443,0.2551276829373689
-0.1278687560468443,0.2685619423874102
-0.1278637760468443,0.285732356832489
-0.1278587960468443,0.2823141724753779
-0.1278538160468443,0.2963048805417364
-0.1278488360468443,0.3095006620133506
-0.1278438560468443,0.310693051905388
-0.1278388760468443,0.3276249883720432
-0.1278338960468443,0.332315055280629
-0.1278289160468443,0.3304072314534178
-0.1278239360468443,0.3587861108833867
-0.1278189560468443,0.3560038678020638
-0.1278139760468443,0.3529831467422912
-0.1278089960468443,0.3717434143766288
-0.1278040160468443,0.3695971125710691
-0.1277990360468443,0.3686432006574546
-0.1277940560468443,0.3888343361622836
-0.1277890760468443,0.387164990313465
-0.1277840960468443,0.3969425874280038
-0.1277791160468443,0.4083895303913526
-0.1277741360468443,0.4056867799694741
-0.1277691560468443,0.4097409056023195
-0.1277641760468443,0.4197569806952388
-0.1277591960468443,0.4154643770840116
-0.1277542160468443,0.4251624815390534
-0.1277492360468443,0.4283421879178025
-0.1277442560468443,0.4234136430308051
-0.1277392760468443,0.4304089970639665
-0.1277342960468443,0.4277062466420647
-0.1277293160468443,0.4283421879178038
-0.1277243360468443,0.4290576218530118
-0.1277193560468443,0.4283421879178051
-0.1277143760468443,0.4198364733547431
-0.1277093960468443,0.4292960998313822
-0.1277044160468443,0.4245265402633459
-0.1276994360468443,0.426354871431103
-0.1276944560468443,0.4246060329228138
-0.1276894760468443,0.4221417604793151
-0.1276844960468443,0.4188825614411408
-0.1276795160468443,0.4217442971819662
-0.1276745360468443,0.4167362596355154
-0.1276695560468443,0.4126026413431692
-0.1276645760468443,0.4068791698615052
-0.1276595960468443,0.4071971404993558
-0.1276546160468443,0.3975785287037641
-0.1276496360468443,0.3915370865841826
-0.1276446560468443,0.3872444829729346
-0.1276396760468443,0.3751615987338583
-0.1276346960468443,0.3680867520411762
-0.1276297160468443,0.3708689951225406
-0.1276247360468443,0.3575142283319528
-0.1276197560468443,0.3582296622671622
-0.1276147760468443,0.3529036540828178
-0.1276097960468443,0.3453518514333863
-0.1276048160468443,0.3406617845247666
-0.1275998360468443,0.3389129460164804
-0.1275948560468443,0.3180858692359776
-0.1275898760468443,0.3177678985980305
-0.1275848960468443,0.3008359621314411
-0.1275799160468443,0.2905814090600276
-0.1275749360468443,0.2849374302378209
-0.1275699560468443,0.2685619423874346
-0.1275649760468443,0.2552866682563287
-0.1275599960468443,0.254650726980523
-0.1275550160468443,0.2333466942432181
-0.1275500360468443,0.2232511264907998
-0.1275450560468443,0.2203098980904529
-0.1275400760468443,0.1970980415259266
-0.1275350960468443,0.193600364509257
-0.1275301160468443,0.1927259452551123
-0.1275251360468443,0.1650624997603008
-0.1275201560468443,0.166334382311784
-0.1275151760468443,0.1619622860410707
-0.1275101960468443,0.1297677589565777
-0.1275052160468443,0.1294497883187075
-0.1275002360468443,0.1164129921659798
-0.1274952560468443,0.09876562176415037
-0.1274902760468443,0.09812968048837552
-0.1274852960468443,0.08445694305993109
-0.1274803160468443,0.06927384510154239
-0.1274753360468443,0.06625312404177527
-0.1274703560468443,0.05591907831098757
-0.1274653760468443,0.04224634088248068
-0.1274603960468443,0.0431207601366238
-0.1274554160468443,0.01943194761520925
-0.1274504360468443,0.01108521837110074
-0.1274454560468443,0.008779931246518057
-0.1274404760468443,-0.02381205913523899
-0.1274354960468443,-0.02468647838944009
-0.1274305160468443,-0.02222220594594587
-0.1274255360468443,-0.05139601197053426
-0.1274205560468443,-0.05099854867330117
-0.1274155760468443,-0.05711948345230295
-0.1274105960468443,-0.08319307575777828
-0.1274056160468443,-0.08470343628766458
-0.1274006360468443,-0.09440154074274439
-0.1273956560468443,-0.1168979633721035
-0.1273906760468443,-0.11769288996682
-0.1273856960468443,-0.1409047465313913
-0.1273807160468443,-0.1545774839598531
-0.1273757360468443,-0.1548954545977742
-0.1273707560468443,-0.1684886993667262
-0.1273657760468443,-0.1874874449795905
-0.1273607960468443,-0.1843077386008825
-0.1273558160468443,-0.2041809034678402
-0.1273508360468443,-0.2054527860193211
-0.1273458560468443,-0.2029090209163616
-0.1273408760468443,-0.2205563913182139
-0.1273358960468443,-0.2247695022699944
-0.1273309160468443,-0.2246900096105419
-0.1273259360468443,-0.2529099037215754
-0.1273209560468443,-0.2503661386186557
-0.1273159760468443,-0.2569640293544748
-0.1273109960468443,-0.2686494502962607
-0.1273060160468443,-0.2690469135935985
-0.1273010360468443,-0.2684109723178588
-0.1272960560468443,-0.2789834960270798
-0.1272910760468443,-0.2766782089025207
-0.1272860960468443,-0.2861378353791859
-0.1272811160468443,-0.2911458729256509
-0.1272761360468443,-0.2916228288824671
-0.1272711560468443,-0.2970283297262707
-0.1272661760468443,-0.3076008534355012
-0.1272611960468443,-0.3060904929056176
-0.1272562160468443,-0.3150731634254486
-0.1272512360468443,-0.3122114276846389
-0.1272462560468443,-0.310939545133158
-0.1272412760468443,-0.3182528698041951
-0.1272362960468443,-0.3201606936314199
-0.1272313160468443,-0.3161860606580409
-0.1272263360468443,-0.3215915615018348
-0.1272213560468443,-0.3157091047012455
-0.1272163760468443,-0.3179348991663237
-0.1272113960468443,-0.3169809872527131
-0.1272064160468443,-0.3157885973606919
-0.1272014360468443,-0.3118139643873069
-0.1271964560468443,-0.3098266479006035
-0.1271914760468443,-0.3057725222677509
-0.1271864960468443,-0.3053750589703937
-0.1271815160468443,-0.2995720948292621
-0.1271765360468443,-0.2990156462129787
-0.1271715560468443,-0.2960744178126664
-0.1271665760468443,-0.2929742040934317
-0.1271615960468443,-0.2895560197363031
-0.1271566160468443,-0.2892380490984323
-0.1271516360468443,-0.2856608794223788
-0.1271466560468443,-0.282401680384203
-0.1271416760468443,-0.2698418401882761
-0.1271366960468443,-0.268967420934133
-0.1271317160468443,-0.2656287292364941
-0.1271267360468443,-0.2537048303163052
-0.1271217560468443,-0.2491737487266545
-0.1271167760468443,-0.2442452038396317
-0.1271117960468443,-0.2331162315141536
-0.1271068160468443,-0.2305724664111624
-0.1271018360468443,-0.2259618921620358
-0.1270968560468443,-0.2133225593066861
-0.1270918760468443,-0.2091889410143197
-0.1270868960468443,-0.2066451759113503
-0.1270819160468443,-0.184705201898216
-0.1270769360468443,-0.1838307826440729
-0.1270719560468443,-0.1703170305345361
-0.1270669760468443,-0.1587905949117195
-0.1270619960468443,-0.1562468298086986
-0.1270570160468443,-0.1403482979151875
-0.1270520360468443,-0.12437027336218
-0.1270470560468443,-0.1223829568754257
-0.1270420760468443,-0.1050535571114986
-0.1270370960468443,-0.09686581318624757
-0.1270321160468443,-0.09320915085073336
-0.1270271360468443,-0.07142816215653726
-0.1270221560468443,-0.06586367599379825
-0.1270171760468443,-0.06483027142065845
-0.1270121960468443,-0.0385976937963651
-0.1270072160468443,-0.03541798741761517
-0.1270022360468443,-0.02643531689773715
-0.1269972560468443,0.001387113915907283
-0.1269922760468443,0.003771893700043841
-0.1269872960468443,0.01044927709533065
-0.1269823160468443,0.03413808961676053
-0.1269773360468443,0.03175330983272951
-0.1269723560468443,0.05043408480760073
-0.1269673760468443,0.0636298662793069
-0.1269623960468443,0.06625312404176023
-0.1269574160468443,0.0817541926379995
-0.1269524360468443,0.1009914162291479
-0.1269474560468443,0.1009914162292179
-0.1269424760468443,0.1269855158751559
-0.1269374960468443,0.1352527524598612
-0.1269325160468443,0.1364451423518745
-0.1269275360468443,0.1629161979545727
-0.1269225560468443,0.1687986547552895
-0.1269175760468443,0.1691166253931597
-0.1269125960468443,0.2019470937533807
-0.1269076160468443,0.2003572405640267
-0.1269026360468443,0.2040139028995447
-0.1268976560468443,0.2299285098860149
-0.1268926760468443,0.2311208997780873
-0.1268876960468443,0.2352545180704002
-0.1268827160468443,0.2603741984621552
-0.1268777360468443,0.2618050663326678
-0.1268727560468443,0.2768291789720358
-0.1268677760468443,0.2873222100218459
-0.1268627960468443,0.2865272834271689
-0.1268578160468443,0.2945560420334198
-0.1268528360468443,0.3135547876462002
-0.1268478560468443,0.3106930519054431
-0.1268428760468443,0.338594975378555
-0.1268378960468443,0.3420926523951783
-0.1268329160468443,0.3438414909034835
-0.1268279360468443,0.3555269118452142
-0.1268229560468443,0.3646685676840589
-0.1268179760468443,0.3638736410893819
-0.1268129960468443,0.3843032545726165
-0.1268080160468443,0.3812825335128439
-0.1268030360468443,0.3815210114912411
-0.1267980560468443,0.4013146836986993
-0.1267930760468443,0.398691425936306
-0.1267880960468443,0.4074356184777593
-0.1267831160468443,0.4196774880357851
-0.1267781360468443,0.4174516935707078
-0.1267731560468443,0.4164977816570953
-0.1267681760468443,0.4287396512151352
-0.1267631960468443,0.4251624815390952
-0.1267582160468443,0.4290576218529989
-0.1267532360468443,0.436291453864587
-0.1267482560468443,0.4327937768480145
-0.1267432760468443,0.4365299318429905
-0.1267382960468443,0.4350195713131041
-0.1267333160468443,0.434224644718423
-0.1267283360468443,0.4360529758861801
-0.1267233560468443,0.4399481162001049
-0.1267183760468443,0.4383582630107538
-0.1267133960468443,0.4443997051302851
-0.1267084160468443,0.4409020281137219
-0.1267034360468443,0.4382787703512926
-0.1266984560468443,0.4410610134326576
-0.1266934760468443,0.4396301455622391
-0.1266884960468443,0.436768409821394
-0.1266835160468443,0.4369273951403294
-0.1266785360468443,0.4325552988696142
-0.1266735560468443,0.4274677686636655
-0.1266685760468443,0.4243675549444215
-0.1266635960468443,0.4230956723929247
-0.1266586160468443,0.4172927082517932
-0.1266536360468443,0.4145104651703975
-0.1266486560468443,0.4094229349644647
-0.1266436760468443,0.3982939626389469
-0.1266386960468443,0.3926499838167505
-0.1266337160468443,0.3889138288217651
-0.1266287360468443,0.3812825335128384
-0.1266237560468443,0.375082106074369
-0.1266187760468443,0.3680072593817084
-0.1266137960468443,0.3599785007754706
-0.1266088160468443,0.356401331099403
-0.1266038360468443,0.3506778596177286
-0.1265988560468443,0.3343818644268091
-0.1265938760468443,0.3339049084700039
-0.1265888960468443,0.3234118774202857
-0.1265839160468443,0.3064004482941287
-0.1265789360468443,0.3021873373423483
-0.1265739560468443,0.2879581512975887
-0.1265689760468443,0.2769086716315784
-0.1265639960468443,0.2753188184422014
-0.1265590160468443,0.2585458672945167
-0.1265540360468443,0.2490067481583376
-0.1265490560468443,0.2450321151849598
-0.1265440760468443,0.2218202586204263
-0.1265390960468443,0.2124401248031362
-0.1265341160468443,0.2125196174626038
-0.1265291360468443,0.1843792160109871
-0.1265241560468443,0.1854921132435348
-0.1265191760468443,0.1844587086704063
-0.1265141960468443,0.1577491750893076
-0.1265092160468443,0.157590189770324
-0.1265042360468443,0.145984261488018
-0.1264992560468443,0.104489093245954
-0.1264942760468443,0.1081457555813239
-0.1264892960468443,0.1117229252573705
-0.1264843160468443,0.09018041454159105
-0.1264793360468443,0.08811360539543084
-0.1264743560468443,0.0650607341497404
-0.1264693760468443,0.05862182873286841
-0.1264643960468443,0.05599857097042735
-0.1264594160468443,0.042087355563545
-0.1264544360468443,0.02587085303216367
-0.1264494560468443,0.02817614015667217
-0.1264444760468443,0.004089864337959031
-0.1264394960468443,-0.009105917133747003
-0.1264345160468443,-0.02786618476812423
-0.1264295360468443,-0.05783491738750718
-0.1264245560468443,-0.04209537081293119
-0.1264195760468443,-0.04599051112681278
-0.1264145960468443,-0.07858250150864329
-0.1264096160468443,-0.07794656023290285
-0.1264046360468443,-0.08295459777937475
-0.1263996560468443,-0.09758124712143157
-0.1263946760468443,-0.09591190127263344
-0.1263896960468443,-0.1068818882791761
-0.1263847160468443,-0.1270730237839551
-0.1263797360468443,-0.1182493385831138
-0.1263747560468443,-0.1397918492988053
-0.1263697760468443,-0.1714299277670859
-0.1263647960468443,-0.1673758021342406
-0.1263598160468443,-0.1605394334199912
-0.1263548360468443,-0.1736557222321617
-0.1263498560468443,-0.1747686194647803
-0.1263448760468443,-0.1994908365591901
-0.1263398960468443,-0.19575468156426
-0.1263349160468443,-0.1966291008183927
-0.1263299360468443,-0.2183305968530354
-0.1263249560468443,-0.2180126262152429
-0.1263199760468443,-0.2116532134578269
-0.1263149960468443,-0.2386012250174147
-0.1263100160468443,-0.2348650700224328
-0.1263050360468443,-0.2445631744775208
-0.1263000560468443,-0.2543407715920302
-0.1262950760468443,-0.2548177275488533
-0.1262900960468443,-0.2583154045654402
-0.1262851160468443,-0.268887928274625
-0.1262801360468443,-0.2669801044474353
-0.1262751560468443,-0.278188569432381
