-20250405-BKP/synth-diodes-1f-1r-in-T10-L10-D10/100Hz5V/scope.csv

#Digilent WaveForms Oscilloscope Acquisition
#Device Name: Discovery3
#Serial Number: SN:210415BD5874
#Date Time: 2025-04-03 16:25:54.096.257.450
#Sample rate: 344828Hz
#Samples: 32768
#Trigger: Source: Channel 1 Type: Edge Condition: Rising Level: 0 V Hyst.: Auto HoldOff: 0 s
#Channel 1: Range: 200 mV/div Offset: 0 V Sample Mode: Average
#Wavegen Channel 1: Running
#Mode: Simple
#Type: Sine
#Frequency: 100 Hz
#Period: 10 ms
#Amplitude: 5 V
#Offset: 0 V
#Symmetry: 50 %
#Phase: 0 °

Time (s),Channel 1 (V)
-0.03483913561574501,0.02602983835104036
-0.03483623561574501,0.02443998516168347
-0.03483333561574501,0.02054484484775907
-0.03483043561574501,0.02110129346403399
-0.03482753561574501,0.02221419069658382
-0.03482463561574501,0.02189622005871244
-0.03482173561574501,0.02292962463179442
-0.03481883561574501,0.0232475952696658
-0.03481593561574501,0.0216577420803089
-0.03481303561574501,0.02181672739924459
-0.03481013561574501,0.02221419069658382
-0.03480723561574501,0.02014738155041985
-0.03480433561574501,0.02046535218829123
-0.03480143561574501,0.02070383016669477
-0.03479853561574501,0.01943194761520925
-0.03479563561574501,0.01982941091254847
-0.03479273561574501,0.02006788889095201
-0.03478983561574501,0.01895499165840218
-0.03478693561574501,0.02054484484775907
-0.03478403561574501,0.02197571271818028
-0.03478113561574501,0.02054484484775907
-0.03477823561574501,0.01990890357201632
-0.03477533561574501,0.02110129346403283
-0.03477243561574501,0.02046535218829311
-0.03476953561574501,0.02149875676137234
-0.03476663561574501,0.02102180080456542
-0.03476373561574501,0.02062433750722793
-0.03476083561574501,0.0211807861235014
-0.03475793561574501,0.02094230814509873
-0.03475503561574501,0.020226874209889
-0.03475213561574501,0.0210218008045647
-0.03474923561574501,0.02006788889095374
-0.03474633561574501,0.02014738155041971
-0.03474343561574501,0.02094230814509685
-0.03474053561574501,0.0197499182530828
-0.03473763561574501,0.01967042559361279
-0.03473473561574501,0.02078332282616261
-0.03473183561574501,0.01927296229627356
-0.03472893561574501,0.01967042559361279
-0.03472603561574501,0.02030636686935554
-0.03472313561574501,0.01959093293414494
-0.03472023561574501,0.01974991825308063
-0.03471733561574501,0.02126027878296968
-0.03471443561574501,0.024678463140087
-0.03471153561574501,0.02595034569157252
-0.03470863561574501,0.02690425760518665
-0.03470573561574501,0.02380404388594071
-0.03470283561574501,0.02078332282616261
-0.03469993561574501,0.0209423081450983
-0.03469703561574501,0.02245266867498735
-0.03469413561574501,0.02261165399392304
-0.03469123561574501,0.02213469803711597
-0.03468833561574501,0.02300911729126226
-0.03468543561574501,0.02213469803711597
-0.03468253561574501,0.02118078612350183
-0.03467963561574501,0.02149875676137321
-0.03467673561574501,0.02086281548563046
-0.03467383561574501,0.02006788889095201
-0.03467093561574501,0.02070383016669477
-0.03466803561574501,0.02030636686935554
-0.03466513561574501,0.01919346963680572
-0.03466223561574501,0.02030636686935554
-0.03465933561574501,0.02197571271818028
-0.03465643561574501,0.02086281548563046
-0.03465353561574501,0.02014738155041985
-0.03465063561574501,0.02054484484775907
-0.03464773561574501,0.01982941091254847
-0.03464483561574501,0.02118078612350183
-0.03464193561574501,0.02118078612350183
-0.03463903561574501,0.01998839623148416
-0.03463613561574501,0.02086281548563046
-0.03463323561574501,0.02086281548563046
-0.03463033561574501,0.01990890357201632
-0.03462743561574501,0.02046535218829123
-0.03462453561574501,0.02054484484775907
-0.03462163561574501,0.01974991825308063
-0.03461873561574501,0.02030636686935554
-0.03461583561574501,0.0204653521882895
-0.03461293561574501,0.01951144027467796
-0.03461003561574501,0.01998839623148474
-0.03460713561574501,0.02030636686935439
-0.03460423561574501,0.01967042559361394
-0.03460133561574501,0.02030636686935655
-0.03459843561574501,0.0208628154856293
-0.03459553561574501,0.02022687420988885
-0.03459263561574501,0.0208628154856293
-0.03458973561574501,0.02086281548563046
-0.03458683561574501,0.02094230814509815
-0.03458393561574501,0.02515541909688641
-0.03458103561574501,0.02658628696731267
-0.03457813561574501,0.02499643377795838
-0.03457523561574501,0.02285013197232657
-0.03457233561574501,0.02126027878296968
-0.03456943561574501,0.02070383016669477
-0.03456653561574501,0.02133977144243752
-0.03456363561574501,0.0223731760155195
-0.03456073561574501,0.02213469803711597
-0.03455783561574501,0.02189622005871244
-0.03455493561574501,0.02253216133445519
-0.03455203561574501,0.02110129346403399
-0.03454913561574501,0.02086281548563046
-0.03454623561574501,0.02078332282616261
-0.03454333561574501,0.01967042559361279
-0.03454043561574501,0.02070383016669477
-0.03453753561574501,0.02141926410190537
-0.03453463561574501,0.02149875676137321
-0.03453173561574501,0.02141926410190537
-0.03452883561574501,0.02046535218829123
-0.03452593561574501,0.01998839623148416
-0.03452303561574501,0.01967042559361279
-0.03452013561574501,0.02102180080456614
-0.03451723561574501,0.02046535218829123
-0.03451433561574501,0.01990890357201632
-0.03451143561574501,0.02046535218829123
-0.03450853561574501,0.02046535218829123
-0.03450563561574501,0.0186370210205308
-0.03450273561574501,0.01545731464181701
-0.03449983561574501,0.01521883666341348
-0.03449693561574501,0.01529832932288133
-0.03449403561574501,0.01672919719330253
-0.03449113561574501,0.01871651367999865
-0.03448823561574501,0.01943194761520925
-0.03448533561574501,0.02046535218829123
-0.03448243561574501,0.02253216133445519
-0.03447953561574501,0.02300911729126226
-0.03447663561574501,0.02300911729126226
-0.03447373561574501,0.02380404388594071
-0.03447083561574501,0.02316810261019795
-0.03446793561574501,0.0223731760155195
-0.03446503561574501,0.02300911729126226
-0.03446213561574501,0.02253216133445519
-0.03445923561574501,0.02141926410190537
-0.03445633561574501,0.02340658058860149
-0.03445343561574501,0.02674527228625068
-0.03445053561574501,0.02658628696731585
-0.03444763561574501,0.02690425760518202
-0.03444473561574501,0.02436049250221099
-0.03444183561574501,0.02181672739924618
-0.03443893561574501,0.0226911466533932
-0.03443603561574501,0.02396302920487408
-0.03443313561574501,0.0239630292048764
-0.03443023561574501,0.0245194778211503
-0.03442733561574501,0.02507592643742521
-0.03442443561574501,0.02475795579955543
-0.03442153561574501,0.02451947782115175
-0.03441863561574501,0.02515541909689292
-0.03441573561574501,0.02443998516168347
-0.03441283561574501,0.02420150718327993
-0.03440993561574501,0.02634780898891174
-0.03440703561574501,0.02595034569157252
-0.03440413561574501,0.02388353654540856
-0.03440123561574501,0.02443998516168347
-0.03439833561574501,0.02420150718327993
-0.03439543561574501,0.02420150718327993
-0.03439253561574501,0.02507592643742623
-0.03438963561574501,0.02738121356199372
-0.03438673561574501,0.0291300520702863
-0.03438383561574501,0.02976599334602906
-0.03438093561574501,0.02809664749720433
-0.03437803561574501,0.02587085303210467
-0.03437513561574501,0.02491694111849053
-0.03437223561574501,0.02602983835104036
-0.03436933561574501,0.0269837502646545
-0.03436643561574501,0.02634780898891174
-0.03436353561574501,0.02658628696731527
-0.03436063561574501,0.0269837502646545
-0.03435773561574501,0.02650679430784743
-0.03435483561574501,0.02555288239423329
-0.03435193561574501,0.02579136037263683
-0.03434903561574501,0.0253938970752976
-0.03434613561574501,0.02483744845902269
-0.03434323561574501,0.02666577962678312
-0.03434033561574501,0.02531440441582976
-0.03433743561574501,0.02451947782115131
-0.03433453561574501,0.02451947782115131
-0.03433163561574501,0.02491694111849053
-0.03432873561574501,0.02475795579955485
-0.03432583561574501,0.02563237505370114
-0.03432293561574501,0.02905055941081846
-0.03432003561574501,0.02960700802709337
-0.03431713561574501,0.02849411079454355
-0.03431423561574501,0.02642730164837959
-0.03431133561574501,0.0262683163294439
-0.03430843561574501,0.02595034569157252
-0.03430553561574501,0.02690425760518665
-0.03430263561574501,0.02785816951880079
-0.03429973561574501,0.02722222824305803
-0.03429683561574501,0.02706324292412234
-0.03429393561574501,0.02722222824305586
-0.03429103561574501,0.02602983835103993
-0.03428813561574501,0.02579136037264059
-0.03428523561574501,0.02785816951879862
-0.03428233561574501,0.02666577962678124
-0.03427943561574501,0.02563237505370041
-0.03427653561574501,0.0252349117563609
-0.03427363561574501,0.02467846314008802
-0.03427073561574501,0.0253938970752963
-0.03426783561574501,0.0253938970752976
-0.03426493561574501,0.0246784631400883
-0.03426203561574501,0.0247579557995547
-0.03425913561574501,0.02833512547560135
-0.03425623561574501,0.02944802270815768
-0.03425333561574501,0.02960700802709337
-0.03425043561574501,0.02833512547560786
-0.03424753561574501,0.02587085303210467
-0.03424463561574501,0.02555288239423329
-0.03424173561574501,0.02730172090252588
-0.03423883561574501,0.02761969154039726
-0.03423593561574501,0.02682476494571881
-0.03423303561574501,0.02690425760518665
-0.03423013561574501,0.02690425760518665
-0.03422723561574501,0.02595034569157252
-0.03422433561574501,0.02595034569157252
-0.03422143561574501,0.02595034569157252
-0.03421853561574501,0.02491694111849053
-0.03421563561574501,0.02499643377795838
-0.03421273561574501,0.0253938970752976
-0.03420983561574501,0.02443998516168347
-0.03420693561574501,0.024678463140087
-0.03420403561574501,0.02451947782115131
-0.03420113561574501,0.02372455122647286
-0.03419823561574501,0.02420150718327993
-0.03419533561574501,0.02674527228625096
-0.03419243561574501,0.02873258877294708
-0.03418953561574501,0.02968650068656122
-0.03418663561574501,0.0291300520702863
-0.03418373561574501,0.02690425760518665
-0.03418083561574501,0.02507592643742623
-0.03417793561574501,0.02634780898891174
-0.03417503561574501,0.02706324292412234
-0.03417213561574501,0.02642730164837959
-0.03416923561574501,0.02674527228625096
-0.03416633561574501,0.02714273558359019
-0.03416343561574501,0.0261093310105082
-0.03416053561574501,0.02690425760518665
-0.03415763561574501,0.02761969154039726
-0.03415473561574501,0.02602983835104036
-0.03415183561574501,0.02475795579955485
-0.03414893561574501,0.02587085303210467
-0.03414603561574501,0.02483744845902269
-0.03414313561574501,0.02475795579955485
-0.03414023561574501,0.02523491175636191
-0.03413733561574501,0.024678463140087
-0.03413443561574501,0.02420150718327993
-0.03413153561574501,0.02555288239423879
-0.03412863561574501,0.02857360345401385
-0.03412573561574501,0.0299249786649649
-0.03412283561574501,0.0300044713244284
-0.03411993561574501,0.02769918419986134
-0.03411703561574501,0.02563237505370012
-0.03411413561574501,0.02507592643742724
-0.03411123561574501,0.02634780898890943
-0.03410833561574501,0.02658628696731484
-0.03410543561574501,0.02634780898891217
-0.03410253561574501,0.02642730164837944
-0.03409963561574501,0.02587085303210569
-0.03409673561574501,0.02491694111849227
-0.03409383561574501,0.02475795579955485
-0.03409093561574501,0.02412201452381209
-0.03408803561574501,0.02300911729126226
-0.03408513561574501,0.02316810261019795
-0.03408223561574501,0.02229368335605166
-0.03407933561574501,0.02014738155041985
-0.03407643561574501,0.01911397697733787
-0.03407353561574501,0.01808057240425589
-0.03407063561574501,0.01704716783117391
-0.03406773561574501,0.01760361644744882
-0.03406483561574501,0.02014738155041985
-0.03406193561574501,0.02173723473977675
-0.03405903561574501,0.02189622005871244
-0.03405613561574501,0.02118078612350183
-0.03405323561574501,0.02006788889095201
-0.03405033561574501,0.01974991825308063
-0.03404743561574501,0.02126027878296968
-0.03404453561574501,0.02102180080456614
-0.03404163561574501,0.02133977144243752
-0.03403873561574501,0.02300911729126226
-0.03403583561574501,0.02579136037263683
-0.03403293561574501,0.02555288239423329
-0.03403003561574501,0.02181672739924459
-0.03402713561574501,0.02197571271818028
-0.03402423561574501,0.02245266867498735
-0.03402133561574501,0.0232475952696658
-0.03401843561574501,0.02348607324806933
-0.03401553561574501,0.01998839623148416
-0.03401263561574501,0.01903448431787003
-0.03400973561574501,0.02014738155041985
-0.03400683561574501,0.02030636686935554
-0.03400393561574501,0.01911397697733787
-0.03400103561574501,0.01617274857702762
-0.03399813561574501,0.0149008660255421
-0.03399523561574501,0.01370847613352443
-0.03399233561574501,0.01315202751724952
-0.03398943561574501,0.008938916565453748
-0.03398653561574501,-0.00870845383640778
-0.03398363561574501,-0.0286611113628368
-0.03398073561574501,-0.03589494337441067
-0.03397783561574501,-0.03510001677973222
-0.03397493561574501,-0.03072792050900077
-0.03397203561574501,-0.03843870847740846
-0.03396913561574501,-0.05314485047894411
-0.03396623561574501,-0.05926578525795962
-0.03396333561574501,-0.06069665312837939
-0.03396043561574501,-0.06133259440409813
-0.03395753561574501,-0.04877275420817852
-0.03395463561574501,-0.03613342135280336
-0.03395173561574501,-0.0301714718927367
-0.03394883561574501,-0.02524292700572845
-0.03394593561574501,-0.02150677201073757
-0.03394303561574501,-0.002905489695288949
-0.03394013561574501,0.0079850046518198
-0.03393723561574501,0.01490086602552952
-0.03393433561574501,0.02038585952881341
-0.03393143561574501,0.02380404388594071
-0.03392853561574501,0.02245266867498735
-0.03392563561574501,0.02054484484775907
-0.03392273561574501,0.01776260176638451
-0.03391983561574501,0.01657021187436684
-0.03391693561574501,0.01609325591755977
-0.03391403561574501,-0.003541430970997873
-0.03391113561574501,-0.02468647838944457
-0.03390823561574501,-0.03510001677973222
-0.03390533561574501,-0.04455964325640575
-0.03390243561574501,-0.05044210005702626
-0.03389953561574501,-0.04471862857534144
-0.03389663561574501,-0.04082348826141705
-0.03389373561574501,-0.0400285616667386
-0.03389083561574501,-0.03859769379631739
-0.03388793561574501,-0.03835921581791386
-0.03388503561574501,-0.02015539679977742
-0.03388213561574501,-0.005608240117161836
-0.03387923561574501,0.001307621256540655
-0.03387633561574501,0.005123268910997201
-0.03387343561574501,0.007349063376096853
-0.03387053561574501,0.003056459764833238
-0.03386763561574501,-0.002190055760044513
-0.03386473561574501,-0.004256864906208475
-0.03386183561574501,-0.007516063944390109
-0.03385893561574501,-0.01395496936128553
-0.03385603561574501,-0.04988565144075134
-0.03385313561574501,-0.07635670704354364
-0.03385023561574501,-0.08335206107671397
-0.03384733561574501,-0.08295459777937475
-0.03384443561574501,-0.08152372990895354
-0.03384153561574501,-0.07444888321631536
-0.03383863561574501,-0.0716666401349408
-0.03383573561574501,-0.07222308875121571
-0.03383283561574501,-0.0723820740701514
-0.03382993561574501,-0.06578418333432029
-0.03382703561574501,-0.03573595805547498
-0.03382413561574501,-0.02579937562199439
-0.03382123561574501,-0.02317611785955552
-0.03381833561574501,-0.02373256647583043
-0.03381543561574501,-0.02627633157880146
-0.03381253561574501,-0.03335117827143964
-0.03380963561574501,-0.03557697273653699
-0.03380673561574501,-0.03430509018504495
-0.03380383561574501,-0.02945603795752031
-0.03380093561574501,-0.03223828103893507
-0.03379803561574501,-0.0571194834523404
-0.03379513561574501,-0.06546621269646236
-0.03379223561574501,-0.07285903002694502
-0.03378933561574501,-0.07778757491395588
-0.03378643561574501,-0.07055374290240413
-0.03378353561574501,-0.05767593206862355
-0.03378063561574501,-0.05234992388426421
-0.03377773561574501,-0.04917021750554652
-0.03377483561574501,-0.04869326154873454
-0.03377193561574501,-0.04877275420820151
-0.03376903561574501,-0.03414610486611809
-0.03376613561574501,-0.03088690582793645
-0.03376323561574501,-0.03128436912527568
-0.03376033561574501,-0.02969451593591878
-0.03375743561574501,-0.02715075083294775
-0.03375453561574501,-0.02635582423826931
-0.03375163561574501,-0.02452749307050888
-0.03374873561574501,-0.02381205913529828
-0.03374583561574501,-0.02460698572997672
-0.03374293561574501,-0.02993299391432232
-0.03374003561574501,-0.03613342135281421
-0.03373713561574501,-0.03645139199068559
-0.03373423561574501,-0.03454356816345731
-0.03373133561574501,-0.03430509018505377
-0.03372843561574501,-0.03637189933121775
-0.03372553561574501,-0.04312877538598454
-0.03372263561574501,-0.0430492827265167
-0.03371973561574501,-0.04320826804545239
-0.03371683561574501,-0.04241334145077394
-0.03371393561574501,-0.0348615388013287
-0.03371103561574501,-0.03319219295250395
-0.03370813561574501,-0.03199980306048628
-0.03370523561574501,-0.03215878837942197
-0.03370233561574501,-0.03295371497410042
-0.03369943561574501,-0.03374864156877887
-0.03369653561574501,-0.02579937562199439
-0.03369363561574501,-0.02500444902731595
-0.03369073561574501,-0.02413002977316965
-0.03368783561574501,-0.02341459583795905
-0.03368493561574501,-0.02238119126487707
-0.03368203561574501,-0.0279456774276262
-0.03367913561574501,-0.02754821413028698
-0.03367623561574501,-0.02611734625986577
-0.03367333561574501,-0.02246068392434492
-0.03367043561574501,-0.02031438211871311
-0.03366753561574501,-0.02238119126487707
-0.03366463561574501,-0.03017147189272585
-0.03366173561574501,-0.03740530390429972
-0.03365883561574501,-0.04050551762354566
-0.03365593561574501,-0.03422559752558593
-0.03365303561574501,-0.02683278019507638
-0.03365013561574501,-0.02055286009712055
-0.03364723561574501,-0.02269916190275395
-0.03364433561574501,-0.02571988296254158
-0.03364143561574501,-0.03398711954718167
-0.03363853561574501,-0.03358965624984216
-0.03363563561574501,-0.03303320763356551
-0.03363273561574501,-0.03152284710367921
-0.03362983561574501,-0.03152284710367921
-0.03362693561574501,-0.03184081774155002
-0.03362403561574501,-0.03033045721166429
-0.03362113561574501,-0.02905857466017834
-0.03361823561574501,-0.02969451593591763
-0.03361533561574501,-0.02794567742762938
-0.03361243561574501,-0.02015539679979159
-0.03360953561574501,-0.02023488945924526
-0.03360663561574501,-0.01864503626988837
-0.03360373561574501,-0.01872452892935621
-0.03360083561574501,-0.01936047020509897
-0.03359793561574501,-0.02699176551401206
-0.03359503561574501,-0.02746872147081913
-0.03359213561574501,-0.02802517008709405
-0.03358923561574501,-0.02730973615188344
-0.03358633561574501,-0.02818415540602974
-0.03358343561574501,-0.03732581124483188
-0.03358053561574501,-0.03812073783951032
-0.03357763561574501,-0.03804124518004248
-0.03357473561574501,-0.03867718645578523
-0.03357183561574501,-0.0377232745421711
-0.03356893561574501,-0.03374864156877887
-0.03356603561574501,-0.03462306082292516
-0.03356313561574501,-0.03358965624984317
-0.03356023561574501,-0.03287422231463258
-0.03355733561574501,-0.03390762688771455
-0.03355443561574501,-0.02102981605392371
-0.03355153561574501,-0.01761163169680639
-0.03354863561574501,-0.01840655829148484
-0.03354573561574501,-0.01586279318851381
-0.03354283561574501,-0.01204714553405726
-0.03353993561574501,-0.01506786659383536
-0.03353703561574501,-0.01824757297254915
-0.03353413561574501,-0.02659430221667284
-0.03353123561574501,-0.03637189933121775
-0.03352833561574501,-0.03827972315844601
-0.03352543561574501,-0.03899515709365661
-0.03352253561574501,-0.03963109836939938
-0.03351963561574501,-0.03716682592589619
-0.03351673561574501,-0.03629240667174989
-0.03351383561574501,-0.03939262039099584
-0.03351093561574501,-0.04130044421822411
-0.03350803561574501,-0.03510001677973222
-0.03350513561574501,-0.03454356816345731
-0.03350223561574501,-0.0348615388013287
-0.03349933561574501,-0.03231777369835766
-0.03349643561574501,-0.02007590414030958
-0.03349353561574501,-0.01983742616190604
-0.03349063561574501,-0.01832706563201699
-0.03348773561574501,-0.01888351424829422
-0.03348483561574501,-0.0201553967997874
-0.03348193561574501,-0.02564039030306073
-0.03347903561574501,-0.02675328753560998
-0.03347613561574501,-0.02754821413028596
-0.03347323561574501,-0.02699176551401496
