synth-diodes-in-T10-L10-D10/1kHz200mV/scope.csv

#Digilent WaveForms Oscilloscope Acquisition
#Device Name: Discovery3
#Serial Number: SN:210415BD5874
#Date Time: 2025-04-03 15:36:41.433.124.680
#Sample rate: 3.33333e+06Hz
#Samples: 32768
#Trigger: Source: Channel 1 Type: Edge Condition: Rising Level: 0 V Hyst.: Auto HoldOff: 0 s
#Channel 1: Range: 200 mV/div Offset: 0 V Sample Mode: Average
#Wavegen Channel 1: Running
#Mode: Simple
#Type: Sine
#Frequency: 1 kHz
#Period: 1 ms
#Amplitude: 200 mV
#Offset: 0 V
#Symmetry: 50 %
#Phase: 0 °

Time (s),Channel 1 (V)
0.002654648642364237,-0.1374865621743162
0.002654948642364237,-0.1378840254716554
0.002655248642364237,-0.1376455474932519
0.002655548642364237,-0.1365326502607021
0.002655848642364237,-0.1368506208985734
0.002656148642364237,-0.1359762016444272
0.002656448642364237,-0.1350222897308148
0.002656748642364237,-0.1353402603686838
0.002657048642364237,-0.1342273631361366
0.002657348642364237,-0.1339093924982638
0.002657648642364238,-0.1332734512225178
0.002657948642364238,-0.1318425833520969
0.002658248642364238,-0.1305707008006153
0.002658548642364237,-0.13144512005476
0.002658848642364237,-0.1304912081411459
0.002659148642364237,-0.1307296861195494
0.002659448642364237,-0.1309681640979529
0.002659748642364237,-0.1304912081411459
0.002660048642364237,-0.1305707008006137
0.002660348642364237,-0.1300937448438066
0.002660648642364237,-0.1292988182491282
0.002660948642364237,-0.1290603402707247
0.002661248642364237,-0.1277884577192392
0.002661548642364237,-0.1272320091029642
0.002661848642364237,-0.1272320091029642
0.002662148642364237,-0.127549979740835
0.002662448642364237,-0.1309681640979467
0.002662748642364237,-0.138360981428449
0.002663048642364238,-0.1442434382290924
0.002663348642364238,-0.1494104610944997
0.002663648642364238,-0.1531466160894838
0.002663948642364238,-0.1543390059815018
0.002664248642364237,-0.1556903811924527
0.002664548642364237,-0.1574392197007452
0.002664848642364237,-0.1572802343818095
0.002665148642364237,-0.1581546536359558
0.002665448642364237,-0.15910856554957
0.002665748642364237,-0.1584726242738272
0.002666048642364237,-0.15910856554957
0.002666348642364237,-0.1590290728901021
0.002666648642364237,-0.1583931316143594
0.002666948642364237,-0.1581546536359558
0.002667248642364237,-0.1581546536359558
0.002667548642364237,-0.1572802343818111
0.002667848642364237,-0.157677697679148
0.002668148642364237,-0.1568827710844718
0.002668448642364237,-0.1570417564034057
0.002668748642364238,-0.1572802343818068
0.002669048642364238,-0.1557698738519209
0.002669348642364238,-0.1560083518303233
0.002669648642364237,-0.1556108885329848
0.002669948642364237,-0.1542595133220314
0.002670248642364237,-0.1536235720462887
0.002670548642364237,-0.1533850940678851
0.002670848642364237,-0.152431182154271
0.002671148642364237,-0.1520337188569318
0.002671448642364237,-0.1511592996027855
0.002671748642364237,-0.1498874170513
0.002672048642364237,-0.1500464023702357
0.002672348642364237,-0.1497284317323643
0.002672648642364237,-0.1487745198187502
0.002672948642364237,-0.1491719831160894
0.002673248642364237,-0.1488540124782186
0.002673548642364237,-0.1483770565214118
0.002673848642364237,-0.1490129977971525
0.002674148642364238,-0.1477411152456675
0.002674448642364238,-0.1473436519483297
0.002674748642364238,-0.1477411152456673
0.002675048642364238,-0.1472641592888599
0.002675348642364237,-0.1466282180131183
0.002675648642364237,-0.147343651948329
0.002675948642364237,-0.146310247375247
0.002676248642364237,-0.1469461886509897
0.002676548642364237,-0.1492514757755572
0.002676848642364237,-0.1562468298087276
0.002677148642364237,-0.1634011691608336
0.002677448642364237,-0.1676142801126294
0.002677748642364237,-0.1692041333019862
0.002678048642364237,-0.1720658690428287
0.002678348642364237,-0.1727813029780393
0.002678648642364237,-0.1730197809564424
0.002678948642364237,-0.1740531855295229
0.002679248642364237,-0.1733377515943155
0.002679548642364237,-0.1732582589348465
0.002679848642364238,-0.1726223176591027
0.002680148642364238,-0.1721453617022951
0.002680448642364238,-0.1713504351076175
0.002680748642364237,-0.1710324644697467
0.002681048642364237,-0.1699990598966647
0.002681348642364237,-0.1703170305345361
0.002681648642364237,-0.1692041333019862
0.002681948642364237,-0.1691246406425184
0.002682248642364237,-0.1690451479830506
0.002682548642364237,-0.1684092067073078
0.002682848642364237,-0.1676937727720972
0.002683148642364237,-0.16832971404784
0.002683448642364237,-0.1668193535179509
0.002683748642364237,-0.1668988461774188
0.002684048642364237,-0.167773265431565
0.002684348642364237,-0.1663423975611464
0.002684648642364237,-0.1666603681990146
0.002684948642364237,-0.1666603681990152
0.002685248642364238,-0.1661834122422084
0.002685548642364238,-0.166342397561143
0.002685848642364238,-0.1658654416043346
0.002686148642364238,-0.1646730517123191
0.002686448642364237,-0.1655474709664654
0.002686748642364237,-0.1648320370312548
0.002687048642364237,-0.1632421838418979
0.002687348642364237,-0.163719139798705
0.002687648642364237,-0.1623677645877516
0.002687948642364237,-0.1613343600146696
0.002688248642364237,-0.1614138526741375
0.002688548642364237,-0.1598239994847806
0.002688848642364237,-0.1590290728901021
0.002689148642364237,-0.1596650141658449
0.002689448642364237,-0.1582341462954237
0.002689748642364237,-0.1576776976791498
0.002690048642364237,-0.1585521169332935
0.002690348642364237,-0.155928859170861
0.002690648642364237,-0.1559288591708562
0.002690948642364238,-0.1555313958735139
0.002691248642364238,-0.1538620500247007
0.002691548642364238,-0.1585521169333098
0.002691848642364237,-0.1666603681990152
0.002692148642364237,-0.170873479150811
0.002692448642364237,-0.1756430387188817
0.002692748642364237,-0.1787432524381276
0.002693048642364237,-0.1789817304165311
0.002693348642364237,-0.1808100615842916
0.002693648642364237,-0.18160498817897
0.002693948642364237,-0.1814460028600343
0.002694248642364237,-0.1835128120061983
0.002694548642364237,-0.1822409294547128
0.002694848642364237,-0.1819229588168414
0.002695148642364237,-0.1839102753035375
0.002695448642364237,-0.1823204221141835
0.002695748642364237,-0.1813665102005682
0.002696048642364237,-0.182558900092582
0.002696348642364238,-0.1808895542437581
0.002696648642364238,-0.1801741203085494
0.002696948642364238,-0.1804920909464165
0.002697248642364238,-0.1784252818002562
0.002697548642364237,-0.1789817304165311
0.002697848642364237,-0.1784252818002562
0.002698148642364237,-0.176517457973028
0.002698448642364237,-0.1765969506324958
0.002698748642364237,-0.1761994873351566
0.002699048642364237,-0.174450648826864
0.002699348642364237,-0.1750865901026068
0.002699648642364237,-0.1745301414863318
0.002699948642364237,-0.1731787662753785
0.002700248642364237,-0.1742121708484605
0.002700548642364237,-0.1733377515943142
0.002700848642364237,-0.1726223176591049
0.002701148642364237,-0.1730992736159098
0.002701448642364237,-0.1715889130860243
0.002701748642364237,-0.1708734791508123
0.002702048642364238,-0.1721453617022947
0.002702348642364238,-0.1711914497886815
0.002702648642364238,-0.1707144938318771
0.002702948642364237,-0.1716684057454894
0.002703248642364237,-0.1703965231940039
0.002703548642364237,-0.1704760158534718
0.002703848642364237,-0.1703170305345361
0.002704148642364237,-0.1689656553235827
0.002704448642364237,-0.1695221039398576
0.002704748642364237,-0.1688861626641149
0.002705048642364237,-0.1682502213883721
0.002705348642364237,-0.1707144938318753
0.002705648642364237,-0.1768354286108993
0.002705948642364237,-0.1830358560493912
0.002706248642364237,-0.1870899816822513
0.002706548642364237,-0.1890772981689438
0.002706848642364237,-0.1896337467852214
0.002707148642364237,-0.191303092634044
0.002707448642364238,-0.1913030926340472
0.002707748642364238,-0.1913825852935162
0.002708048642364238,-0.1920980192287249
0.002708348642364238,-0.1917800485908542
0.002708648642364237,-0.191859541250322
0.002708948642364237,-0.1917800485908542
0.002709248642364237,-0.1913030926340471
0.002709548642364237,-0.1914620779529828
0.002709848642364237,-0.1913030926340471
0.002710148642364237,-0.1909056293367078
0.002710448642364237,-0.1912235999745792
0.002710748642364237,-0.1901901954014973
0.002711048642364237,-0.1897132394446902
0.002711348642364237,-0.189792732104158
0.002711648642364237,-0.1889978055094796
0.002711948642364237,-0.1889978055094796
0.002712248642364237,-0.1886003422121411
0.002712548642364237,-0.1874874449795925
0.002712848642364237,-0.1878054156174613
0.002713148642364238,-0.1877259229579933
0.002713448642364238,-0.1873284596606538
0.002713748642364238,-0.1867720110443789
0.002714048642364237,-0.186215562428105
0.002714348642364237,-0.1857386064712979
0.002714648642364237,-0.1853411431739587
0.002714948642364237,-0.1846257092387481
0.002715248642364237,-0.1832743340277948
0.002715548642364237,-0.182638392752052
0.002715848642364237,-0.1814460028600343
0.002716148642364237,-0.1812075248816308
0.002716448642364237,-0.1809690469032273
0.002716748642364237,-0.180094627649081
0.002717048642364237,-0.1804920909464202
0.002717348642364237,-0.1798561496706775
0.002717648642364237,-0.1786637597786619
0.002717948642364237,-0.1784252818002567
0.002718248642364237,-0.1781868038218531
0.002718548642364238,-0.1777098478650461
0.002718848642364238,-0.1779483258434492
0.002719148642364238,-0.1779483258434476
0.002719448642364238,-0.1770739065893029
0.002719748642364237,-0.1795381790328061
0.002720048642364237,-0.1831948413683269
0.002720348642364237,-0.1893952688068188
0.002720648642364237,-0.1949597549695679
0.002720948642364237,-0.1972650420941354
0.002721248642364237,-0.1993318512402994
0.002721548642364237,-0.2016371383648669
0.002721848642364237,-0.2015576457053991
0.002722148642364237,-0.2028295282568846
0.002722448642364237,-0.2035449621920952
0.002722748642364237,-0.202591050278481
0.002723048642364237,-0.2038629328299642
0.002723348642364237,-0.2031474988947573
0.002723648642364237,-0.2015576457054019
0.002723948642364237,-0.2017166310243345
0.002724248642364238,-0.2015576457053953
0.002724548642364238,-0.1994908365592359
0.002724848642364238,-0.19996779251604
0.002725148642364237,-0.1987754026240245
0.002725448642364237,-0.1973445347536033
0.002725748642364237,-0.1979009833698782
0.002726048642364237,-0.1972650420941354
0.002726348642364237,-0.1963111301805213
0.002726648642364237,-0.1976625053914746
0.002726948642364237,-0.1959931595426499
0.002727248642364237,-0.1956751889047785
0.002727548642364237,-0.196470115499457
0.002727848642364237,-0.195436710926375
0.002728148642364237,-0.1950392476290358
0.002728448642364237,-0.1956751889047785
0.002728748642364237,-0.1936083797586183
0.002729048642364237,-0.19376736507755
0.002729348642364237,-0.1940853357154211
0.002729648642364238,-0.1927339605044689
0.002729948642364238,-0.1930519311423398
0.002730248642364238,-0.1931314238018061
0.002730548642364237,-0.1923364972071291
0.002730848642364237,-0.1921775118881934
0.002731148642364237,-0.191859541250322
0.002731448642364237,-0.1907466440177722
0.002731748642364237,-0.1905081660393686
0.002732048642364237,-0.1902696880609651
0.002732348642364237,-0.1886003422121404
0.002732648642364237,-0.1884413568932047
0.002732948642364237,-0.1878849082769297
0.002733248642364237,-0.1866925183849121
0.002733548642364237,-0.1866130257254442
0.002733848642364237,-0.1860565771091693
0.002734148642364237,-0.1857386064712985
0.002734448642364237,-0.1866130257254427
0.002734748642364237,-0.1897927321041523
0.002735048642364238,-0.1960726522021263
0.002735348642364238,-0.2007627191107252
0.002735648642364238,-0.2033064842136954
0.002735948642364238,-0.2053732933598589
0.002736248642364237,-0.207201624527616
0.002736548642364237,-0.2080760437817623
0.002736848642364237,-0.2091889410143122
0.002737148642364237,-0.2094274189927157
0.002737448642364237,-0.2089504630359086
0.002737748642364237,-0.2095864043116514
0.002738048642364237,-0.2097453896305871
0.002738348642364237,-0.20926843367378
0.002738648642364237,-0.20926843367378
0.002738948642364237,-0.2087914777169729
0.002739248642364237,-0.2081555364412302
0.002739548642364237,-0.2083145217601658
0.002739848642364237,-0.2080760437817628
0.002740148642364237,-0.2077580731438915
0.002740448642364237,-0.2074401025060201
0.002740748642364238,-0.2071221318681463
0.002741048642364238,-0.2060887272950644
0.002741348642364238,-0.2051348153814511
0.002741648642364237,-0.2045783667651772
0.002741948642364237,-0.2033064842136916
0.002742248642364237,-0.2029090209163524
0.002742548642364237,-0.2025115576190132
0.002742848642364237,-0.2022730796406096
0.002743148642364237,-0.2017166310243347
0.002743448642364237,-0.2002062704944457
0.002743748642364237,-0.1994113438997673
0.002744048642364237,-0.1991728659213637
0.002744348642364237,-0.1987754026240245
0.002744648642364237,-0.1977419980509425
0.002744948642364237,-0.1977419980509425
0.002745248642364237,-0.1970265641157332
0.002745548642364237,-0.1970265641157319
0.002745848642364237,-0.1971060567751996
0.002746148642364238,-0.196470115499456
0.002746448642364238,-0.1959136668831831
0.002746748642364238,-0.1964701154994552
0.002747048642364238,-0.1955162035858417
0.002747348642364237,-0.1948802623101001
0.002747648642364237,-0.1951187402885036
0.002747948642364237,-0.1944827990127609
0.002748248642364237,-0.1942443210343573
0.002748548642364237,-0.1949597549695679
0.002748848642364237,-0.1977419980509425
0.002749148642364237,-0.203624454851563
0.002749448642364237,-0.2079965511222945
0.002749748642364237,-0.2093479263332478
0.002750048642364237,-0.2117327061172832
0.002750348642364237,-0.2121301694146224
0.002750648642364237,-0.2121301694146224
0.002750948642364237,-0.2126866180308963
0.002751248642364237,-0.2126866180308973
0.002751548642364237,-0.2118916914362203
0.002751848642364238,-0.21252763271196
0.002752148642364238,-0.2116532134578147
0.002752448642364238,-0.2113352428199426
0.002752748642364237,-0.2106198088847334
0.002753048642364237,-0.2101428529279263
0.002753348642364237,-0.2093479263332478
0.002753648642364237,-0.20926843367378
0.002753948642364237,-0.2086324923980372
0.002754248642364237,-0.2083145217601658
0.002754548642364237,-0.2088709703764408
0.002754848642364237,-0.2078375658033588
0.002755148642364237,-0.2073606098465517
0.002755448642364237,-0.2073606098465517
0.002755748642364237,-0.2070426392086803
0.002756048642364237,-0.2071221318681482
0.002756348642364237,-0.2071221318681482
0.002756648642364237,-0.2056912639977296
0.002756948642364237,-0.205691263997727
0.002757248642364238,-0.2064861905924029
0.002757548642364238,-0.2051348153814526
0.002757848642364238,-0.2054527860193221
0.002758148642364238,-0.2047373520841105
0.002758448642364237,-0.2034654695326273
0.002758748642364237,-0.2029885135758203
0.002759048642364237,-0.2020346016622061
0.002759348642364237,-0.2004447484728492
0.002759648642364237,-0.2002062704944457
0.002759948642364237,-0.1994908365592351
0.002760248642364237,-0.1986959099645566
0.002760548642364237,-0.1987754026240245
0.002760848642364237,-0.1974240274130711
0.002761148642364237,-0.1968675787967962
0.002761448642364237,-0.1969470714562641
0.002761748642364237,-0.1967085934778605
0.002762048642364237,-0.1957546815642481
0.002762348642364237,-0.1959136668831818
0.002762648642364237,-0.1951187402885051
0.002762948642364238,-0.1961521448615925
0.002763248642364238,-0.1999677925160514
0.002763548642364238,-0.2050553227219926
0.002763848642364237,-0.2096658969711192
0.002764148642364237,-0.2120506767551545
0.002764448642364237,-0.213879007922915
0.002764748642364237,-0.214912412495997
0.002765048642364237,-0.2162637877069503
0.002765348642364237,-0.2162637877069503
0.002765648642364237,-0.2169792216421609
0.002765948642364237,-0.2167407436637574
0.002766248642364237,-0.2162637877069503
0.002766548642364237,-0.2163432803664182
0.002766848642364237,-0.2160253097285468
0.002767148642364237,-0.214912412495997
0.002767448642364237,-0.21411748590132
0.002767748642364237,-0.2134020519661092
0.002768048642364237,-0.2125276327119632
0.002768348642364238,-0.2122891547335563
0.002768648642364238,-0.2113352428199422
0.002768948642364238,-0.2103813309063288
0.002769248642364238,-0.2098248822900543
0.002769548642364237,-0.2095069116521835
0.002769848642364237,-0.2093479263332478
0.002770148642364237,-0.2091889410143122
0.002770448642364237,-0.2088709703764408
0.002770748642364237,-0.2079170584628266
0.002771048642364237,-0.2071221318681482
0.002771348642364237,-0.2075990878249553
0.002771648642364237,-0.2075195951654874
0.002771948642364237,-0.2068041612302768
0.002772248642364237,-0.2068836538897446
0.002772548642364237,-0.2064861905924054
0.002772848642364237,-0.2056117713382591
0.002773148642364237,-0.2056117713382591
0.002773448642364237,-0.2052143080409206
0.002773748642364237,-0.2041809034678398
0.002774048642364238,-0.2042603961273052
0.002774348642364238,-0.2039424254894356
0.002774648642364238,-0.2045783667651769
0.002774948642364237,-0.2044193814462415
0.002775248642364237,-0.2038629328299665
0.002775548642364237,-0.2039424254894344
0.002775848642364237,-0.203624454851563
0.002776148642364237,-0.2028295282568846
0.002776448642364237,-0.2029090209163524
0.002776748642364237,-0.2027500355974167
0.002777048642364237,-0.2012396750675277
0.002777348642364237,-0.2011601824080598
0.002777648642364237,-0.2025115576190132
0.002777948642364237,-0.2045783667651772
0.002778248642364237,-0.2106198088847334
0.002778548642364237,-0.2136405299445059
0.002778848642364237,-0.2156278464312039
0.002779148642364237,-0.2180126262152386
0.002779448642364238,-0.2187280601504545
0.002779748642364238,-0.2192845087667299
0.002780048642364238,-0.2200794353614057
0.002780348642364238,-0.2194434940856642
0.002780648642364237,-0.219522986745132
0.002780948642364237,-0.219999942701939
0.002781248642364237,-0.2184100895125821
0.002781548642364237,-0.2186485674909857
0.002781848642364237,-0.2180921188747107
0.002782148642364237,-0.2162637877069503
0.002782448642364237,-0.2158663244096111
0.002782748642364237,-0.215389368452804
0.002783048642364237,-0.2141174859013185
0.002783348642364237,-0.2143559638797221
0.002783648642364237,-0.2143559638797221
0.002783948642364237,-0.2127661106903652
0.002784248642364237,-0.2137995152634453
0.002784548642364237,-0.2132430666471732
0.002784848642364237,-0.2124481400524952
0.002785148642364238,-0.2126866180308959
0.002785448642364238,-0.2118916914362173
0.002785748642364238,-0.2110172721820738
0.002786048642364237,-0.2116532134578153
0.002786348642364237,-0.2103813309063298
0.002786648642364237,-0.20926843367378
0.002786948642364237,-0.2090299556953765
0.002787248642364237,-0.2078375658033588
0.002787548642364237,-0.2072811171870839
0.002787848642364237,-0.2077580731438909
0.002788148642364237,-0.2052938007003877
0.002788448642364237,-0.2053732933598556
0.002788748642364237,-0.2060092346355984
0.002789048642364237,-0.2039424254894344
0.002789348642364237,-0.2051348153814521
0.002789648642364237,-0.2045783667651782
0.002789948642364237,-0.2035449621920971
0.002790248642364237,-0.2044193814462399
0.002790548642364238,-0.2041809034678355
0.002790848642364238,-0.2028295282568857
0.002791148642364238,-0.2034654695326259
0.002791448642364238,-0.20267054293795
0.002791748642364237,-0.2033064842136916
0.002792048642364237,-0.2066451759113411
0.002792348642364237,-0.2122891547335581
0.002792648642364237,-0.2166612510042895
0.002792948642364237,-0.2212718252534245
0.002793248642364237,-0.222066751848103
0.002793548642364237,-0.2234976197185242
0.002793848642364237,-0.2262003701404309
0.002794148642364237,-0.2254054435457525
0.002794448642364237,-0.2260413848214952
0.002794748642364237,-0.2267568187567058
0.002795048642364237,-0.2253259508862872
0.002795348642364237,-0.2258823995025585
0.002795648642364237,-0.2254054435457533
0.002795948642364237,-0.2237360976969308
0.002796248642364238,-0.2241335609942655
0.002796548642364238,-0.2233386343995872
0.002796848642364238,-0.2226232004643772
0.002797148642364237,-0.2222257371670387
