real-diodes-out/-bkp-20250401/1kHz200mV/scope.csv

#Digilent WaveForms Oscilloscope Acquisition
#Device Name: Discovery3
#Serial Number: SN:210415BD5874
#Date Time: 2025-04-01 12:44:37.605.387.370
#Sample rate: 1.42857e+07Hz
#Samples: 32768
#Trigger: Source: Channel 1 Type: Edge Condition: Rising Level: 0 V Hyst.: Auto HoldOff: 0 s
#Channel 1: Range: 200 mV/div Offset: 0 V Sample Mode: Average
#Wavegen Channel 1: Running
#Mode: Simple
#Type: Sine
#Frequency: 1 kHz
#Period: 1 ms
#Amplitude: 200 mV
#Offset: 0 V
#Symmetry: 50 %
#Phase: 0 °

Time (s),Channel 1 (V)
-0.001146854210526316,-0.1590290728901021
-0.001146784210526316,-0.1584726242738272
-0.001146714210526316,-0.1579161756575523
-0.001146644210526316,-0.1579161756575523
-0.001146574210526316,-0.1579956683170201
-0.001146504210526316,-0.1579161756575523
-0.001146434210526316,-0.1593470435279735
-0.001146364210526316,-0.1583136389548917
-0.001146294210526316,-0.1583931316143599
-0.001146224210526316,-0.1587111022522306
-0.001146154210526316,-0.158631609592763
-0.001146084210526316,-0.1587905949116983
-0.001146014210526316,-0.1592675508685057
-0.001145944210526316,-0.1587905949116986
-0.001145874210526316,-0.1576776976791488
-0.001145804210526316,-0.1578366829980845
-0.001145734210526316,-0.1583136389548915
-0.001145664210526316,-0.1576776976791488
-0.001145594210526316,-0.1579161756575523
-0.001145524210526316,-0.1578366829980846
-0.001145454210526316,-0.1579161756575524
-0.001145384210526316,-0.1579956683170206
-0.001145314210526316,-0.1582341462954232
-0.001145244210526316,-0.1578366829980852
-0.001145174210526316,-0.1587111022522308
-0.001145104210526316,-0.1579161756575523
-0.001145034210526316,-0.157041756403406
-0.001144964210526316,-0.1577571903386166
-0.001144894210526316,-0.1579161756575523
-0.001144824210526316,-0.1579956683170201
-0.001144754210526316,-0.158075160976488
-0.001144684210526316,-0.1583136389548902
-0.001144614210526316,-0.1575982050196797
-0.001144544210526316,-0.1569622637439389
-0.001144474210526316,-0.1573597270412767
-0.001144404210526316,-0.1567237857655358
-0.001144334210526316,-0.1579956683170201
-0.001144264210526316,-0.1574392197007452
-0.001144194210526316,-0.1573597270412774
-0.001144124210526316,-0.1562468298087276
-0.001144054210526316,-0.157041756403406
-0.001143984210526316,-0.1565648004465989
-0.001143914210526316,-0.1568827710844703
-0.001143844210526316,-0.1576776976791472
-0.001143774210526316,-0.156803278425002
-0.001143704210526316,-0.1565648004466001
-0.001143634210526316,-0.1572007417223405
-0.001143564210526316,-0.1556903811924554
-0.001143494210526316,-0.156008351830324
-0.001143424210526316,-0.1562468298087276
-0.001143354210526316,-0.1560878444897919
-0.001143284210526316,-0.1559288591708562
-0.001143214210526316,-0.1564853077871311
-0.001143144210526316,-0.1564853077871311
-0.001143074210526316,-0.1572802343818095
-0.001143004210526316,-0.1559288591708561
-0.001142934210526316,-0.155849366511387
-0.001142864210526316,-0.1551339325761783
-0.001142794210526316,-0.1554519032140485
-0.001142724210526316,-0.1559288591708553
-0.001142654210526316,-0.1559288591708562
-0.001142584210526316,-0.1569622637439382
-0.001142514210526316,-0.1557698738519205
-0.001142444210526316,-0.1559288591708562
-0.001142374210526316,-0.1560878444897919
-0.001142304210526316,-0.1554519032140491
-0.001142234210526316,-0.1556108885329848
-0.001142164210526316,-0.1551339325761777
-0.001142094210526316,-0.156564800446596
-0.001142024210526316,-0.1549749472572432
-0.001141954210526316,-0.1556108885329836
-0.001141884210526316,-0.1547364692788401
-0.001141814210526316,-0.1554519032140478
-0.001141744210526316,-0.1556108885329848
-0.001141674210526316,-0.1554519032140491
-0.001141604210526316,-0.1553724105545813
-0.001141534210526316,-0.1553724105545813
-0.001141464210526316,-0.1547364692788385
-0.001141394210526316,-0.1546569766193707
-0.001141324210526316,-0.1550544399167099
-0.001141254210526316,-0.1543390059815007
-0.001141184210526316,-0.155133932576177
-0.001141114210526316,-0.1547364692788392
-0.001141044210526316,-0.1548159619383062
-0.001140974210526316,-0.1548954545977741
-0.001140904210526316,-0.1551339325761777
-0.001140834210526316,-0.1547364692788385
-0.001140764210526316,-0.1538620500246922
-0.001140694210526316,-0.1541800206625636
-0.001140624210526316,-0.1538620500246922
-0.001140554210526316,-0.1541005280030958
-0.001140484210526316,-0.1540210353436279
-0.001140414210526316,-0.1533056014084165
-0.001140344210526316,-0.1528286454516115
-0.001140274210526316,-0.1535440793868195
-0.001140204210526316,-0.1523516894948053
-0.001140134210526316,-0.153464586727351
-0.001140064210526316,-0.1535440793868209
-0.001139994210526316,-0.1533056014084173
-0.001139924210526316,-0.1535440793868209
-0.001139854210526316,-0.1525901674732067
-0.001139784210526316,-0.1527491527921424
-0.001139714210526316,-0.1525901674732067
-0.001139644210526316,-0.1529876307705459
-0.001139574210526316,-0.152510674813739
-0.001139504210526316,-0.1525901674732068
-0.001139434210526316,-0.1526696601326744
-0.001139364210526316,-0.1525106748137391
-0.001139294210526316,-0.1532261087489482
-0.001139224210526316,-0.1525901674732067
-0.001139154210526316,-0.1527491527921424
-0.001139084210526316,-0.152431182154271
-0.001139014210526316,-0.1522721968353353
-0.001138944210526316,-0.1528286454516102
-0.001138874210526316,-0.1514772702406569
-0.001138804210526316,-0.152431182154271
-0.001138734210526316,-0.1504438656675758
-0.001138664210526316,-0.1509208216243841
-0.001138594210526316,-0.1521132115163975
-0.001138524210526316,-0.1521132115163996
-0.001138454210526316,-0.152272196835335
-0.001138384210526316,-0.1521132115163996
-0.001138314210526316,-0.1510798069433177
-0.001138244210526316,-0.1512387922622533
-0.001138174210526316,-0.1516362555595926
-0.001138104210526316,-0.1517952408785282
-0.001138034210526316,-0.1511592996027855
-0.001137964210526316,-0.1506028509865106
-0.001137894210526316,-0.1505233583270427
-0.001137824210526316,-0.1505233583270418
-0.001137754210526316,-0.1499669097107688
-0.001137684210526316,-0.1513182849217187
-0.001137614210526316,-0.1507618363054473
-0.001137544210526316,-0.151954226197464
-0.001137474210526316,-0.1510003142838498
-0.001137404210526316,-0.1513182849217212
-0.001137334210526316,-0.1506028509865106
-0.001137264210526316,-0.150920821624382
-0.001137194210526316,-0.1502848803486392
-0.001137124210526316,-0.1510798069433177
-0.001137054210526316,-0.1512387922622516
-0.001136984210526316,-0.1502848803486375
-0.001136914210526316,-0.1493309684350268
-0.001136844210526316,-0.1495694464134282
-0.001136774210526316,-0.1502848803486379
-0.001136704210526316,-0.1501258950297035
-0.001136634210526316,-0.1506823436459784
-0.001136564210526316,-0.1505233583270427
-0.001136494210526316,-0.1495694464134286
-0.001136424210526316,-0.1496489390728964
-0.001136354210526316,-0.1499669097107678
-0.001136284210526316,-0.1487745198187502
-0.001136214210526316,-0.1493309684350252
-0.001136144210526316,-0.1494104610944906
-0.001136074210526316,-0.148138578543009
-0.001136004210526316,-0.1490129977971521
-0.001135934210526316,-0.1498874170512984
-0.001135864210526316,-0.1494899537539608
-0.001135794210526316,-0.1502848803486392
-0.001135724210526316,-0.1498874170513
-0.001135654210526316,-0.1494899537539608
-0.001135584210526316,-0.1492514757755572
-0.001135514210526316,-0.1494104610944929
-0.001135444210526316,-0.1484565491808788
-0.001135374210526316,-0.1490129977971535
-0.001135304210526316,-0.1489335051376837
-0.001135234210526316,-0.1477411152456699
-0.001135164210526316,-0.1486950271592806
-0.001135094210526316,-0.1493309684350239
-0.001135024210526316,-0.148854012478218
-0.001134954210526316,-0.1489335051376859
-0.001134884210526316,-0.1487745198187502
-0.001134814210526316,-0.1486950271592823
-0.001134744210526316,-0.1482180712024752
-0.001134674210526316,-0.1485360418403466
-0.001134604210526316,-0.1479001005646039
-0.001134534210526316,-0.1488540124782184
-0.001134464210526316,-0.1490924904566187
-0.001134394210526316,-0.1475026372672661
-0.001134324210526316,-0.1482975638619417
-0.001134254210526316,-0.1487745198187493
-0.001134184210526316,-0.1490924904566215
-0.001134114210526316,-0.1484565491808788
-0.001134044210526316,-0.1484565491808788
-0.001133974210526316,-0.1483770565214109
-0.001133904210526316,-0.1484565491808788
-0.001133834210526316,-0.1482180712024752
-0.001133764210526316,-0.1465487253536505
-0.001133694210526316,-0.1468666959915212
-0.001133624210526316,-0.1464692326941844
-0.001133554210526316,-0.1474231446077961
-0.001133484210526316,-0.1470256813104583
-0.001133414210526316,-0.1477411152456669
-0.001133344210526316,-0.1481385785430074
-0.001133274210526316,-0.1486155344998145
-0.001133204210526316,-0.147343651948329
-0.001133134210526316,-0.1480590858835396
-0.001133064210526316,-0.146310247375247
-0.001132994210526316,-0.1474231446077968
-0.001132924210526316,-0.1471846666293933
-0.001132854210526316,-0.1466282180131189
-0.001132784210526316,-0.146946188650986
-0.001132714210526316,-0.1448793795048262
-0.001132644210526316,-0.1451178574832289
-0.001132574210526316,-0.145992276737374
-0.001132504210526316,-0.1463897400347148
-0.001132434210526316,-0.1479795932240717
-0.001132364210526316,-0.1471051739699254
-0.001132294210526316,-0.1468666959915219
-0.001132224210526316,-0.1457537987589721
-0.001132154210526316,-0.1462307547157791
-0.001132084210526316,-0.1454358281211007
-0.001132014210526316,-0.1459127840779072
-0.001131944210526316,-0.1455948134400364
-0.001131874210526316,-0.1455948134400355
-0.001131804210526316,-0.1451178574832302
-0.001131734210526316,-0.145197350142697
-0.001131664210526316,-0.1458332914184399
-0.001131594210526316,-0.1469461886509897
-0.001131524210526316,-0.1471051739699254
-0.001131454210526316,-0.1461512620563113
-0.001131384210526316,-0.1463897400347148
-0.001131314210526316,-0.1455153207805685
-0.001131244210526316,-0.1449588721642936
-0.001131174210526316,-0.1449588721642945
-0.001131104210526316,-0.1454358281211001
-0.001131034210526316,-0.1451178574832273
-0.001130964210526316,-0.1440049602506815
-0.001130894210526316,-0.1452768428021627
-0.001130824210526316,-0.1451973501426971
-0.001130754210526316,-0.1446409015264222
-0.001130684210526316,-0.1457537987589721
-0.001130614210526316,-0.1453563354616328
-0.001130544210526316,-0.1451178574832293
-0.001130474210526316,-0.1450383648237615
-0.001130404210526316,-0.1445614088669544
-0.001130334210526316,-0.144243438229083
-0.001130264210526316,-0.1440844529101478
-0.001130194210526316,-0.1443229308885501
-0.001130124210526316,-0.1439254675912124
-0.001130054210526316,-0.1446409015264209
-0.001129984210526316,-0.1450383648237607
-0.001129914210526316,-0.1450383648237615
-0.001129844210526316,-0.1457537987589721
-0.001129774210526316,-0.1447998868453579
-0.001129704210526316,-0.1444819162074865
-0.001129634210526316,-0.143766482272276
-0.001129564210526316,-0.143210033656001
-0.001129494210526316,-0.1447998868453579
-0.001129424210526316,-0.1435280042938744
-0.001129354210526316,-0.1446409015264198
-0.001129284210526316,-0.1432895263154713
-0.001129214210526316,-0.1436869896128074
-0.001129144210526316,-0.1433690189749373
-0.001129074210526316,-0.144243438229083
-0.001129004210526316,-0.1446409015264222
-0.001128934210526316,-0.1443229308885509
-0.001128864210526316,-0.1443229308885509
-0.001128794210526316,-0.1431305409965332
-0.001128724210526316,-0.1422561217423869
-0.001128654210526316,-0.1441639455696152
-0.001128584210526316,-0.1427330776991945
-0.001128514210526316,-0.1430510483370645
-0.001128444210526316,-0.1425740923802591
-0.001128374210526316,-0.1428920630181291
-0.001128304210526316,-0.1433690189749359
-0.001128234210526316,-0.1429715556775975
-0.001128164210526316,-0.1432895263154689
-0.001128094210526316,-0.1436869896128081
-0.001128024210526316,-0.1436869896128081
-0.001127954210526316,-0.1432895263154689
-0.001127884210526316,-0.1424945997207904
-0.001127814210526316,-0.1423356144018547
-0.001127744210526316,-0.1427330776991931
-0.001127674210526316,-0.1422561217423856
-0.001127604210526316,-0.1415406878071776
-0.001127534210526316,-0.141620180466644
-0.001127464210526316,-0.1411432245098379
-0.001127394210526316,-0.1414611951477084
-0.001127324210526316,-0.141699673126112
-0.001127254210526316,-0.1424151070613226
-0.001127184210526316,-0.1424151070613226
-0.001127114210526316,-0.1428920630181297
-0.001127044210526316,-0.141699673126112
-0.001126974210526316,-0.1413817024882406
-0.001126904210526316,-0.1413022098287741
-0.001126834210526316,-0.1420176437639825
-0.001126764210526316,-0.1415406878071772
-0.001126694210526316,-0.1405072832340962
-0.001126624210526316,-0.1408252538719651
-0.001126554210526316,-0.1413817024882406
-0.001126484210526316,-0.1414611951477084
-0.001126414210526316,-0.1413022098287728
-0.001126344210526316,-0.1420176437639833
-0.001126274210526316,-0.1416201804666441
-0.001126204210526316,-0.14066626855303
-0.001126134210526316,-0.1413022098287728
-0.001126064210526316,-0.1415406878071762
-0.001125994210526316,-0.1414611951477071
-0.001125924210526316,-0.1407457612124992
-0.001125854210526316,-0.1402688052556916
-0.001125784210526316,-0.1402688052556908
-0.001125714210526316,-0.1403482979151586
-0.001125644210526316,-0.1404277905746265
-0.001125574210526316,-0.1408252538719657
-0.001125504210526316,-0.1407457612124978
-0.001125434210526316,-0.1401893125962229
-0.001125364210526316,-0.14066626855303
-0.001125294210526316,-0.1401893125962229
-0.001125224210526316,-0.1404277905746253
-0.001125154210526316,-0.1397918492988831
-0.001125084210526316,-0.1394738786610129
-0.001125014210526316,-0.1393943860015446
-0.001124944210526316,-0.1391559080231414
-0.001124874210526316,-0.1397918492988837
-0.001124804210526316,-0.139632863979948
-0.001124734210526316,-0.1404277905746265
-0.001124664210526316,-0.1404277905746265
-0.001124594210526316,-0.1409842391909014
-0.001124524210526316,-0.1405072832340943
-0.001124454210526316,-0.1408252538719657
-0.001124384210526316,-0.1395533713204803
-0.001124314210526316,-0.1396328639799492
-0.001124244210526316,-0.1402688052556876
-0.001124174210526316,-0.1385199667474014
-0.001124104210526316,-0.1400303272772845
-0.001124034210526316,-0.1394738786610123
-0.001123964210526316,-0.1399508346178194
-0.001123894210526316,-0.1407457612124978
-0.001123824210526316,-0.1400303272772872
-0.001123754210526316,-0.1387584447258017
-0.001123684210526316,-0.1397918492988837
-0.001123614210526316,-0.1383609814284625
-0.001123544210526316,-0.1389969227042032
-0.001123474210526316,-0.1378840254716579
-0.001123404210526316,-0.1392354006826083
-0.001123334210526316,-0.1389969227042057
-0.001123264210526316,-0.1392354006826083
-0.001123194210526316,-0.1390764153636731
-0.001123124210526316,-0.1390764153636731
-0.001123054210526316,-0.1388379373852696
-0.001122984210526316,-0.1401098199367551
-0.001122914210526316,-0.1389969227042053
-0.001122844210526316,-0.1389969227042053
-0.001122774210526316,-0.1388379373852696
-0.001122704210526316,-0.1389969227042048
-0.001122634210526316,-0.1387584447258011
-0.001122564210526316,-0.1384404740879296
-0.001122494210526316,-0.1380430107905918
-0.001122424210526316,-0.1374865621743172
-0.001122354210526316,-0.1382814887689947
-0.001122284210526316,-0.1376455474932519
-0.001122214210526316,-0.1389969227042053
-0.001122144210526316,-0.1389174300447374
-0.001122074210526316,-0.1378045328121876
-0.001122004210526316,-0.1380430107905911
-0.001121934210526316,-0.1378045328121876
-0.001121864210526316,-0.1378045328121869
-0.001121794210526316,-0.1374070695148479
-0.001121724210526316,-0.1371685915364435
-0.001121654210526316,-0.1364531576012355
-0.001121584210526316,-0.1366121429201696
-0.001121514210526316,-0.1369301135580413
-0.001121444210526316,-0.1373275768553805
-0.001121374210526316,-0.1371685915364448
-0.001121304210526316,-0.1372480841959127
-0.001121234210526316,-0.1373275768553805
-0.001121164210526316,-0.1369301135580413
-0.001121094210526316,-0.1368506208985734
-0.001121024210526316,-0.1378840254716541
-0.001120954210526316,-0.137168591536445
-0.001120884210526316,-0.1372480841959122
-0.001120814210526316,-0.1370096062175096
-0.001120744210526316,-0.1371685915364446
-0.001120674210526316,-0.1366121429201699
-0.001120604210526316,-0.1369301135580413
-0.001120534210526316,-0.1373275768553805
-0.001120464210526316,-0.1363736649417664
-0.001120394210526316,-0.1365326502607021
-0.001120324210526316,-0.1370096062175091
-0.001120254210526316,-0.1368506208985734
-0.001120184210526316,-0.1378840254716512
-0.001120114210526316,-0.1355787383470893
-0.001120044210526316,-0.1362941722822987
-0.001119974210526316,-0.1363736649417663
-0.001119904210526316,-0.1358172163254925
-0.001119834210526316,-0.1358967089849593
-0.001119764210526316,-0.1357377236660236
-0.001119694210526316,-0.1362146796228307
-0.001119624210526316,-0.1362146796228307
-0.001119554210526316,-0.1359762016444272
-0.001119484210526316,-0.1356582310065558
-0.001119414210526316,-0.135022289730813
-0.001119344210526316,-0.1366916355796368
-0.001119274210526316,-0.1361351869633613
-0.001119204210526316,-0.1352607677092168
-0.001119134210526316,-0.135419753028152
-0.001119064210526316,-0.1347838117524107
-0.001118994210526316,-0.1347838117524095
-0.001118924210526316,-0.1349427970713452
-0.001118854210526316,-0.1351017823902809
-0.001118784210526316,-0.1351812750497487
-0.001118714210526316,-0.1346248264334738
-0.001118644210526316,-0.135022289730813
-0.001118574210526316,-0.1356582310065558
-0.001118504210526316,-0.1357377236660236
-0.001118434210526316,-0.1347838117524096
-0.001118364210526316,-0.1348633044118763
-0.001118294210526316,-0.1343068557956034
-0.001118224210526316,-0.1346248264334732
-0.001118154210526316,-0.134306855795603
-0.001118084210526316,-0.1338298998387953
-0.001118014210526316,-0.1340683778171989
-0.001117944210526316,-0.1359762016444272
-0.001117874210526316,-0.1342273631361346
-0.001117804210526316,-0.1351812750497487
-0.001117734210526316,-0.1353402603686844
-0.001117664210526316,-0.1351017823902809
-0.001117594210526316,-0.1357377236660223
-0.001117524210526316,-0.1350222897308111
-0.001117454210526316,-0.1339888851577329
-0.001117384210526316,-0.1333529438819895
-0.001117314210526316,-0.1337504071793268
-0.001117244210526316,-0.1347043190929416
-0.001117174210526316,-0.1343068557956024
-0.001117104210526316,-0.1347043190929416
-0.001117034210526316,-0.1343863484550703
-0.001116964210526316,-0.1337504071793275
-0.001116894210526316,-0.1335914218603918
-0.001116824210526316,-0.1340683778171989
-0.001116754210526316,-0.1344658411145385
-0.001116684210526316,-0.1347043190929401
-0.001116614210526316,-0.1338298998387969
-0.001116544210526316,-0.1336709145198599
-0.001116474210526316,-0.1334324365414566
-0.001116404210526316,-0.1342273631361346
-0.001116334210526316,-0.1336709145198597
-0.001116264210526316,-0.1327170026062455
-0.001116194210526316,-0.1340683778171989
-0.001116124210526316,-0.1325580172873098
-0.001116054210526316,-0.1332734512225204
-0.001115984210526316,-0.1332734512225204
-0.001115914210526316,-0.132717002606247
-0.001115844210526316,-0.1335119292009225
-0.001115774210526316,-0.132717002606247
-0.001115704210526316,-0.1327964952657132
-0.001115634210526316,-0.1329554805846488
-0.001115564210526316,-0.1322400466494384
-0.001115494210526316,-0.1322400466494384
-0.001115424210526316,-0.1323990319683742
-0.001115354210526316,-0.1321605539899706
-0.001115284210526316,-0.13144512005476
-0.001115214210526316,-0.1322400466494384
-0.001115144210526316,-0.1318425833520992
-0.001115074210526316,-0.1322400466494402
-0.001115004210526316,-0.1331939585630512
-0.001114934210526316,-0.1323990319683756
-0.001114864210526316,-0.1323990319683742
-0.001114794210526316,-0.1311271494168909
-0.001114724210526316,-0.1316835980331635
-0.001114654210526316,-0.1312066420763565
-0.001114584210526316,-0.1319220760115671
-0.001114514210526316,-0.1321605539899706
-0.001114444210526316,-0.1318425833520992
-0.001114374210526316,-0.13144512005476
