-20250405-BKP/real-diodes-in-T00-L10-D10/1kHz1V/scope.csv

#Digilent WaveForms Oscilloscope Acquisition
#Device Name: Discovery3
#Serial Number: SN:210415BD5874
#Date Time: 2025-04-03 15:50:06.974.449.120
#Sample rate: 3.33333e+06Hz
#Samples: 32768
#Trigger: Source: Channel 1 Type: Edge Condition: Rising Level: 0 V Hyst.: Auto HoldOff: 0 s
#Channel 1: Range: 200 mV/div Offset: 0 V Sample Mode: Average
#Wavegen Channel 1: Running
#Mode: Simple
#Type: Sine
#Frequency: 1 kHz
#Period: 1 ms
#Amplitude: 1 V
#Offset: 0 V
#Symmetry: 50 %
#Phase: 0 °

Time (s),Channel 1 (V)
0.00265470697569757,-0.1121284038040738
0.00265500697569757,-0.1121284038040738
0.00265530697569757,-0.1120489111446059
0.00265560697569757,-0.1136387643339628
0.00265590697569757,-0.1138772423123663
0.00265620697569757,-0.1146721689070448
0.00265650697569757,-0.1153081101827864
0.00265680697569757,-0.1150696322043844
0.00265710697569757,-0.1155465881611902
0.00265740697569757,-0.1161825294369327
0.002657706975697571,-0.1165005000748049
0.002658006975697571,-0.1163415147558701
0.002658306975697571,-0.1166594853937415
0.00265860697569757,-0.1169774560316123
0.00265890697569757,-0.1168184707126766
0.00265920697569757,-0.1176928899668229
0.00265950697569757,-0.1179313679452264
0.00265980697569757,-0.1176928899668229
0.00266010697569757,-0.1182493385830978
0.00266040697569757,-0.1182493385830978
0.00266070697569757,-0.1194417284751155
0.00266100697569757,-0.1189647725183084
0.00266130697569757,-0.1194417284751155
0.00266160697569757,-0.1197596991129869
0.00266190697569757,-0.1196007137940512
0.00266220697569757,-0.1198391917724543
0.00266250697569757,-0.120554625707664
0.00266280697569757,-0.120634118367133
0.002663106975697571,-0.1209520890050058
0.002663406975697571,-0.1216675229402161
0.002663706975697571,-0.1222239715564889
0.00266400697569757,-0.1215880302807477
0.00266430697569757,-0.1218265082591508
0.00266460697569757,-0.1219854935780865
0.00266490697569757,-0.1216675229402151
0.00266520697569757,-0.1218265082591508
0.00266550697569757,-0.1224624495348936
0.00266580697569757,-0.1220649862375544
0.00266610697569757,-0.1221444788970222
0.00266640697569757,-0.12222397155649
0.00266670697569757,-0.1223034642159579
0.00266700697569757,-0.1219854935780865
0.00266730697569757,-0.1215880302807473
0.00266760697569757,-0.1219060009186181
0.00266790697569757,-0.1223034642159572
0.00266820697569757,-0.1216675229402163
0.00266850697569757,-0.1219854935780859
0.002668806975697571,-0.1230983908106353
0.002669106975697571,-0.122541942194362
0.002669406975697571,-0.122859912832234
0.00266970697569757,-0.1234958541079755
0.00267000697569757,-0.1234163614485077
0.00267030697569757,-0.1231778834701042
0.00267060697569757,-0.1245292586810575
0.00267090697569757,-0.1238933174053148
0.00267120697569757,-0.124290780702654
0.00267150697569757,-0.1251651999568003
0.00267180697569757,-0.1254036779352038
0.00267210697569757,-0.1257216485730752
0.00267240697569757,-0.1265165751677536
0.00267270697569757,-0.1258806338920109
0.00267300697569757,-0.1265960678272215
0.00267330697569757,-0.1271525164434954
0.00267360697569757,-0.1269140384650933
0.00267390697569757,-0.1283449063355115
0.002674206975697571,-0.1292988182491298
0.002674506975697571,-0.1301732375032781
0.002674806975697571,-0.1321605539899702
0.00267510697569757,-0.1319220760115679
0.00267540697569757,-0.1323990319683742
0.00267570697569757,-0.1338298998387953
0.00267600697569757,-0.1335914218603918
0.00267630697569757,-0.1341478704766667
0.00267660697569757,-0.1354992456876201
0.00267690697569757,-0.1355787383470879
0.00267720697569757,-0.1357377236660236
0.00267750697569757,-0.1365326502607021
0.00267780697569757,-0.1367711282391056
0.00267810697569757,-0.137089098876977
0.00267840697569757,-0.1374070695148484
0.00267870697569757,-0.1365326502607037
0.00267900697569757,-0.1377250401527176
0.00267930697569757,-0.1380430107905905
0.00267960697569757,-0.1376455474932526
0.002679906975697571,-0.1385994594068665
0.002680206975697571,-0.1388379373852687
0.002680506975697571,-0.1383609814284648
0.00268080697569757,-0.139632863979948
0.00268110697569757,-0.1392354006826088
0.00268140697569757,-0.1389174300447374
0.00268170697569757,-0.1399508346178194
0.00268200697569757,-0.1397918492988837
0.00268230697569757,-0.1399508346178194
0.00268260697569757,-0.1415406878071763
0.00268290697569757,-0.1408252538719657
0.00268320697569757,-0.1414611951477084
0.00268350697569757,-0.1428920630181297
0.00268380697569757,-0.1421766290829191
0.00268410697569757,-0.1424945997207904
0.00268440697569757,-0.1436869896128059
0.00268470697569757,-0.1430510483370665
0.00268500697569757,-0.1435280042938716
0.002685306975697571,-0.1445614088669524
0.002685606975697571,-0.1434485116344067
0.002685906975697571,-0.1446409015264222
0.00268620697569757,-0.1446409015264222
0.00268650697569757,-0.1447203941858901
0.00268680697569757,-0.1457537987589721
0.00268710697569757,-0.1451973501426971
0.00268740697569757,-0.1449588721642936
0.00268770697569757,-0.1456743060995042
0.00268800697569757,-0.1453563354616328
0.00268830697569757,-0.1456743060995042
0.00268860697569757,-0.1459922767373756
0.00268890697569757,-0.1461512620563113
0.00268920697569757,-0.1467077106725862
0.00268950697569757,-0.1471051739699254
0.00268980697569757,-0.147741115245667
0.00269010697569757,-0.1482180712024744
0.00269040697569757,-0.1478206079051367
0.00269070697569757,-0.1476616225862006
0.002691006975697571,-0.148297563861943
0.002691306975697571,-0.1482180712024778
0.002691606975697571,-0.1496489390728969
0.00269190697569757,-0.1498874170513
0.00269220697569757,-0.1495694464134286
0.00269250697569757,-0.1507618363054463
0.00269280697569757,-0.1510798069433177
0.00269310697569757,-0.1513182849217212
0.00269340697569757,-0.1521132115163996
0.00269370697569757,-0.1518747335379961
0.00269400697569757,-0.1527491527921424
0.00269430697569757,-0.1528286454516102
0.00269460697569757,-0.152431182154271
0.00269490697569757,-0.1528286454516102
0.00269520697569757,-0.1536235720462887
0.00269550697569757,-0.1532261087489502
0.00269580697569757,-0.1538620500246911
0.00269610697569757,-0.1537825573652245
0.002696406975697571,-0.153067123430017
0.002696706975697571,-0.1548159619383058
0.002697006975697571,-0.1544979913004351
0.00269730697569757,-0.1545774839599028
0.00269760697569757,-0.1557698738519205
0.00269790697569757,-0.1546569766193707
0.00269820697569757,-0.1554519032140491
0.00269850697569757,-0.156008351830324
0.00269880697569757,-0.155531395873517
0.00269910697569757,-0.1566442931060668
0.00269940697569757,-0.1571212490628739
0.00269970697569757,-0.1568827710844703
0.00270000697569757,-0.1572802343818095
0.00270030697569757,-0.1579956683170201
0.00270060697569757,-0.1585521169332951
0.00270090697569757,-0.1591880582090366
0.00270120697569757,-0.159665014165844
0.00270150697569757,-0.1598239994847803
0.00270180697569757,-0.1606189260794576
0.002702106975697571,-0.1613343600146705
0.002702406975697571,-0.1618113159714764
0.002702706975697571,-0.1616523306525424
0.00270300697569757,-0.1624472572472195
0.00270330697569757,-0.1625267499066873
0.00270360697569757,-0.162685735225623
0.00270390697569757,-0.1619703012904124
0.00270420697569757,-0.161652330652541
0.00270450697569757,-0.1622087792688159
0.00270480697569757,-0.1620497939498802
0.00270510697569757,-0.1618908086309445
0.00270540697569757,-0.1629242132040265
0.00270570697569757,-0.1632421838418979
0.00270600697569757,-0.1630037058634944
0.00270630697569757,-0.1650705150096583
0.00270660697569757,-0.1649910223501906
0.00270690697569757,-0.1654679783069967
0.00270720697569757,-0.1673758021342223
0.002707506975697571,-0.1669783388368869
0.002707806975697571,-0.1671373241558246
0.002708106975697571,-0.1684092067073062
0.00270840697569757,-0.1675347874531615
0.00270870697569757,-0.1682502213883721
0.00270900697569757,-0.1686476846857113
0.00270930697569757,-0.1676937727720972
0.00270960697569757,-0.1690451479830506
0.00270990697569757,-0.1692836259614541
0.00271020697569757,-0.16832971404784
0.00271050697569757,-0.1701580452156004
0.00271080697569757,-0.1699990598966647
0.00271110697569757,-0.1699990598966647
0.00271140697569757,-0.1714299277670859
0.00271170697569757,-0.171350435107618
0.00271200697569757,-0.1709529718102795
0.00271230697569757,-0.1730992736159067
0.00271260697569757,-0.1723838396807013
0.00271290697569757,-0.1723838396807
0.002713206975697571,-0.174212170848458
0.002713506975697571,-0.172860795637509
0.002713806975697571,-0.1738942002105901
0.00271410697569757,-0.174450648826864
0.00271440697569757,-0.1735762295727177
0.00271470697569757,-0.1742916635079283
0.00271500697569757,-0.1747686194647354
0.00271530697569757,-0.173417244253782
0.00271560697569757,-0.1747686194647354
0.00271590697569757,-0.1743711561673962
0.00271620697569757,-0.1740531855295248
0.00271650697569757,-0.1755635460594138
0.00271680697569757,-0.1750070974431389
0.00271710697569757,-0.1753250680810103
0.00271740697569757,-0.1761994873351566
0.00271770697569757,-0.175563546059415
0.00271800697569757,-0.1765969506324939
0.00271830697569757,-0.1772328919082374
0.002718606975697571,-0.1768354286109008
0.002718906975697571,-0.1776303552055788
0.002719206975697571,-0.1781868038218524
0.00271950697569757,-0.178027818502917
0.00271980697569757,-0.1786637597786598
0.00272010697569757,-0.1786637597786598
0.00272040697569757,-0.1792202083949347
0.00272070697569757,-0.1812870175410987
0.00272100697569757,-0.1802536129680167
0.00272130697569757,-0.1808895542437594
0.00272160697569757,-0.1821614367952449
0.00272190697569757,-0.1816844808384379
0.00272220697569757,-0.1821614367952449
0.00272250697569757,-0.1833538266872626
0.00272280697569757,-0.1823999147736485
0.00272310697569757,-0.1825589000925839
0.00272340697569757,-0.1830358560493904
0.00272370697569757,-0.1832743340277943
0.00272400697569757,-0.1835128120061978
0.002724306975697571,-0.1829563633899241
0.002724606975697571,-0.1833538266872623
0.002724906975697571,-0.1831948413683271
0.00272520697569757,-0.1832743340277948
0.00272550697569757,-0.1840692606224732
0.00272580697569757,-0.1842282459414089
0.00272610697569757,-0.1839897679630054
0.00272640697569757,-0.1852616505144909
0.00272670697569757,-0.185182157855023
0.00272700697569757,-0.1850231725360874
0.00272730697569757,-0.1857386064712979
0.00272760697569757,-0.1861360697686372
0.00272790697569757,-0.1858180991307658
0.00272820697569757,-0.1868515037038478
0.00272850697569757,-0.187248967001187
0.00272880697569757,-0.1874079523201224
0.00272910697569757,-0.1879644009363966
0.00272940697569757,-0.1867720110443821
0.002729706975697571,-0.186772011044382
0.002730006975697571,-0.1878849082769279
0.002730306975697571,-0.1868515037038465
0.00273060697569757,-0.1861360697686372
0.00273090697569757,-0.1870899816822513
0.00273120697569757,-0.186215562428105
0.00273150697569757,-0.186215562428105
0.00273180697569757,-0.1865335330659764
0.00273210697569757,-0.1853411431739587
0.00273240697569757,-0.1856591138118301
0.00273270697569757,-0.1863745477470407
0.00273300697569757,-0.185182157855023
0.00273330697569757,-0.1860565771091693
0.00273360697569757,-0.1855796211523623
0.00273390697569757,-0.1854206358334266
0.00273420697569757,-0.1869309963633129
0.00273450697569757,-0.1861360697686386
0.00273480697569757,-0.1861360697686372
0.002735106975697571,-0.1870104890227827
0.002735406975697571,-0.1866130257254452
0.002735706975697571,-0.1871694743417213
0.002736006975697571,-0.1883618642337358
0.00273630697569757,-0.1878054156174619
0.00273660697569757,-0.188282371574269
0.00273690697569757,-0.1905876586988365
0.00273720697569757,-0.189315776147351
0.00273750697569757,-0.1894747614662867
0.00273780697569757,-0.1905876586988365
0.00273810697569757,-0.1903491807204329
0.00273840697569757,-0.1917005559313863
0.00273870697569757,-0.1917005559313863
0.00273900697569757,-0.1913825852935149
0.00273930697569757,-0.1934493944396789
0.00273960697569757,-0.1937673650775503
0.00273990697569757,-0.1933699017802118
0.00274020697569757,-0.1951982329479681
0.00274050697569757,-0.1949597549695684
0.002740806975697571,-0.1952777256074412
0.002741106975697571,-0.1963111301805206
0.002741406975697571,-0.1959136668831821
0.00274170697569757,-0.1959136668831821
0.00274200697569757,-0.1974240274130711
0.00274230697569757,-0.1969470714562641
0.00274260697569757,-0.1969470714562641
0.00274290697569757,-0.1979009833698782
0.00274320697569757,-0.1971855494346676
0.00274350697569757,-0.1978214907104104
0.00274380697569757,-0.1989343879429602
0.00274410697569757,-0.1982984466672174
0.00274440697569757,-0.1985369246456209
0.00274470697569757,-0.1994113438997673
0.00274500697569757,-0.1984574319861531
0.00274530697569757,-0.1989343879429593
0.00274560697569757,-0.1990933732618956
0.00274590697569757,-0.1984574319861543
0.002746206975697571,-0.1994908365592357
0.002746506975697571,-0.1998088071971069
0.002746806975697571,-0.2000472851755105
0.002747106975697571,-0.2002857631539142
0.00274740697569757,-0.2006832264512527
0.00274770697569757,-0.2011601824080598
0.00274800697569757,-0.2024320649595454
0.00274830697569757,-0.2016371383648669
0.00274860697569757,-0.2016371383648669
0.00274890697569757,-0.2019551090027383
0.00274920697569757,-0.2020346016622061
0.00274950697569757,-0.2024320649595454
0.00274980697569757,-0.2027500355974167
0.00275010697569757,-0.2024320649595454
0.00275040697569757,-0.2025115576190132
0.00275070697569757,-0.202114094321674
0.00275100697569757,-0.202114094321674
0.00275130697569757,-0.2021935869811417
0.00275160697569757,-0.2024320649595449
0.002751906975697571,-0.2019551090027397
0.002752206975697571,-0.202750035597417
0.002752506975697571,-0.2029090209163518
0.00275280697569757,-0.202591050278481
0.00275310697569757,-0.202591050278481
0.00275340697569757,-0.203624454851563
0.00275370697569757,-0.2030680062352881
0.00275400697569757,-0.2028295282568846
0.00275430697569757,-0.2034654695326273
0.00275460697569757,-0.2029885135758203
0.00275490697569757,-0.2039424254894344
0.00275520697569757,-0.2038629328299665
0.00275550697569757,-0.203624454851563
0.00275580697569757,-0.2040219181489022
0.00275610697569757,-0.2041014108083701
0.00275640697569757,-0.2041809034678378
0.00275670697569757,-0.2052938007003857
0.00275700697569757,-0.2052143080409201
0.002757306975697571,-0.2048963374030488
0.002757606975697571,-0.2050553227219841
0.002757906975697571,-0.2049758300625178
0.002758206975697571,-0.2057707566571945
0.00275850697569757,-0.2056117713382591
0.00275880697569757,-0.2056117713382591
0.00275910697569757,-0.2057707566571948
0.00275940697569757,-0.2052938007003877
0.00275970697569757,-0.2043398887867736
0.00276000697569757,-0.2043398887867736
0.00276030697569757,-0.2032269915542238
0.00276060697569757,-0.2026705429379489
0.00276090697569757,-0.2017166310243347
0.00276120697569757,-0.2013986603864634
0.00276150697569757,-0.2012396750675277
0.00276180697569757,-0.2009217044296563
0.00276210697569757,-0.2007627191107209
0.00276240697569757,-0.2013191677269945
0.00276270697569757,-0.2006037337917862
0.002763006975697571,-0.2009217044296557
0.002763306975697571,-0.2006037337917845
0.002763606975697571,-0.2003652558133825
0.00276390697569757,-0.2010011970891241
0.00276420697569757,-0.2006037337917849
0.00276450697569757,-0.2002062704944457
0.00276480697569757,-0.2007627191107206
0.00276510697569757,-0.2002857631539135
0.00276540697569757,-0.1997293145376386
0.00276570697569757,-0.2012396750675277
0.00276600697569757,-0.2005242411323171
0.00276630697569757,-0.2008422117701885
0.00276660697569757,-0.202114094321674
0.00276690697569757,-0.2012396750675277
0.00276720697569757,-0.202114094321674
0.00276750697569757,-0.2028295282568833
0.00276780697569757,-0.2014781530459337
0.00276810697569757,-0.2017166310243343
0.002768406975697571,-0.2013986603864622
0.002768706975697571,-0.2007627191107209
0.002769006975697571,-0.2009217044296551
0.002769306975697571,-0.2002857631539116
0.00276960697569757,-0.1992523585808316
0.00276990697569757,-0.1987754026240245
0.00277020697569757,-0.1982984466672174
0.00277050697569757,-0.1972650420941354
0.00277080697569757,-0.1967880861373284
0.00277110697569757,-0.1962316375210535
0.00277140697569757,-0.1955956962453107
0.00277170697569757,-0.1955162035858428
0.00277200697569757,-0.194403306353293
0.00277230697569757,-0.1940853357154216
0.00277260697569757,-0.1940853357154216
0.00277290697569757,-0.1941648283748895
0.00277320697569757,-0.1930519311423417
0.00277350697569757,-0.1942443210343552
0.00277380697569757,-0.1928929458234064
0.002774106975697571,-0.1925749751855338
0.002774406975697571,-0.1932109164612744
0.002774706975697571,-0.192654467844999
0.00277500697569757,-0.191859541250322
0.00277530697569757,-0.1926544678450005
0.00277560697569757,-0.1920185265692577
0.00277590697569757,-0.1916210632719185
0.00277620697569757,-0.1917800485908542
0.00277650697569757,-0.1905876586988365
0.00277680697569757,-0.19082613667724
0.00277710697569757,-0.1903491807204329
0.00277740697569757,-0.1898722247636259
0.00277770697569757,-0.189792732104158
0.00277800697569757,-0.1891567908284153
0.00277830697569757,-0.1875669376390584
0.00277860697569757,-0.1882028789148
0.00277890697569757,-0.1876464302985272
0.00277920697569757,-0.1865335330659784
0.002779506975697571,-0.1872489670011844
0.002779806975697571,-0.1858180991307646
0.002780106975697571,-0.1851821578550246
0.002780406975697571,-0.1860565771091676
0.00278070697569757,-0.1851026651955552
0.00278100697569757,-0.1845462165792803
0.00278130697569757,-0.1848641872171517
0.00278160697569757,-0.182638392752052
0.00278190697569757,-0.1828768707304556
0.00278220697569757,-0.1831153487088591
0.00278250697569757,-0.1820024514763093
0.00278280697569757,-0.1822409294547128
0.00278310697569757,-0.1822409294547128
0.00278340697569757,-0.1814460028600343
0.00278370697569757,-0.1821614367952449
0.00278400697569757,-0.1822409294547128
0.00278430697569757,-0.1815254955195035
0.00278460697569757,-0.1815254955195022
0.00278490697569757,-0.1817639734979053
0.002785206975697571,-0.1809690469032283
0.002785506975697571,-0.1815254955195009
0.002785806975697571,-0.1808100615842898
0.00278610697569757,-0.1798561496706775
0.00278640697569757,-0.1803331056274845
0.00278670697569757,-0.1795381790328061
0.00278700697569757,-0.1791407157354668
0.00278730697569757,-0.178027818502917
0.00278760697569757,-0.1777098478650456
0.00278790697569757,-0.1774713698866421
0.00278820697569757,-0.1762789799946244
0.00278850697569757,-0.1764379653135601
0.00278880697569757,-0.1761199946756887
0.00278910697569757,-0.1750070974431389
0.00278940697569757,-0.1747686194647354
0.00278970697569757,-0.1750070974431385
0.00279000697569757,-0.173655722232188
0.00279030697569757,-0.1738942002105887
0.002790606975697571,-0.1735762295727165
0.002790906975697571,-0.1729402882969761
0.002791206975697571,-0.1735762295727161
0.002791506975697571,-0.1727018103185717
0.00279180697569757,-0.1728607956375071
0.00279210697569757,-0.1727018103185714
0.00279240697569757,-0.1715094204265538
0.00279270697569757,-0.1725428249996357
0.00279300697569757,-0.1720658690428287
0.00279330697569757,-0.1712709424481502
0.00279360697569757,-0.1718273910644251
0.00279390697569757,-0.171906883723893
0.00279420697569757,-0.1703170305345361
0.00279450697569757,-0.1702375378750682
0.00279480697569757,-0.169840074577729
0.00279510697569757,-0.1694426112803905
0.00279540697569757,-0.1697605819182606
0.00279570697569757,-0.1690451479830519
0.00279600697569757,-0.1680912360694382
0.002796306975697571,-0.167932250750499
0.002796606975697571,-0.166978338836885
0.002796906975697571,-0.1661039195827412
0.00279720697569757,-0.1665808755395474
0.00279750697569757,-0.1655474709664654
0.00279780697569757,-0.1651500076691262
0.00279810697569757,-0.1649910223501905
0.00279840697569757,-0.1639576177771085
0.00279870697569757,-0.1637986324581728
0.00279900697569757,-0.1645935590528513
0.00279930697569757,-0.162685735225623
0.00279960697569757,-0.1629242132040265
0.00279990697569757,-0.1627652278850908
0.00280020697569757,-0.1617318233120089
