synth-diodes-out/-bkp-20250403/1kHz5V/scope.csv

#Digilent WaveForms Oscilloscope Acquisition
#Device Name: Discovery3
#Serial Number: SN:210415BD5874
#Date Time: 2025-04-02 18:48:17.433.013.470
#Sample rate: 1.88679e+06Hz
#Samples: 32768
#Trigger: Source: Channel 1 Type: Edge Condition: Rising Level: 0 V Hyst.: Auto HoldOff: 0 s
#Channel 1: Range: 200 mV/div Offset: 0 V Sample Mode: Average
#Wavegen Channel 1: Running
#Mode: Simple
#Type: Sine
#Frequency: 1 kHz
#Period: 1 ms
#Amplitude: 5 V
#Offset: 0 V
#Symmetry: 50 %
#Phase: 0 °

Time (s),Channel 1 (V)
-0.01397196624241706,0.1354117377787947
-0.01397143624241706,0.1355707230977304
-0.01397090624241706,0.134537318524647
-0.01397037624241706,0.1337423919299709
-0.01396984624241706,0.1342988405462439
-0.01396931624241706,0.1331064506542272
-0.01396878624241706,0.133185943313695
-0.01396825624241706,0.1334244212920986
-0.01396772624241706,0.1336628992705036
-0.01396719624241706,0.1344578258651791
-0.01396666624241706,0.13374239192997
-0.01396613624241706,0.1356502157571982
-0.01396560624241706,0.1827893628216302
-0.01396507624241706,0.1960646369527595
-0.01396454624241706,0.1956671736554217
-0.01396401624241706,0.1959851442932918
-0.01396348624241706,0.1967800708879708
-0.01396295624241706,0.1965415929095673
-0.01396242624241706,0.1958261589743577
-0.01396189624241706,0.1963826075906306
-0.01396136624241706,0.1958261589743577
-0.01396083624241706,0.1954286956770175
-0.01396030624241706,0.1957466663148889
-0.01395977624241706,0.1959056516338245
-0.01395924624241706,0.1955876809959518
-0.01395871624241706,0.1948722470607439
-0.01395818624241706,0.1962236222716959
-0.01395765624241706,0.195667173655421
-0.01395712624241706,0.1966210855690351
-0.01395659624241706,0.1986878947151991
-0.01395606624241706,0.1986878947151991
-0.01395553624241706,0.2012316598181655
-0.01395500624241706,0.2016291231155093
-0.01395447624241706,0.2019470937533807
-0.01395394624241706,0.2029010056669949
-0.01395341624241706,0.2013111524776399
-0.01395288624241706,0.2023445570507181
-0.01395235624241706,0.2017086157749772
-0.01395182624241706,0.2019470937533807
-0.01395129624241706,0.2752393257827336
-0.01395076624241706,0.2621230369705347
-0.01395023624241706,0.2596587645270405
-0.01394970624241706,0.2607716617595858
-0.01394917624241706,0.2606126764406501
-0.01394864624241706,0.2610896323974572
-0.01394811624241706,0.2618845589921392
-0.01394758624241706,0.2638718754788335
-0.01394705624241706,0.2648257873924442
-0.01394652624241706,0.2660181772844636
-0.01394599624241706,0.2672900598359491
-0.01394546624241706,0.2667336112196741
-0.01394493624241706,0.2684824497279627
-0.01394440624241706,0.2662566552628712
-0.01394387624241706,0.2672105671764812
-0.01394334624241706,0.2668925965386099
-0.01394281624241706,0.2664156405818028
-0.01394228624241706,0.2657002066465908
-0.01394175624241706,0.2649052800519152
-0.01394122624241706,0.2656207139871231
-0.01394069624241706,0.2649052800519138
-0.01394016624241706,0.2654617286681887
-0.01393963624241706,0.2662566552628671
-0.01393910624241706,0.2660181772844696
-0.01393857624241706,0.269356868982107
-0.01393804624241706,0.2700723029173236
-0.01393751624241706,0.2703107808957272
-0.01393698624241706,0.2842219963026
-0.01393645624241706,0.3331099818753233
-0.01393592624241706,0.3323945479401152
-0.01393539624241706,0.3302482461344821
-0.01393486624241706,0.329294334220868
-0.01393433624241706,0.3298507828371429
-0.01393380624241706,0.3281814369883216
-0.01393327624241706,0.3300892608155435
-0.01393274624241706,0.3284994076261924
-0.01393221624241706,0.3296123048587393
-0.01393168624241706,0.3291353489019323
-0.01393115624241706,0.3279429590099146
-0.01393062624241706,0.3300892608155464
-0.01393009624241706,0.3300892608155464
-0.01392956624241706,0.3308841874102249
-0.01392903624241706,0.3340638937889386
-0.01392850624241706,0.333904908470003
-0.01392797624241706,0.3339049084700028
-0.01392744624241706,0.3338254158105353
-0.01392691624241706,0.3343023717673413
-0.01392638624241706,0.3341433864484065
-0.01392585624241706,0.3325535332590496
-0.01392532624241706,0.3331099818753245
-0.01392479624241706,0.3317586066643723
-0.01392426624241706,0.3323945479401128
-0.01392373624241706,0.3308841874102249
-0.01392320624241706,0.3300892608155464
-0.01392267624241706,0.3361307029351026
-0.01392214624241706,0.3868470196755875
-0.01392161624241706,0.3868470196755875
-0.01392108624241706,0.3877214389297338
-0.01392055624241706,0.3867675270161197
-0.01392002624241706,0.3889138288217515
-0.01391949624241706,0.3889933214812221
-0.01391896624241706,0.3905036820111103
-0.01391843624241706,0.3915370865841885
-0.01391790624241706,0.3910601306273833
-0.01391737624241706,0.3916960719031261
-0.01391684624241706,0.3898677407353656
-0.01391631624241706,0.3901062187137677
-0.01391578624241706,0.3893112921190922
-0.01391525624241706,0.3878804242486695
-0.01391472624241706,0.3887548435028158
-0.01391419624241706,0.3867675270161197
-0.01391366624241706,0.3868470196755848
-0.01391313624241706,0.3853366591457012
-0.01391260624241706,0.3850186885078277
-0.01391207624241706,0.3851776738267628
-0.01391154624241706,0.3856546297835698
-0.01391101624241706,0.3880394095676052
-0.01391048624241706,0.3888343361622841
-0.01390995624241706,0.3890728141406867
-0.01390942624241706,0.3906626673300441
-0.01390889624241706,0.3899472333948335
-0.01390836624241706,0.3911396232868511
-0.01390783624241706,0.4478973821468946
-0.01390730624241706,0.4491692646983755
-0.01390677624241706,0.4477383968279566
-0.01390624624241706,0.4474204261900852
-0.01390571624241706,0.4465460069359389
-0.01390518624241706,0.4454331097033911
-0.01390465624241706,0.4465460069359369
-0.01390412624241706,0.4463870216170035
-0.01390359624241706,0.444479197789775
-0.01390306624241706,0.4461485436385997
-0.01390253624241706,0.445989558319664
-0.01390200624241706,0.4474999188495575
-0.01390147624241706,0.4499641912930518
-0.01390094624241706,0.4504411472498633
-0.01390041624241706,0.4511565811850739
-0.01389988624241706,0.4498052059741205
-0.01389935624241706,0.4509975958661346
-0.01389882624241706,0.4490102793794457
-0.01389829624241706,0.4481358601252958
-0.01389776624241706,0.4489307867199743
-0.01389723624241706,0.4476589041684887
-0.01389670624241706,0.4473409335306152
-0.01389617624241706,0.4461485436385985
-0.01389564624241706,0.4455126023628581
-0.01389511624241706,0.445989558319664
-0.01389458624241706,0.4448766610871142
-0.01389405624241706,0.4467049922548746
-0.01389352624241706,0.4432868078978899
-0.01389299624241706,0.5161815766296384
-0.01389246624241706,0.5083912960019221
-0.01389193624241706,0.5095836858939398
-0.01389140624241706,0.5102196271696825
-0.01389087624241706,0.5090272372776639
-0.01389034624241706,0.5084707886613909
-0.01388981624241706,0.5089477446181961
-0.01388928624241706,0.5086297739803256
-0.01388875624241706,0.5085502813208578
-0.01388822624241706,0.5073578914288401
-0.01388769624241706,0.5065629648341609
-0.01388716624241706,0.5061655015368233
-0.01388663624241706,0.5054500676016118
-0.01388610624241706,0.506403979515226
-0.01388557624241706,0.5067219501530974
-0.01388504624241706,0.5090272372776662
-0.01388451624241706,0.5097426712128741
-0.01388398624241706,0.5095041932344719
-0.01388345624241706,0.512047958337443
-0.01388292624241706,0.5098221638723434
-0.01388239624241706,0.510060641850747
-0.01388186624241706,0.5101401345102115
-0.01388133624241706,0.5083912960019253
-0.01388080624241706,0.5091862225966005
-0.01388027624241706,0.5075963694072436
-0.01387974624241706,0.5075168767477758
-0.01387921624241706,0.5594255833802869
-0.01387868624241706,0.5641156502888727
-0.01387815624241706,0.5605384806128283
-0.01387762624241706,0.5604589879533604
-0.01387709624241706,0.5617308705048459
-0.01387656624241706,0.560935943910169
-0.01387603624241706,0.5618103631643122
-0.01387550624241706,0.5640361576294094
-0.01387497624241706,0.564195142948349
-0.01387444624241706,0.5648310842240919
-0.01387391624241706,0.5645926062456883
-0.01387338624241706,0.5634002163536729
-0.01387285624241706,0.5645926062456861
-0.01387232624241706,0.5628437677373958
-0.01387179624241706,0.5626052897589922
-0.01387126624241706,0.5624463044400565
-0.01387073624241706,0.5606179732722979
-0.01387020624241706,0.5615718851859085
-0.01386967624241706,0.559664061358682
-0.01386914624241706,0.5606974659317639
-0.01386861624241706,0.5595845686992141
-0.01386808624241706,0.5594255833802789
-0.01386755624241706,0.5597435540181511
-0.01386702624241706,0.560458987953359
-0.01386649624241706,0.5620488411427172
-0.01386596624241706,0.5629232603968636
-0.01386543624241706,0.5621283338021852
-0.01386490624241706,0.5981385085411625
-0.01386437624241706,0.6221452917003643
-0.01386384624241706,0.6120497239479916
-0.01386331624241706,0.6103008854396991
-0.01386278624241706,0.609823929482892
-0.01386225624241706,0.6072801643799134
-0.01386172624241706,0.6031465460876005
-0.01386119624241706,0.6017951708766421
-0.01386066624241706,0.5989334351357972
-0.01386013624241706,0.59956937641154
-0.01385960624241706,0.5996488690710079
-0.01385907624241706,0.5998873470494137
-0.01385854624241706,0.6011592296008945
-0.01385801624241706,0.6002053176872828
-0.01385748624241706,0.6009207516224934
-0.01385695624241706,0.6029875607686573
-0.01385642624241706,0.6037824873633389
-0.01385589624241706,0.6055313258716252
-0.01385536624241706,0.6059287891689675
-0.01385483624241706,0.6070416864015175
-0.01385430624241706,0.607757120336728
-0.01385377624241706,0.6065647304447112
-0.01385324624241706,0.6069621937420487
-0.01385271624241706,0.6052133552337602
-0.01385218624241706,0.6030670534281252
-0.01385165624241706,0.6013977075793004
-0.01385112624241706,0.6006822736440899
-0.01385059624241706,0.5846247564316516
-0.01385006624241706,0.6211118871272595
-0.01384953624241706,0.6479804060274574
-0.01384900624241706,0.6436878024161938
-0.01384847624241706,0.6457546115623578
-0.01384794624241706,0.6467085234759721
-0.01384741624241706,0.6467880161354397
-0.01384688624241706,0.6484573619842645
-0.01384635624241706,0.646708523475972
-0.01384582624241706,0.647662435389586
-0.01384529624241706,0.6477419280490516
-0.01384476624241706,0.6464700454975675
-0.01384423624241706,0.6459930895407622
-0.01384370624241706,0.6444032363514044
-0.01384317624241706,0.6448801923082115
-0.01384264624241706,0.6437672950756617
-0.01384211624241706,0.6412235299726924
-0.01384158624241706,0.642177441886303
-0.01384105624241706,0.6416209932700299
-0.01384052624241706,0.6412235299726906
-0.01383999624241706,0.6417004859294977
-0.01383946624241706,0.6411440373132271
-0.01383893624241706,0.6435288170972538
-0.01383840624241706,0.6441647583729998
-0.01383787624241706,0.643608309756726
-0.01383734624241706,0.6460725822002291
-0.01383681624241706,0.6444827290108722
-0.01383628624241706,0.6476624353896858
-0.01383575624241706,0.7025123704222991
-0.01383522624241706,0.6664227030239974
-0.01383469624241706,0.669681902062179
-0.01383416624241706,0.6675356002565472
-0.01383363624241706,0.6681715415322874
-0.01383310624241706,0.6667406736618713
-0.01383257624241706,0.6665816883429331
-0.01383204624241706,0.6668201663213367
-0.01383151624241706,0.6643558938778334
-0.01383098624241706,0.6670586442997388
-0.01383045624241706,0.6663432103645309
-0.01382992624241706,0.6670586442997388
-0.01382939624241706,0.6692844387648398
-0.01382886624241706,0.6690459607864363
-0.01382833624241706,0.6688869754675006
-0.01382780624241706,0.668092048872821
-0.01382727624241706,0.6674561075970805
-0.01382674624241706,0.6676150929160151
-0.01382621624241706,0.6653098057914476
-0.01382568624241706,0.6649123424941084
-0.01382515624241706,0.6628455333479449
-0.01382462624241706,0.6631635039858153
-0.01382409624241706,0.6635609672831542
-0.01382356624241706,0.6614941581369911
-0.01382303624241706,0.6622095920722016
-0.01382250624241706,0.6615736507964589
-0.01382197624241706,0.6630045186667959
-0.01382144624241706,0.6167397908566786
-0.01382091624241706,0.6523525022981889
-0.01382038624241706,0.6500472151736214
-0.01381985624241706,0.6494112738978787
-0.01381932624241706,0.6500472151736194
-0.01381879624241706,0.6489343179410736
-0.01381826624241706,0.6473444647517147
-0.01381773624241706,0.6488548252816038
-0.01381720624241706,0.6471059867733111
-0.01381667624241706,0.6458341042218261
-0.01381614624241706,0.6460725822002247
-0.01381561624241706,0.6436083097567304
-0.01381508624241706,0.6444827290108722
-0.01381455624241706,0.6430518611404511
-0.01381402624241706,0.642574905183644
-0.01381349624241706,0.6444827290108702
-0.01381296624241706,0.6433698317783244
-0.01381243624241706,0.6457546115623578
-0.01381190624241706,0.6455161335839542
-0.01381137624241706,0.6453571482650186
-0.01381084624241706,0.6452776556055475
-0.01381031624241706,0.6435288170972614
-0.01380978624241706,0.6440057730540643
-0.01380925624241706,0.6417004859294977
-0.01380872624241706,0.641541500610562
-0.01380819624241706,0.64050809603748
-0.01380766624241706,0.6387592575291918
-0.01380713624241706,0.6411440373132185
-0.01380660624241706,0.5978205379032474
-0.01380607624241706,0.5987744498168616
-0.01380554624241706,0.5996488690710079
-0.01380501624241706,0.5999668397088792
-0.01380448624241706,0.5999668397088792
-0.01380395624241706,0.6014772002387683
-0.01380342624241706,0.6029080681091895
-0.01380289624241706,0.6016361855577039
-0.01380236624241706,0.6025106048118468
-0.01380183624241706,0.6006027809846209
-0.01380130624241706,0.600046332368348
-0.01380077624241706,0.6003643030062185
-0.01380024624241706,0.5974230746059082
-0.01379971624241706,0.5961511920544227
-0.01379918624241706,0.5960716993949511
-0.01379865624241706,0.5940048902487947
-0.01379812624241706,0.5951972801408085
-0.01379759624241706,0.5926535150378375
-0.01379706624241706,0.5921765590810304
-0.01379653624241706,0.59185858844316
-0.01379600624241706,0.5923355443999653
-0.01379547624241706,0.5937664122703873
-0.01379494624241706,0.5937664122703873
-0.01379441624241706,0.5940048902487909
-0.01379388624241706,0.5941638755677228
-0.01379335624241706,0.5920970664215861
-0.01379282624241706,0.6050543699147978
-0.01379229624241706,0.5880429407887026
-0.01379176624241706,0.5830349032422283
-0.01379123624241706,0.5820809913286141
-0.01379070624241706,0.5805706307987247
-0.01379017624241706,0.5804116454797897
-0.01378964624241706,0.5794577335661752
-0.01378911624241706,0.5781063583552219
-0.01378858624241706,0.5777883877173505
-0.01378805624241706,0.5768344758037379
-0.01378752624241706,0.5777088950578811
-0.01378699624241706,0.5780268656957536
-0.01378646624241706,0.5804911381392572
-0.01378593624241706,0.5794577335661752
-0.01378540624241706,0.5793782409067074
-0.01378487624241706,0.5803321528203182
-0.01378434624241706,0.5785038216525645
-0.01378381624241706,0.5777088950578827
-0.01378328624241706,0.5772319391010756
-0.01378275624241706,0.5761190418685258
-0.01378222624241706,0.5749266519765044
-0.01378169624241706,0.572859842830348
-0.01378116624241706,0.5733367987871513
-0.01378063624241706,0.5719854235761979
-0.01378010624241706,0.5711904969815195
-0.01377957624241706,0.5715084676193853
-0.01377904624241706,0.5684877465596189
-0.01377851624241706,0.5718264382572561
-0.01377798624241706,0.5854196830262637
-0.01377745624241706,0.5851017123883923
-0.01377692624241706,0.5861351169614742
-0.01377639624241706,0.5846247564315876
-0.01377586624241706,0.5859761316425361
-0.01377533624241706,0.5851812050478601
-0.01377480624241706,0.583670844517971
-0.01377427624241706,0.5834323665395675
-0.01377374624241706,0.5805706307987271
-0.01377321624241706,0.581683528031273
-0.01377268624241706,0.5797757042040501
-0.01377215624241706,0.5777883877173505
-0.01377162624241706,0.5780268656957541
-0.01377109624241706,0.5762780271874615
-0.01377056624241706,0.5767549831442658
-0.01377003624241706,0.5752446226143823
-0.01376950624241706,0.5771524464416078
-0.01376897624241706,0.5765165051658651
-0.01376844624241706,0.5777883877173505
-0.01376791624241706,0.5778678803768182
-0.01376738624241706,0.5777883877173506
-0.01376685624241706,0.5773114317605434
-0.01376632624241706,0.5758010712306544
-0.01376579624241706,0.5748471593170403
-0.01376526624241706,0.5734957841060845
-0.01376473624241706,0.5721444088951275
-0.01376420624241706,0.5688057171974902
-0.01376367624241706,0.5436065441461774
-0.01376314624241706,0.5866120729182813
-0.01376261624241706,0.5823194693070177
-0.01376208624241706,0.5807296161176616
-0.01376155624241706,0.5811270794149993
-0.01376102624241706,0.5804911381392572
-0.01376049624241706,0.5799346895229823
-0.01375996624241706,0.5805706307987251
-0.01375943624241706,0.5816835280312763
-0.01375890624241706,0.5823989619664842
-0.01375837624241706,0.5816835280312763
-0.01375784624241706,0.581604035371807
-0.01375731624241706,0.5820809913286141
-0.01375678624241706,0.5794577335661752
-0.01375625624241706,0.5778678803768175
-0.01375572624241706,0.5773909244200122
-0.01375519624241706,0.5759600565495901
-0.01375466624241706,0.5758805638901223
-0.01375413624241706,0.5734162914466191
-0.01375360624241706,0.5733367987871513
-0.01375307624241706,0.5733367987871513
-0.01375254624241706,0.5710315116625837
-0.01375201624241706,0.5710315116625837
-0.01375148624241706,0.571428974959923
-0.01375095624241706,0.5715879602788602
-0.01375042624241706,0.5724623795330054
-0.01374989624241706,0.5727008575114081
-0.01374936624241706,0.5983769865195223
-0.01374883624241706,0.5784243289930933
-0.01374830624241706,0.5792192555877718
-0.01374777624241706,0.5790602702688323
-0.01374724624241706,0.5769934611226759
-0.01374671624241706,0.5754036079333152
-0.01374618624241706,0.573972740062894
-0.01374565624241706,0.5742112180412975
-0.01374512624241706,0.5724623795330045
-0.01374459624241706,0.5722239015546019
-0.01374406624241706,0.5713494823004551
-0.01374353624241706,0.569362165813759
-0.01374300624241706,0.5696006437921626
-0.01374247624241706,0.5680902832622754
-0.01374194624241706,0.5691236878353568
-0.01374141624241706,0.5698391217705647
-0.01374088624241706,0.5701570924084375
-0.01374035624241706,0.5700775997489697
-0.01373982624241706,0.5682492685812092
-0.01373929624241706,0.5693621658137561
-0.01373876624241706,0.567772312624405
-0.01373823624241706,0.565308040180899
-0.01373770624241706,0.5640361576294134
-0.01373717624241706,0.5595050760397463
-0.01373664624241706,0.557040803596237
-0.01373611624241706,0.5537021118985997
-0.01373558624241706,0.5514763174334979
-0.01373505624241706,0.5352598149020537
-0.01373452624241706,0.5542585605148685
-0.01373399624241706,0.5558484137042254
-0.01373346624241706,0.5549739944500761
-0.01373293624241706,0.5533046486012574
-0.01373240624241706,0.554497038493272
-0.01373187624241706,0.5540995751959328
-0.01373134624241706,0.5567228329583717
-0.01373081624241706,0.5571997889151807
-0.01373028624241706,0.5583126861477266
-0.01372975624241706,0.5607769585912318
-0.01372922624241706,0.5591076127424071
-0.01372869624241706,0.5602205099749569
-0.01372816624241706,0.5574382668935777
-0.01372763624241706,0.5548945017906113
-0.01372710624241706,0.5548945017906113
-0.01372657624241706,0.5522712440281724
-0.01372604624241706,0.5505224055198799
-0.01372551624241706,0.5491710303089264
-0.01372498624241706,0.5481376257358443
-0.01372445624241706,0.5480581330763767
-0.01372392624241706,0.5463092945680841
-0.01372339624241706,0.5476606697790374
-0.01372286624241706,0.5475016844601017
-0.01372233624241706,0.5485350890331853
-0.01372180624241706,0.5494095082873285
-0.01372127624241706,0.5464682798870251
-0.01372074624241706,0.5485350890331837
-0.01372021624241706,0.5459913239302127
-0.01371968624241706,0.5449579193571307
-0.01371915624241706,0.5447989340381901
-0.01371862624241706,0.5420961836162932
-0.01371809624241706,0.5419371982973525
-0.01371756624241706,0.5401088671295922
-0.01371703624241706,0.5394729258538494
-0.01371650624241706,0.5387574919186339
-0.01371597624241706,0.5360547414967369
-0.01371544624241706,0.5370086534103462
-0.01371491624241706,0.5366906827724748
-0.01371438624241706,0.536054741496732
-0.01371385624241706,0.53653169745354
