-20250405-BKP/synth-diodes-1f-1r-in-T00-L10-D00/1kHz200mV/scope.csv

#Digilent WaveForms Oscilloscope Acquisition
#Device Name: Discovery3
#Serial Number: SN:210415BD5874
#Date Time: 2025-04-03 15:18:57.096.155.780
#Sample rate: 3.33333e+06Hz
#Samples: 32768
#Trigger: Source: Channel 1 Type: Edge Condition: Rising Level: 0 V Hyst.: Auto HoldOff: 0 s
#Channel 1: Range: 200 mV/div Offset: 0 V Sample Mode: Average
#Wavegen Channel 1: Running
#Mode: Simple
#Type: Sine
#Frequency: 1 kHz
#Period: 1 ms
#Amplitude: 200 mV
#Offset: 0 V
#Symmetry: 50 %
#Phase: 0 °

Time (s),Channel 1 (V)
0.002654609916874041,-0.0965478425483762
0.002654909916874041,-0.09686581318624757
0.002655209916874041,-0.09702479850518327
0.002655509916874041,-0.0965478425483762
0.002655809916874041,-0.09734276914305465
0.00265610991687404,-0.09622987191050482
0.00265640991687404,-0.09630936456997252
0.00265670991687404,-0.09622987191050496
0.00265700991687404,-0.09591190127263402
0.00265730991687404,-0.09622987191050424
0.002657609916874041,-0.09678632052677885
0.002657909916874041,-0.09630936456997295
0.002658209916874041,-0.09646834988890893
0.002658509916874041,-0.09678632052677973
0.002658809916874041,-0.09662733520784404
0.002659109916874041,-0.09718378382411895
0.002659409916874041,-0.09742226180252249
0.002659709916874041,-0.09710429116465111
0.002660009916874041,-0.09742226180252249
0.002660309916874041,-0.09805820307826524
0.002660609916874041,-0.0979787104187974
0.002660909916874041,-0.09774023244039387
0.002661209916874041,-0.09893262233241154
0.002661509916874041,-0.09813769573773309
0.00266180991687404,-0.09877363701347584
0.00266210991687404,-0.09869414435400814
0.00266240991687404,-0.0982966810566695
0.00266270991687404,-0.09861465169453958
0.002663009916874041,-0.09797871041879681
0.002663309916874041,-0.09766073978092703
0.002663609916874041,-0.09821718839720137
0.002663909916874041,-0.09845566637560388
0.002664209916874041,-0.09813769573773309
0.002664509916874041,-0.09877363701347584
0.002664809916874041,-0.09789921775932955
0.002665109916874041,-0.09789921775932955
0.002665409916874041,-0.09805820307826524
0.002665709916874041,-0.09742226180252249
0.002666009916874041,-0.09781972509986171
0.002666309916874041,-0.09845566637560446
0.002666609916874041,-0.09805820307826524
0.002666909916874041,-0.09774023244039387
0.00266720991687404,-0.09805820307826524
0.00266750991687404,-0.09774023244039445
0.00266780991687404,-0.09861465169453856
0.00266810991687404,-0.09829668105666936
0.00266840991687404,-0.09853515903507189
0.002668709916874041,-0.09893262233241241
0.002669009916874041,-0.09940957828921904
0.002669309916874041,-0.09964805626762374
0.002669609916874041,-0.1005224755217684
0.002669909916874041,-0.1002045048838971
0.002670209916874041,-0.1002045048838971
0.002670509916874041,-0.1006814608407041
0.002670809916874041,-0.1006019681812363
0.002671109916874041,-0.1001250122244292
0.002671409916874041,-0.1013968947759147
0.002671709916874041,-0.1005224755217684
0.002672009916874041,-0.09996602690549351
0.002672309916874041,-0.1001250122244292
0.002672609916874041,-0.1002839975433649
0.00267290991687404,-0.09988653424602567
0.00267320991687404,-0.1003634902028319
0.00267350991687404,-0.09956856360815573
0.00267380991687404,-0.1002045048838959
0.002674109916874041,-0.09980704158655826
0.002674409916874041,-0.1000455195649606
0.002674709916874041,-0.09964805626762258
0.002675009916874041,-0.09988653424602495
0.002675309916874041,-0.09948907094868645
0.002675609916874041,-0.09956856360815429
0.002675909916874041,-0.09988653424602567
0.002676209916874041,-0.1002839975433649
0.002676509916874041,-0.09980704158655783
0.002676809916874041,-0.1002839975433649
0.002677109916874041,-0.1006814608407041
0.002677409916874041,-0.100760953500172
0.002677709916874041,-0.1008404461596398
0.002678009916874041,-0.1016353727543183
0.00267830991687404,-0.1006814608407041
0.00267860991687404,-0.101237909456978
0.00267890991687404,-0.1015558800948498
0.00267920991687404,-0.1011584167975119
0.00267950991687404,-0.1025097920084621
0.002679809916874041,-0.1021918213705919
0.002680109916874041,-0.1014763874353831
0.002680409916874041,-0.1017943580732542
0.002680709916874041,-0.1019533433921896
0.002681009916874041,-0.1006019681812363
0.002681309916874041,-0.1011584167975112
0.002681609916874041,-0.1017943580732539
0.002681909916874041,-0.1016353727543183
0.002682209916874041,-0.1021123287111253
0.002682509916874041,-0.1009994314785755
0.002682809916874041,-0.1011584167975112
0.002683109916874041,-0.1016353727543183
0.002683409916874041,-0.1011584167975112
0.002683709916874041,-0.1011584167975112
0.00268400991687404,-0.1014763874353826
0.00268430991687404,-0.1004429828623025
0.00268460991687404,-0.1010789241380422
0.00268490991687404,-0.1022713140300588
0.002685209916874041,-0.1010789241380452
0.002685509916874041,-0.1021123287111255
0.002685809916874041,-0.1021918213705926
0.002686109916874041,-0.1018738507327218
0.002686409916874041,-0.1026687773274002
0.002686709916874041,-0.1023508066895289
0.002687009916874041,-0.1020328360516575
0.002687309916874041,-0.1035431965815465
0.002687609916874041,-0.1035431965815465
0.002687909916874041,-0.1024302993489967
0.002688209916874041,-0.1040201525383536
0.002688509916874041,-0.1035431965815465
0.002688809916874041,-0.1025892846679324
0.002689109916874041,-0.1042586305167571
0.00268940991687404,-0.1025892846679324
0.00268970991687404,-0.1029867479652709
0.00269000991687404,-0.1038611672194163
0.00269030991687404,-0.1025892846679347
0.00269060991687404,-0.1029072553058032
0.002690909916874041,-0.1037021819004783
0.002691209916874041,-0.1015558800948513
0.002691509916874041,-0.1020328360516589
0.002691809916874041,-0.1028277626463359
0.002692109916874041,-0.1017943580732539
0.002692409916874041,-0.1023508066895289
0.002692709916874041,-0.1020328360516575
0.002693009916874041,-0.1016353727543183
0.002693309916874041,-0.1021918213705932
0.002693609916874041,-0.1021918213705932
0.002693909916874041,-0.1016353727543183
0.002694209916874041,-0.1029072553058038
0.002694509916874041,-0.1029072553058038
0.00269480991687404,-0.1027482699868681
0.00269510991687404,-0.1040996451978214
0.00269540991687404,-0.1033047186031444
0.00269570991687404,-0.1028277626463368
0.00269600991687404,-0.1037816745599483
0.002696309916874041,-0.1032252259436768
0.002696609916874041,-0.1040996451978229
0.002696909916874041,-0.1048945717924983
0.002697209916874041,-0.1040201525383536
0.002697509916874041,-0.1041791378572893
0.002697809916874041,-0.1055305130682427
0.002698109916874041,-0.1040201525383536
0.002698409916874041,-0.1044971084951607
0.002698709916874041,-0.104338123176225
0.002699009916874041,-0.1037816745599501
0.002699309916874041,-0.1042586305167571
0.002699609916874041,-0.1044176158356928
0.002699909916874041,-0.1034637039220787
0.002700209916874041,-0.1041791378572893
0.00270050991687404,-0.1036226892410144
0.00270080991687404,-0.1028277626463374
0.00270110991687404,-0.103861167219416
0.00270140991687404,-0.1027482699868701
0.00270170991687404,-0.1028277626463358
0.002702009916874041,-0.1036226892410125
0.002702309916874041,-0.1025892846679328
0.002702609916874041,-0.1028277626463371
0.002702909916874041,-0.1034637039220787
0.002703209916874041,-0.1026687773274002
0.002703509916874041,-0.1036226892410144
0.002703809916874041,-0.1037816745599501
0.002704109916874041,-0.1034637039220787
0.002704409916874041,-0.1038611672194179
0.002704709916874041,-0.1040996451978214
0.002705009916874041,-0.1044176158356928
0.002705309916874041,-0.1044971084951607
0.002705609916874041,-0.1044971084951607
0.00270590991687404,-0.1044176158356928
0.00270620991687404,-0.1054510204087748
0.00270650991687404,-0.1050535571114363
0.00270680991687404,-0.1047355864735648
0.00270710991687404,-0.1048945717924996
0.002707409916874041,-0.1043381231762247
0.002707709916874041,-0.1041791378572903
0.002708009916874041,-0.1047355864735633
0.002708309916874041,-0.1042586305167571
0.002708609916874041,-0.1044176158356928
0.002708909916874041,-0.1039406598788857
0.002709209916874041,-0.1037816745599501
0.002709509916874041,-0.1040201525383536
0.002709809916874041,-0.1033842112626108
0.002710109916874041,-0.1029867479652716
0.002710409916874041,-0.1039406598788857
0.002710709916874041,-0.1032252259436752
0.002711009916874041,-0.1037816745599501
0.002711309916874041,-0.1040201525383536
0.00271160991687404,-0.1028277626463359
0.00271190991687404,-0.103066240624739
0.00271220991687404,-0.1038611672194165
0.00271250991687404,-0.1030662406247409
0.00271280991687404,-0.1035431965815456
0.002713109916874041,-0.1040201525383527
0.002713409916874041,-0.103543196581549
0.002713709916874041,-0.1048945717924995
0.002714009916874041,-0.1046560938140964
0.002714309916874041,-0.1047355864735642
0.002714609916874041,-0.1049740644519677
0.002714909916874041,-0.104338123176225
0.002715209916874041,-0.1038611672194179
0.002715509916874041,-0.1040201525383536
0.002715809916874041,-0.1032252259436752
0.002716109916874041,-0.1019533433921896
0.002716409916874041,-0.1029867479652716
0.002716709916874041,-0.1011584167975112
0.00271700991687404,-0.1021918213705932
0.00271730991687404,-0.1018738507327218
0.00271760991687404,-0.1009199388191094
0.00271790991687404,-0.1013174021164462
0.00271820991687404,-0.1016353727543177
0.002718509916874041,-0.1006814608407054
0.002718809916874041,-0.1013968947759141
0.002719109916874041,-0.1010789241380425
0.002719409916874041,-0.1006019681812363
0.002719709916874041,-0.1017943580732539
0.002720009916874041,-0.1014763874353826
0.002720309916874041,-0.1006814608407041
0.002720609916874041,-0.1016353727543183
0.002720909916874041,-0.1020328360516575
0.002721209916874041,-0.1015558800948504
0.002721509916874041,-0.1018738507327218
0.002721809916874041,-0.1016353727543183
0.002722109916874041,-0.1021123287111253
0.002722409916874041,-0.1037021819004822
0.00272270991687404,-0.1029072553058038
0.00272300991687404,-0.1037021819004808
0.00272330991687404,-0.1042586305167561
0.00272360991687404,-0.1037021819004832
0.00272390991687404,-0.1047355864735623
0.002724209916874041,-0.105610005727708
0.002724509916874041,-0.104258630516757
0.002724809916874041,-0.1041791378572893
0.002725109916874041,-0.1041791378572893
0.002725409916874041,-0.1037021819004822
0.002725709916874041,-0.104815079133032
0.002726009916874041,-0.1040996451978214
0.002726309916874041,-0.1036226892410144
0.002726609916874041,-0.1044176158356928
0.002726909916874041,-0.1037816745599501
0.002727209916874041,-0.1032252259436752
0.002727509916874041,-0.1042586305167571
0.002727809916874041,-0.1027482699868681
0.00272810991687404,-0.1023508066895289
0.00272840991687404,-0.103304718603143
0.00272870991687404,-0.102509792008466
0.00272900991687404,-0.1025097920084646
0.00272930991687404,-0.1030662406247384
0.002729609916874041,-0.1015558800948517
0.002729909916874041,-0.1022713140300622
0.002730209916874041,-0.1029072553058009
0.002730509916874041,-0.1013174021164469
0.002730809916874041,-0.1018738507327218
0.002731109916874041,-0.1026687773274002
0.002731409916874041,-0.1013968947759147
0.002731709916874041,-0.1021918213705932
0.002732009916874041,-0.1024302993489967
0.002732309916874041,-0.1017943580732539
0.002732609916874041,-0.1023508066895289
0.002732909916874041,-0.1025892846679324
0.002733209916874041,-0.1027482699868681
0.002733509916874041,-0.1025892846679324
0.00273380991687404,-0.1031457332842073
0.00273410991687404,-0.1030662406247396
0.00273440991687404,-0.1040996451978196
0.00273470991687404,-0.1037816745599506
0.002735009916874041,-0.1035431965815472
0.002735309916874041,-0.1039406598788837
0.002735609916874041,-0.1028277626463364
0.002735909916874041,-0.10306624062474
0.002736209916874041,-0.1033842112626108
0.002736509916874041,-0.1025892846679324
0.002736809916874041,-0.1028277626463359
0.002737109916874041,-0.1029867479652716
0.002737409916874041,-0.1025892846679324
0.002737709916874041,-0.1029867479652716
0.002738009916874041,-0.102271314030061
0.002738309916874041,-0.1011584167975112
0.002738609916874041,-0.101237909456979
0.002738909916874041,-0.1011584167975112
0.00273920991687404,-0.1008404461596398
0.00273950991687404,-0.1016353727543183
0.00273980991687404,-0.101714865413786
0.00274010991687404,-0.1013174021164476
0.00274040991687404,-0.10155588009485
0.002740709916874041,-0.1016353727543181
0.002741009916874041,-0.1015558800948504
0.002741309916874041,-0.1015558800948494
0.002741609916874041,-0.1009994314785755
0.002741909916874041,-0.1020328360516575
0.002742209916874041,-0.1018738507327218
0.002742509916874041,-0.1009994314785755
0.002742809916874041,-0.1017943580732539
0.002743109916874041,-0.1024302993489967
0.002743409916874041,-0.1020328360516575
0.002743709916874041,-0.1020328360516575
0.002744009916874041,-0.1027482699868681
0.002744309916874041,-0.1025892846679324
0.002744609916874041,-0.1024302993489967
0.00274490991687404,-0.102271314030061
0.00274520991687404,-0.1025892846679318
0.00274550991687404,-0.102430299348997
0.00274580991687404,-0.1018738507327228
0.002746109916874041,-0.1017943580732544
0.002746409916874041,-0.1020328360516562
0.002746709916874041,-0.1013174021164467
0.002747009916874041,-0.1012379094569787
0.002747309916874041,-0.1010789241380433
0.002747609916874041,-0.1006814608407041
0.002747909916874041,-0.1006019681812363
0.002748209916874041,-0.1006814608407041
0.002748509916874041,-0.09996602690549351
0.002748809916874041,-0.1002045048838971
0.002749109916874041,-0.09980704158655783
0.002749409916874041,-0.1000455195649614
0.002749709916874041,-0.1005224755217684
0.002750009916874041,-0.1002045048838971
0.00275030991687404,-0.1006814608407041
0.00275060991687404,-0.1005224755217684
0.00275090991687404,-0.1006019681812361
0.00275120991687404,-0.1003634902028332
0.00275150991687404,-0.1011584167975097
0.002751809916874041,-0.1006814608407066
0.002752109916874041,-0.1020328360516558
0.002752409916874041,-0.1010789241380438
0.002752709916874041,-0.1013174021164469
0.002753009916874041,-0.1021918213705932
0.002753309916874041,-0.1017148654137861
0.002753609916874041,-0.1009199388191077
0.002753909916874041,-0.1010789241380433
0.002754209916874041,-0.1006019681812363
0.002754509916874041,-0.1005224755217684
0.002754809916874041,-0.1004429828623006
0.002755109916874041,-0.09940957828921861
0.002755409916874041,-0.09964805626762215
0.002755709916874041,-0.09988653424602567
0.00275600991687404,-0.09925059297028292
0.00275630991687404,-0.1002045048838953
0.00275660991687404,-0.09917110031081694
0.00275690991687404,-0.09925059297028278
0.002757209916874041,-0.09980704158655508
0.002757509916874041,-0.09829668105666979
0.002757809916874041,-0.0988531296729447
0.002758109916874041,-0.09940957828921773
0.002758409916874041,-0.09893262233241154
0.002758709916874041,-0.09853515903507232
0.002759009916874041,-0.09933008562975076
0.002759309916874041,-0.09917110031081507
0.002759609916874041,-0.09925059297028292
0.002759909916874041,-0.09980704158655783
0.002760209916874041,-0.09909160765134722
0.002760509916874041,-0.09964805626762215
0.002760809916874041,-0.1001250122244292
0.002761109916874041,-0.09933008562975076
0.00276140991687404,-0.1005224755217684
0.00276170991687404,-0.1001250122244292
0.00276200991687404,-0.09980704158655841
0.00276230991687404,-0.1009199388191056
0.00276260991687404,-0.1004429828623015
0.002762909916874041,-0.09909160765134939
0.002763209916874041,-0.1002839975433629
0.002763509916874041,-0.09917110031081362
0.002763809916874041,-0.09837617371613662
0.002764109916874041,-0.09933008562975076
0.002764409916874041,-0.09845566637560446
0.002764709916874041,-0.09821718839720094
0.002765009916874041,-0.09877363701347584
0.002765309916874041,-0.09813769573773309
0.002765609916874041,-0.09758124712145817
0.002765909916874041,-0.09837617371613662
0.002766209916874041,-0.09781972509986171
0.002766509916874041,-0.0979787104187974
0.002766809916874041,-0.09829668105666878
0.00276710991687404,-0.09766073978092601
0.00276740991687404,-0.09781972509986142
0.00276770991687404,-0.0971837838241201
0.00276800991687404,-0.09718378382411895
0.002768309916874041,-0.09774023244039445
0.002768609916874041,-0.09805820307826538
0.002768909916874041,-0.09813769573773397
0.002769209916874041,-0.09861465169453987
0.002769509916874041,-0.09845566637560446
0.002769809916874041,-0.09829668105666878
0.002770109916874041,-0.09853515903507232
0.002770409916874041,-0.09877363701347584
0.002770709916874041,-0.09813769573773309
0.002771009916874041,-0.09845566637560446
0.002771309916874041,-0.09829668105666878
0.002771609916874041,-0.09781972509986171
0.002771909916874041,-0.09789921775932955
0.002772209916874041,-0.09750175446199033
0.00277250991687404,-0.09742226180252249
0.00277280991687404,-0.09718378382411895
0.00277310991687404,-0.09726327648358665
0.00277340991687404,-0.0970247985051837
0.00277370991687404,-0.09710429116465097
0.002774009916874041,-0.09646834988890834
0.002774309916874041,-0.09646834988890733
0.002774609916874041,-0.09591190127263387
0.002774909916874041,-0.09615037925103698
0.002775209916874041,-0.09615037925103698
0.002775509916874041,-0.09551443797529421
0.002775809916874041,-0.09559393063476206
0.002776109916874041,-0.09535545265635853
0.002776409916874041,-0.09559393063476206
0.002776709916874041,-0.09551443797529421
0.002777009916874041,-0.09607088659156912
0.002777309916874041,-0.09551443797529421
0.002777609916874041,-0.09607088659156912
0.002777909916874041,-0.09559393063476206
0.00277820991687404,-0.09519646733742283
0.00277850991687404,-0.09575291595369674
0.00277880991687404,-0.09575291595369775
0.00277910991687404,-0.09615037925103626
0.002779409916874041,-0.0965478425483749
0.002779709916874041,-0.09583240861316546
0.002780009916874041,-0.09575291595369891
0.002780309916874041,-0.09638885722944109
0.002780609916874041,-0.09670682786731188
0.002780909916874041,-0.0958324086131656
0.002781209916874041,-0.09607088659156912
0.002781509916874041,-0.09591190127263344
0.002781809916874041,-0.09495798935901931
0.002782109916874041,-0.09511697467795499
0.002782409916874041,-0.09400407744540516
0.002782709916874041,-0.09400407744540516
0.002783009916874041,-0.094083570104873
0.002783309916874041,-0.09400407744540516
0.00278360991687404,-0.09392458478593732
0.00278390991687404,-0.09320915085072672
0.00278420991687404,-0.09328864351019442
0.00278450991687404,-0.09360661414806536
0.00278480991687404,-0.09305016553179205
0.002785109916874041,-0.09344762882912967
0.002785409916874041,-0.0931296581912593
0.002785709916874041,-0.09336813616966312
0.002786009916874041,-0.09376559946700162
0.002786309916874041,-0.09281168755338749
0.002786609916874041,-0.09312965819125887
0.002786909916874041,-0.0935271214885981
0.002787209916874041,-0.09297067287232318
0.002787509916874041,-0.09281168755338749
0.002787809916874041,-0.09471951138061577
0.002788109916874041,-0.09392458478593732
0.002788409916874041,-0.09384509212646948
0.002788709916874041,-0.09448103340221223
0.002789009916874041,-0.09400407744540516
0.00278930991687404,-0.09360661414806594
0.00278960991687404,-0.09440154074274294
0.00278990991687404,-0.09328864351019658
0.00279020991687404,-0.09368610680753306
0.002790509916874041,-0.09400407744540284
0.002790809916874041,-0.09273219489392096
0.002791109916874041,-0.09344762882912953
0.002791409916874041,-0.09305016553178901
0.002791709916874041,-0.0919372682992412
0.002792009916874041,-0.09257320957498395
0.002792309916874041,-0.09225523893711259
0.002792609916874041,-0.0912218343640306
0.002792909916874041,-0.09273219489391965
0.002793209916874041,-0.09201676095870905
0.002793509916874041,-0.09114234170456276
0.002793809916874041,-0.09209625361817689
0.002794109916874041,-0.09153980500190198
0.002794409916874041,-0.09082437106669138
0.00279470991687404,-0.09241422425604827
0.00279500991687404,-0.09153980500190358
0.00279530991687404,-0.09082437106669268
0.00279560991687404,-0.09177828298030377
0.00279590991687404,-0.09114234170456391
0.002796209916874041,-0.09138081968296759
0.002796509916874041,-0.09209625361817544
