-20250405-BKP/real-diodes-in-T10-L10-D10/100Hz2V/scope.csv

#Digilent WaveForms Oscilloscope Acquisition
#Device Name: Discovery3
#Serial Number: SN:210415BD5874
#Date Time: 2025-04-03 16:02:45.305.440.770
#Sample rate: 344828Hz
#Samples: 32768
#Trigger: Source: Channel 1 Type: Edge Condition: Rising Level: 0 V Hyst.: Auto HoldOff: 0 s
#Channel 1: Range: 200 mV/div Offset: 0 V Sample Mode: Average
#Wavegen Channel 1: Running
#Mode: Simple
#Type: Sine
#Frequency: 100 Hz
#Period: 10 ms
#Amplitude: 2 V
#Offset: 0 V
#Symmetry: 50 %
#Phase: 0 °

Time (s),Channel 1 (V)
-0.03483831167445872,0.05202393799702471
-0.03483541167445872,0.05226241597542868
-0.03483251167445872,0.05234190863489682
-0.03482961167445872,0.05329582054850937
-0.03482671167445872,0.05353429852691419
-0.03482381167445872,0.05369328384585004
-0.03482091167445872,0.05496516639733353
-0.03481801167445872,0.05520364437573893
-0.03481511167445872,0.05456770309999778
-0.03481221167445872,0.05417023980265812
-0.03480931167445872,0.05345480586744809
-0.03480641167445872,0.05321632788904369
-0.03480351167445872,0.05568060033254196
-0.03480061167445872,0.05742943884083584
-0.03479771167445872,0.05806538011658063
-0.03479481167445872,0.05989371128433888
-0.03479191167445872,0.06116559383582542
-0.03478901167445872,0.06100660851689232
-0.03478611167445872,0.06259646170624604
-0.03478321167445872,0.06339138830092593
-0.03478031167445872,0.06283493968465348
-0.03477741167445872,0.06347088096039406
-0.03477451167445872,0.06402732957666912
-0.03477161167445872,0.06331189564146084
-0.03476871167445872,0.06426580755507193
-0.03476581167445872,0.06434530021454138
-0.03476291167445872,0.06410682223613841
-0.03476001167445872,0.06490174883081498
-0.03475711167445872,0.06561718276602573
-0.03475421167445872,0.06514022680922084
-0.03475131167445872,0.06625312404176775
-0.03474841167445872,0.06680957265804369
-0.03474551167445872,0.0664916020201739
-0.03474261167445872,0.06784297723112422
-0.03473971167445872,0.06855841116633597
-0.03473681167445872,0.06831993318793375
-0.03473391167445872,0.06951232307995142
-0.03473101167445872,0.07078420563143693
-0.03472811167445872,0.07086369829090478
-0.03472521167445872,0.07181761020451892
-0.03472231167445872,0.07285101477760089
-0.03471941167445872,0.07253304413972951
-0.03471651167445872,0.07324847807494012
-0.03471361167445872,0.07420238998855426
-0.03471071167445872,0.07452036062642564
-0.03470781167445872,0.07483833126429701
-0.03470491167445872,0.07618970647525038
-0.03470201167445872,0.07611021381578253
-0.03469911167445872,0.07650767711312176
-0.03469621167445872,0.07754108168620373
-0.03469331167445872,0.07809753030247865
-0.03469041167445872,0.07833600828088218
-0.03468751167445872,0.08095926604332106
-0.03468461167445872,0.08087977338385322
-0.03468171167445872,0.07952839817289985
-0.03467881167445871,0.0811977440217246
-0.03467591167445871,0.08215165593533873
-0.03467301167445871,0.08215165593533873
-0.03467011167445871,0.0833440458273564
-0.03466721167445871,0.08429795774097054
-0.03466431167445871,0.084059479762567
-0.03466141167445871,0.08501339167618113
-0.03465851167445871,0.08596730358979528
-0.03465561167445871,0.08572882561139174
-0.03465271167445871,0.08660324486553803
-0.03464981167445871,0.08723918614128079
-0.03464691167445871,0.08676223018447372
-0.03464401167445871,0.08811360539542708
-0.03464111167445871,0.08890853199010552
-0.03463821167445871,0.08859056135223414
-0.03463531167445871,0.08914700996850906
-0.03463241167445871,0.09041889251999458
-0.03462951167445871,0.09065737049839812
-0.03462661167445871,0.0908163558173338
-0.03462371167445871,0.09208823836881931
-0.03462081167445871,0.09216773102828717
-0.03461791167445871,0.09232671634722285
-0.03461501167445871,0.09367809155817634
-0.03461211167445871,0.09375758421764493
-0.03460921167445871,0.09423454017445358
-0.03460631167445871,0.09558591538540405
-0.03460341167445871,0.09534743740700183
-0.03460051167445871,0.09582439336381018
-0.03459761167445871,0.09701678325582555
-0.03459471167445873,0.09693729059635814
-0.03459181167445873,0.09693729059635785
-0.03458891167445872,0.09805018782890362
-0.03458601167445872,0.09860663644518056
-0.03458311167445872,0.09812968048837725
-0.03458021167445872,0.09916308506145374
-0.03457731167445872,0.09964004101826283
-0.03457441167445872,0.09924257772092679
-0.03457151167445872,0.1001169969750685
-0.03456861167445872,0.1005144602724094
-0.03456571167445872,0.1003554749534758
-0.03456281167445872,0.1025812694185667
-0.03455991167445872,0.102899240056445
-0.03455701167445872,0.10115040154816
-0.03455411167445872,0.1021043134617643
-0.03455121167445872,0.1032967033537811
-0.03454831167445872,0.1028992400564476
-0.03454541167445872,0.1039326446295244
-0.03454251167445872,0.1048070638836713
-0.03453961167445872,0.104171122607934
-0.03453671167445872,0.1042506152673994
-0.03453381167445872,0.1050455418620766
-0.03453091167445872,0.1049660492026103
-0.03452801167445872,0.1048070638836748
-0.03452511167445872,0.1056814831378192
-0.03452221167445872,0.1049660492026115
-0.03451931167445872,0.1052045271810133
-0.03451641167445872,0.1061584390946261
-0.03451351167445872,0.1057609757972893
-0.03451061167445872,0.1064764097324979
-0.03450771167445872,0.1067148877109023
-0.03450481167445872,0.1062379317540966
-0.03450191167445872,0.1067943803703696
-0.03449901167445872,0.1076687996245153
-0.03449611167445872,0.1070328583487753
-0.03449321167445872,0.1075098143055803
-0.03449031167445872,0.1087022041975967
-0.03448741167445872,0.1077482922839865
-0.03448451167445872,0.1079072776029201
-0.03448161167445872,0.1087022041975974
-0.03447871167445872,0.1087816968570666
-0.03447581167445872,0.1080662629218574
-0.03447291167445872,0.1092586528138716
-0.03447001167445872,0.1095766234517446
-0.03446711167445872,0.1086227115381328
-0.03446421167445872,0.1093381454733403
-0.03446131167445872,0.1098945940896155
-0.03445841167445872,0.1091791601544072
-0.03445551167445872,0.1094971307922767
-0.03445261167445872,0.1102920573869543
-0.03444971167445872,0.1093381454733434
-0.03444681167445872,0.1093381454733416
-0.03444391167445872,0.1102125647274863
-0.03444101167445872,0.1103715500464233
-0.03443811167445872,0.1115639399384391
-0.03443521167445872,0.1120408958952475
-0.03443231167445872,0.1108485060032328
-0.03442941167445872,0.1103715500464245
-0.03442651167445872,0.1106100280248267
-0.03442361167445872,0.1114844472789718
-0.03442071167445872,0.1115639399384411
-0.03441781167445872,0.1107690133437643
-0.03441491167445872,0.1118024179168448
-0.03441201167445872,0.1115639399384413
-0.03440911167445872,0.110689520684295
-0.03440621167445872,0.1110869839816342
-0.03440331167445872,0.1114049546195056
-0.03440041167445872,0.1106100280248271
-0.03439751167445872,0.1112459693005699
-0.03439461167445872,0.1113254619600377
-0.03439171167445872,0.1103715500464236
-0.03438881167445872,0.1110074913221664
-0.03438591167445872,0.1118024179168448
-0.03438301167445872,0.110689520684295
-0.03438011167445872,0.111166476641102
-0.03437721167445872,0.112199881214184
-0.03437431167445872,0.1113254619600377
-0.03437141167445872,0.1114844472789734
-0.03436851167445872,0.1125973445115233
-0.03436561167445872,0.111722925257377
-0.03436271167445872,0.1114844472789734
-0.03435981167445872,0.1122793738736519
-0.03435691167445871,0.1118024179168448
-0.03435401167445871,0.1114049546195056
-0.03435111167445871,0.1123588665331197
-0.03434821167445871,0.1114844472789734
-0.03434531167445871,0.111166476641102
-0.03434241167445871,0.112199881214184
-0.03433951167445871,0.1118819105763127
-0.03433661167445871,0.1112459693005699
-0.03433371167445871,0.1119614032357805
-0.03433081167445871,0.1121203885547162
-0.03432791167445871,0.1113254619600377
-0.03432501167445871,0.112199881214184
-0.03432211167445871,0.1118819105763127
-0.03431921167445871,0.1114844472789734
-0.03431631167445871,0.1128358224899268
-0.03431341167445871,0.1143461830198158
-0.03431051167445871,0.1133127784467339
-0.03430761167445871,0.1128358224899268
-0.03430471167445871,0.1126768371709911
-0.03430181167445871,0.1118819105763127
-0.03429891167445871,0.1123588665331197
-0.03429601167445871,0.1129948078088625
-0.03429311167445871,0.1120408958952492
-0.03429021167445871,0.1125178518520563
-0.03428731167445871,0.1129948078088605
-0.03428441167445871,0.1118819105763127
-0.03428151167445871,0.1118819105763144
-0.03427861167445871,0.1128358224899249
-0.03427571167445871,0.1118024179168444
-0.03427281167445873,0.1115639399384421
-0.03426991167445873,0.1125178518520519
-0.03426701167445872,0.111881910576315
-0.03426411167445872,0.1114844472789749
-0.03426121167445872,0.1125178518520517
-0.03425831167445872,0.1130743004683283
-0.03425541167445872,0.1125178518520574
-0.03425251167445872,0.1124383591925879
-0.03424961167445872,0.1125178518520551
-0.03424671167445872,0.111881910576315
-0.03424381167445872,0.1127563298304558
-0.03424091167445872,0.1149026316360829
-0.03423801167445872,0.1168104554633121
-0.03423511167445872,0.1176848747174621
-0.03423221167445872,0.11720791876066
-0.03422931167445872,0.1133922711062156
-0.03422641167445872,0.1128358224899288
-0.03422351167445872,0.1140282123819401
-0.03422061167445872,0.113392271106204
-0.03421771167445872,0.113153793127799
-0.03421481167445872,0.1140282123819429
-0.03421191167445872,0.1133922711062029
-0.03420901167445872,0.1130743004683309
-0.03420611167445872,0.1130743004683303
-0.03420321167445872,0.1128358224899272
-0.03420031167445872,0.111722925257379
-0.03419741167445872,0.1124383591925863
-0.03419451167445872,0.1125178518520553
-0.03419161167445872,0.1118024179168461
-0.03418871167445872,0.1139487197224727
-0.03418581167445872,0.1141871977008797
-0.03418291167445872,0.1118024179168492
-0.03418001167445872,0.111484447278974
-0.03417711167445872,0.1130743004683274
-0.03417421167445872,0.115538572911829
-0.03417131167445872,0.117525889398526
-0.03416841167445872,0.1180028453553358
-0.03416551167445872,0.1148231389766287
-0.03416261167445872,0.1124383591925919
-0.03415971167445872,0.1137897344035385
-0.03415681167445872,0.1138692270630086
-0.03415391167445872,0.1129948078088641
-0.03415101167445872,0.1137897344035395
-0.03414811167445872,0.1137102417440732
-0.03414521167445872,0.1128358224899284
-0.03414231167445872,0.113312778446733
-0.03413941167445872,0.1131537931277985
-0.03413651167445872,0.1121203885547181
-0.03413361167445872,0.1125178518520547
-0.03413071167445872,0.1121998812141846
-0.03412781167445872,0.1108485060032331
-0.03412491167445872,0.1118819105763108
-0.03412201167445872,0.1117229252573773
-0.03411911167445872,0.1106895206842969
-0.03411621167445872,0.1114049546195043
-0.03411331167445872,0.1118024179168441
-0.03411041167445872,0.1135512564251342
-0.03410751167445872,0.1171284261011839
-0.03410461167445872,0.1173669040795935
-0.03410171167445872,0.1149026316360952
-0.03409881167445872,0.1126768371709952
-0.03409591167445872,0.1133922711062004
-0.03409301167445872,0.1125178518520554
-0.03409011167445872,0.1129153151493946
-0.03408721167445872,0.1135512564251374
-0.03408431167445872,0.1125178518520554
-0.03408141167445872,0.1133127784467339
-0.03407851167445872,0.1137897344035409
-0.03407561167445872,0.1122793738736519
-0.03407271167445872,0.1123588665331197
-0.03406981167445872,0.1127563298304589
-0.03406691167445872,0.1113254619600377
-0.03406401167445872,0.1129948078088625
-0.03406111167445872,0.1141871977008801
-0.03405821167445872,0.1114049546195056
-0.03405531167445872,0.1101330720680201
-0.03405241167445872,0.1118819105763127
-0.03404951167445872,0.1112459693005699
-0.03404661167445872,0.1108485060032307
-0.03404371167445872,0.1118819105763127
-0.03404081167445872,0.1110074913221664
-0.03403791167445872,0.1110869839816342
-0.03403501167445872,0.1118819105763127
-0.03403211167445871,0.1109279986626985
-0.03402921167445871,0.1108485060032307
-0.03402631167445871,0.1115639399384413
-0.03402341167445871,0.1110869839816342
-0.03402051167445871,0.1107690133437628
-0.03401761167445871,0.1121203885547162
-0.03401471167445871,0.111722925257377
-0.03401181167445871,0.1110869839816342
-0.03400891167445871,0.1116434325979091
-0.03400601167445871,0.1114844472789734
-0.03400311167445871,0.1102920573869558
-0.03400021167445871,0.111166476641102
-0.03399731167445871,0.1115639399384413
-0.03399441167445871,0.1105305353653593
-0.03399151167445871,0.1106100280248271
-0.03398861167445871,0.1113254619600377
-0.03398571167445871,0.1101330720680201
-0.03398281167445871,0.110689520684295
-0.03397991167445871,0.1146641536576872
-0.03397701167445871,0.115777050890237
-0.03397411167445871,0.1156180655713014
-0.03397121167445871,0.1145051683387476
-0.03396831167445871,0.1123588665331177
-0.03396541167445871,0.1112459693005723
-0.03396251167445871,0.1125973445115237
-0.03395961167445871,0.1128358224899252
-0.03395671167445871,0.1119614032357821
-0.03395381167445871,0.1128358224899268
-0.03395091167445873,0.1128358224899268
-0.03394801167445873,0.1118024179168486
-0.03394511167445873,0.112120388554715
-0.03394221167445872,0.1116434325979108
-0.03393931167445872,0.1118024179168442
-0.03393641167445872,0.1130743004683257
-0.03393351167445872,0.1116434325979143
-0.03393061167445872,0.1091791601544149
-0.03392771167445872,0.1110074913221597
-0.03392481167445872,0.1106895206842961
-0.03392191167445872,0.1097356087706843
-0.03391901167445872,0.1105305353653564
-0.03391611167445872,0.1102920573869566
-0.03391321167445872,0.1097356087706829
-0.03391031167445872,0.1106895206842915
-0.03390741167445872,0.1103715500464248
-0.03390451167445872,0.1097356087706832
-0.03390161167445872,0.1110074913221617
-0.03389871167445872,0.1109279986626988
-0.03389581167445872,0.1099740867490878
-0.03389291167445872,0.1110074913221645
-0.03389001167445872,0.1106100280248279
-0.03388711167445872,0.1097356087706824
-0.03388421167445872,0.1106895206842932
-0.03388131167445872,0.1106100280248273
-0.03387841167445872,0.1091791601544085
-0.03387551167445872,0.0924062090067212
-0.03387261167445872,0.03238925110857711
-0.03386971167445872,-0.07079222088060683
-0.03386681167445872,-0.2108582868628821
-0.03386391167445872,-0.3800186662104028
-0.03386101167445872,-0.5427401401410926
-0.03385811167445872,-0.5721524241444376
-0.03385521167445872,-0.5657135187276073
-0.03385231167445872,-0.5591156279917766
-0.03384941167445872,-0.5452839052443849
-0.03384651167445872,-0.5316906604753829
-0.03384361167445872,-0.5208001661282832
-0.03384071167445872,-0.5113405396516071
-0.03383781167445872,-0.5010859865802566
-0.03383491167445872,-0.4906724481899692
-0.03383201167445872,-0.4797024611834076
-0.03382911167445872,-0.4677785622632327
-0.03382621167445872,-0.4579214724892162
-0.03382331167445872,-0.4486208313314773
-0.03382041167445872,-0.4380483076222563
-0.03381751167445872,-0.4286681738050485
-0.03381461167445872,-0.4188905766905043
-0.03381171167445872,-0.4079205896839438
-0.03380881167445872,-0.4006072650128956
-0.03380591167445872,-0.3943273449149339
-0.03380301167445872,-0.3836753285462507
-0.03380011167445872,-0.3757260625994612
-0.03379721167445872,-0.3680152746310799
-0.03379431167445872,-0.3589531114517481
-0.03379141167445872,-0.3512423234833647
-0.03378851167445872,-0.3447239254069993
-0.03378561167445872,-0.3352642989303311
-0.03378271167445872,-0.3282689448971562
-0.03377981167445872,-0.3208761275666474
-0.03377691167445872,-0.3130063542793317
-0.03377401167445872,-0.3071238974787076
-0.03377111167445872,-0.30036702142393
-0.03376821167445872,-0.2931331894123562
-0.03376531167445872,-0.2870917472928
-0.03376241167445872,-0.2805733492164367
-0.03375951167445872,-0.2735779951832664
-0.03375661167445872,-0.2681724943394529
-0.03375371167445872,-0.2626875008361717
-0.03375081167445872,-0.2556921468030013
-0.03374791167445872,-0.2510020798943985
-0.03374501167445872,-0.2456760717100529
-0.03374211167445872,-0.2389986883147539
-0.03373921167445872,-0.2343086214061511
-0.03373631167445872,-0.2297775398164839
-0.03373341167445872,-0.2234976197185242
-0.03373051167445872,-0.2186485674909857
-0.03372761167445872,-0.2145149491986577
-0.03372471167445872,-0.2088709703764408
-0.03372181167445872,-0.2027500355974167
-0.03371891167445872,-0.1959136668831821
-0.03371601167445872,-0.1905081660393686
-0.03371311167445872,-0.1858975917902336
-0.03371021167445871,-0.1854206358334266
-0.03370731167445871,-0.1822409294547128
-0.03370441167445871,-0.1772328919082386
-0.03370151167445871,-0.1739736928700569
-0.03369861167445871,-0.1707144938318753
-0.03369571167445871,-0.1659449342638046
-0.03369281167445871,-0.1622882719282838
-0.03368991167445871,-0.1586316095927629
-0.03368701167445871,-0.1530671234300138
-0.03368411167445871,-0.1517157482190604
-0.03368121167445871,-0.1515567629001247
-0.03367831167445871,-0.1466282180131183
-0.03367541167445871,-0.1438459749317438
-0.03367251167445871,-0.1417791657855798
-0.03366961167445871,-0.1380430107905911
-0.03366671167445871,-0.1347838117524095
-0.03366381167445871,-0.1329554805846491
-0.03366091167445871,-0.1296167888869996
-0.03365801167445871,-0.1267550531461572
-0.03365511167445871,-0.1254036779352038
-0.03365221167445871,-0.1226214348538293
-0.03364931167445871,-0.1192827431561775
-0.03364641167445871,-0.1180108606046888
-0.03364351167445871,-0.1149901395449117
-0.03364061167445871,-0.1125258671014108
-0.03363771167445871,-0.1113334772093907
-0.03363481167445871,-0.1087897121064191
-0.03363191167445871,-0.1059279763655801
-0.03362901167445873,-0.1049740644519712
-0.03362611167445873,-0.1030662406247464
-0.03362321167445873,-0.1001250122244399
-0.03362031167445872,-0.09869414435401321
-0.03361741167445872,-0.097263276483592
-0.03361451167445872,-0.09487849669956012
-0.03361161167445872,-0.09392458478594079
-0.03360871167445872,-0.09201676095871598
-0.03360581167445872,-0.08939350319627971
-0.03360291167445872,-0.0884395912826595
-0.03360001167445872,-0.08780365000691559
-0.03359711167445872,-0.08518039224448395
-0.03359421167445872,-0.08359053905512329
-0.03359131167445872,-0.08184170054683128
-0.03358841167445872,-0.07659518502196626
-0.03358551167445872,-0.07460786853525829
-0.03358261167445872,-0.07444888321631594
-0.03357971167445872,-0.0765156923624718
-0.03357681167445872,-0.07516431715153088
-0.03357391167445872,-0.07397192725951264
-0.03357101167445872,-0.07341547864323439
-0.03356811167445872,-0.07134866949707318
-0.03356521167445872,-0.06952033832931233
-0.03356231167445872,-0.06832794843729348
-0.03355941167445872,-0.06721505120474353
-0.03355651167445872,-0.0681689631183539
-0.03355361167445872,-0.06808947045888793
-0.03355071167445872,-0.06689708056687228
-0.03354781167445872,-0.06522773471804842
-0.03354491167445872,-0.06506874939910998
-0.03354201167445872,-0.06522773471804509
-0.03353911167445872,-0.06363788152869136
-0.03353621167445872,-0.06355838886922077
-0.03353331167445872,-0.06355838886922063
-0.03353041167445872,-0.06188904302039894
-0.03352751167445872,-0.0607761457878481
-0.03352461167445872,-0.05799390270647656
-0.03352171167445872,-0.05505267430616659
-0.03351881167445872,-0.05417825505201655
-0.03351591167445872,-0.05648354217657826
-0.03351301167445872,-0.05791441004700106
-0.03351011167445872,-0.05815288802540675
-0.03350721167445872,-0.05616557153871469
-0.03350431167445872,-0.05537064494403407
-0.03350141167445872,-0.05608607887924193
-0.03349851167445872,-0.05513216696563084
-0.03349561167445872,-0.05386028441414589
-0.03349271167445872,-0.05481419632775598
-0.03348981167445872,-0.05441673303041922
-0.03348691167445872,-0.05346282111680609
-0.03348401167445872,-0.05433724037094905
-0.03348111167445872,-0.05489368898722455
-0.03347821167445872,-0.05346282111680695
-0.03347531167445872,-0.05393977707361055
-0.03347241167445872,-0.05433724037094992
-0.03346951167445872,-0.05298586515999974
-0.03346661167445872,-0.05370129909520659
-0.03346371167445872,-0.05370129909520789
-0.03346081167445872,-0.05020362207862909
-0.03345791167445872,-0.04829579825139792
-0.03345501167445872,-0.04750087165671744
-0.03345211167445872,-0.047500871656716
-0.03344921167445872,-0.05060108537596195
