-20250405-BKP/synth-diodes-1f-1r-out/-bkp-20250403/1kHz1V/scope.csv

#Digilent WaveForms Oscilloscope Acquisition
#Device Name: Discovery3
#Serial Number: SN:210415BD5874
#Date Time: 2025-04-02 18:53:21.369.088.460
#Sample rate: 1.88679e+06Hz
#Samples: 32768
#Trigger: Source: Channel 1 Type: Edge Condition: Rising Level: 0 V Hyst.: Auto HoldOff: 0 s
#Channel 1: Range: 200 mV/div Offset: 0 V Sample Mode: Average
#Wavegen Channel 1: Running
#Mode: Simple
#Type: Sine
#Frequency: 1 kHz
#Period: 1 ms
#Amplitude: 1 V
#Offset: 0 V
#Symmetry: 50 %
#Phase: 0 °

Time (s),Channel 1 (V)
-0.01397217407070266,0.01164166698736047
-0.01397164407070266,0.01124420369002124
-0.01397111407070266,0.01188014496576863
-0.01397058407070266,0.0144239100687706
-0.01397005407070267,0.03397910429778926
-0.01396952407070266,0.02849411079454355
-0.01396899407070266,0.0269837502646545
-0.01396846407070266,0.02706324292412234
-0.01396793407070266,0.02769918419986134
-0.01396740407070267,0.0256323750537049
-0.01396687407070266,0.02618882366997605
-0.01396634407070266,0.02459897048061916
-0.01396581407070266,0.02364505856700502
-0.01396528407070266,0.02348607324806832
-0.01396475407070267,0.02292962463179543
-0.01396422407070266,0.02324759526966522
-0.01396369407070266,0.02292962463179442
-0.01396316407070266,0.02253216133445519
-0.01396263407070266,0.02332708792913451
-0.01396210407070266,0.02380404388594447
-0.01396157407070267,0.02587085303210091
-0.01396104407070266,0.02714273558359019
-0.01396051407070266,0.02563237505370114
-0.01395998407070266,0.02706324292412234
-0.01395945407070266,0.02507592643742579
-0.01395892407070267,0.02483744845902312
-0.01395839407070266,0.02412201452381209
-0.01395786407070266,0.02356556590753717
-0.01395733407070266,0.02459897048061916
-0.01395680407070266,0.02324759526966435
-0.01395627407070267,0.0224526686749888
-0.01395574407070267,0.009415872522284529
-0.01395521407070266,0.03366113365995345
-0.01395468407070266,0.03835120056855629
-0.01395415407070266,0.03580743546558526
-0.01395362407070266,0.03898714184430064
-0.01395309407070267,0.03986156109844375
-0.01395256407070266,0.04002054641738104
-0.01395203407070266,0.04232583354194853
-0.01395150407070266,0.0419283702446093
-0.01395097407070266,0.04327974545556021
-0.01395044407070267,0.04192837024461175
-0.01394991407070266,0.04161039960673793
-0.01394938407070266,0.04176938492567361
-0.01394885407070266,0.04065648769312379
-0.01394832407070266,0.04010003907684757
-0.01394779407070266,0.03938460514163654
-0.01394726407070267,0.03843069322802588
-0.01394673407070266,0.03882815652536337
-0.01394620407070266,0.03755627397387784
-0.01394567407070266,0.03906663450376689
-0.01394514407070266,0.03914612716323444
-0.01394461407070267,0.03898714184429934
-0.01394408407070266,0.04153090694727007
-0.01394355407070266,0.04216684822301284
-0.01394302407070266,0.04296177481769128
-0.01394249407070266,0.04343873077449647
-0.01394196407070267,0.04240532620141826
-0.01394143407070267,0.0596552333059073
-0.01394090407070266,0.07690514041046098
-0.01394037407070266,0.05265987927276834
-0.01393984407070266,0.054885673737868
-0.01393931407070266,0.05289835725117521
-0.01393878407070267,0.05472668841892898
-0.01393825407070266,0.05297784991063972
-0.01393772407070266,0.05393176182425385
-0.01393719407070266,0.05305734257010757
-0.01393666407070266,0.05234190863489884
-0.01393613407070267,0.05337531320797707
-0.01393560407070266,0.0540112544837217
-0.01393507407070266,0.05424973246212524
-0.01393454407070266,0.05647552692722489
-0.01393401407070266,0.0562370489488228
-0.01393348407070266,0.0570319755435011
-0.01393295407070267,0.0577474094787091
-0.01393242407070266,0.05750893150030686
-0.01393189407070266,0.05544212235414291
-0.01393136407070266,0.05281886459170403
-0.01393083407070266,0.05011611416979398
-0.01393030407070267,0.04828778300204021
-0.01392977407070266,0.04709539311001922
-0.01392924407070266,0.04685691513161568
-0.01392871407070266,0.04717488576948706
-0.01392818407070266,0.04749285640735916
-0.01392765407070267,0.04789031970469694
-0.01392712407070267,0.04757234906682686
-0.01392659407070266,0.06029117458168143
-0.01392606407070266,0.06180153511157048
-0.01392553407070266,0.06458377819294504
-0.01392500407070266,0.06696855797698718
-0.01392447407070267,0.07070471297196229
-0.01392394407070266,0.07213558084239029
-0.01392341407070266,0.07261253679919737
-0.01392288407070266,0.0735664487128115
-0.01392235407070266,0.07110217626930962
-0.01392182407070267,0.07181761020451762
-0.01392129407070266,0.06935333776101572
-0.01392076407070266,0.06863790382580513
-0.01392023407070266,0.06776348457165883
-0.01391970407070266,0.06609413872283396
-0.01391917407070266,0.06601464606336813
-0.01391864407070267,0.06704805063644635
-0.01391811407070266,0.06649160202017332
-0.01391758407070266,0.06649160202017332
-0.01391705407070266,0.06593515340389841
-0.01391652407070266,0.06696855797698356
-0.01391599407070267,0.0687173964852698
-0.01391546407070266,0.06919435244208004
-0.01391493407070266,0.0698302937178228
-0.01391440407070266,0.07014826435569417
-0.01391387407070266,0.07006877169622532
-0.01391334407070267,0.06951232307995243
-0.01391281407070266,0.06824044052846821
-0.01391228407070266,0.06871739648527297
-0.01391175407070266,0.0811977440217246
-0.01391122407070266,0.08040281742704615
-0.01391069407070266,0.08064129540544634
-0.01391016407070267,0.07881296423769259
-0.01390963407070266,0.0787334715782214
-0.01390910407070266,0.07698463306992882
-0.01390857407070266,0.07770006700513943
-0.01390804407070266,0.07921042753503109
-0.01390751407070267,0.08064129540544707
-0.01390698407070266,0.0817541926379995
-0.01390645407070266,0.08151571465959596
-0.01390592407070266,0.08223114859480657
-0.01390539407070266,0.08032332476757816
-0.01390486407070267,0.08024383210811059
-0.01390433407070267,0.08032332476757816
-0.01390380407070266,0.08016433944864261
-0.01390327407070266,0.0796078908323677
-0.01390274407070266,0.07809753030247865
-0.01390221407070266,0.07730260370780122
-0.01390168407070267,0.0778590523240741
-0.01390115407070266,0.07603072115631468
-0.01390062407070266,0.07682564775099313
-0.01390009407070266,0.07690514041046098
-0.01389956407070266,0.07666666243206062
-0.01389903407070267,0.07841550094034684
-0.01389850407070266,0.0787334715782214
-0.01389797407070266,0.1044890932458031
-0.01389744407070266,0.09089584847680164
-0.01389691407070266,0.09169077507147806
-0.01389638407070266,0.0905778778389294
-0.01389585407070267,0.09010092188212407
-0.01389532407070266,0.08986244390371967
-0.01389479407070266,0.08922650262797691
-0.01389426407070266,0.0885110686927663
-0.01389373407070266,0.09002142922265188
-0.01389320407070267,0.08811360539543055
-0.01389267407070266,0.08835208337383062
-0.01389214407070266,0.08771614209808785
-0.01389161407070266,0.08676223018447372
-0.01389108407070266,0.08644425954660322
-0.01389055407070267,0.08692121550340853
-0.01389002407070267,0.08882903933063421
-0.01388949407070266,0.0893854879469126
-0.01388896407070266,0.09033939986052673
-0.01388843407070266,0.09089584847680164
-0.01388790407070266,0.09049838517946401
-0.01388737407070267,0.09137280443360712
-0.01388684407070266,0.09041889251999458
-0.01388631407070266,0.09002142922265535
-0.01388578407070266,0.08978295124425183
-0.01388525407070266,0.08859056135223356
-0.01388472407070267,0.08827259071436336
-0.01388419407070266,0.08763664943862001
-0.01388366407070266,0.09057787783893027
-0.01388313407070266,0.1032967033537854
-0.01388260407070266,0.09971953367773415
-0.01388207407070266,0.1006734455913483
-0.01388154407070267,0.101627357504959
-0.01388101407070266,0.1027402547375105
-0.01388048407070266,0.1033761960132533
-0.01387995407070266,0.1052840198404815
-0.01387942407070266,0.1064764097324957
-0.01387889407070267,0.1045685859052744
-0.01387836407070266,0.1053635124999494
-0.01387783407070266,0.1055224978188851
-0.01387730407070266,0.1041711226079317
-0.01387677407070266,0.1043301079268644
-0.01387624407070267,0.1026607620780457
-0.01387571407070267,0.1032172106943166
-0.01387518407070266,0.1030582253753819
-0.01387465407070266,0.1006734455913465
-0.01387412407070266,0.102501776759107
-0.01387359407070266,0.09995801165613913
-0.01387306407070267,0.1017068501644253
-0.01387253407070266,0.102978732715914
-0.01387200407070266,0.1025812694185748
-0.01387147407070266,0.1062379317540957
-0.01387094407070266,0.1050455418620786
-0.01387041407070267,0.1053635124999488
-0.01386988407070266,0.10607894643516
-0.01386935407070266,0.09129331177414086
-0.01386882407070266,0.08437745040043838
-0.01386829407070266,0.1158565435496978
-0.01386776407070266,0.1119614032357801
-0.01386723407070267,0.1117229252573774
-0.01386670407070266,0.1110869839816342
-0.01386617407070266,0.111722925257377
-0.01386564407070266,0.1114049546195056
-0.01386511407070266,0.1101330720680209
-0.01386458407070267,0.1106100280248263
-0.01386405407070266,0.1114049546195056
-0.01386352407070266,0.1120408958952483
-0.01386299407070266,0.1137102417440731
-0.01386246407070266,0.1137102417440744
-0.01386193407070267,0.1144256756792824
-0.01386140407070266,0.1137102417440744
-0.01386087407070266,0.1141077050414123
-0.01386034407070266,0.1123588665331197
-0.01385981407070266,0.1121203885547162
-0.01385928407070266,0.1111664766411015
-0.01385875407070267,0.1108485060032312
-0.01385822407070266,0.1108485060032307
-0.01385769407070266,0.1095766234517452
-0.01385716407070266,0.109656116111213
-0.01385663407070266,0.1090201748354676
-0.01385610407070267,0.1075893069650516
-0.01385557407070266,0.1098945940896165
-0.01385504407070266,0.1095766234517452
-0.01385451407070266,0.1390684001143156
-0.01385398407070266,0.1199901618420351
-0.01385345407070267,0.121262044393516
-0.01385292407070267,0.1224544342855338
-0.01385239407070266,0.1209440737556469
-0.01385186407070266,0.120387625139372
-0.01385133407070266,0.1202286398204363
-0.01385080407070266,0.1186387866310797
-0.01385027407070267,0.1187977719500149
-0.01384974407070266,0.1177643673769332
-0.01384921407070266,0.1179233526958688
-0.01384868407070266,0.1173669040795939
-0.01384815407070266,0.1166514701443836
-0.01384762407070267,0.1168104554633187
-0.01384709407070266,0.1166514701443833
-0.01384656407070266,0.1164924848254476
-0.01384603407070266,0.1174463967390618
-0.01384550407070266,0.118559293971612
-0.01384497407070266,0.1187977719500136
-0.01384444407070267,0.1179233526958704
-0.01384391407070266,0.1185592939716116
-0.01384338407070266,0.1164924848254476
-0.01384285407070266,0.1170489334417226
-0.01384232407070266,0.1160950215281057
-0.01384179407070267,0.1145846609982221
-0.01384126407070266,0.1151411096144943
-0.01384073407070266,0.1143461830198158
-0.01384020407070266,0.1156180655713014
-0.01383967407070266,0.122533926945004
-0.01383914407070267,0.1226134196044715
-0.01383861407070267,0.1234878388586164
-0.01383808407070266,0.1221364636476646
-0.01383755407070266,0.1238853021559572
-0.01383702407070266,0.1238058094964894
-0.01383649407070266,0.1261110966210579
-0.01383596407070267,0.1266675452373308
-0.01383543407070266,0.1262700819399926
-0.01383490407070266,0.1273829791725424
-0.01383437407070266,0.1273034865130745
-0.01383384407070266,0.125952111302122
-0.01383331407070267,0.1264290672589274
-0.01383278407070266,0.1246802287506357
-0.01383225407070266,0.1244417507722321
-0.01383172407070266,0.1236468241775537
-0.01383119407070266,0.1230108829018112
-0.01383066407070266,0.1231698682207436
-0.01383013407070267,0.1215005223719249
-0.01382960407070266,0.1218184930097932
-0.01382907407070266,0.1220569709881968
-0.01382854407070266,0.1212620443935183
-0.01382801407070266,0.1237263168370238
-0.01382748407070267,0.1249981993885047
-0.01382695407070266,0.1249187067290392
-0.01382642407070266,0.1255546480047819
-0.01382589407070266,0.145984261488018
-0.01382536407070266,0.1373990542654855
-0.01382483407070267,0.1344578258651859
-0.01382430407070267,0.1333449286326328
-0.01382377407070266,0.13374239192997
-0.01382324407070266,0.1323910167190166
-0.01382271407070266,0.133185943313695
-0.01382218407070266,0.13151659746487
-0.01382165407070267,0.1313576121459349
-0.01382112407070266,0.1311986268269989
-0.01382059407070266,0.1301652222539169
-0.01382006407070266,0.1308011635296597
-0.01381953407070266,0.1311986268270012
-0.01381900407070267,0.1324705093784821
-0.01381847407070266,0.1341398552273092
-0.01381794407070266,0.1340603625678413
-0.01381741407070266,0.1341398552273092
-0.01381688407070266,0.1339013772489058
-0.01381635407070266,0.1339808699083729
-0.01381582407070267,0.1336628992705027
-0.01381529407070266,0.1319935534216774
-0.01381476407070266,0.1321525387406131
-0.01381423407070266,0.1312781194864668
-0.01381370407070266,0.1311986268269972
-0.01381317407070267,0.1302447149133865
-0.01381264407070266,0.1289728323618993
-0.01381211407070266,0.1293702956592385
-0.01381158407070266,0.118877264609483
-0.01381105407070266,0.1304831928918141
-0.01381052407070267,0.144632886277039
-0.01380999407070266,0.1410557166010182
-0.01380946407070266,0.142407091811965
-0.01380893407070266,0.1422481064930294
-0.01380840407070266,0.1401812973468654
-0.01380787407070266,0.1404197753252688
-0.01380734407070267,0.1403402826658012
-0.01380681407070266,0.1391478927737834
-0.01380628407070266,0.1364451423518767
-0.01380575407070266,0.1335834066110343
-0.01380522407070266,0.1323910167190128
-0.01380469407070267,0.1303242075728564
-0.01380416407070266,0.1311986268269989
-0.01380363407070266,0.1319935534216774
-0.01380310407070266,0.1304831928917883
-0.01380257407070266,0.1335834066110311
-0.01380204407070266,0.131834568102743
-0.01380151407070267,0.132550002037951
-0.01380098407070266,0.1335039139515664
-0.01380045407070266,0.1342988405462449
-0.01379992407070266,0.1378760102222979
-0.01379939407070266,0.1386709368169801
-0.01379886407070267,0.1407377459631365
-0.01379833407070266,0.1420891211740937
-0.01379780407070266,0.1405787606442046
-0.01379727407070266,0.1405787606442046
-0.01379674407070266,0.1385119514980392
-0.01379621407070267,0.1377170249033637
-0.01379568407070266,0.1350937671409233
-0.01379515407070266,0.13374239192997
-0.01379462407070266,0.1340603625678413
-0.01379409407070266,0.1319935534216795
-0.01379356407070266,0.1331859433136953
-0.01379303407070267,0.1333449286326304
-0.01379250407070266,0.1343783332057127
-0.01379197407070266,0.1368426056492159
-0.01379144407070266,0.1357297084166661
-0.01379091407070266,0.1360476790545373
-0.01379038407070267,0.1359681863950697
-0.01378985407070266,0.1350142744814555
-0.01378932407070266,0.1357297084166661
-0.01378879407070266,0.1340603625678413
-0.01378826407070266,0.1341398552273074
-0.01378773407070267,0.1331859433136968
-0.01378720407070267,0.1308806561891317
-0.01378667407070266,0.1310396415080632
-0.01378614407070266,0.1284958764050922
-0.01378561407070266,0.1298472516160456
-0.01378508407070266,0.1300857295944485
-0.01378455407070267,0.1297677589565783
-0.01378402407070266,0.1327884800163558
-0.01378349407070266,0.1317550754432738
-0.01378296407070266,0.1322320314000809
-0.01378243407070266,0.1597364915759189
-0.01378190407070267,0.1397838340495625
-0.01378137407070266,0.1401018046873976
-0.01378084407070266,0.1399428193684618
-0.01378031407070266,0.1393068780927191
-0.01377978407070266,0.1387504294764436
-0.01377925407070266,0.1384324588385728
-0.01377872407070267,0.1384324588385728
-0.01377819407070266,0.137319561606023
-0.01377766407070266,0.1376375322438944
-0.01377713407070266,0.1391478927737834
-0.01377660407070266,0.1385119514980418
-0.01377607407070267,0.1391478927737822
-0.01377554407070266,0.1392273854332512
-0.01377501407070266,0.1411352092604795
-0.01377448407070266,0.1422481064930294
-0.01377395407070266,0.141771150536223
-0.01377342407070267,0.1421686138335608
-0.01377289407070267,0.1421686138335615
-0.01377236407070266,0.1423275991524972
-0.01377183407070266,0.1408172386226081
-0.01377130407070266,0.1396248487305905
-0.01377077407070266,0.1396248487305886
-0.01377024407070267,0.1385914441575104
-0.01376971407070266,0.13779651756283
-0.01376918407070266,0.1377170249033622
-0.01376865407070266,0.1370810836276194
-0.01376812407070266,0.1556823659430689
-0.01376759407070267,0.1412941945794414
-0.01376706407070266,0.1405787606442046
-0.01376653407070266,0.1418506431956901
-0.01376600407070266,0.1436789743634506
-0.01376547407070266,0.1447918715960012
-0.01376494407070266,0.1452688275528065
-0.01376441407070267,0.1447123789365335
-0.01376388407070266,0.1466202027637608
-0.01376335407070266,0.1445533936175968
-0.01376282407070266,0.1451893348933396
-0.01376229407070266,0.1444739009581255
-0.01376176407070267,0.1425660771309042
-0.01376123407070266,0.144473900958129
-0.01376070407070266,0.1412147019199474
-0.01376017407070266,0.1416121652172866
-0.01375964407070266,0.1405787606442045
-0.01375911407070267,0.1404992679847369
-0.01375858407070266,0.1415326725578168
-0.01375805407070266,0.1400223120279297
-0.01375752407070266,0.1408172386226081
-0.01375699407070266,0.1422481064930294
-0.01375646407070266,0.1420096285146303
-0.01375593407070267,0.1444739009581245
-0.01375540407070266,0.143440496385047
-0.01375487407070266,0.1441559303202576
-0.01375434407070266,0.1442354229797255
-0.01375381407070266,0.1289728323619281
-0.01375328407070267,0.1447918715959716
-0.01375275407070266,0.1479715779747142
-0.01375222407070266,0.1457457835096145
-0.01375169407070266,0.1456662908501467
-0.01375116407070266,0.1437584670229203
-0.01375063407070266,0.1447918715960008
-0.01375010407070267,0.1450303495744035
-0.01374957407070266,0.144473900958129
-0.01374904407070266,0.1439969450013219
-0.01374851407070266,0.1435199890445149
-0.01374798407070266,0.1451893348933406
-0.01374745407070267,0.1457457835096135
-0.01374692407070266,0.1474151293584393
-0.01374639407070266,0.1481305632936498
-0.01374586407070266,0.1478125926557785
-0.01374533407070266,0.1477330999963072
-0.01374480407070267,0.1458252761690858
-0.01374427407070266,0.1460637541474859
-0.01374374407070266,0.144473900958129
-0.01374321407070266,0.1432815110661113
-0.01374268407070266,0.1436789743634468
-0.01374215407070266,0.1416121652172875
-0.01374162407070267,0.1420891211740928
-0.01374109407070266,0.1414531798983509
-0.01374056407070266,0.1408172386226081
-0.01374003407070266,0.1412147019199474
-0.01373950407070266,0.1478125926557938
-0.01373897407070267,0.1562388145593547
-0.01373844407070266,0.1452688275528075
-0.01373791407070266,0.1466996954232286
-0.01373738407070266,0.1494819385046032
-0.01373685407070266,0.1480510706341849
-0.01373632407070267,0.149640923823536
-0.01373579407070267,0.1480510706341849
-0.01373526407070266,0.1473356366989714
-0.01373473407070266,0.1466996954232286
-0.01373420407070266,0.1455867981906788
-0.01373367407070266,0.1458252761690803
-0.01373314407070267,0.1447123789365345
-0.01373261407070266,0.1436789743634506
-0.01373208407070266,0.1432020184066435
-0.01373155407070266,0.1416121652172866
-0.01373102407070266,0.1430430330877075
-0.01373049407070267,0.1428840477687724
-0.01372996407070266,0.1430430330877078
-0.01372943407070266,0.1447123789365325
-0.01372890407070266,0.1446328862770647
-0.01372837407070266,0.1449508569149365
-0.01372784407070266,0.1451893348933379
-0.01372731407070267,0.1442354229797272
-0.01372678407070266,0.1441559303202576
-0.01372625407070266,0.1406582533036725
-0.01372572407070266,0.1416121652172866
-0.01372519407070266,0.1408172386226204
-0.01372466407070267,0.1475741146773626
-0.01372413407070266,0.1454278128717431
-0.01372360407070266,0.1428045551093043
-0.01372307407070266,0.1437584670229184
-0.01372254407070266,0.1420891211740934
-0.01372201407070267,0.1419301358551582
-0.01372148407070267,0.1428045551093027
-0.01372095407070266,0.1412147019199474
-0.01372042407070266,0.1443944082986612
-0.01371989407070266,0.1446328862770647
-0.01371936407070266,0.1451893348933435
-0.01371883407070267,0.1473356366989675
-0.01371830407070266,0.1473356366989714
-0.01371777407070266,0.1477330999963106
-0.01371724407070266,0.1475741146773749
-0.01371671407070266,0.1481305632936465
-0.01371618407070267,0.1463022321258927
