-20250406-BKP/synth-diodes-4f-1r-in-T10-L10-D00/100Hz-1V/scope.csv

#Digilent WaveForms Oscilloscope Acquisition
#Device Name: Discovery3
#Serial Number: SN:210415BD5874
#Date Time: 2025-04-06 20:08:32.619.267.210
#Sample rate: 208333Hz
#Samples: 32768
#Trigger: Source: Channel 1 Type: Edge Condition: Rising Level: 0 V Hyst.: Auto HoldOff: 0 s
#Channel 1: Range: 200 mV/div Offset: 0 V Sample Mode: Average
#Wavegen Channel 1: Running
#Mode: Simple
#Type: Sine
#Frequency: 100 Hz
#Period: 10 ms
#Amplitude: 1 V
#Offset: 0 V
#Symmetry: 50 %
#Phase: 0 °

Time (s),Channel 1 (V)
-0.09149564913850147,-0.1052920350898391
-0.09149084913850147,-0.107915292852278
-0.09148604913850147,-0.1027482699868681
-0.09148124913850147,-0.1052920350898391
-0.09147644913850148,-0.1044176158356928
-0.09147164913850148,-0.1063254396629211
-0.09146684913850148,-0.1056100057277118
-0.09146204913850148,-0.1068818882791937
-0.09145724913850148,-0.105292035089842
-0.09145244913850148,-0.105848483706113
-0.09144764913850147,-0.1053715277493028
-0.09144284913850147,-0.1030662406247373
-0.09143804913850147,-0.101873850732725
-0.09143324913850147,-0.1036226892410144
-0.09142844913850147,-0.1018738507327218
-0.09142364913850147,-0.1031457332842073
-0.09141884913850147,-0.1032252259436752
-0.09141404913850147,-0.1041791378572893
-0.09140924913850147,-0.1044176158356928
-0.09140444913850147,-0.1052125424303713
-0.09139964913850147,-0.1039406598788857
-0.09139484913850147,-0.1046560938140964
-0.09139004913850148,-0.1040996451978214
-0.09138524913850148,-0.1044971084951607
-0.09138044913850148,-0.1034637039220787
-0.09137564913850148,-0.1050535571114327
-0.09137084913850148,-0.1063254396629188
-0.09136604913850148,-0.108471741468549
-0.09136124913850147,-0.1064844249818509
-0.09135644913850147,-0.1032252259436795
-0.09135164913850147,-0.1056100057277099
-0.09134684913850147,-0.105292035089839
-0.09134204913850147,-0.1052125424303713
-0.09133724913850147,-0.1038611672194179
-0.09133244913850147,-0.1052125424303713
-0.09132764913850147,-0.1035431965815465
-0.09132284913850147,-0.1039406598788857
-0.09131804913850147,-0.1048945717924999
-0.09131324913850147,-0.1031457332842073
-0.09130844913850147,-0.1037021819004822
-0.09130364913850147,-0.1034637039220787
-0.09129884913850148,-0.1040996451978214
-0.09129404913850148,-0.1038611672194179
-0.09128924913850148,-0.1068023956197228
-0.09128444913850148,-0.1064049323223897
-0.09127964913850148,-0.1071998589170659
-0.09127484913850148,-0.1072793515765351
-0.09127004913850147,-0.1072793515765336
-0.09126524913850147,-0.10640493232239
-0.09126044913850147,-0.1069613809386634
-0.09125564913850147,-0.1067229029602603
-0.09125084913850147,-0.1060869616845176
-0.09124604913850147,-0.1075973222144066
-0.09124124913850147,-0.1083127561496172
-0.09123644913850147,-0.1069613809386638
-0.09123164913850147,-0.1075178295549388
-0.09122684913850147,-0.1078358001928101
-0.09122204913850147,-0.1070408735981317
-0.09121724913850147,-0.1060869616845176
-0.09121244913850148,-0.1029867479652716
-0.09120764913850148,-0.1042586305167571
-0.09120284913850148,-0.1032252259436752
-0.09119804913850148,-0.1041791378572876
-0.09119324913850148,-0.1028277626463384
-0.09118844913850148,-0.1043381231762222
-0.09118364913850147,-0.1029867479652732
-0.09117884913850147,-0.1038611672194131
-0.09117404913850147,-0.1012379094569811
-0.09116924913850147,-0.1023508066895278
-0.09116444913850147,-0.1017943580732539
-0.09115964913850147,-0.1019533433921896
-0.09115484913850147,-0.1014763874353826
-0.09115004913850147,-0.1017148654137861
-0.09114524913850147,-0.09845566637560446
-0.09114044913850147,-0.09877363701347584
-0.09113564913850147,-0.09925059297028292
-0.09113084913850147,-0.09821718839720094
-0.09112604913850147,-0.09925059297028292
-0.09112124913850148,-0.09821718839720094
-0.09111644913850148,-0.1004429828623006
-0.09111164913850148,-0.09694530584572178
-0.09110684913850148,-0.09901211499187562
-0.09110204913850148,-0.09726327648358997
-0.09109724913850148,-0.0986146516945377
-0.09109244913850147,-0.1018738507327101
-0.09108764913850147,-0.09543494531582579
-0.09108284913850147,-0.09511697467795557
-0.09107804913850147,-0.09543494531582637
-0.09107324913850147,-0.09535545265635853
-0.09106844913850147,-0.0942425554238087
-0.09106364913850147,-0.09670682786731188
-0.09105884913850147,-0.09559393063476206
-0.09105404913850147,-0.09710429116465111
-0.09104924913850147,-0.09726327648358679
-0.09104444913850147,-0.09718378382411895
-0.09103964913850147,-0.09678632052677973
-0.09103484913850148,-0.09464001872114793
-0.09103004913850148,-0.09972754892708999
-0.09102524913850148,-0.09972754892708999
-0.09102044913850148,-0.1010789241380409
-0.09101564913850148,-0.09925059297028625
-0.09101084913850148,-0.1000455195649599
-0.09100604913850147,-0.1002839975433666
-0.09100124913850147,-0.1012379094569783
-0.09099644913850147,-0.1008404461596479
-0.09099164913850147,-0.1052920350898391
-0.09098684913850147,-0.1001250122244292
-0.09098204913850147,-0.1013174021164469
-0.09097724913850147,-0.100760953500172
-0.09097244913850147,-0.101237909456979
-0.09096764913850147,-0.1001250122244292
-0.09096284913850147,-0.1008404461596398
-0.09095804913850147,-0.1005224755217684
-0.09095324913850147,-0.1000455195649614
-0.09094844913850147,-0.1011584167975112
-0.09094364913850148,-0.1005224755217684
-0.09093884913850148,-0.1021123287111253
-0.09093404913850148,-0.1009994314785775
-0.09092924913850148,-0.1014763874353817
-0.09092444913850148,-0.1002045048838994
-0.09091964913850148,-0.1012379094569772
-0.09091484913850147,-0.09972754892709823
-0.09091004913850147,-0.1042586305167467
-0.09090524913850147,-0.0985351590350716
-0.09090044913850147,-0.09813769573773309
-0.09089564913850147,-0.09694530584571542
-0.09089084913850147,-0.09845566637560446
-0.09088604913850147,-0.09781972509986171
-0.09088124913850147,-0.09829668105666878
-0.09087644913850147,-0.0958324086131656
-0.09087164913850147,-0.0965478425483762
-0.09086684913850147,-0.09845566637560446
-0.09086204913850147,-0.09607088659156912
-0.09085724913850148,-0.0958324086131656
-0.09085244913850148,-0.09559393063476206
-0.09084764913850148,-0.09328864351019456
-0.09084284913850148,-0.09352712148859767
-0.09083804913850148,-0.09408357010487199
-0.09083324913850148,-0.09352712148859911
-0.09082844913850147,-0.09424255542380711
-0.09082364913850147,-0.09336813616966023
-0.09081884913850147,-0.09217574627764415
-0.09081404913850147,-0.09185777563977336
-0.09080924913850147,-0.0933681361696624
-0.09080444913850147,-0.09201676095870905
-0.09079964913850147,-0.09249371691551611
-0.09079484913850147,-0.09297067287232318
-0.09079004913850147,-0.08971147383414155
-0.09078524913850147,-0.08994995181254509
-0.09078044913850147,-0.08875756192052742
-0.09077564913850147,-0.08772415734744543
-0.09077084913850147,-0.08836009862318819
-0.09076604913850148,-0.08788314266638111
-0.09076124913850148,-0.08780365000691327
-0.09075644913850148,-0.08677024543383317
-0.09075164913850148,-0.08669075277436358
-0.09074684913850148,-0.08470343628767094
-0.09074204913850148,-0.08851908394211694
-0.09073724913850147,-0.08629328947701988
-0.09073244913850147,-0.08390850969298758
-0.09072764913850147,-0.08319307575777524
-0.09072284913850147,-0.08152372990895354
-0.09071804913850147,-0.08112626661161432
-0.09071324913850147,-0.08152372990895354
-0.09070844913850147,-0.08041083267640371
-0.09070364913850147,-0.08033134001693587
-0.09069884913850147,-0.08017235469800019
-0.09069404913850147,-0.08096728129267863
-0.09068924913850147,-0.08176220788735708
-0.09068444913850147,-0.08009286203853234
-0.09067964913850148,-0.07969539874119312
-0.09067484913850148,-0.07850300884917544
-0.09067004913850148,-0.08009286203853234
-0.09066524913850148,-0.08001336937906463
-0.09066044913850148,-0.0806493106548061
-0.09065564913850148,-0.08072880331427496
-0.09065084913850147,-0.0814442372494841
-0.09064604913850147,-0.08056981799534013
-0.09064124913850147,-0.08096728129267877
-0.09063644913850147,-0.08104677395214648
-0.09063164913850147,-0.08112626661161432
-0.09062684913850147,-0.08208017852522846
-0.09062204913850147,-0.08120575927108216
-0.09061724913850147,-0.08533937756341009
-0.09061244913850147,-0.0821596711846963
-0.09060764913850147,-0.08382901703352104
-0.09060284913850147,-0.08239814916309983
-0.09059804913850147,-0.08327256841724613
-0.09059324913850147,-0.08072880331427509
-0.09058844913850148,-0.08279561246043905
-0.09058364913850148,-0.08208017852522846
-0.09057884913850148,-0.08263662714150236
-0.09057404913850148,-0.08215967118469718
-0.09056924913850148,-0.0854983628823397
-0.09056444913850148,-0.08518039224447499
-0.09055964913850147,-0.08669075277436243
-0.09055484913850147,-0.08613430415808941
-0.09055004913850147,-0.08661126011489358
-0.09054524913850147,-0.08549836288234577
-0.09054044913850147,-0.08780365000691327
-0.09053564913850147,-0.08637278213649208
-0.09053084913850147,-0.08963198117467371
-0.09052604913850147,-0.08915502521786664
-0.09052124913850147,-0.08764466468797759
-0.09051644913850147,-0.0889165472394631
-0.09051164913850147,-0.08843959128265604
-0.09050684913850147,-0.08828060596372034
-0.09050204913850148,-0.08764466468797759
-0.09049724913850148,-0.08867806926105956
-0.09049244913850148,-0.08955248851520586
-0.09048764913850148,-0.08820111330425495
-0.09048284913850148,-0.08851908394212329
-0.09047804913850148,-0.08891654723946238
-0.09047324913850147,-0.08947299585573469
-0.09046844913850147,-0.08764466468797572
-0.09046364913850147,-0.08661126011489517
-0.09045884913850147,-0.08637278213649208
-0.09045404913850147,-0.08510089958500655
-0.09044924913850147,-0.08287510511990691
-0.09044444913850147,-0.0835905390551175
-0.09043964913850147,-0.0837495243740532
-0.09043484913850147,-0.08422648033086026
-0.09043004913850147,-0.08295459777937475
-0.09042524913850147,-0.08772415734744543
-0.09042044913850147,-0.08629328947702422
-0.09041564913850147,-0.08859857660159172
-0.09041084913850148,-0.08867806926105956
-0.09040604913850148,-0.08939350319627017
-0.09040124913850148,-0.08724720139064226
-0.09039644913850148,-0.08923451787733087
-0.09039164913850148,-0.08764466468798048
-0.09038684913850148,-0.08843959128265459
-0.09038204913850147,-0.08891654723946049
-0.09037724913850147,-0.08748567936904218
-0.09037244913850147,-0.08764466468798221
-0.09036764913850147,-0.09018842979094861
-0.09036284913850147,-0.08867806926105956
-0.09035804913850147,-0.08756517202850975
-0.09035324913850147,-0.09066538574775569
-0.09034844913850147,-0.0889165472394631
-0.09034364913850147,-0.0890755325583988
-0.09033884913850147,-0.08351104639564966
-0.09033404913850147,-0.08367003171458536
-0.09032924913850147,-0.08247764182256768
-0.09032444913850148,-0.08319307575777828
-0.09031964913850148,-0.08319307575777828
-0.09031484913850148,-0.08208017852522846
-0.09031004913850148,-0.08351104639564705
-0.09030524913850148,-0.08255713448203726
-0.09030044913850148,-0.08454445096872804
-0.09029564913850147,-0.08454445096873309
-0.09029084913850147,-0.08533937756340662
-0.09028604913850147,-0.08343155373618413
-0.09028124913850147,-0.08470343628766733
-0.09027644913850147,-0.08327256841724613
-0.09027164913850147,-0.08581633352021716
-0.09026684913850147,-0.08629328947702422
-0.09026204913850147,-0.08669075277436344
-0.09025724913850147,-0.08549836288234577
-0.09025244913850147,-0.08613430415808854
-0.09024764913850147,-0.08462394362819949
-0.09024284913850147,-0.0860548114986207
-0.09023804913850147,-0.08208017852522846
-0.09023324913850148,-0.08303409043884259
-0.09022844913850148,-0.08287510511990691
-0.09022364913850148,-0.0822391638441653
-0.09021884913850148,-0.08184170054682564
-0.09021404913850148,-0.08462394362819442
-0.09020924913850147,-0.07929793544385332
-0.09020444913850147,-0.07897996480598252
-0.09019964913850147,-0.07897996480598064
-0.09019484913850147,-0.07794656023290183
-0.09019004913850147,-0.07866199416811114
-0.09018524913850147,-0.07635670704354364
-0.09018044913850147,-0.07619772172460795
-0.09017564913850147,-0.07572076576780087
-0.09017084913850147,-0.07580025842726873
-0.09016604913850147,-0.07214359609174786
-0.09016124913850147,-0.07373344928110476
-0.09015644913850147,-0.0700767869455839
-0.09015164913850147,-0.06753302184261287
-0.09014684913850148,-0.06697657322633796
-0.09014204913850148,-0.06538672003698107
-0.09013724913850148,-0.06538672003698107
-0.09013244913850148,-0.06419433014496556
-0.09012764913850148,-0.06411483748549569
-0.09012284913850148,-0.06188904302039995
-0.09011804913850147,-0.06538672003697282
-0.09011324913850147,-0.06085563844730726
-0.09010844913850147,-0.05719897611179277
-0.09010364913850147,-0.05703999079285736
-0.09009884913850147,-0.05020362207862272
-0.09009404913850147,-0.04885224686766935
-0.09008924913850147,-0.05060108537596195
-0.09008444913850147,-0.0446391359158736
-0.09007964913850147,-0.04336725336438807
-0.09007484913850147,-0.04265181942917748
-0.09007004913850147,-0.04384420932119515
-0.09006524913850147,-0.03891566443418877
-0.09006044913850147,-0.04050551762354566
-0.09005564913850148,-0.03263574433622904
-0.09005084913850148,-0.03335117827143964
-0.09004604913850148,-0.03319219295250424
-0.09004124913850148,-0.02460698572999234
-0.09003644913850148,-0.02460698572997672
-0.09003164913850147,-0.02532241966517735
-0.09002684913850147,-0.01983742616190315
-0.09002204913850147,-0.0182475729725503
-0.09001724913850147,-0.01888351424827571
-0.09001244913850147,-0.009980336387893295
-0.09000764913850147,-0.01180866755565372
-0.09000284913850147,-0.01323953542607493
-0.08999804913850147,-0.008390483198536402
-0.08999324913850147,-0.008867439155343469
-0.08998844913850147,-0.007039107987583041
-0.08998364913850147,0.0003537093429265179
-0.08997884913850147,-0.0009181732085589975
-0.08997404913850147,-0.001554114484301755
-0.08996924913850148,0.001705084553879878
-0.08996444913850148,-0.0007591878896233081
-0.08995964913850148,-0.0009976658680268423
-0.08995484913850148,0.004805298273115266
-0.08995004913850148,0.00393087901898112
-0.08994524913850148,0.003135952424302529
-0.08994044913850147,0.006872107419285158
-0.08993564913850147,0.004328342316317163
-0.08993084913850147,0.00345392306218374
-0.08992604913850147,0.009654350500664349
-0.08992124913850147,0.00949536518172866
-0.08991644913850147,0.01100572571161771
-0.08991164913850147,0.0172061531501096
-0.08990684913850147,0.01402644677139581
-0.08990204913850147,0.01752412378798098
-0.08989724913850147,0.02213469803711597
-0.08989244913850147,0.02070383016669477
-0.08988764913850147,0.02332708792913364
-0.08988284913850147,0.0261093310105082
-0.08987804913850148,0.02459897048061916
-0.08987324913850148,0.02897106675135062
-0.08986844913850148,0.02730172090252891
-0.08986364913850148,0.02666577962678427
-0.08985884913850148,0.02992497866495882
-0.08985404913850147,0.03366113365995171
-0.08984924913850147,0.03270722174634481
-0.08984444913850147,0.03572794280612971
-0.08983964913850147,0.04248481886087756
-0.08983484913850147,0.03882815652536337
-0.08983004913850147,0.04749285640735844
-0.08982524913850147,0.04685691513161568
-0.08982044913850147,0.04526706194225878
-0.08981564913850147,0.05456770309999662
-0.08981084913850147,0.05766791681924256
-0.08980604913850147,0.05385226916478601
-0.08980124913850147,0.06045015990061713
-0.08979644913850147,0.06204001308997402
-0.08979164913850148,0.06092711585742419
-0.08978684913850148,0.07213558084239029
-0.08978204913850148,0.07181761020451892
-0.08977724913850148,0.0677634845716662
-0.08977244913850148,0.07666666243204125
-0.08976764913850148,0.07459985328589724
-0.08976284913850147,0.07277152211815069
-0.08975804913850147,0.08246962657321184
-0.08975324913850147,0.0834235384868186
-0.08974844913850147,0.08032332476757829
-0.08974364913850147,0.08882903933063768
-0.08973884913850147,0.08708020082234511
-0.08973404913850147,0.08549034763298821
-0.08972924913850147,0.0984476511262469
-0.08972444913850147,0.09773221719103629
-0.08971964913850147,0.09574490070434018
-0.08971484913850147,0.1065559023919671
-0.08971004913850147,0.102501776759107
-0.08970524913850147,0.09971953367773241
-0.08970044913850148,0.1106100280248271
-0.08969564913850148,0.1082252482407918
-0.08969084913850148,0.109497130792275
-0.08968604913850148,0.1176848747174504
-0.08968124913850148,0.1145051683387573
-0.08967644913850147,0.1116434325979252
-0.08967164913850147,0.1204671177988319
-0.08966684913850147,0.1160950215281076
-0.08966204913850147,0.1156180655713147
-0.08965724913850147,0.1229313902423431
-0.08965244913850147,0.1199901618420328
-0.08964764913850147,0.1203081324799042
-0.08964284913850147,0.1263495745994604
-0.08963804913850147,0.121421029712454
-0.08963324913850147,0.1241237801343607
-0.08962844913850147,0.1280189204482851
-0.08962364913850147,0.1258726186426533
-0.08961884913850147,0.1226929122639395
-0.08961404913850148,0.1313576121459346
-0.08960924913850148,0.1284163837456244
-0.08960444913850148,0.1323115240595488
-0.08959964913850148,0.1342193478867736
-0.08959484913850148,0.1304037002323274
-0.08959004913850148,0.1327884800163515
-0.08958524913850147,0.1366041276708056
-0.08958044913850147,0.1328679726758342
-0.08957564913850147,0.1386709368169766
-0.08957084913850147,0.138829922135912
-0.08956604913850147,0.1346963038435841
-0.08956124913850147,0.1390684001143156
-0.08955644913850147,0.1439174523418541
-0.08955164913850147,0.1408172386226081
-0.08954684913850147,0.1483690412720534
-0.08954204913850147,0.1507538210560887
-0.08953724913850147,0.1453483202122753
-0.08953244913850147,0.1487665045693926
-0.08952764913850147,0.1509128063750244
-0.08952284913850148,0.1486075192504569
-0.08951804913850148,0.1554438879646916
-0.08951324913850148,0.1547284540294823
-0.08950844913850148,0.1501973724398221
-0.08950364913850148,0.1613263447652918
-0.08949884913850147,0.1589415649812689
-0.08949404913850147,0.1546489613700241
-0.08948924913850147,0.1606904034895732
-0.08948444913850147,0.1628367052951942
-0.08947964913850147,0.1590210576407446
-0.08947484913850147,0.1668113382685934
-0.08947004913850147,0.163393153911476
-0.08946524913850147,0.1596569989164874
-0.08946044913850147,0.1691961180526287
-0.08945564913850147,0.1657779336955114
-0.08945084913850147,0.1662548896523184
-0.08944604913850147,0.1725348097502782
-0.08944124913850147,0.1699910446473072
-0.08943644913850148,0.1653009777387043
-0.08943164913850148,0.1777018326156881
-0.08942684913850148,0.1738066923017637
-0.08942204913850148,0.1747606042153761
-0.08941724913850148,0.1821534215458739
-0.08941244913850148,0.1790532078266471
-0.08940764913850147,0.1759529941074178
-0.08940284913850147,0.1881948636654362
-0.08939804913850147,0.1841407380325871
-0.08939324913850147,0.1861280545192796
-0.08938844913850147,0.1905001507900111
-0.08938364913850147,0.1880358783465079
-0.08937884913850147,0.1872409517518294
-0.08937404913850147,0.1942363057849998
-0.08936924913850147,0.1884333416438471
-0.08936444913850147,0.1857305912219404
-0.08935964913850147,0.1960646369527602
-0.08935484913850147,0.1909771067468182
-0.08935004913850148,0.1924079746172394
-0.08934524913850148,0.1972570268447779
-0.08934044913850148,0.194633769082339
-0.08933564913850148,0.1932029012119204
-0.08933084913850148,0.2015496304560263
-0.08932604913850148,0.1970185488663826
-0.08932124913850147,0.2006752112019017
-0.08931644913850147,0.2042523808779414
-0.08931164913850147,0.2005162258829514
-0.08930684913850147,0.1960646369527693
-0.08930204913850147,0.2010726744992344
-0.08929724913850147,0.1972570268447779
-0.08929244913850147,0.1974955048231814
-0.08928764913850147,0.1990058653530705
-0.08928284913850147,0.1947132617418069
-0.08927804913850147,0.1943157984444676
-0.08927324913850147,0.196700578228503
-0.08926844913850147,0.1947132617418069
-0.08926364913850147,0.1939183351471284
-0.08925884913850148,0.1938388424876606
-0.08925404913850148,0.1901821801521397
-0.08924924913850148,0.190102687492672
-0.08924444913850148,0.1881153710059794
-0.08923964913850148,0.1861280545192832
-0.08923484913850148,0.1862075471787473
-0.08923004913850147,0.1841407380325774
