synth-diodes-1f-1r-in-T00-L10-D00/1kHz-1V/scope.csv

#Digilent WaveForms Oscilloscope Acquisition
#Device Name: Discovery3
#Serial Number: SN:210415BD5874
#Date Time: 2025-04-06 21:15:27.742.046.420
#Sample rate: 100000Hz
#Samples: 32768
#Trigger: Source: Channel 1 Type: Edge Condition: Rising Level: 0 V Hyst.: Auto HoldOff: 0 s
#Channel 1: Range: 500 mV/div Offset: 0 V Sample Mode: Average
#Wavegen Channel 1: Running
#Mode: Simple
#Type: Sine
#Frequency: 1 kHz
#Period: 1 ms
#Amplitude: 1 V
#Offset: 0 V
#Symmetry: 50 %
#Phase: 0 °

Time (s),Channel 1 (V)
-0.19972,-0.07723112629768993
-0.19971,-0.07556178044886519
-0.1997,-0.07341547864323338
-0.19969,-0.07118968417813779
-0.19968,-0.06880490439409839
-0.19967,-0.06642012461006305
-0.19966,-0.06347889620975279
-0.19965,-0.06085563844731391
-0.19964,-0.05839136600380567
-0.19963,-0.05560912292243617
-0.19962,-0.05258840186265806
-0.19961,-0.04964717346234247
-0.1996,-0.04670594506203755
-0.19959,-0.04384420932119515
-0.19958,-0.04050551762355174
-0.19957,-0.03716682592589619
-0.19956,-0.03358965624984317
-0.19955,-0.03017147189273207
-0.19954,-0.02691227285454422
-0.19953,-0.02277865456221166
-0.19952,-0.02023488945924526
-0.19951,-0.01633974914532087
-0.1995,-0.01244460883139027
-0.19949,-0.009026424474279159
-0.19948,-0.005528747457693991
-0.19947,-0.001872085122179786
-0.19946,0.001625591894412033
-0.19945,0.005361746889400735
-0.19944,0.009256887203318041
-0.19943,0.01291354953884598
-0.19942,0.01641122655543115
-0.19941,0.02054484484775907
-0.1994,0.02404252186434424
-0.19939,0.0274607062214685
-0.19938,0.03127635387591811
-0.19937,0.03429707493569621
-0.19936,0.03739728865494867
-0.19935,0.04097445833099517
-0.19934,0.04431315002864465
-0.19933,0.04781082704522346
-0.19932,0.05154698204021851
-0.19931,0.05496516639733584
-0.1993,0.05790639479764074
-0.19929,0.06116559383582773
-0.19928,0.06569667542549906
-0.19927,0.06800196255006237
-0.19926,0.07181761020451892
-0.19925,0.07452036062643055
-0.19924,0.07722311104833235
-0.19923,0.08024383210811045
-0.19922,0.08342353848681845
-0.19921,0.08731867880074863
-0.1992,0.09049838517946242
-0.19919,0.09351910623923503
-0.19918,0.0961423640016794
-0.19917,0.09781170985050558
-0.19916,0.09860663644518258
-0.19915,0.09820917314784336
-0.19914,0.09630134932061017
-0.19913,0.09359859889870836
-0.19912,0.09018041454159105
-0.19911,0.08628527422765842
-0.1991,0.0817541926379995
-0.19909,0.07706412572939667
-0.19908,0.07118166892878686
-0.19907,0.06498124149028427
-0.19906,0.05830385809498531
-0.19905,0.0513085040618277
-0.19904,0.04383619407183757
-0.19903,0.0369203326981176
-0.19902,0.02730172090252588
-0.19901,0.01879600633946649
-0.199,0.009654350500647143
-0.19899,0.0001947240239908285
-0.19898,-0.008867439155343469
-0.19897,-0.01832706563199978
-0.19896,-0.02786618476815836
-0.19895,-0.03708733326642834
-0.19894,-0.04575203314840766
-0.19893,-0.05187296792744746
-0.19892,-0.05703999079286488
-0.19891,-0.06117360908518529
-0.1989,-0.06562519801538461
-0.19889,-0.06959983098878335
-0.19888,-0.07317700066482985
-0.19887,-0.0761182290651401
-0.19886,-0.07850300884917109
-0.19885,-0.08041083267640371
-0.19884,-0.08208017852522846
-0.19883,-0.08327256841724397
-0.19882,-0.08414698767139242
-0.19881,-0.08486242160660303
-0.1988,-0.08470343628766762
-0.19879,-0.08470343628766733
-0.19878,-0.08359053905511837
-0.19877,-0.08406749501192458
-0.19876,-0.08311358309831043
-0.19875,-0.08200068586575786
-0.19874,-0.08049032533587157
-0.19873,-0.07897996480598252
-0.19872,-0.07739011161662851
-0.19871,-0.07572076576780087
-0.1987,-0.0738129419405726
-0.19869,-0.07150765481600931
-0.19868,-0.06920236769143762
-0.19867,-0.06705606588580031
-0.19866,-0.06403534482602771
-0.19865,-0.06149157972305667
-0.19864,-0.05862984398220905
-0.19863,-0.05576810824137185
-0.19862,-0.0526678945221259
-0.19861,-0.04972666612182101
-0.1986,-0.04654695974310187
-0.19859,-0.04352623868332377
-0.19858,-0.04002856166674496
-0.19857,-0.03637189933121775
-0.19856,-0.0325562516767612
-0.19855,-0.02897908200070818
-0.19854,-0.02532241966518732
-0.19853,-0.02079133807551613
-0.19852,-0.01856554361042052
-0.19851,-0.01411395468022122
-0.1985,-0.01061627766362969
-0.19849,-0.007118600647050885
-0.19848,-0.003779908949401408
-0.19847,-0.0003617245922903022
-0.19846,0.003135952424301083
-0.19845,0.006951600078757629
-0.19844,0.01084674039267494
-0.19843,0.01434441740926719
-0.19842,0.01768310910692346
-0.19841,0.02141926410190537
-0.1984,0.02428099984274778
-0.19839,0.02793766217827514
-0.19838,0.03151483185432165
-0.19837,0.03429707493569621
-0.19836,0.03747678131440421
-0.19835,0.04097445833099517
-0.19834,0.04447213534758034
-0.19833,0.04804930502362684
-0.19832,0.05122901140234713
-0.19831,0.05440871778106092
-0.1983,0.05727045352190334
-0.19829,0.06060914521955281
-0.19828,0.06450428553348241
-0.19827,0.06736602127431961
-0.19826,0.07046623499356555
-0.19825,0.07324847807494503
-0.19824,0.07595122849684684
-0.19823,0.0788924568971571
-0.19822,0.0821516559353328
-0.19821,0.08541085497352036
-0.1982,0.08827259071436278
-0.19819,0.09113432645519998
-0.19818,0.09359859889870836
-0.19817,0.09518845208806699
-0.19816,0.0961423640016794
-0.19815,0.09526794474753311
-0.19814,0.09336012092029992
-0.19813,0.09065737049839812
-0.19812,0.08700070816287725
-0.19811,0.08302607518949225
-0.1981,0.0787334715782214
-0.19809,0.07388441935068288
-0.19808,0.06792246989060537
-0.19807,0.06188102777103832
-0.19806,0.05512415171625851
-0.19805,0.0479698123641655
-0.19804,0.04081547301205948
-0.19803,0.03382011897887223
-0.19802,0.02451947782115131
-0.19801,0.01601376325809193
-0.198,0.006872107419272867
-0.19799,-0.002428533738448047
-0.19798,-0.01117272627991097
-0.19797,-0.02071184541603498
-0.19796,-0.03009197923325801
-0.19795,-0.03955160570993153
-0.19794,-0.04781884229457235
-0.19793,-0.05386028441414357
-0.19792,-0.05878882930115776
-0.19791,-0.06308143291241357
-0.1979,-0.0672150512047415
-0.19789,-0.07103069885920484
-0.19788,-0.07476685385418674
-0.19787,-0.07746960427609347
-0.19786,-0.07969539874118907
-0.19785,-0.08176220788735708
-0.19784,-0.08343155373618182
-0.19783,-0.08470343628766501
-0.19782,-0.08565734820128147
-0.19781,-0.085895826179685
-0.1978,-0.085895826179685
-0.19779,-0.085895826179685
-0.19778,-0.08486242160660404
-0.19777,-0.08541887022287793
-0.19776,-0.0843059729903281
-0.19775,-0.0831930757577803
-0.19774,-0.08160322256842138
-0.19773,-0.08009286203853234
-0.19772,-0.07850300884917832
-0.19771,-0.07651569236247932
-0.1977,-0.07476685385418674
-0.19769,-0.07222308875122033
-0.19768,-0.06991780162664822
-0.19767,-0.06769200716154336
-0.19766,-0.06483027142070616
-0.19765,-0.06220701365826728
-0.19764,-0.0596632485552906
-0.19763,-0.0565630348360503
-0.19762,-0.05378079175467573
-0.19761,-0.05083956335437084
-0.1976,-0.04797782761352307
-0.19759,-0.04487761389427712
-0.19758,-0.04137993687769832
-0.19757,-0.03780276720163894
-0.19756,-0.03462306082291908
-0.19755,-0.03128436912527568
-0.19754,-0.02786618476815836
-0.19753,-0.02317611785955089
-0.19752,-0.02063235275658449
-0.19751,-0.01626025648585303
-0.1975,-0.01268308680980652
-0.19749,-0.009026424474279159
-0.19748,-0.005369762138758302
-0.19747,-0.002110563100582597
-0.19746,0.001784577213347723
-0.19745,0.005918195505675648
-0.19744,0.009574857841189855
-0.19743,0.01339050549565305
-0.19742,0.01704716783118085
-0.19741,0.02086281548563046
-0.1974,0.02491694111849053
-0.19739,0.02865309611348531
-0.19738,0.03199178781112871
-0.19737,0.0351714941898425
-0.19736,0.03851018588748591
-0.19735,0.04232583354194853
-0.19734,0.04598249587746939
-0.19733,0.04995712885085439
-0.19732,0.05329582054851111
-0.19731,0.05663451224616665
-0.1973,0.05997320394381006
-0.19729,0.06355037361986306
-0.19728,0.06784297723113158
-0.19727,0.07054572765303339
-0.19726,0.0742818826480221
-0.19725,0.0770641257293916
-0.19724,0.08016433944864261
-0.19723,0.08342353848682424
-0.19722,0.08684172284393535
-0.19721,0.09033939986052673
-0.1972,0.09328062826083698
-0.19719,0.0961423640016794
-0.19718,0.09836815846677904
-0.19717,0.1001964896345418
-0.19716,0.101468372186025
-0.19715,0.1003554749534752
-0.19714,0.09844765112624212
-0.19713,0.09582439336380802
-0.19712,0.09208823836881931
-0.19711,0.08795462007649892
-0.1971,0.08342353848682424
-0.19709,0.07809753030247865
-0.19708,0.07229456616133655
-0.19707,0.06593515340389841
-0.19706,0.05901929203018261
-0.19705,0.0517059673591542
-0.19704,0.04455162800704818
-0.19703,0.03739728865492495
-0.19702,0.02793766217826863
-0.19701,0.01951144027467709
-0.197,0.01021079911695618
-0.19699,0.0009101579592014309
-0.19698,-0.007834034582261487
-0.19697,-0.0174526463778532
-0.19696,-0.02699176551401206
-0.19695,-0.03645139199068559
-0.19694,-0.04503659921321282
-0.19693,-0.05099854867330117
-0.19692,-0.05592709356031565
-0.19691,-0.06037868249050685
-0.1969,-0.064909764080174
-0.19689,-0.06896388971304016
-0.19688,-0.07230258141068356
-0.19687,-0.07524380981099381
-0.19686,-0.07754909693555712
-0.19685,-0.07969539874119312
-0.19684,-0.08160322256842138
-0.19683,-0.08295459777937229
-0.19682,-0.0837495243740532
-0.19681,-0.08374952437405363
-0.1968,-0.08398800235245672
-0.19679,-0.08406749501192458
-0.19678,-0.08255713448203654
-0.19677,-0.08311358309831043
-0.19676,-0.0821596711846963
-0.19675,-0.08041083267640689
-0.19674,-0.07897996480598252
-0.19673,-0.07762858959502915
-0.19672,-0.07603873640567514
-0.19671,-0.07405141991897614
-0.1967,-0.07198461077280741
-0.19669,-0.0693613530103733
-0.19668,-0.0670560658858058
-0.19667,-0.06475077876123281
-0.19666,-0.0617300577014602
-0.19665,-0.05926578525795702
-0.19664,-0.0566425274955125
-0.19663,-0.05354231377627219
-0.19662,-0.05068057803542979
-0.19661,-0.04765985697565718
-0.1966,-0.04455964325640575
-0.19659,-0.04122095155875627
-0.19658,-0.03756428922324207
-0.19657,-0.03374864156877887
-0.19656,-0.03001248657378395
-0.19655,-0.02659430221667284
-0.19654,-0.02301713254061983
-0.19653,-0.01848605095094733
-0.19652,-0.01554482255064243
-0.19651,-0.01149069691778234
-0.1965,-0.007993019901203539
-0.19649,-0.004813313522483389
-0.19648,-0.001156651186962532
-0.19647,0.002500011148551674
-0.19646,0.006315658803014872
-0.19645,0.0104492770953493
-0.19644,0.01402644677139581
-0.19643,0.01744463112851313
-0.19642,0.02102180080457337
-0.19641,0.02499643377795838
-0.1964,0.02849411079454355
-0.19639,0.03230975844899316
-0.19638,0.03564845014664957
-0.19637,0.03874866386589551
-0.19636,0.04232583354194203
-0.19635,0.04566452523959801
-0.19634,0.04932118757511886
-0.19633,0.05297784991063307
-0.19632,0.05607806362988567
-0.19631,0.0592577700086051
-0.1963,0.0623579837278454
-0.19629,0.06577616808496271
-0.19628,0.06990978637729513
-0.19627,0.07237405882079383
-0.19626,0.07571275051844331
-0.19625,0.07857448625928051
-0.19624,0.08159520731906382
-0.19623,0.08445694305990623
-0.19622,0.08819309805488812
-0.19621,0.09129331177414086
-0.1962,0.09447301815285973
-0.19619,0.09725526123422923
-0.19618,0.09979902633720025
-0.19617,0.1016273575049633
-0.19616,0.1030582253753819
-0.19615,0.1017863428238964
-0.19614,0.09995801165613928
-0.19613,0.09733475389369707
-0.19612,0.09391656953657974
-0.19611,0.09002142922266244
-0.1961,0.0856493329519239
-0.19609,0.08040281742704615
-0.19608,0.07475883860482917
-0.19607,0.06831993318793375
-0.19606,0.06140407181421868
-0.19605,0.05448821044052878
-0.19604,0.04693640779108352
-0.19603,0.03938460514162107
-0.19602,0.02992497866496475
-0.19601,0.02126027878296968
-0.196,0.01188014496578106
-0.19599,0.00257950380802617
-0.19598,-0.006482659371308127
-0.19597,-0.01633974914530294
-0.19596,-0.02587886828146224
-0.19595,-0.03541798741761878
-0.19594,-0.04376471666172729
-0.19593,-0.04972666612181566
-0.19592,-0.05521165962510316
-0.19591,-0.05862984398221426
-0.1959,-0.06069665312837823
-0.19589,-0.06761251450206815
-0.19588,-0.07071272822132667
-0.19587,-0.07421040523791184
-0.19586,-0.07723112629768443
-0.19585,-0.07953641342225742
-0.19584,-0.07794656023290053
-0.19583,-0.08096728129267863
-0.19582,-0.08231865650363199
-0.19581,-0.08303409043884491
-0.1958,-0.0843059729903281
-0.19579,-0.08494191426607087
-0.19578,-0.0826366271414999
-0.19577,-0.08072880331427509
-0.19576,-0.08239814916309983
-0.19575,-0.08056981799534274
-0.19574,-0.08041083267640371
-0.19573,-0.07985438406012881
-0.19572,-0.0780260528923717
-0.19571,-0.07627721438407579
-0.1957,-0.07381294194056798
-0.19569,-0.07126917683760157
-0.19568,-0.06880490439409839
-0.19567,-0.06657910992899338
-0.19566,-0.06363788152868848
-0.19565,-0.05990172653369978
-0.19564,-0.05513216696563777
-0.19563,-0.05449622568988634
-0.19562,-0.05179347526797962
-0.19561,-0.04972666612181942
-0.1956,-0.04742137899724816
-0.19559,-0.0448776138942709
-0.19558,-0.04145942953715981
-0.19557,-0.03748479656376756
-0.19556,-0.0344640755039834
-0.19555,-0.03112538380633999
-0.19554,-0.02786618476815836
-0.19553,-0.02341459583795255
-0.19552,-0.01983742616190604
-0.19551,-0.01339852074501062
-0.1955,-0.01276257946926902
-0.19549,-0.009503380431086226
-0.19548,-0.006721137349711662
-0.19547,-0.004097879587277559
-0.19546,-0.0002822319328162398
-0.19545,0.003771893700050203
-0.19544,0.007269570716629008
-0.19543,0.01108521837108556
-0.19542,0.0145034027282104
-0.19541,0.0186370210205308
-0.1954,0.02221419069658382
-0.19539,0.02682476494571042
-0.19538,0.03262772908687148
-0.19537,0.03342265568154992
-0.19536,0.03668185471972563
-0.19535,0.03986156109844534
-0.19534,0.04304126747716491
-0.19533,0.04622097385587291
-0.19532,0.04971865087245808
-0.19531,0.0533753132079856
-0.1953,0.0570319755434998
-0.19529,0.06045015990061713
-0.19528,0.06498124149028325
-0.19527,0.06442479287400936
-0.19526,0.07006877169622633
-0.19525,0.07833600828086713
-0.19524,0.0796078908323677
-0.19523,0.08199267061640304
-0.19522,0.08342353848682163
-0.19521,0.08501339167618113
-0.1952,0.08795462007650369
-0.19519,0.09471149613125819
-0.19518,0.09582439336380802
-0.19517,0.09757323187210219
-0.19516,0.0984476511262469
-0.19515,0.09622185666114724
-0.19514,0.09391656953658394
-0.19513,0.09248570166615853
-0.19512,0.0915317897525444
-0.19511,0.0857288256114023
-0.1951,0.08151571465959596
-0.19509,0.07571275051843102
-0.19508,0.0689558744636765
-0.19507,0.06259646170624893
-0.19506,0.05941675532751996
-0.19505,0.05107002608341145
-0.19504,0.04320025279609482
-0.19503,0.0359664207845341
-0.19502,0.02571186771316898
-0.19501,0.01680868985277037
-0.195,0.008779931246532662
-0.19499,0.00273848912696186
-0.19498,-0.009105917133747003
-0.19497,-0.01840655829146792
-0.19496,-0.02889958934124034
-0.19495,-0.0388361717747364
-0.19494,-0.04734188633778032
-0.19493,-0.04964717346234782
-0.19492,-0.05656303483605926
-0.19491,-0.06149157972305667
-0.1949,-0.06594316865325597
-0.19489,-0.07095120619972109
-0.19488,-0.07444888321631536
-0.19487,-0.0761182290651401
-0.19486,-0.0762772143840755
-0.19485,-0.08056981799533941
-0.19484,-0.08200068586576451
-0.19483,-0.08414698767139242
-0.19482,-0.08557785554181363
-0.19481,-0.08581633352021123
-0.1948,-0.08255713448203553
-0.19479,-0.08406749501192458
-0.19478,-0.08335206107671528
-0.19477,-0.08367003171458536
-0.19476,-0.08343155373618182
-0.19475,-0.08215967118469862
-0.19474,-0.07961590608172527
-0.19473,-0.07587975108673657
-0.19472,-0.07635670704354364
-0.19471,-0.0745283758757832
-0.1947,-0.0729385226864237
-0.19469,-0.07150765481600511
-0.19468,-0.0693613530103733
-0.19467,-0.06697657322633217
-0.19466,-0.06379686684762417
-0.19465,-0.06085563844731391
-0.19464,-0.05791441004700901
-0.19463,-0.05529115228456478
-0.19462,-0.052111445905851
-0.19461,-0.04821630559193369
-0.1946,-0.04265181942917748
-0.19459,-0.04193638549395935
-0.19458,-0.03780276720163894
-0.19457,-0.03533849475813576
-0.19456,-0.03287422231462622
-0.19455,-0.02937654529804741
-0.19454,-0.02611734625986577
-0.19453,-0.02102981605393296
-0.19452,-0.01792960233467777
-0.19451,-0.01379598404234984
-0.1945,-0.01029830702577104
-0.19449,-0.006641644690243817
-0.19448,-0.002428533738448047
-0.19447,0.003851386359511685
-0.19446,0.00544123954886858
-0.19445,0.009256887203330476
-0.19444,0.01219811560363538
-0.19443,0.01521883666341348
-0.19442,0.01863702102053875
-0.19441,0.02300911729126226
-0.1944,0.02714273558359019
-0.19439,0.03079939791910439
-0.19438,0.03421758227622837
-0.19437,0.03731779599547431
-0.19436,0.04081547301205312
-0.19435,0.04590300321800155
-0.19434,0.05186495267809134
-0.19433,0.05265987927276834
-0.19432,0.05615755628935351
-0.19431,0.05870132139232974
-0.1943,0.06156305713316695
-0.19429,0.06529921212815565
-0.19428,0.07006877169621765
-0.19427,0.07261253679919737
-0.19426,0.07626919913471822
-0.19425,0.07913093487555542
-0.19424,0.08231064125427441
-0.19423,0.08564933295193214
-0.19422,0.09018041454159105
-0.19421,0.09566540804487234
-0.1942,0.09614236400168519
-0.19419,0.09932207038039319
-0.19418,0.1016273575049607
-0.19417,0.1033761960132546
-0.19416,0.1040916299484639
-0.19415,0.1032967033537854
-0.19414,0.1016273575049637
-0.19413,0.09924257772092535
-0.19412,0.09622185666114724
-0.19411,0.09248570166616533
-0.1941,0.08811360539542708
-0.19409,0.08390049444362552
-0.19408,0.08072078806491752
-0.19407,0.07165862488558322
-0.19406,0.06521971946867407
-0.19405,0.05766791681924256
-0.19404,0.04916220225618317
-0.19403,0.04184887758515476
-0.19402,0.03262772908687148
-0.19401,0.02436049250221562
-0.194,0.01585477793917171
-0.19399,0.006633629440886251
-0.19398,-0.002746504376337211
-0.19397,-0.01252410149086433
-0.19396,-0.02134778669179509
-0.19395,-0.0282636480655171
-0.19394,-0.03899515709365661
-0.19393,-0.04559304782948773
-0.19392,-0.05171398260850064
-0.19391,-0.05688100547392168
-0.1939,-0.06165056504199236
-0.19389,-0.06562519801537738
-0.19388,-0.0686459190751627
-0.19387,-0.07142816215653726
-0.19386,-0.07405141991897136
-0.19385,-0.07627721438407579
-0.19384,-0.07778757491396485
-0.19383,-0.07778757491396485
-0.19382,-0.07603873640567226
-0.19381,-0.07905945746545151
-0.1938,-0.07969539874119312
-0.19379,-0.08009286203853234
-0.19378,-0.07977489140066155
-0.19377,-0.08033134001693587
-0.19376,-0.07874148682757898
-0.19375,-0.07746960427609578
-0.19374,-0.07619772172460795
-0.19373,-0.0748463465136517
-0.19372,-0.07325649332429769
-0.19371,-0.07134866949706942
-0.1937,-0.06896388971303032
-0.19369,-0.06689708056687012
-0.19368,-0.06467128610177046
-0.19367,-0.06244549163667486
-0.19366,-0.05934527791742486
-0.19365,-0.05640404951711461
-0.19364,-0.05378079175468051
-0.19363,-0.05091905601383333
-0.19362,-0.04821630559192661
-0.19361,-0.04567254048895557
-0.1936,-0.04257232676970962
-0.19359,-0.03923363507205423
-0.19358,-0.03597443603387852
-0.19357,-0.03319219295250395
-0.19356,-0.03001248657378481
-0.19355,-0.02707125817347991
-0.19354,-0.02397104445423397
-0.19353,-0.01928097754563966
-0.19352,-0.01681670510212794
-0.19351,-0.01355750606394631
-0.1935,-0.010457292344706
-0.19349,-0.007436571284922264
-0.19348,-0.004018386927797856
-0.19347,-0.0001232466138805504
-0.19346,0.003453923062172462
-0.19345,0.006872107419296147
-0.19344,0.01036978443587495
-0.19343,0.01378796879299228
-0.19342,0.01712666049063568
-0.19341,0.02126027878296968
-0.1934,0.02451947782115131
-0.19339,0.02738121356198852
-0.19338,0.03079939791911104
-0.19337,0.03382011897888915
-0.19336,0.03699982535760293
-0.19335,0.04081547301205948
-0.19334,0.04415416470971474
-0.19333,0.04733387108842274
-0.19332,0.05051357746713653
-0.19331,0.05345480586745243
-0.1933,0.05655501958669273
-0.19329,0.05965523330593868
-0.19328,0.06355037361985597
-0.19327,0.06553769010655919
-0.19326,0.06871739648527297
-0.19325,0.07126116158823938
-0.19324,0.07420238998855426
-0.19323,0.07674615509153006
-0.19322,0.07936941285396416
-0.19321,0.08246962657321011
-0.1932,0.0851723769951219
-0.19319,0.08795462007649139
-0.19318,0.09049838517946242
-0.19317,0.09208823836881642
-0.19316,0.09256519432562639
-0.19315,0.09113432645520518
-0.19314,0.08906751730904498
-0.19313,0.08604679624926312
-0.19312,0.08262861189213827
-0.19311,0.07849499359981787
-0.1931,0.07364594137227934
-0.19309,0.06824044052845506
