real-diodes-in-T00-L10-D00/100Hz200mV/scope.csv

#Digilent WaveForms Oscilloscope Acquisition
#Device Name: Discovery3
#Serial Number: SN:210415BD5874
#Date Time: 2025-04-03 16:13:04.744.667.730
#Sample rate: 344828Hz
#Samples: 32768
#Trigger: Source: Channel 1 Type: Edge Condition: Rising Level: 0 V Hyst.: Auto HoldOff: 0 s
#Channel 1: Range: 200 mV/div Offset: 0 V Sample Mode: Average
#Wavegen Channel 1: Running
#Mode: Simple
#Type: Sine
#Frequency: 100 Hz
#Period: 10 ms
#Amplitude: 200 mV
#Offset: 0 V
#Symmetry: 50 %
#Phase: 0 °

Time (s),Channel 1 (V)
-0.03484051163615318,-0.03502052412026438
-0.03483761163615318,-0.03605392869334637
-0.03483471163615318,-0.03851820113684955
-0.03483181163615318,-0.03899515709365661
-0.03482891163615318,-0.04018754698567428
-0.03482601163615318,-0.04312877538598454
-0.03482311163615318,-0.04408268729959867
-0.03482021163615318,-0.04376471666172729
-0.03481731163615318,-0.04503659921321282
-0.03481441163615318,-0.04726239367831246
-0.03481151163615318,-0.04964717346234782
-0.03480861163615317,-0.05147550463010823
-0.03480571163615317,-0.0528268798410616
-0.03480281163615317,-0.05274738718159375
-0.03479991163615317,-0.05433724037095064
-0.03479701163615317,-0.05711948345232522
-0.03479411163615317,-0.05711948345232522
-0.03479121163615317,-0.05815288802540719
-0.03478831163615317,-0.06125310174465314
-0.03478541163615317,-0.06220701365826728
-0.03478251163615317,-0.06252498429613865
-0.03477961163615317,-0.06522773471804538
-0.03477671163615317,-0.06689708056687084
-0.03477381163615317,-0.06729454386421339
-0.03477091163615317,-0.06952033832931175
-0.03476801163615317,-0.07103069885919919
-0.03476511163615317,-0.07166664013494514
-0.03476221163615317,-0.07405141991897875
-0.03475931163615318,-0.07548228778939474
-0.03475641163615318,-0.07603873640567124
-0.03475351163615318,-0.07850300884917095
-0.03475061163615318,-0.07961590608172324
-0.03474771163615318,-0.08025184735746688
-0.03474481163615318,-0.08303409043883753
-0.03474191163615318,-0.0843854656497935
-0.03473901163615318,-0.0844649583092638
-0.03473611163615318,-0.0866112601148956
-0.03473321163615318,-0.08836009862318819
-0.03473031163615318,-0.08875756192052742
-0.03472741163615318,-0.09066538574775569
-0.03472451163615318,-0.09233473159658043
-0.03472161163615318,-0.09297067287232318
-0.03471871163615318,-0.09519646733742283
-0.03471581163615318,-0.09670682786731188
-0.03471291163615318,-0.09726327648358679
-0.03471001163615318,-0.09901211499187938
-0.03470711163615318,-0.1008404461596398
-0.03470421163615318,-0.1010789241380433
-0.03470131163615318,-0.1030662406247395
-0.03469841163615318,-0.1052920350898391
-0.03469551163615318,-0.1052125424303713
-0.03469261163615318,-0.1052125424303713
-0.03468971163615318,-0.1079947855117458
-0.03468681163615318,-0.110459057955249
-0.03468391163615318,-0.1113334772093953
-0.03468101163615318,-0.1133207936960914
-0.03467811163615318,-0.1136387643339628
-0.03467521163615318,-0.1144336909286413
-0.03467231163615318,-0.1168184707126766
-0.03466941163615318,-0.1175339046478872
-0.03466651163615318,-0.1178518752857586
-0.03466361163615318,-0.120713611026601
-0.03466071163615318,-0.12222397155649
-0.03465781163615318,-0.1225419421943614
-0.03465491163615318,-0.1249267219783968
-0.03465201163615318,-0.1267550531461572
-0.03464911163615318,-0.1272320091029642
-0.03464621163615317,-0.1283449063355141
-0.03464331163615317,-0.1311271494168886
-0.03464041163615317,-0.1312066420763565
-0.03463751163615317,-0.1306501934600816
-0.03463461163615317,-0.1341478704766667
-0.03463171163615317,-0.1352607677092166
-0.03462881163615317,-0.1354197530281522
-0.03462591163615317,-0.1378840254716554
-0.03462301163615317,-0.1389969227042053
-0.03462011163615317,-0.1393943860015445
-0.03461721163615317,-0.1413817024882424
-0.03461431163615317,-0.1423356144018545
-0.03461141163615317,-0.1421766290829234
-0.03460851163615317,-0.1445614088669571
-0.03460561163615317,-0.1460717693968437
-0.03460271163615317,-0.1462307547157835
-0.03459981163615317,-0.1486155344998156
-0.03459691163615318,-0.1492514757755561
-0.03459401163615318,-0.1496489390728957
-0.03459111163615318,-0.1521927041758628
-0.03458821163615318,-0.1532261087489476
-0.03458531163615318,-0.1530671234300141
-0.03458241163615318,-0.1556903811924479
-0.03457951163615318,-0.1569622637439382
-0.03457661163615318,-0.1571212490628739
-0.03457371163615318,-0.1589495802306343
-0.03457081163615318,-0.1603009554415877
-0.03456791163615318,-0.158075160976488
-0.03456501163615318,-0.1603009554415877
-0.03456211163615318,-0.1645140663933834
-0.03455921163615318,-0.1642755884149799
-0.03455631163615318,-0.1643550810744477
-0.03455341163615318,-0.1669783388368866
-0.03455051163615318,-0.1671373241558223
-0.03454761163615318,-0.1680912360694364
-0.03454471163615318,-0.1703965231940039
-0.03454181163615318,-0.1707939864913431
-0.03453891163615318,-0.1714299277670859
-0.03453601163615318,-0.1738942002105891
-0.03453311163615318,-0.1748481121242032
-0.03453021163615318,-0.1747686194647354
-0.03452731163615318,-0.1773123845677064
-0.03452441163615318,-0.1781868038218527
-0.03452151163615318,-0.1782662964813206
-0.03451861163615318,-0.1803331056274845
-0.03451571163615318,-0.1819229588168414
-0.03451281163615318,-0.1818434661573736
-0.03450991163615318,-0.1832743340277948
-0.03450701163615318,-0.1855796211523623
-0.03450411163615318,-0.1848641872171517
-0.03450121163615318,-0.1855796211523623
-0.03449831163615318,-0.1881233862553333
-0.03449541163615318,-0.1879644009363976
-0.03449251163615318,-0.1885208495526725
-0.03448961163615318,-0.1907466440177722
-0.03448671163615318,-0.1911441073151114
-0.03448381163615317,-0.1912235999745792
-0.03448091163615317,-0.1935288870991467
-0.03447801163615317,-0.1950392476290358
-0.03447511163615317,-0.1947212769911644
-0.03447221163615317,-0.1965496081589248
-0.03446931163615317,-0.1985369246456209
-0.03446641163615317,-0.1981394613482817
-0.03446351163615317,-0.1993318512402994
-0.03446061163615317,-0.2013986603864634
-0.03445771163615317,-0.2011601824080598
-0.03445481163615317,-0.2021140943216779
-0.03445191163615317,-0.2042603961273058
-0.03444901163615317,-0.2042603961273071
-0.03444611163615317,-0.2049758300625162
-0.03444321163615317,-0.2048963374030487
-0.03444031163615317,-0.2049758300625207
-0.03443741163615318,-0.2073606098465474
-0.03443451163615318,-0.2092684336737765
-0.03443161163615318,-0.210063360268457
-0.03442871163615318,-0.2095864043116522
-0.03442581163615318,-0.21101727218207
-0.03442291163615318,-0.2130045886687651
-0.03442001163615318,-0.2132430666471718
-0.03441711163615318,-0.2137995152634471
-0.03441421163615318,-0.2158663244096111
-0.03441131163615318,-0.2168202363232252
-0.03440841163615318,-0.2168202363232252
-0.03440551163615318,-0.2187280601504535
-0.03440261163615318,-0.219522986745132
-0.03439971163615318,-0.2198409573830033
-0.03439681163615318,-0.2216692885507638
-0.03439391163615318,-0.2224642151454422
-0.03439101163615318,-0.2225437078049101
-0.03438811163615318,-0.2240540683347991
-0.03438521163615318,-0.2251669655673489
-0.03438231163615318,-0.2246900096105419
-0.03437941163615318,-0.2258029068430917
-0.03437651163615318,-0.2273927600324486
-0.03437361163615318,-0.2269952967351093
-0.03437071163615318,-0.228187686627127
-0.03436781163615318,-0.2303339884327588
-0.03436491163615318,-0.2301750031138232
-0.03436201163615318,-0.2308109443895659
-0.03435911163615318,-0.2327187682167942
-0.03435621163615318,-0.2322418122599871
-0.03435331163615318,-0.2332752168330691
-0.03435041163615318,-0.2356599966171044
-0.03434751163615318,-0.2355010112981687
-0.03434461163615318,-0.236375430552315
-0.03434171163615318,-0.2379652837416719
-0.03433881163615318,-0.2375678204443327
-0.03433591163615318,-0.238442239698479
-0.03433301163615318,-0.2401910782067716
-0.03433011163615318,-0.2409065121419822
-0.03432721163615318,-0.2405885415041108
-0.03432431163615317,-0.2418604240555963
-0.03432141163615317,-0.2432117992665497
-0.03431851163615317,-0.2406680341635787
-0.03431561163615317,-0.2419399167150642
-0.03431271163615317,-0.2453581010721815
-0.03430981163615317,-0.2460735350073921
-0.03430691163615317,-0.2464709983047313
-0.03430401163615317,-0.2478223735156847
-0.03430111163615317,-0.2477428808562168
-0.03429821163615317,-0.2488557780887667
-0.03429531163615317,-0.2501276606402522
-0.03429241163615317,-0.2501276606402553
-0.03428951163615317,-0.2518764991485455
-0.03428661163615317,-0.2522739624458835
-0.03428371163615317,-0.2520354844674846
-0.03428081163615317,-0.2543407715920487
-0.03427791163615317,-0.254738234889387
-0.03427501163615318,-0.2546587422299195
-0.03427211163615318,-0.2565665660571441
-0.03426921163615318,-0.2575999706302277
-0.03426631163615318,-0.2570435220139556
-0.03426341163615318,-0.2579974339275671
-0.03426051163615318,-0.2593488091385197
-0.03425761163615318,-0.258951345841183
-0.03425471163615318,-0.2595077944574579
-0.03425181163615318,-0.2616540962630897
-0.03424891163615318,-0.260938662327879
-0.03424601163615318,-0.2616540962630897
-0.03424311163615318,-0.2638798907281893
-0.03424021163615318,-0.2638003980687215
-0.03423731163615318,-0.2638798907281893
-0.03423441163615318,-0.2657082218959497
-0.03423151163615318,-0.266105685193289
-0.03422861163615318,-0.266105685193289
-0.03422571163615318,-0.2680930016799851
-0.03422281163615318,-0.2680930016799851
-0.03421991163615318,-0.2682519869989208
-0.03421701163615318,-0.2702393034856169
-0.03421411163615318,-0.2700803181666812
-0.03421121163615318,-0.2702393034856169
-0.03420831163615318,-0.272226619972313
-0.03420541163615318,-0.2716701713560381
-0.03420251163615318,-0.2719881419939095
-0.03419961163615318,-0.2737369805022021
-0.03419671163615318,-0.2731010392264593
-0.03419381163615318,-0.2715111860371024
-0.03419091163615318,-0.2733395172048628
-0.03418801163615318,-0.2754858190104946
-0.03418511163615318,-0.2761217602862374
-0.03418221163615318,-0.2772346575187872
-0.03417931163615318,-0.2773936428377229
-0.03417641163615318,-0.2773141501782551
-0.03417351163615318,-0.2787450180486763
-0.03417061163615318,-0.2794604519838869
-0.03416771163615318,-0.2791424813460155
-0.03416481163615318,-0.2802553785785653
-0.03416191163615317,-0.2819247244273901
-0.03415901163615317,-0.2815272611300508
-0.03415611163615317,-0.2821632024057936
-0.03415321163615317,-0.2839120409140862
-0.03415031163615317,-0.2834350849572791
-0.03414741163615317,-0.2837530555951505
-0.03414451163615317,-0.2856608794223788
-0.03414161163615317,-0.2848659528277003
-0.03413871163615317,-0.2853429087845074
-0.03413581163615317,-0.287568703249607
-0.03413291163615317,-0.2871712399522681
-0.03413001163615317,-0.2873302252712057
-0.03412711163615317,-0.2885226151632234
-0.03412421163615317,-0.2897150050552376
-0.03412131163615317,-0.2889995711200307
-0.03411841163615317,-0.2903509463309836
-0.03411551163615318,-0.2914638435635294
-0.03411261163615318,-0.2908279022877898
-0.03410971163615318,-0.2916228288824657
-0.03410681163615318,-0.2928947114339503
-0.03410391163615318,-0.2926562334555495
-0.03410101163615318,-0.2938486233475646
-0.03409811163615318,-0.2944050719638407
-0.03409521163615318,-0.2939281160070346
-0.03409231163615318,-0.2955974618558593
-0.03408941163615318,-0.2964718811100057
-0.03408651163615318,-0.295279491217988
-0.03408361163615318,-0.2964718811100057
-0.03408071163615318,-0.2971078223857484
-0.03407781163615318,-0.296789851747877
-0.03407491163615318,-0.297823256320959
-0.03407201163615318,-0.2991746315319124
-0.03406911163615318,-0.296789851747877
-0.03406621163615318,-0.2971078223857484
-0.03406331163615318,-0.30036702142393
-0.03406041163615318,-0.3010824553591406
-0.03405751163615318,-0.30036702142393
-0.03405461163615318,-0.3021158599322226
-0.03405171163615318,-0.3015594113159477
-0.03404881163615318,-0.3017978892943513
-0.03404591163615318,-0.3035467278026438
-0.03404301163615318,-0.303467235143176
-0.03404011163615318,-0.3032287571647724
-0.03403721163615318,-0.3057725222677435
-0.03403431163615318,-0.3053750589704042
-0.03403141163615318,-0.3052955663109364
-0.03402851163615318,-0.3069649121597611
-0.03402561163615318,-0.3062494782245506
-0.03402271163615318,-0.3062494782245506
-0.03401981163615318,-0.3083162873707145
-0.03401691163615318,-0.308077809392311
-0.03401401163615318,-0.3079188240733753
-0.03401111163615318,-0.3095881699222
-0.03400821163615318,-0.3091907066248608
-0.03400531163615318,-0.3095086772627322
-0.03400241163615318,-0.3110985304520891
-0.03399951163615317,-0.3110190377926212
-0.03399661163615317,-0.310621574495282
-0.03399371163615317,-0.3123704130035746
-0.03399081163615317,-0.312688383641446
-0.03398791163615317,-0.3122909203441067
-0.03398501163615317,-0.3141192515118671
-0.03398211163615317,-0.3139602661929315
-0.03397921163615317,-0.3141192515118671
-0.03397631163615317,-0.315232148744417
-0.03397341163615317,-0.3156296120417604
-0.03397051163615317,-0.3179348991663316
-0.03396761163615317,-0.3222275027775883
-0.03396471163615317,-0.3227839513938583
-0.03396181163615317,-0.3206376495882283
-0.03395891163615317,-0.3194452596962125
-0.03395601163615317,-0.3192862743772735
-0.03395311163615318,-0.3172989578905845
-0.03395021163615318,-0.3160270753390978
-0.03394731163615318,-0.3169809872527078
-0.03394441163615318,-0.315550119382291
-0.03394151163615318,-0.3141987441713375
-0.03393861163615318,-0.3159475826796244
-0.03393571163615318,-0.3198427229935449
-0.03393281163615318,-0.3180938844852594
-0.03392991163615318,-0.3192862743772771
-0.03392701163615318,-0.3211146055450375
-0.03392411163615318,-0.3206376495882304
-0.03392121163615318,-0.3215120688423767
-0.03391831163615318,-0.3235788779885407
-0.03391541163615318,-0.3229429367127979
-0.03391251163615318,-0.3231814146912015
-0.03390961163615318,-0.3247712678805584
-0.03390671163615318,-0.3254072091563011
-0.03390381163615318,-0.3246917752210905
-0.03390091163615318,-0.3255661944752368
-0.03389801163615318,-0.3272355403240615
-0.03389511163615318,-0.3265201063888509
-0.03389221163615318,-0.3265201063888509
-0.03388931163615318,-0.3284279302160792
-0.03388641163615318,-0.3279509742592722
-0.03388351163615318,-0.3276330036214008
-0.03388061163615318,-0.3296998127675647
-0.03387771163615318,-0.3291433641512898
-0.03387481163615318,-0.3289048861728863
-0.03387191163615318,-0.3303357540433075
-0.03386901163615318,-0.3303357540433075
-0.03386611163615318,-0.330097276064904
-0.03386321163615318,-0.3315281439353251
-0.03386031163615318,-0.3315281439353251
-0.03385741163615318,-0.3312101732974538
-0.03385451163615318,-0.3324820558489393
-0.03385161163615318,-0.332641041167875
-0.03384871163615318,-0.3316871292542609
-0.03384581163615318,-0.3327205338273428
-0.03384291163615318,-0.3340719090382962
-0.03384001163615317,-0.3332769824436178
-0.03383711163615317,-0.3340719090382962
-0.03383421163615317,-0.3345488649951033
-0.03383131163615317,-0.3342308943572319
-0.03382841163615317,-0.3353437915897817
-0.03382551163615317,-0.3365361814817994
-0.03382261163615317,-0.3355822695681853
-0.03381971163615317,-0.335184806270846
-0.03381681163615317,-0.3351053136113782
-0.03381391163615317,-0.3352642989303138
-0.03381101163615317,-0.3375695860548824
-0.03380811163615317,-0.338126034671155
-0.03380521163615317,-0.337410600735946
-0.03380231163615317,-0.3375695860548842
-0.03379941163615317,-0.3391594392442371
-0.03379651163615317,-0.3385234979684948
-0.03379361163615318,-0.338126034671157
-0.03379071163615318,-0.3394774098821072
-0.03378781163615318,-0.3389209612658357
-0.03378491163615318,-0.3393184245631732
-0.03378201163615318,-0.3410672630714633
-0.03377911163615318,-0.3402723364767895
-0.03377621163615318,-0.3407492924335943
-0.03377331163615318,-0.3421801603040164
-0.03377041163615318,-0.3417032043472093
-0.03376751163615318,-0.3417826970066771
-0.03376461163615318,-0.3432930575365662
-0.03376171163615318,-0.3424981309418877
-0.03375881163615318,-0.3424981309418877
-0.03375591163615318,-0.3441674767907125
-0.03375301163615318,-0.3440084914717768
-0.03375011163615318,-0.3435315355149697
-0.03374721163615318,-0.3452803740232623
-0.03374431163615318,-0.3446444327475195
-0.03374141163615318,-0.3447239254069874
-0.03373851163615318,-0.3461547932774086
-0.03373561163615318,-0.3455188520016658
-0.03373271163615318,-0.3447239254069874
-0.03372981163615318,-0.34647276391528
-0.03372691163615318,-0.3459163152990051
-0.03372401163615318,-0.3457573299800694
-0.03372111163615318,-0.3467907345531513
-0.03371821163615318,-0.3476651538072976
-0.03371531163615318,-0.3466317492342156
-0.03371241163615318,-0.347983124445169
-0.03370951163615318,-0.3487780510398475
-0.03370661163615318,-0.3479036317857012
-0.03370371163615318,-0.3487780510398475
-0.03370081163615318,-0.3494934849750581
-0.03369791163615318,-0.3489370363587831
-0.03369501163615318,-0.3484600804019761
-0.03369211163615318,-0.3482216024235725
-0.03368921163615318,-0.3483010950830404
-0.03368631163615318,-0.3504473968886722
-0.03368341163615318,-0.3511628308238828
-0.03368051163615318,-0.3503679042292044
-0.03367761163615317,-0.3496524702939938
-0.03367471163615317,-0.3506063822076079
-0.03367181163615317,-0.3507653675265436
-0.03366891163615317,-0.3502089189102687
-0.03366601163615317,-0.3508448601860114
-0.03366311163615317,-0.3521167427374969
-0.03366021163615317,-0.3517987720996256
-0.03365731163615317,-0.3524347133753683
-0.03365441163615317,-0.3533091326295146
-0.03365151163615317,-0.3528321766727086
-0.03364861163615317,-0.3533886252889843
-0.03364571163615317,-0.3544220298620633
-0.03364281163615317,-0.3537860885863221
-0.03363991163615317,-0.3540245665647254
-0.03363701163615317,-0.3541040592241942
-0.03363411163615317,-0.3547400004999367
-0.03363121163615318,-0.355216956456742
-0.03362831163615318,-0.3559323903919522
-0.03362541163615318,-0.3552964491162119
-0.03362251163615318,-0.3552169564567431
-0.03361961163615318,-0.3563298536892907
-0.03361671163615318,-0.3563298536892927
-0.03361381163615318,-0.355455434435148
-0.03361091163615318,-0.3566478243271641
-0.03360801163615318,-0.3565683316676962
-0.03360511163615318,-0.3562503610298249
-0.03360221163615318,-0.3575222435813104
-0.03359931163615318,-0.3580786921975853
-0.03359641163615318,-0.3572837656029069
-0.03359351163615318,-0.3581581848570531
-0.03359061163615318,-0.358714633473328
-0.03358771163615318,-0.3579197068786496
-0.03358481163615318,-0.3593505747490708
-0.03358191163615318,-0.35974803804641
-0.03357901163615318,-0.3588736187922638
-0.03357611163615318,-0.35974803804641
-0.03357321163615318,-0.3604634719816207
-0.03357031163615318,-0.3589531114517316
-0.03356741163615318,-0.3576017362407782
-0.03356451163615318,-0.3595890527274743
-0.03356161163615318,-0.3607019499600242
-0.03355871163615318,-0.3603839793221528
-0.03355581163615318,-0.3614173838952348
-0.03355291163615318,-0.3595095600680065
-0.03355001163615318,-0.35974803804641
-0.03354711163615318,-0.3617353545331062
-0.03354421163615318,-0.3610994132573634
-0.03354131163615318,-0.360781442619492
-0.03353841163615318,-0.3623712958088489
-0.03353551163615318,-0.3620533251709775
-0.03353261163615318,-0.3614968765547026
-0.03352971163615318,-0.3630867297440595
-0.03352681163615318,-0.3630072370845916
-0.03352391163615318,-0.3623712958088489
-0.03352101163615318,-0.3635636857008666
-0.03351811163615318,-0.3641996269766093
-0.03351521163615317,-0.3634047003819309
-0.03351231163615317,-0.3641201343171415
-0.03350941163615317,-0.36491506091182
-0.03350651163615317,-0.363881656338738
-0.03350361163615317,-0.3641996269766093
-0.03350071163615317,-0.3657099875064984
-0.03349781163615317,-0.3642791196360772
-0.03349491163615317,-0.3641996269766093
-0.03349201163615317,-0.3656304948470305
-0.03348911163615317,-0.3649945535712869
-0.03348621163615317,-0.3645175976144834
-0.03348331163615317,-0.3660279581443695
-0.03348041163615317,-0.3658689728254326
-0.03347751163615317,-0.3650740462307587
-0.03347461163615317,-0.3667433920795797
-0.03347171163615318,-0.3663459287822419
-0.03346881163615318,-0.3657099875064996
-0.03346591163615318,-0.3672998406958524
