real-diodes-out/-bkp-20250401/1kHz5V/scope.csv

#Digilent WaveForms Oscilloscope Acquisition
#Device Name: Discovery3
#Serial Number: SN:210415BD5874
#Date Time: 2025-04-01 12:49:08.622.427.830
#Sample rate: 1.42857e+07Hz
#Samples: 32768
#Trigger: Source: Channel 1 Type: Edge Condition: Rising Level: 0 V Hyst.: Auto HoldOff: 0 s
#Channel 1: Range: 200 mV/div Offset: 0 V Sample Mode: Average
#Wavegen Channel 1: Running
#Mode: Simple
#Type: Sine
#Frequency: 1 kHz
#Period: 1 ms
#Amplitude: 5 V
#Offset: 0 V
#Symmetry: 50 %
#Phase: 0 °

Time (s),Channel 1 (V)
-0.001146854545454546,-0.6356670590592991
-0.001146784545454546,-0.6355875663998312
-0.001146714545454546,-0.6361440150161061
-0.001146644545454546,-0.636223507675574
-0.001146574545454545,-0.6359850296971704
-0.001146504545454545,-0.6349516251240884
-0.001146434545454545,-0.6360645223566382
-0.001146364545454545,-0.6358260443782342
-0.001146294545454545,-0.6355080737403634
-0.001146224545454545,-0.635587566399831
-0.001146154545454546,-0.6355080737403634
-0.001146084545454546,-0.6356670590592988
-0.001146014545454546,-0.6344746691672813
-0.001145944545454546,-0.6348721324646206
-0.001145874545454546,-0.636223507675574
-0.001145804545454546,-0.6350311177835563
-0.001145734545454545,-0.6359850296971704
-0.001145664545454545,-0.6363824929945097
-0.001145594545454545,-0.6359055370377026
-0.001145524545454545,-0.6357465517187659
-0.001145454545454545,-0.6351901031024929
-0.001145384545454545,-0.6356670590592985
-0.001145314545454546,-0.6353490884214282
-0.001145244545454546,-0.6358260443782339
-0.001145174545454546,-0.6358260443782348
-0.001145104545454546,-0.6352695957619598
-0.001145034545454546,-0.6348721324646206
-0.001144964545454546,-0.6363030003350418
-0.001144894545454545,-0.6355875663998312
-0.001144824545454545,-0.6351106104430241
-0.001144754545454545,-0.6355080737403633
-0.001144684545454545,-0.6354285810808959
-0.001144614545454545,-0.6356670590592992
-0.001144544545454545,-0.6357465517187678
-0.001144474545454546,-0.6362235076755731
-0.001144404545454546,-0.6355875663998323
-0.001144334545454546,-0.6356670590592991
-0.001144264545454546,-0.6352695957619598
-0.001144194545454546,-0.6343951765078135
-0.001144124545454546,-0.6345541618267492
-0.001144054545454545,-0.635190103102492
-0.001143984545454545,-0.6346336544862171
-0.001143914545454545,-0.6346336544862171
-0.001143844545454545,-0.6358260443782333
-0.001143774545454545,-0.6350311177835564
-0.001143704545454545,-0.6351106104430236
-0.001143634545454546,-0.634872132464621
-0.001143564545454546,-0.6347131471456853
-0.001143494545454546,-0.6355875663998312
-0.001143424545454546,-0.6354285810808955
-0.001143354545454546,-0.6353490884214277
-0.001143284545454546,-0.6348721324646206
-0.001143214545454545,-0.6340772058699422
-0.001143144545454545,-0.6346336544862171
-0.001143074545454545,-0.6349516251240884
-0.001143004545454545,-0.6345541618267476
-0.001142934545454545,-0.6336797425726033
-0.001142864545454545,-0.6338387278915391
-0.001142794545454546,-0.6340772058699418
-0.001142724545454546,-0.6343156838483452
-0.001142654545454546,-0.6342361911888779
-0.001142584545454546,-0.6349516251240884
-0.001142514545454546,-0.6339977132104743
-0.001142444545454546,-0.63415669852941
-0.001142374545454546,-0.6343951765078135
-0.001142304545454545,-0.6339977132104743
-0.001142234545454545,-0.6350311177835563
-0.001142164545454545,-0.6347131471456849
-0.001142094545454545,-0.6341566985294104
-0.001142024545454545,-0.6343156838483449
-0.001141954545454546,-0.6339182205510072
-0.001141884545454546,-0.6343951765078126
-0.001141814545454546,-0.6345541618267488
-0.001141744545454546,-0.6340772058699422
-0.001141674545454546,-0.6340772058699422
-0.001141604545454546,-0.6343951765078135
-0.001141534545454546,-0.6350311177835563
-0.001141464545454545,-0.6348721324646206
-0.001141394545454545,-0.6339977132104743
-0.001141324545454545,-0.6337592352320708
-0.001141254545454545,-0.634633654486217
-0.001141184545454545,-0.6345541618267483
-0.001141114545454546,-0.6340772058699431
-0.001141044545454546,-0.634395176507813
-0.001140974545454546,-0.6336797425726043
-0.001140904545454546,-0.6343156838483457
-0.001140834545454546,-0.6350311177835563
-0.001140764545454546,-0.6332822792752637
-0.001140694545454546,-0.6332822792752637
-0.001140624545454545,-0.6339182205510064
-0.001140554545454545,-0.6337592352320708
-0.001140484545454545,-0.6330438012968602
-0.001140414545454545,-0.6333617719347329
-0.001140344545454545,-0.6340772058699421
-0.001140274545454546,-0.6339977132104744
-0.001140204545454546,-0.6339182205510066
-0.001140134545454546,-0.6336797425726034
-0.001140064545454546,-0.6335207572536672
-0.001139994545454546,-0.6337592352320708
-0.001139924545454546,-0.633679742572603
-0.001139854545454546,-0.6335207572536672
-0.001139784545454545,-0.6342361911888779
-0.001139714545454545,-0.6329643086373923
-0.001139644545454545,-0.6340772058699422
-0.001139574545454545,-0.6328053233184556
-0.001139504545454545,-0.6322488747021831
-0.001139434545454546,-0.6329643086373909
-0.001139364545454546,-0.6330438012968601
-0.001139294545454546,-0.6329643086373924
-0.001139224545454546,-0.633123293956328
-0.001139154545454546,-0.633123293956328
-0.001139084545454546,-0.6337592352320708
-0.001139014545454546,-0.6333617719347315
-0.001138944545454545,-0.6336002499131351
-0.001138874545454545,-0.633679742572603
-0.001138804545454545,-0.6327258306589888
-0.001138734545454545,-0.6328053233184566
-0.001138664545454545,-0.6328053233184588
-0.001138594545454546,-0.633997713210472
-0.001138524545454546,-0.6342361911888774
-0.001138454545454546,-0.6342361911888779
-0.001138384545454546,-0.6332027866157959
-0.001138314545454546,-0.6337592352320708
-0.001138244545454546,-0.6335207572536672
-0.001138174545454546,-0.6339182205510064
-0.001138104545454545,-0.6321693820427139
-0.001138034545454545,-0.6336002499131351
-0.001137964545454545,-0.632646337999521
-0.001137894545454545,-0.6328053233184574
-0.001137824545454545,-0.6332027866157939
-0.001137754545454546,-0.6320898893832481
-0.001137684545454546,-0.6332027866157939
-0.001137614545454546,-0.6330438012968606
-0.001137544545454546,-0.6328053233184566
-0.001137474545454546,-0.633123293956328
-0.001137404545454546,-0.6330438012968602
-0.001137334545454546,-0.633123293956328
-0.001137264545454545,-0.6327258306589888
-0.001137194545454545,-0.6328053233184566
-0.001137124545454545,-0.6321693820427139
-0.001137054545454545,-0.6324078600211192
-0.001136984545454545,-0.6333617719347302
-0.001136914545454546,-0.6326463379995223
-0.001136844545454546,-0.6328053233184563
-0.001136774545454546,-0.6326463379995213
-0.001136704545454546,-0.6320103967237782
-0.001136634545454546,-0.6334412645941994
-0.001136564545454546,-0.6337592352320708
-0.001136494545454546,-0.6320898893832461
-0.001136424545454545,-0.6330438012968602
-0.001136354545454545,-0.6323283673616495
-0.001136284545454545,-0.6320103967237782
-0.001136214545454545,-0.6321693820427133
-0.001136144545454545,-0.6318514114048444
-0.001136074545454545,-0.6328848159779237
-0.001136004545454546,-0.6324873526805861
-0.001135934545454546,-0.6330438012968592
-0.001135864545454546,-0.6324873526805853
-0.001135794545454546,-0.6329643086373923
-0.001135724545454546,-0.6319309040643103
-0.001135654545454546,-0.6321693820427139
-0.001135584545454545,-0.6320898893832461
-0.001135514545454545,-0.6320898893832461
-0.001135444545454545,-0.6322488747021817
-0.001135374545454545,-0.6324078600211179
-0.001135304545454545,-0.6327258306589888
-0.001135234545454545,-0.6327258306589894
-0.001135164545454546,-0.6330438012968597
-0.001135094545454546,-0.6334412645941986
-0.001135024545454546,-0.632646337999521
-0.001134954545454546,-0.6330438012968602
-0.001134884545454546,-0.6330438012968602
-0.001134814545454546,-0.6323283673616495
-0.001134744545454545,-0.6328053233184566
-0.001134674545454545,-0.6324873526805853
-0.001134604545454545,-0.6328053233184566
-0.001134534545454545,-0.6317719187453765
-0.001134464545454545,-0.6328053233184566
-0.001134394545454545,-0.6328053233184576
-0.001134324545454546,-0.6333617719347305
-0.001134254545454546,-0.6326463379995223
-0.001134184545454546,-0.6335207572536672
-0.001134114545454546,-0.6324873526805853
-0.001134044545454546,-0.6330438012968602
-0.001133974545454546,-0.6328053233184566
-0.001133904545454545,-0.6327258306589888
-0.001133834545454545,-0.632646337999521
-0.001133764545454545,-0.6324078600211174
-0.001133694545454545,-0.6324873526805848
-0.001133624545454545,-0.6321693820427163
-0.001133554545454545,-0.6335207572536662
-0.001133484545454546,-0.6329643086373933
-0.001133414545454546,-0.6318514114048445
-0.001133344545454546,-0.6325668453400531
-0.001133274545454546,-0.6325668453400531
-0.001133204545454546,-0.6319309040643103
-0.001133134545454546,-0.6324873526805853
-0.001133064545454545,-0.6325668453400531
-0.001132994545454545,-0.6313744554480354
-0.001132924545454545,-0.6315334407669712
-0.001132854545454545,-0.6315334407669717
-0.001132784545454545,-0.6318514114048419
-0.001132714545454545,-0.63153344076697
-0.001132644545454546,-0.6308974994912295
-0.001132574545454546,-0.6314539481075023
-0.001132504545454546,-0.6322488747021817
-0.001132434545454546,-0.6316924260859068
-0.001132364545454546,-0.6323283673616495
-0.001132294545454546,-0.6319309040643103
-0.001132224545454545,-0.6320898893832461
-0.001132154545454545,-0.6314539481075033
-0.001132084545454545,-0.6315334407669712
-0.001132014545454545,-0.6324873526805844
-0.001131944545454545,-0.6320103967237782
-0.001131874545454545,-0.6320103967237779
-0.001131804545454546,-0.6318514114048428
-0.001131734545454546,-0.6323283673616487
-0.001131664545454546,-0.6312154701290997
-0.001131594545454546,-0.6316924260859068
-0.001131524545454546,-0.632646337999521
-0.001131454545454546,-0.6311359774696319
-0.001131384545454545,-0.6323283673616495
-0.001131314545454545,-0.6315334407669712
-0.001131244545454545,-0.6320103967237782
-0.001131174545454545,-0.6316129334264398
-0.001131104545454545,-0.6320103967237786
-0.001131034545454545,-0.6321693820427124
-0.001130964545454546,-0.6313744554480368
-0.001130894545454546,-0.6327258306589864
-0.001130824545454546,-0.6314539481075033
-0.001130754545454546,-0.6320103967237782
-0.001130684545454546,-0.6314539481075033
-0.001130614545454546,-0.6321693820427139
-0.001130544545454545,-0.632646337999521
-0.001130474545454545,-0.6320898893832461
-0.001130404545454545,-0.6310564848101641
-0.001130334545454545,-0.6308180068317605
-0.001130264545454545,-0.6317719187453724
-0.001130194545454545,-0.6305795288533579
-0.001130124545454546,-0.6310564848101632
-0.001130054545454546,-0.6301820655560193
-0.001129984545454546,-0.63010257289655
-0.001129914545454546,-0.6307385141722927
-0.001129844545454546,-0.6305000361938892
-0.001129774545454546,-0.6301820655560177
-0.001129704545454546,-0.6313744554480354
-0.001129634545454545,-0.6301820655560177
-0.001129564545454545,-0.6311359774696319
-0.001129494545454545,-0.6311359774696319
-0.001129424545454545,-0.6308974994912281
-0.001129354545454545,-0.6307385141722927
-0.001129284545454546,-0.6307385141722927
-0.001129214545454546,-0.6308974994912281
-0.001129144545454546,-0.63153344076697
-0.001129074545454546,-0.6308974994912284
-0.001129004545454546,-0.6303410508749534
-0.001128934545454546,-0.6301820655560177
-0.001128864545454546,-0.6305000361938892
-0.001128794545454545,-0.630579528853357
-0.001128724545454545,-0.6306590215128248
-0.001128654545454545,-0.6310564848101641
-0.001128584545454545,-0.6313744554480348
-0.001128514545454545,-0.6310564848101641
-0.001128444545454546,-0.6310564848101641
-0.001128374545454546,-0.6315334407669703
-0.001128304545454546,-0.6314539481075034
-0.001128234545454546,-0.6307385141722927
-0.001128164545454546,-0.6303410508749534
-0.001128094545454546,-0.6301025728965499
-0.001128024545454546,-0.6309769921506962
-0.001127954545454545,-0.6311359774696319
-0.001127884545454545,-0.6310564848101641
-0.001127814545454545,-0.6308180068317605
-0.001127744545454545,-0.6306590215128247
-0.001127674545454545,-0.6305795288533569
-0.001127604545454546,-0.6305000361938893
-0.001127534545454546,-0.6310564848101631
-0.001127464545454546,-0.6308180068317609
-0.001127394545454546,-0.6310564848101641
-0.001127324545454546,-0.6305000361938892
-0.001127254545454546,-0.6302615582154856
-0.001127184545454546,-0.6304205435344213
-0.001127114545454545,-0.6299435875776143
-0.001127044545454545,-0.6301820655560177
-0.001126974545454545,-0.6299435875776143
-0.001126904545454545,-0.6301025728965514
-0.001126834545454545,-0.6308974994912271
-0.001126764545454546,-0.6301820655560191
-0.001126694545454546,-0.6301820655560177
-0.001126624545454546,-0.63010257289655
-0.001126554545454546,-0.6301820655560177
-0.001126484545454546,-0.6305000361938892
-0.001126414545454546,-0.6293871389613394
-0.001126344545454546,-0.6298640949181464
-0.001126274545454545,-0.6301820655560177
-0.001126204545454545,-0.6297846022586785
-0.001126134545454545,-0.6308974994912284
-0.001126064545454545,-0.630579528853357
-0.001125994545454545,-0.6305795288533562
-0.001125924545454546,-0.6301820655560185
-0.001125854545454546,-0.6296256169397438
-0.001125784545454546,-0.6297846022586782
-0.001125714545454546,-0.6301025728965499
-0.001125644545454546,-0.6302615582154856
-0.001125574545454546,-0.6301025728965499
-0.001125504545454546,-0.6289101830045323
-0.001125434545454545,-0.6296256169397428
-0.001125364545454545,-0.6296256169397428
-0.001125294545454545,-0.629546124280275
-0.001125224545454545,-0.6284332270477277
-0.001125154545454545,-0.6298640949181464
-0.001125084545454546,-0.6298640949181464
-0.001125014545454546,-0.6296256169397433
-0.001124944545454546,-0.630102572896549
-0.001124874545454546,-0.6289101830045323
-0.001124804545454546,-0.6287511976855965
-0.001124734545454546,-0.6301025728965499
-0.001124664545454546,-0.6297846022586785
-0.001124594545454545,-0.6301820655560177
-0.001124524545454545,-0.6284332270477252
-0.001124454545454545,-0.6288306903450644
-0.001124384545454545,-0.6288306903450658
-0.001124314545454545,-0.6295461242802749
-0.001124244545454545,-0.6294666316208066
-0.001124174545454546,-0.6291486609829363
-0.001124104545454546,-0.6281947490693234
-0.001124034545454546,-0.6289101830045323
-0.001123964545454546,-0.6293076463018714
-0.001123894545454546,-0.6293076463018714
-0.001123824545454546,-0.628512719707193
-0.001123754545454545,-0.6289896756640001
-0.001123684545454545,-0.6293871389613394
-0.001123614545454545,-0.6286717050261287
-0.001123544545454545,-0.6275588077935806
-0.001123474545454545,-0.6285127197071939
-0.001123404545454545,-0.6289896756640004
-0.001123334545454546,-0.6291486609829354
-0.001123264545454546,-0.6282742417287911
-0.001123194545454546,-0.6289101830045323
-0.001123124545454546,-0.6285922123666609
-0.001123054545454546,-0.628512719707193
-0.001122984545454546,-0.6293871389613394
-0.001122914545454545,-0.6285922123666609
-0.001122844545454545,-0.6281947490693216
-0.001122774545454545,-0.6293076463018714
-0.001122704545454545,-0.6277177931125146
-0.001122634545454545,-0.6277972857719826
-0.001122564545454545,-0.6278767784314508
-0.001122494545454546,-0.628194749069321
-0.001122424545454546,-0.6277177931125154
-0.001122354545454546,-0.6278767784314503
-0.001122284545454546,-0.628512719707193
-0.001122214545454546,-0.6278767784314503
-0.001122144545454546,-0.6273998224746432
-0.001122074545454545,-0.6281152564098538
-0.001122004545454545,-0.6280357637503859
-0.001121934545454545,-0.6288306903450644
-0.001121864545454545,-0.6285127197071922
-0.001121794545454545,-0.6281152564098553
-0.001121724545454545,-0.6289896756639983
-0.001121654545454546,-0.6280357637503877
-0.001121584545454546,-0.6270023591773058
-0.001121514545454546,-0.6278767784314503
-0.001121444545454546,-0.6273998224746432
-0.001121374545454546,-0.6275588077935789
-0.001121304545454546,-0.6284332270477252
-0.001121234545454545,-0.6284332270477252
-0.001121164545454545,-0.6277177931125145
-0.001121094545454545,-0.627479315134111
-0.001121024545454545,-0.6273203298151765
-0.001120954545454545,-0.6279562710909181
-0.001120884545454545,-0.6279562710909181
-0.001120814545454546,-0.6279562710909181
-0.001120744545454546,-0.6278767784314504
-0.001120674545454546,-0.6270818518367718
-0.001120604545454546,-0.6273998224746432
-0.001120534545454546,-0.6277177931125145
-0.001120464545454546,-0.6279562710909181
-0.001120394545454545,-0.6273998224746432
-0.001120324545454545,-0.6275588077935789
-0.001120254545454545,-0.6273998224746432
-0.001120184545454545,-0.6275588077935803
-0.001120114545454545,-0.6283537343882568
-0.001120044545454545,-0.6280357637503854
-0.001119974545454546,-0.6277177931125151
-0.001119904545454546,-0.6276383004530468
-0.001119834545454546,-0.6273998224746432
-0.001119764545454546,-0.6279562710909181
-0.001119694545454546,-0.6273998224746432
-0.001119624545454546,-0.6277177931125145
-0.001119554545454545,-0.627002359177304
-0.001119484545454545,-0.627002359177304
-0.001119414545454545,-0.6276383004530467
-0.001119344545454545,-0.6273998224746431
-0.001119274545454545,-0.6273203298151773
-0.001119204545454545,-0.628353734388256
-0.001119134545454546,-0.627638300453048
-0.001119064545454546,-0.6278767784314498
-0.001118994545454546,-0.6266843885394326
-0.001118924545454546,-0.6273203298151754
-0.001118854545454546,-0.6273203298151754
-0.001118784545454546,-0.6277972857719825
-0.001118714545454545,-0.6271613444962396
-0.001118644545454545,-0.6275588077935789
-0.001118574545454545,-0.6277177931125145
-0.001118504545454545,-0.6270818518367718
-0.001118434545454545,-0.627240837155707
-0.001118364545454545,-0.6269228665178369
-0.001118294545454546,-0.6273203298151746
-0.001118224545454546,-0.6268433738583692
-0.001118154545454546,-0.6273203298151745
-0.001118084545454546,-0.6276383004530467
-0.001118014545454546,-0.6267638811989005
-0.001117944545454546,-0.627002359177304
-0.001117874545454546,-0.6263664179015612
-0.001117804545454545,-0.6264459105610291
-0.001117734545454545,-0.6273203298151754
-0.001117664545454545,-0.627002359177304
-0.001117594545454545,-0.6276383004530457
-0.001117524545454545,-0.6270818518367705
-0.001117454545454546,-0.6263664179015626
-0.001117384545454546,-0.6273998224746413
-0.001117314545454546,-0.6268433738583693
-0.001117244545454546,-0.6266843885394326
-0.001117174545454546,-0.6263664179015612
-0.001117104545454546,-0.6261279399231576
-0.001117034545454546,-0.6269228665178361
-0.001116964545454545,-0.6263664179015612
-0.001116894545454545,-0.6267638811989005
-0.001116824545454545,-0.6258099692852863
-0.001116754545454545,-0.6260484472636908
-0.001116684545454545,-0.626604895879965
-0.001116614545454546,-0.6267638811989001
-0.001116544545454546,-0.6268433738583682
-0.001116474545454546,-0.6258099692852882
-0.001116404545454546,-0.6262869252420934
-0.001116334545454546,-0.6258099692852863
-0.001116264545454546,-0.6255714913068827
-0.001116194545454546,-0.6258099692852863
-0.001116124545454545,-0.6258099692852863
-0.001116054545454545,-0.6266048958799647
-0.001115984545454545,-0.6256509839663507
-0.001115914545454545,-0.6252535206690119
-0.001115844545454545,-0.6254919986474153
-0.001115774545454546,-0.625730476625818
-0.001115704545454546,-0.6258099692852862
-0.001115634545454546,-0.6254919986474154
-0.001115564545454546,-0.6258894619447541
-0.001115494545454546,-0.6256509839663507
-0.001115424545454546,-0.6262869252420934
-0.001115354545454546,-0.6269228665178361
-0.001115284545454545,-0.6253330133284792
-0.001115214545454545,-0.6265254032204969
-0.001115144545454545,-0.6257304766258185
-0.001115074545454545,-0.6260484472636897
-0.001115004545454545,-0.6259689546042221
-0.001114934545454546,-0.6260484472636897
-0.001114864545454546,-0.6256509839663514
-0.001114794545454546,-0.6257304766258184
-0.001114724545454546,-0.6254125059879471
-0.001114654545454546,-0.6260484472636898
-0.001114584545454546,-0.6258894619447541
-0.001114514545454546,-0.6256509839663507
-0.001114444545454545,-0.6257304766258185
-0.001114374545454545,-0.6263664179015612
