-20250405-BKP/real-diodes-in-T10-L10-D00/1kHz5V/scope.csv

#Digilent WaveForms Oscilloscope Acquisition
#Device Name: Discovery3
#Serial Number: SN:210415BD5874
#Date Time: 2025-04-03 15:55:54.534.300.300
#Sample rate: 3.33333e+06Hz
#Samples: 32768
#Trigger: Source: Channel 1 Type: Edge Condition: Rising Level: 0 V Hyst.: Auto HoldOff: 0 s
#Channel 1: Range: 200 mV/div Offset: 0 V Sample Mode: Average
#Wavegen Channel 1: Running
#Mode: Simple
#Type: Sine
#Frequency: 1 kHz
#Period: 1 ms
#Amplitude: 5 V
#Offset: 0 V
#Symmetry: 50 %
#Phase: 0 °

Time (s),Channel 1 (V)
0.002654680052620647,-0.5618183784136713
0.002654980052620647,-0.573742277333848
0.002655280052620647,-0.5843942937025393
0.002655580052620647,-0.5878919707191244
0.002655880052620647,-0.5910716770978381
0.002656180052620647,-0.5933769642224057
0.002656480052620647,-0.5922640669898578
0.002656780052620647,-0.5916281257141142
0.002657080052620647,-0.592184574330387
0.002657380052620647,-0.5895613165679539
0.002657680052620647,-0.5891638532706081
0.002657980052620647,-0.5881304486975236
0.002658280052620647,-0.5857456689134931
0.002658580052620647,-0.586063639551364
0.002658880052620647,-0.5845532790214749
0.002659180052620647,-0.5820890065779717
0.002659480052620647,-0.5822479918969073
0.002659780052620647,-0.5802606754102113
0.002660080052620647,-0.5782733589235152
0.002660380052620647,-0.5777169103072403
0.002660680052620647,-0.5758090864800119
0.002660980052620647,-0.5732653213770409
0.002661280052620647,-0.5731063360581052
0.002661580052620647,-0.5710395269119413
0.002661880052620647,-0.5684957618089702
0.002662180052620647,-0.5680982985116318
0.002662480052620647,-0.5660314893654709
0.002662780052620647,-0.5649185921329193
0.002663080052620647,-0.5640441728787662
0.002663380052620647,-0.5614209151163303
0.002663680052620647,-0.5604670032027161
0.002663980052620647,-0.5595130912891001
0.002664280052620647,-0.5575257748024077
0.002664580052620647,-0.5571283115050685
0.002664880052620647,-0.555299980337308
0.002665180052620647,-0.5531536785316762
0.002665480052620647,-0.5524382445964656
0.002665780052620647,-0.5511663620449802
0.002666080052620647,-0.5494175235366875
0.002666380052620647,-0.549179045558284
0.002666680052620647,-0.5471917290715879
0.002666980052620647,-0.5463173098174415
0.002667280052620647,-0.5451249199254239
0.002667580052620647,-0.5438530373739408
0.002667880052620647,-0.5430581107792614
0.002668180052620647,-0.5420247062061798
0.002668480052620647,-0.5405143456762918
0.002668780052620647,-0.5397194190816085
0.002669080052620647,-0.5386065218490569
0.002669380052620647,-0.5365397127028942
0.002669680052620647,-0.5351883374919433
0.002669980052620647,-0.5339164549404578
0.002670280052620647,-0.5321676164321653
0.002670580052620647,-0.5314521824969546
0.002670880052620647,-0.5289879100534515
0.002671180052620647,-0.5272390715451588
0.002671480052620647,-0.5266826229288839
0.002671780052620647,-0.5246158137827199
0.002672080052620647,-0.5235824092096379
0.002672380052620647,-0.5224695119770881
0.002672680052620647,-0.5205616881498599
0.002672980052620647,-0.5195282835767779
0.002673280052620647,-0.5184948790036978
0.002673580052620647,-0.5167460404954066
0.002673880052620647,-0.5155536506033879
0.002674180052620647,-0.5145997386897676
0.002674480052620647,-0.5124534368841402
0.002674780052620647,-0.5127714075220072
0.002675080052620647,-0.5106251057163775
0.002675380052620647,-0.5096711938027652
0.002675680052620647,-0.5092737305054259
0.002675980052620647,-0.5074453993376655
0.002676280052620647,-0.5064119947645835
0.002676580052620647,-0.506650472742987
0.002676880052620647,-0.5041862002994839
0.002677180052620647,-0.5041067076400161
0.002677480052620647,-0.5030733030669341
0.002677780052620647,-0.5009270012613023
0.002678080052620647,-0.4996551187098167
0.002678380052620647,-0.4981447581799277
0.002678680052620647,-0.4962369343527029
0.002678980052620647,-0.4957599783958933
0.002679280052620647,-0.4940906325470706
0.002679580052620647,-0.4924212866982459
0.002679880052620647,-0.4925802720171726
0.002680180052620647,-0.4893210729789947
0.002680480052620647,-0.4881286830869797
0.002680780052620647,-0.4883671610653828
0.002681080052620647,-0.4854259326650726
0.002681380052620647,-0.4846310060703941
0.002681680052620647,-0.4838360794757157
0.002681980052620647,-0.4819282556484873
0.002682280052620647,-0.4812128217132768
0.002682580052620647,-0.4806563730970019
0.002682880052620647,-0.4786690566103057
0.002683180052620647,-0.4778741300156273
0.002683480052620647,-0.4766817401236096
0.002683780052620647,-0.474932901615317
0.002684080052620647,-0.4745354383179778
0.002684380052620647,-0.4729455851286238
0.002684680052620647,-0.47159420991767
0.002684980052620647,-0.4721506585339414
0.002685280052620647,-0.4692094301336313
0.002685580052620647,-0.4687324741768256
0.002685880052620647,-0.4689709521552241
0.002686180052620647,-0.4664271870522577
0.002686480052620647,-0.4654732751386435
0.002686780052620647,-0.4653937824791757
0.002687080052620647,-0.4624525540788654
0.002687380052620647,-0.4620550907815262
0.002687680052620647,-0.4608627008895085
0.002687980052620647,-0.4589548770622802
0.002688280052620647,-0.4579214724891982
0.002688580052620647,-0.4572855312134555
0.002688880052620647,-0.454980244088888
0.002689180052620647,-0.4544237954726131
0.002689480052620647,-0.4537083615374025
0.002689780052620647,-0.4514825670723069
0.002690080052620647,-0.4512440890938997
0.002690380052620647,-0.4496542359045453
0.002690680052620647,-0.4477464120773176
0.002690980052620647,-0.4478259047367775
0.002691280052620647,-0.4453616322932774
0.002691580052620647,-0.4445667056986009
0.002691880052620647,-0.4448846763364717
0.002692180052620647,-0.4424998965524364
0.002692480052620647,-0.4416254772982901
0.002692780052620647,-0.4410690286820152
0.002693080052620647,-0.4397176534710618
0.002693380052620647,-0.4385252635790441
0.002693680052620647,-0.4382072929411728
0.002693980052620647,-0.436060991135541
0.002694280052620647,-0.4359020058166053
0.002694580052620647,-0.4348686012435233
0.002694880052620647,-0.4334377333731021
0.002695180052620647,-0.4335172260325699
0.002695480052620647,-0.4324043288000221
0.002695780052620647,-0.430575997632263
0.002696080052620647,-0.4301785343349212
0.002696380052620647,-0.4289066517834309
0.002696680052620647,-0.426680857318335
0.002696980052620647,-0.4265218719993979
0.002697280052620647,-0.4255679600857855
0.002697580052620647,-0.4233421656206858
0.002697880052620647,-0.4231036876422823
0.002698180052620647,-0.4207984005177148
0.002698480052620647,-0.4195265179662293
0.002698780052620647,-0.4189700693499543
0.002699080052620647,-0.4167442748848547
0.002699380052620647,-0.4157903629712406
0.002699680052620647,-0.4147569583981586
0.002699980052620647,-0.4136440611656088
0.002700280052620647,-0.4127696419114625
0.002700580052620647,-0.4120542079762519
0.002700880052620647,-0.4103053694679624
0.002701180052620647,-0.4099873988300884
0.002701480052620647,-0.4080000823433954
0.002701780052620647,-0.4066487071324408
0.002702080052620647,-0.4067281997919025
0.002702380052620647,-0.4046613906457406
0.002702680052620647,-0.4037074787321265
0.002702980052620647,-0.4028330594779819
0.002703280052620647,-0.4015611769264963
0.002703580052620647,-0.4016406695859642
0.002703880052620647,-0.4007662503318179
0.002704180052620647,-0.400209801715543
0.002704480052620647,-0.3994148751208645
0.002704780052620647,-0.3983019778883147
0.002705080052620647,-0.3973480659747006
0.002705380052620647,-0.3959171981042794
0.002705680052620647,-0.3954402421474723
0.002705980052620647,-0.3946453155527939
0.002706280052620647,-0.3937708962986476
0.002706580052620647,-0.3913861165146166
0.002706880052620647,-0.3907501752388706
0.002707180052620647,-0.3906706825794018
0.002707480052620647,-0.3886833660927045
0.002707780052620647,-0.3881269174764284
0.002708080052620647,-0.3869345275844092
0.002708380052620647,-0.384867718438249
0.002708680052620647,-0.3847882257787811
0.002708980052620647,-0.3836753285462313
0.002709280052620647,-0.3819264900379387
0.002709580052620647,-0.3812110561027281
0.002709880052620647,-0.3801776515296461
0.002710180052620647,-0.3789852616376285
0.002710480052620647,-0.37819033504295
0.002710780052620647,-0.3769184524914645
0.002711080052620647,-0.3757260625994468
0.002711380052620647,-0.3757260625994468
0.002711680052620647,-0.3741362094100899
0.002711980052620647,-0.3730233121775421
0.002712280052620647,-0.3726258488802016
0.002712580052620647,-0.3716719369665885
0.002712880052620647,-0.3711154883503128
0.002713180052620647,-0.3708770103719051
0.002713480052620647,-0.3691281718636159
0.002713780052620647,-0.3692076645230808
0.002714080052620647,-0.3676973039931945
0.002714380052620647,-0.3663459287822411
0.002714680052620647,-0.3657099875064984
0.002714980052620647,-0.3651535388902235
0.002715280052620647,-0.3629277444251238
0.002715580052620647,-0.3630867297440595
0.002715880052620647,-0.3615763692141705
0.002716180052620647,-0.3596685453869422
0.002716480052620647,-0.3601455013437493
0.002716780052620647,-0.358237677516521
0.002717080052620647,-0.3570452876245033
0.002717380052620647,-0.3570452876245033
0.002717680052620647,-0.3551374637972786
0.002717980052620647,-0.353309132629518
0.002718280052620647,-0.3533091326295146
0.002718580052620647,-0.3521962353969626
0.002718880052620647,-0.3510038455049468
0.002719180052620647,-0.3508448601860097
0.002719480052620647,-0.3498909482723973
0.002719780052620647,-0.3483805877425082
0.002720080052620647,-0.3486190657209118
0.002720380052620647,-0.3462342859368764
0.002720680052620647,-0.3462342859368764
0.002720980052620647,-0.3459958079584729
0.002721280052620647,-0.3437700134933733
0.002721580052620647,-0.3436110281744376
0.002721880052620647,-0.3432930575365662
0.002722180052620647,-0.3417826970066771
0.002722480052620647,-0.342339145622952
0.002722780052620647,-0.3414647263688058
0.002723080052620647,-0.3401928438173226
0.002723380052620647,-0.3404313217957233
0.002723680052620647,-0.3383645126495636
0.002723980052620647,-0.3370131374386089
0.002724280052620647,-0.337649078714346
0.002724580052620647,-0.3359002402060539
0.002724880052620647,-0.334389879676167
0.002725180052620647,-0.3340719090382962
0.002725480052620647,-0.3318461145731965
0.002725780052620647,-0.3313691586163895
0.002726080052620647,-0.3310511879785181
0.002726380052620647,-0.329063871491822
0.002726680052620647,-0.3281894522376757
0.002726980052620647,-0.3279509742592722
0.002727280052620647,-0.3258046724536404
0.002727580052620647,-0.3255661944752368
0.002727880052620647,-0.3247712678805584
0.002728180052620647,-0.3230224293722658
0.002728480052620647,-0.3229429367127979
0.002728780052620647,-0.321591561501847
0.002729080052620647,-0.3200812009719582
0.002729380052620647,-0.3201606936314232
0.002729680052620647,-0.3189683037394034
0.002729980052620647,-0.3176964211879205
0.002730280052620647,-0.3178554065068543
0.002730580052620647,-0.3169809872527096
0.002730880052620647,-0.3164245386364347
0.002731180052620647,-0.3164245386364347
0.002731480052620647,-0.3153116414038848
0.002731780052620647,-0.3145167148092064
0.002732080052620647,-0.3140397588523993
0.002732380052620647,-0.3126088909819781
0.002732680052620647,-0.3123704130035746
0.002732980052620647,-0.3118139643872997
0.002733280052620647,-0.3097471552411357
0.002733580052620647,-0.3096676625816679
0.002733880052620647,-0.3089522286464573
0.002734180052620647,-0.3073623754571033
0.002734480052620647,-0.306646941521891
0.002734780052620647,-0.3059315075866804
0.002735080052620647,-0.304023683759451
0.002735380052620647,-0.3041031764189164
0.002735680052620647,-0.3028312938674312
0.002735980052620647,-0.3017183966348821
0.002736280052620647,-0.3010029626996728
0.002736580052620647,-0.3004465140833979
0.002736880052620647,-0.2997310801481873
0.002737180052620647,-0.2984591975967018
0.002737480052620647,-0.2976642710020233
0.002737780052620647,-0.2971873150452162
0.002738080052620647,-0.295756447174795
0.002738380052620647,-0.2954384765369237
0.002738680052620647,-0.2953589838774558
0.002738980052620647,-0.2944050719638417
0.002739280052620647,-0.2935306527096954
0.002739580052620647,-0.2930536967528883
0.002739880052620647,-0.2927357261150175
0.002740180052620647,-0.2919407995203399
0.002740480052620647,-0.291543336223
0.002740780052620647,-0.2909868876067215
0.002741080052620647,-0.2893970344173672
0.002741380052620647,-0.2892380490984303
0.002741680052620647,-0.2884431225037533
0.002741980052620647,-0.2870917472928
0.002742280052620647,-0.2868532693143964
0.002742580052620647,-0.2856608794223788
0.002742880052620647,-0.2844684895303611
0.002743180052620647,-0.283514577616747
0.002743480052620647,-0.282958129000472
0.002743780052620647,-0.2820837097463257
0.002744080052620647,-0.2808913198543081
0.002744380052620647,-0.2800169006001618
0.002744680052620647,-0.2796989299622904
0.002744980052620647,-0.2785860327297406
0.002745280052620647,-0.2775526281566605
0.002745580052620647,-0.276916686880917
0.002745880052620647,-0.2760422676267711
0.002746180052620647,-0.2754858190104923
0.002746480052620647,-0.2742139364590074
0.002746780052620647,-0.2732600245453944
0.002747080052620647,-0.2729420539075231
0.002747380052620647,-0.2726240832696522
0.002747680052620647,-0.272226619972313
0.002747980052620647,-0.2715906786965702
0.002748280052620647,-0.2706367667829561
0.002748580052620647,-0.2700803181666812
0.002748880052620647,-0.2699213328477455
0.002749180052620647,-0.2690469135935992
0.002749480052620647,-0.2688084356151957
0.002749780052620647,-0.26864945029626
0.002750080052620647,-0.2670595971069031
0.002750380052620647,-0.2665826411500961
0.002750680052620647,-0.2661851778527568
0.002750980052620647,-0.2648338026418059
0.002751280052620647,-0.2645158320039326
0.002751580052620647,-0.2631644567929812
0.002751880052620647,-0.2622900375388311
0.002752180052620647,-0.2615746036036202
0.002752480052620647,-0.2607001843494735
0.002752780052620647,-0.2595872871169257
0.002753080052620647,-0.2591103311601186
0.002753380052620647,-0.2583154045654402
0.002753680052620647,-0.2574409853112939
0.002753980052620647,-0.2573614926518261
0.002754280052620647,-0.255851132121937
0.002754580052620647,-0.2546587422299193
0.002754880052620647,-0.2547382348893872
0.002755180052620647,-0.2530688890405624
0.002755480052620647,-0.2524329477648197
0.002755780052620647,-0.2521149771269483
0.002756080052620647,-0.2511610652133341
0.002756380052620647,-0.250684109256528
0.002756680052620647,-0.2505251239375917
0.002756980052620647,-0.249571212023979
0.002757280052620647,-0.2490942560671695
0.002757580052620647,-0.248696792769829
0.002757880052620647,-0.2475838955372806
0.002758180052620647,-0.2472659248994079
0.002758480052620647,-0.2462325203263278
0.002758780052620647,-0.2463120129857956
0.002759080052620647,-0.2459145496884564
0.002759380052620647,-0.244563174477503
0.002759680052620647,-0.2439272332017603
0.002759980052620647,-0.2434502772449532
0.002760280052620647,-0.2416219460771928
0.002760580052620647,-0.2416219460771928
0.002760880052620647,-0.2405885415041108
0.002761180052620647,-0.2389986883147539
0.002761480052620647,-0.2395551369310288
0.002761780052620647,-0.2382832543795433
0.002762080052620647,-0.2371703571469955
0.002762380052620647,-0.2369318791685904
0.002762680052620647,-0.2362164452333806
0.002762980052620647,-0.2350240553413611
0.002763280052620647,-0.2347060847034871
0.002763580052620647,-0.2329572461951958
0.002763880052620647,-0.2319238416221157
0.002764180052620647,-0.2311289150274373
0.002764480052620647,-0.2303339884327588
0.002764780052620647,-0.229221091200209
0.002765080052620647,-0.2286646425839341
0.002765380052620647,-0.2275517453513843
0.002765680052620647,-0.2271542820540451
0.002765980052620647,-0.2268363114161737
0.002766280052620647,-0.226677326097238
0.002766580052620647,-0.2262798627998988
0.002766880052620647,-0.2262003701404309
0.002767180052620647,-0.2253259508862846
0.002767480052620647,-0.2252464582268169
0.002767780052620647,-0.2250079802484137
0.002768080052620647,-0.2240540683348008
0.002768380052620647,-0.224213053653732
0.002768680052620647,-0.2227026931238439
0.002768980052620647,-0.2216692885507646
0.002769280052620647,-0.2221462445075682
0.002769580052620647,-0.2207153766371496
0.002769880052620647,-0.2202384206803426
0.002770180052620647,-0.2197614647235355
0.002770480052620647,-0.2187280601504535
0.002770780052620647,-0.2188870454693892
0.002771080052620647,-0.2183305968531143
0.002771380052620647,-0.2177741482368394
0.002771680052620647,-0.217456177598968
0.002771980052620647,-0.2171382069610966
0.002772280052620647,-0.2158663244096111
0.002772580052620647,-0.2157868317501433
0.002772880052620647,-0.2144354565391899
0.002773180052620647,-0.2137200226039806
0.002773480052620647,-0.2139585005823824
0.002773780052620647,-0.2119711840956903
0.002774080052620647,-0.2116532134578149
0.002774380052620647,-0.2114147354794096
0.002774680052620647,-0.2102223455873937
0.002774980052620647,-0.2099838676089906
0.002775280052620647,-0.2101428529279263
0.002775580052620647,-0.20926843367378
0.002775880052620647,-0.2087914777169729
0.002776180052620647,-0.2081555364412302
0.002776480052620647,-0.2072811171870839
0.002776780052620647,-0.2079170584628266
0.002777080052620647,-0.2071221318681482
0.002777380052620647,-0.2062477126140019
0.002777680052620647,-0.2060092346355984
0.002777980052620647,-0.2049758300625164
0.002778280052620647,-0.2041809034678379
0.002778580052620647,-0.2044988741057087
0.002778880052620647,-0.2028295282568876
0.002779180052620647,-0.2018756163432722
0.002779480052620647,-0.2026705429379445
0.002779780052620647,-0.2002857631539127
0.002780080052620647,-0.1998088071971062
0.002780380052620647,-0.1996498218781682
0.002780680052620647,-0.1982189540077496
0.002780980052620647,-0.1982189540077496
0.002781280052620647,-0.1980599686888139
0.002781580052620647,-0.1963906228399891
0.002781880052620647,-0.1963111301805213
0.002782180052620647,-0.1965496081589248
0.002782480052620647,-0.1949597549695679
0.002782780052620647,-0.1950392476290358
0.002783080052620647,-0.1942443210343573
0.002783380052620647,-0.192892945823404
0.002783680052620647,-0.1934493944396789
0.002783980052620647,-0.1924954825260647
0.002784280052620647,-0.1909851219961785
0.002784580052620647,-0.1927339605044651
0.002784880052620647,-0.1913825852935174
0.002785180052620647,-0.1905081660393714
0.002785480052620647,-0.1920185265692542
0.002785780052620647,-0.1901107027420284
0.002786080052620647,-0.1895542541257545
0.002786380052620647,-0.1899517174230937
0.002786680052620647,-0.1886003422121404
0.002786980052620647,-0.1878054156174619
0.002787280052620647,-0.1882028789148011
0.002787580052620647,-0.1866130257254442
0.002787880052620647,-0.1867720110443799
0.002788180052620647,-0.1863745477470407
0.002788480052620647,-0.1844667239198124
0.002788780052620647,-0.1844667239198124
0.002789080052620647,-0.183671797325134
0.002789380052620647,-0.1823204221141806
0.002789680052620647,-0.1827973780709868
0.002789980052620647,-0.1816049881789722
0.002790280052620647,-0.1804920909464222
0.002790580052620647,-0.1808895542437571
0.002790880052620647,-0.1796176716922714
0.002791180052620647,-0.1782662964813221
0.002791480052620647,-0.1791407157354638
0.002791780052620647,-0.1774713698866421
0.002792080052620647,-0.1772328919082386
0.002792380052620647,-0.1774713698866421
0.002792680052620647,-0.1766764432919637
0.002792980052620647,-0.1761199946756887
0.002793280052620647,-0.1766764432919637
0.002793580052620647,-0.1752455754215425
0.002793880052620647,-0.1755635460594138
0.002794180052620647,-0.1758815166972852
0.002794480052620647,-0.1742916635079283
0.002794780052620647,-0.1749276047836711
0.002795080052620647,-0.1745301414863326
0.002795380052620647,-0.1730992736159133
0.002795680052620647,-0.1736557222321846
0.002795980052620647,-0.1726223176591055
0.002796280052620647,-0.1716684057454899
0.002796580052620647,-0.1719068837238918
0.002796880052620647,-0.1712709424481476
0.002797180052620647,-0.169840074577729
