-20250405-BKP/synth-diodes-1f-1r-in-T00-L10-D00/100Hz200mV/scope.csv

#Digilent WaveForms Oscilloscope Acquisition
#Device Name: Discovery3
#Serial Number: SN:210415BD5874
#Date Time: 2025-04-03 16:16:56.254.917.170
#Sample rate: 344828Hz
#Samples: 32768
#Trigger: Source: Channel 1 Type: Edge Condition: Rising Level: 0 V Hyst.: Auto HoldOff: 0 s
#Channel 1: Range: 200 mV/div Offset: 0 V Sample Mode: Average
#Wavegen Channel 1: Running
#Mode: Simple
#Type: Sine
#Frequency: 100 Hz
#Period: 10 ms
#Amplitude: 200 mV
#Offset: 0 V
#Symmetry: 50 %
#Phase: 0 °

Time (s),Channel 1 (V)
-0.03483845879732533,-0.04114145889928857
-0.03483555879732533,-0.04122095155875786
-0.03483265879732533,-0.04209537081290632
-0.03482975879732533,-0.04416217995906738
-0.03482685879732533,-0.04463913591587302
-0.03482395879732533,-0.04432116527800511
-0.03482105879732533,-0.04591101846736113
-0.03481815879732533,-0.0470239156999085
-0.03481525879732533,-0.04678543772151234
-0.03481235879732533,-0.04869326154873743
-0.03480945879732533,-0.04972666612181479
-0.03480655879732533,-0.04948818814341906
-0.03480365879732533,-0.05139601197064531
-0.03480075879732533,-0.05274738718159432
-0.03479785879732533,-0.05290637250053436
-0.03479495879732533,-0.05425774771148743
-0.03479205879732533,-0.05552963026296862
-0.03478915879732533,-0.0556091229224405
-0.03478625879732533,-0.05680151281446078
-0.03478335879732533,-0.05870933664168124
-0.03478045879732533,-0.05847085866328551
-0.03477755879732533,-0.06037868249051089
-0.03477465879732533,-0.06149157972305638
-0.03477175879732533,-0.06141208706359433
-0.03476885879732533,-0.06292244759348251
-0.03476595879732533,-0.0641943301449631
-0.03476305879732533,-0.06411483748549932
-0.03476015879732533,-0.06514824205858361
-0.03475725879732534,-0.06681758790739924
-0.03475435879732534,-0.06649961726953148
-0.03475145879732534,-0.06753302184261099
-0.03474855879732534,-0.06808947045888677
-0.03474565879732534,-0.06824845577782318
-0.03474275879732534,-0.07015627960504828
-0.03473985879732534,-0.07317700066482435
-0.03473695879732534,-0.07309750800536201
-0.03473405879732534,-0.07309750800536201
-0.03473115879732534,-0.0745283758757832
-0.03472825879732534,-0.07619772172460795
-0.03472535879732534,-0.0761182290651401
-0.03472245879732534,-0.07723112629768993
-0.03471955879732534,-0.07945692076278958
-0.03471665879732534,-0.0792979354438539
-0.03471375879732534,-0.08025184735746803
-0.03471085879732534,-0.08279561246043905
-0.03470795879732534,-0.08287510511990691
-0.03470505879732534,-0.08335206107671397
-0.03470215879732534,-0.08533937756341009
-0.03469925879732534,-0.08525988490394225
-0.03469635879732534,-0.085895826179685
-0.03469345879732534,-0.08772415734744543
-0.03469055879732534,-0.08796263532584897
-0.03468765879732534,-0.08899603989893094
-0.03468475879732534,-0.09034741510988431
-0.03468185879732534,-0.09050640042881999
-0.03467895879732534,-0.09153980500190198
-0.03467605879732534,-0.09305016553179103
-0.03467315879732534,-0.0935271214885981
-0.03467025879732534,-0.09464001872114793
-0.03466735879732534,-0.0963888572294405
-0.03466445879732534,-0.09646834988890834
-0.03466155879732534,-0.09726327648358679
-0.03465865879732534,-0.09901211499187938
-0.03465575879732534,-0.09964805626762215
-0.03465285879732534,-0.1000455195649614
-0.03464995879732534,-0.1017148654137861
-0.03464705879732534,-0.1023508066895289
-0.03464415879732534,-0.1023508066895289
-0.03464125879732534,-0.1042586305167571
-0.03463835879732534,-0.1050535571114356
-0.03463545879732534,-0.1052125424303713
-0.03463255879732534,-0.1066434103007925
-0.03462965879732534,-0.1083922488090851
-0.03462675879732534,-0.1083127561496172
-0.03462385879732534,-0.1078358001928101
-0.03462095879732534,-0.1095846387011027
-0.03461805879732534,-0.1108565212525882
-0.03461515879732534,-0.1126053597608832
-0.03461225879732534,-0.1138772423123675
-0.03460935879732534,-0.1145131835881098
-0.03460645879732534,-0.1149106468854514
-0.03460355879732534,-0.1165799927342748
-0.03460065879732534,-0.1175339046478876
-0.03459775879732534,-0.1177723826262939
-0.03459485879732534,-0.1195212211345853
-0.03459195879732534,-0.1206341183671334
-0.03458905879732534,-0.1207931036860723
-0.03458615879732534,-0.1227009275132991
-0.03458325879732534,-0.1238138247458463
-0.03458035879732534,-0.1234958541079789
-0.03457745879732534,-0.1253241852757387
-0.03457455879732534,-0.1268345458056247
-0.03457165879732534,-0.1266755604866922
-0.03456875879732534,-0.1282654136760488
-0.03456585879732534,-0.129696281546468
-0.03456295879732534,-0.1300142521843414
-0.03456005879732534,-0.1314451200547626
-0.03455715879732534,-0.1328759879251815
-0.03455425879732534,-0.1330349732441194
-0.03455135879732533,-0.1343863484550737
-0.03454845879732533,-0.1362941722822985
-0.03454555879732533,-0.1362941722822995
-0.03454265879732533,-0.1368506208985781
-0.03453975879732533,-0.1393943860015445
-0.03453685879732533,-0.1393943860015455
-0.03453395879732533,-0.139950834617823
-0.03453105879732533,-0.1419381511045162
-0.03452815879732533,-0.1423356144018559
-0.03452525879732533,-0.1429715556776005
-0.03452235879732533,-0.1446409015264219
-0.03451945879732533,-0.1444819162074883
-0.03451655879732533,-0.1454358281211047
-0.03451365879732533,-0.1476616225861999
-0.03451075879732533,-0.1474231446077988
-0.03450785879732533,-0.1485360418403502
-0.03450495879732533,-0.150523358327043
-0.03450205879732533,-0.1506823436459771
-0.03449915879732533,-0.1499669097107718
-0.03449625879732533,-0.1521132115164017
-0.03449335879732533,-0.1532261087489567
-0.03449045879732533,-0.1552134252356496
-0.03448755879732533,-0.1563263224681997
-0.03448465879732533,-0.1575187123602134
-0.03448175879732533,-0.1575982050196852
-0.03447885879732533,-0.1587905949117058
-0.03447595879732533,-0.1607779113983941
-0.03447305879732533,-0.1606189260794605
-0.03447015879732533,-0.1610163893768075
-0.03446725879732533,-0.1635601544797693
-0.03446435879732533,-0.1635601544797725
-0.03446145879732533,-0.1644345737339234
-0.03445855879732533,-0.16658087553955
-0.03445565879732533,-0.1672963094747583
-0.03445275879732533,-0.1673758021342339
-0.03444985879732533,-0.1696015965993275
-0.03444695879732533,-0.170158045215601
-0.03444405879732533,-0.1703170305345448
-0.03444115879732533,-0.1727018103185737
-0.03443825879732533,-0.1733377515943156
-0.03443535879732534,-0.1737352148916527
-0.03443245879732534,-0.1755635460594105
-0.03442955879732534,-0.1764379653135585
-0.03442665879732534,-0.1767559359514309
-0.03442375879732534,-0.1789022377570594
-0.03442085879732534,-0.1792202083949341
-0.03441795879732534,-0.1796971643517409
-0.03441505879732534,-0.1818434661573736
-0.03441215879732534,-0.1817639734979057
-0.03440925879732534,-0.1823204221141806
-0.03440635879732534,-0.1841487532819411
-0.03440345879732534,-0.1844667239198124
-0.03440055879732534,-0.1853411431739587
-0.03439765879732534,-0.1874079523201227
-0.03439475879732534,-0.1876464302985262
-0.03439185879732534,-0.1882028789148011
-0.03438895879732534,-0.1901901954014973
-0.03438605879732534,-0.1902696880609651
-0.03438315879732534,-0.1913825852935149
-0.03438025879732534,-0.193369901780211
-0.03437735879732534,-0.1932904091207432
-0.03437445879732534,-0.1928134531639361
-0.03437155879732534,-0.1941648283748895
-0.03436865879732534,-0.195436710926375
-0.03436575879732534,-0.1973445347536033
-0.03436285879732534,-0.1982984466672174
-0.03435995879732534,-0.1993318512402994
-0.03435705879732534,-0.1991728659213637
-0.03435415879732534,-0.2002062704944457
-0.03435125879732534,-0.2021935869811418
-0.03434835879732534,-0.202114094321674
-0.03434545879732534,-0.2025115576190132
-0.03434255879732534,-0.2045783667651772
-0.03433965879732534,-0.2053732933598556
-0.03433675879732534,-0.2057707566571948
-0.03433385879732534,-0.2076785804844231
-0.03433095879732534,-0.208235029100698
-0.03432805879732534,-0.2081555364412302
-0.03432515879732534,-0.2099838676089906
-0.03432225879732534,-0.2109377795226047
-0.03431935879732534,-0.2110172721820726
-0.03431645879732534,-0.2126866180308973
-0.03431355879732534,-0.2136405299445114
-0.03431065879732534,-0.2135610372850436
-0.03430775879732534,-0.2155483537717397
-0.03430485879732534,-0.2165817583448217
-0.03430195879732534,-0.2165817583448217
-0.03429905879732534,-0.2176946555773715
-0.03429615879732534,-0.2194434940856641
-0.03429325879732534,-0.21928450876673
-0.03429035879732534,-0.220158928020877
-0.03428745879732534,-0.2214308105723602
-0.03428455879732534,-0.2214308105723615
-0.03428165879732534,-0.2221462445075746
-0.03427875879732534,-0.2242130536537348
-0.03427585879732534,-0.2242130536537355
-0.03427295879732534,-0.2246105169510776
-0.03427005879732534,-0.2265978334377703
-0.03426715879732534,-0.2266773260972387
-0.03426425879732534,-0.227074789394581
-0.03426135879732534,-0.2291415985407418
-0.03425845879732534,-0.2294595691786125
-0.03425555879732534,-0.229459569178616
-0.03425265879732534,-0.2313673930058408
-0.03424975879732534,-0.2313673930058376
-0.03424685879732534,-0.2296185544975529
-0.03424395879732534,-0.2321623196005258
-0.03424105879732534,-0.2357394892765694
-0.03423815879732534,-0.2341496360872181
-0.03423525879732534,-0.2356599966171062
-0.03423235879732534,-0.2366139085307178
-0.03422945879732534,-0.2362164452333809
-0.03422655879732533,-0.2370908644875294
-0.03422365879732533,-0.2391576736336889
-0.03422075879732533,-0.2387602103363511
-0.03421785879732533,-0.2391576736336929
-0.03421495879732533,-0.2409860048014509
-0.03421205879732533,-0.241462960758257
-0.03420915879732533,-0.2413834680987923
-0.03420625879732533,-0.2430528139476165
-0.03420335879732533,-0.2444041891585666
-0.03420045879732533,-0.2440067258612309
-0.03419755879732533,-0.2455170863911195
-0.03419465879732533,-0.2467889689426025
-0.03419175879732533,-0.2467094762831372
-0.03418885879732533,-0.2479813588346224
-0.03418595879732533,-0.2490942560671698
-0.03418305879732533,-0.2488557780887684
-0.03418015879732533,-0.2498096900023833
-0.03417725879732533,-0.2511610652133333
-0.03417435879732533,-0.2506841092565283
-0.03417145879732533,-0.2513995431917429
-0.03416855879732533,-0.2528304110621589
-0.03416565879732533,-0.2528304110621609
-0.03416275879732533,-0.253386859678441
-0.03415985879732533,-0.2553741761651294
-0.03415695879732533,-0.2552151908461954
-0.03415405879732533,-0.2555331614840717
-0.03415115879732533,-0.2572025073328921
-0.03414825879732533,-0.2576794632896974
-0.03414535879732533,-0.2576794632897026
-0.03414245879732533,-0.2591103311601218
-0.03413955879732533,-0.2599847504142641
-0.03413665879732533,-0.2597462724358666
-0.03413375879732533,-0.2611771403062846
-0.03413085879732533,-0.2617335889225569
-0.03412795879732533,-0.2615746036036247
-0.03412505879732533,-0.2623695301982977
-0.03412215879732533,-0.2616540962630923
-0.03411925879732533,-0.2623695301983113
-0.03411635879732533,-0.2653902512580786
-0.03411345879732534,-0.265469743917546
-0.03411055879732534,-0.2644363393444661
-0.03410765879732534,-0.2657877145554152
-0.03410475879732534,-0.2669006117879654
-0.03410185879732534,-0.2665031484906289
-0.03409895879732534,-0.2680930016799822
-0.03409605879732534,-0.2688879282746621
-0.03409315879732534,-0.2688084356151957
-0.03409025879732534,-0.2700803181666812
-0.03408735879732534,-0.2708752447613597
-0.03408445879732534,-0.2709547374208275
-0.03408155879732534,-0.2720676346533773
-0.03407865879732534,-0.2727830685885879
-0.03407575879732534,-0.2726240832696522
-0.03407285879732534,-0.2739754584806056
-0.03406995879732534,-0.2745319070968805
-0.03406705879732534,-0.2743729217779448
-0.03406415879732534,-0.2757242969888982
-0.03406125879732534,-0.2759627749673017
-0.03405835879732534,-0.2755653116699625
-0.03405545879732534,-0.2769166868809159
-0.03405255879732534,-0.2773936428377229
-0.03404965879732534,-0.2773141501782551
-0.03404675879732534,-0.2779500914539978
-0.03404385879732534,-0.2791424813460155
-0.03404095879732534,-0.2788245107081441
-0.03403805879732534,-0.2797784226217582
-0.03403515879732534,-0.2807323345353724
-0.03403225879732534,-0.2800169006001618
-0.03402935879732534,-0.2809708125137759
-0.03402645879732534,-0.282481173043665
-0.03402355879732534,-0.2820042170868579
-0.03402065879732534,-0.2826401583626006
-0.03401775879732534,-0.2842300115519575
-0.03401485879732534,-0.2835940702762148
-0.03401195879732534,-0.2843889968708933
-0.03400905879732534,-0.2857403720818466
-0.03400615879732534,-0.2855018941034431
-0.03400325879732534,-0.2858993574007823
-0.03400035879732534,-0.2866147913359929
-0.03399745879732534,-0.2842300115519575
-0.03399455879732534,-0.2851044308061039
-0.03399165879732534,-0.2887610931416247
-0.03398875879732534,-0.2880456592064141
-0.03398585879732534,-0.2879661665469462
-0.03398295879732534,-0.2893175417578996
-0.03398005879732534,-0.2889200784605604
-0.03397715879732534,-0.289635512395771
-0.03397425879732534,-0.2909073949472565
-0.03397135879732534,-0.2906689169688532
-0.03396845879732534,-0.2907484096283237
-0.03396555879732534,-0.2923382628176783
-0.03396265879732534,-0.2926562334555491
-0.03395975879732534,-0.2926562334555511
-0.03395685879732534,-0.2937691306880999
-0.03395395879732534,-0.2943255793043736
-0.03395105879732534,-0.2942460866449079
-0.03394815879732534,-0.2952794912179889
-0.03394525879732534,-0.2957564471747942
-0.03394235879732534,-0.2952794912179897
-0.03393945879732534,-0.2962334031316034
-0.03393655879732534,-0.2969488370668112
-0.03393365879732534,-0.2961539104721354
-0.03393075879732534,-0.2967898517478775
-0.03392785879732534,-0.2970283297262829
-0.03392495879732534,-0.2983002122777665
-0.03392205879732534,-0.2985386902561713
-0.03391915879732534,-0.2994926021697825
-0.03391625879732534,-0.298777168234575
-0.03391335879732534,-0.2998105728076563
-0.03391045879732534,-0.3004465140833969
-0.03390755879732534,-0.2998900654671246
-0.03390465879732533,-0.3007644847212723
-0.03390175879732533,-0.3024338305700925
-0.03389885879732533,-0.3016389039754164
-0.03389595879732533,-0.3021158599322259
-0.03389305879732533,-0.3039441910999828
-0.03389015879732533,-0.3037852057810461
-0.03388725879732533,-0.3030697718458385
-0.03388435879732533,-0.3040236837594526
-0.03388145879732533,-0.3049775956730634
-0.03387855879732533,-0.3041031764189196
-0.03387565879732533,-0.3045801323757233
-0.03387275879732533,-0.3032287571647726
-0.03386985879732533,-0.3033082498242465
-0.03386695879732533,-0.3067264341813583
-0.03386405879732533,-0.3071238974786952
-0.03386115879732533,-0.3062494782245522
-0.03385825879732533,-0.307123897478698
-0.03385535879732533,-0.3077598387544387
-0.03385245879732533,-0.3072828827976349
-0.03384955879732533,-0.30855476534912
-0.03384665879732533,-0.3091112139653903
-0.03384375879732533,-0.3083957800301879
-0.03384085879732533,-0.3099061405600734
-0.03383795879732533,-0.3104625891763437
-0.03383505879732533,-0.3097471552411392
-0.03383215879732533,-0.3107010671547539
-0.03382925879732533,-0.3118139643872974
-0.03382635879732533,-0.3111780231115586
-0.03382345879732533,-0.3116549790683669
-0.03382055879732533,-0.3124499056630404
-0.03381765879732533,-0.3118934570467672
-0.03381475879732533,-0.3118139643873052
-0.03381185879732533,-0.3133243249171878
-0.03380895879732533,-0.313085846938784
-0.03380605879732533,-0.312767876300919
-0.03380315879732533,-0.3141987441713379
-0.03380025879732533,-0.3149936707660094
-0.03379735879732533,-0.3138807735334679
-0.03379445879732533,-0.3150731634254839
-0.03379155879732534,-0.3157885973606906
-0.03378865879732534,-0.3154706267228211
-0.03378575879732534,-0.3153911340633528
-0.03378285879732534,-0.3172194652311098
-0.03377995879732534,-0.3167425092743069
-0.03377705879732534,-0.3168220019337737
-0.03377415879732534,-0.3183323624636602
-0.03377125879732534,-0.3176964211879202
-0.03376835879732534,-0.317775913847388
-0.03376545879732534,-0.3189683037394057
-0.03376255879732534,-0.3183323624636629
-0.03375965879732534,-0.3183323624636629
-0.03375675879732534,-0.3191272890583414
-0.03375385879732534,-0.3188888110799378
-0.03375095879732534,-0.31880931842047
-0.03374805879732534,-0.3183323624636629
-0.03374515879732534,-0.3187298257610022
-0.03374225879732534,-0.3200017083124877
-0.03373935879732534,-0.3207966349071661
-0.03373645879732534,-0.3213530835234411
-0.03373355879732534,-0.3207966349071661
-0.03373065879732534,-0.3210351128855697
-0.03372775879732534,-0.3220685174586516
-0.03372485879732534,-0.3217505468207802
-0.03372195879732534,-0.3222275027775873
-0.03371905879732534,-0.3235788779885407
-0.03371615879732534,-0.3228634440533301
-0.03371325879732534,-0.3232609073506693
-0.03371035879732534,-0.3243738045832191
-0.03370745879732534,-0.323896848626412
-0.03370455879732534,-0.3240558339453478
-0.03370165879732534,-0.3256456871347047
-0.03369875879732534,-0.324930253199494
-0.03369585879732534,-0.3248507605400262
-0.03369295879732534,-0.3260431504320439
-0.03369005879732534,-0.3264406137293831
-0.03368715879732534,-0.325963657772576
-0.03368425879732534,-0.3266790917077866
-0.03368135879732534,-0.3276330036214008
-0.03367845879732534,-0.3269175696861902
-0.03367555879732534,-0.3273945256429973
-0.03367265879732534,-0.3287459008539506
-0.03366975879732534,-0.3279509742592722
-0.03366685879732534,-0.3284279302160792
-0.03366395879732534,-0.3298587980865004
-0.03366105879732534,-0.3293023494702255
-0.03365815879732534,-0.3293818421296933
-0.03365525879732534,-0.3301767687243718
-0.03365235879732534,-0.3297793054270326
-0.03364945879732534,-0.3300177834054385
-0.03364655879732534,-0.3312896659569206
-0.03364365879732534,-0.3307332173406458
-0.03364075879732534,-0.330256261383842
-0.03363785879732534,-0.3315281439353251
-0.03363495879732534,-0.3315281439353241
-0.03363205879732534,-0.3309716953190522
-0.03362915879732534,-0.3320845925516002
-0.03362625879732534,-0.3321640852110641
-0.03362335879732534,-0.3300177834054383
-0.03362045879732534,-0.3312101732974568
-0.03361755879732534,-0.3328795191462791
-0.03361465879732534,-0.3331974897841506
-0.03361175879732534,-0.3335949530814887
-0.03360885879732534,-0.3333564751030854
-0.03360595879732534,-0.333276982443619
-0.03360305879732534,-0.3339924163788295
-0.03360015879732534,-0.3346283576545697
-0.03359725879732534,-0.333833431059895
-0.03359435879732534,-0.335105313611378
-0.03359145879732534,-0.3350258209519097
-0.03358855879732534,-0.3347078503140408
-0.03358565879732534,-0.3357412548871205
-0.03358275879732533,-0.3355027769087165
-0.03357985879732533,-0.3350258209519129
-0.03357695879732533,-0.336456688822332
-0.03357405879732533,-0.3366951668007334
-0.03357115879732533,-0.3357412548871228
-0.03356825879732533,-0.3367746594602042
-0.03356535879732533,-0.3374900933954119
-0.03356245879732533,-0.336615674141269
-0.03355955879732533,-0.3375695860548828
-0.03355665879732533,-0.3383645126495584
-0.03355375879732533,-0.3375695860548828
-0.03355085879732533,-0.3383645126495608
-0.03354795879732533,-0.3389209612658338
-0.03354505879732533,-0.3384440053090291
-0.03354215879732533,-0.3392389319037072
-0.03353925879732533,-0.3398748731794469
-0.03353635879732533,-0.3387619759469003
-0.03353345879732533,-0.3394774098821115
-0.03353055879732533,-0.34051081445519
-0.03352765879732533,-0.339636395201045
-0.03352475879732533,-0.3394774098821128
-0.03352185879732533,-0.3403518291362536
-0.03351895879732533,-0.3397158878605149
-0.03351605879732533,-0.3401928438173237
-0.03351315879732533,-0.3411467557309321
-0.03351025879732533,-0.3405108144551939
-0.03350735879732533,-0.3411467557309364
-0.03350445879732533,-0.341703204347207
-0.03350155879732533,-0.3410672630714622
-0.03349865879732533,-0.3398748731794529
-0.03349575879732533,-0.3409877704120007
-0.03349285879732533,-0.3415442190282765
-0.03348995879732533,-0.342339145622954
-0.03348705879732533,-0.3428955942392249
-0.03348415879732533,-0.3423391456229509
-0.03348125879732533,-0.3420211749850847
-0.03347835879732533,-0.3431340722176296
-0.03347545879732533,-0.3428955942392249
-0.03347255879732533,-0.3423391456229549
-0.03346965879732534,-0.343134072217629
-0.03346675879732534,-0.3436110281744367
-0.03346385879732534,-0.3428955942392282
