-20250406-BKP/synth-diodes-1f-1r-in-T00-L10-D00/1kHz-2V/scope.csv

#Digilent WaveForms Oscilloscope Acquisition
#Device Name: Discovery3
#Serial Number: SN:210415BD5874
#Date Time: 2025-04-06 20:14:45.564.943.730
#Sample rate: 1.23457e+06Hz
#Samples: 32768
#Trigger: Source: Channel 1 Type: Edge Condition: Rising Level: 0 V Hyst.: Auto HoldOff: 0 s
#Channel 1: Range: 200 mV/div Offset: 0 V Sample Mode: Average
#Wavegen Channel 1: Running
#Mode: Simple
#Type: Sine
#Frequency: 1 kHz
#Period: 1 ms
#Amplitude: 2 V
#Offset: 0 V
#Symmetry: 50 %
#Phase: 0 °

Time (s),Channel 1 (V)
-0.01027691023279352,-0.08271611980097135
-0.01027610023279352,-0.08279561246043905
-0.01027529023279352,-0.08311358309831043
-0.01027448023279352,-0.08335206107671397
-0.01027367023279352,-0.08303409043884259
-0.01027286023279352,-0.08311358309831043
-0.01027205023279352,-0.08168271522788924
-0.01027124023279352,-0.08192119320629276
-0.01027043023279352,-0.08176220788735708
-0.01026962023279352,-0.08152372990895397
-0.01026881023279352,-0.08152372990895354
-0.01026800023279352,-0.08200068586576061
-0.01026719023279352,-0.08184170054682492
-0.01026638023279352,-0.0818417005468268
-0.01026557023279352,-0.08287510511990691
-0.01026476023279352,-0.08271611980097121
-0.01026395023279352,-0.08247764182256768
-0.01026314023279352,-0.08200068586576061
-0.01026233023279352,-0.08152372990895441
-0.01026152023279352,-0.08136474459001786
-0.01026071023279352,-0.08136474459001786
-0.01025990023279352,-0.08136474459001786
-0.01025909023279352,-0.08112626661161389
-0.01025828023279352,-0.08088778863321079
-0.01025747023279352,-0.08064931065480725
-0.01025666023279352,-0.08120575927108216
-0.01025585023279352,-0.08136474459001786
-0.01025504023279352,-0.08176220788735708
-0.01025423023279352,-0.08152372990895354
-0.01025342023279352,-0.08136474459001786
-0.01025261023279352,-0.08088778863321079
-0.01025180023279352,-0.08001336937906608
-0.01025099023279352,-0.07985438406012881
-0.01025018023279352,-0.07953641342225742
-0.01024937023279352,-0.07945692076278958
-0.01024856023279352,-0.07937742810332174
-0.01024775023279352,-0.07897996480598252
-0.01024694023279352,-0.07953641342225742
-0.01024613023279352,-0.07977489140066096
-0.01024532023279352,-0.07985438406012881
-0.01024451023279352,-0.0801723546979996
-0.01024370023279352,-0.07945692076278958
-0.01024289023279352,-0.07937742810332174
-0.01024208023279352,-0.07874148682757898
-0.01024127023279352,-0.07842351618970746
-0.01024046023279352,-0.07834402353023975
-0.01023965023279352,-0.07834402353023975
-0.01023884023279352,-0.07802605289236837
-0.01023803023279352,-0.07818503821130407
-0.01023722023279352,-0.07826453087077191
-0.01023641023279352,-0.07858250150864329
-0.01023560023279352,-0.0791389501249182
-0.01023479023279352,-0.07890047214651467
-0.01023398023279352,-0.07834402353024077
-0.01023317023279352,-0.07850300884917544
-0.01023236023279352,-0.07770808225449699
-0.01023155023279352,-0.07746960427609347
-0.01023074023279352,-0.07739011161662562
-0.01022993023279352,-0.07715163363822208
-0.01022912023279352,-0.07707214097875424
-0.01022831023279352,-0.07715163363822208
-0.01022750023279352,-0.07754909693556131
-0.01022669023279352,-0.0780260528923675
-0.01022588023279352,-0.07802605289236837
-0.01022507023279352,-0.07778757491396485
-0.01022426023279352,-0.07762858959502915
-0.01022345023279352,-0.07651569236247671
-0.01022264023279352,-0.07508482449205812
-0.01022183023279352,-0.07389243460004045
-0.01022102023279352,-0.07405141991897614
-0.01022021023279352,-0.0745283758757832
-0.01021940023279352,-0.07484634651365459
-0.01021859023279352,-0.07524380981099381
-0.01021778023279352,-0.07524380981099381
-0.01021697023279352,-0.07595924374620441
-0.01021616023279352,-0.07731061895715806
-0.01021535023279352,-0.07746960427609347
-0.01021454023279352,-0.07762858959502915
-0.01021373023279352,-0.07667467768141502
-0.01021292023279352,-0.07587975108673657
-0.01021211023279352,-0.07484634651365459
-0.01021130023279352,-0.0746873611947189
-0.01021049023279352,-0.0746873611947189
-0.01020968023279352,-0.07444888321631536
-0.01020887023279352,-0.07468736119471847
-0.01020806023279352,-0.07413091257844398
-0.01020725023279352,-0.07421040523791184
-0.01020644023279352,-0.07492583917312243
-0.01020563023279352,-0.07484634651365488
-0.01020482023279352,-0.07500533183259028
-0.01020401023279352,-0.07460786853525106
-0.01020320023279352,-0.07389243460004045
-0.01020239023279352,-0.07357446396216907
-0.01020158023279352,-0.07341547864323338
-0.01020077023279352,-0.07357446396216907
-0.01019996023279352,-0.0723820740701514
-0.01019915023279352,-0.07285903002695847
-0.01019834023279352,-0.07246156672961968
-0.01019753023279352,-0.07270004470802278
-0.01019672023279352,-0.07270004470802278
-0.01019591023279352,-0.07317700066482985
-0.01019510023279352,-0.07341547864323338
-0.01019429023279352,-0.07309750800536201
-0.01019348023279352,-0.07230258141068356
-0.01019267023279352,-0.07190511811334434
-0.01019186023279352,-0.07055374290239097
-0.01019105023279352,-0.06952033832931087
-0.01019024023279352,-0.06944084566984114
-0.01018943023279352,-0.06967932364824468
-0.01018862023279352,-0.07023577226451959
-0.01018781023279352,-0.07103069885919833
-0.01018700023279352,-0.07118968417813373
-0.01018619023279352,-0.07063323556185881
-0.01018538023279352,-0.0700767869455839
-0.01018457023279352,-0.07055374290239097
-0.01018376023279352,-0.07031526492398744
-0.01018295023279352,-0.07055374290239097
-0.01018214023279352,-0.06967932364824468
-0.01018133023279352,-0.06944084566984114
-0.01018052023279352,-0.06904338237250134
-0.01017971023279352,-0.06872541173463055
-0.01017890023279352,-0.0686459190751627
-0.01017809023279352,-0.06848693375622701
-0.01017728023279352,-0.06793048513995209
-0.01017647023279352,-0.06816896311835563
-0.01017566023279352,-0.06824845577782347
-0.01017485023279352,-0.06785099248048425
-0.01017404023279352,-0.06896388971303408
-0.01017323023279352,-0.06936135301037258
-0.01017242023279352,-0.06880490439409839
-0.01017161023279352,-0.06824845577782347
-0.01017080023279352,-0.06769200716154856
-0.01016999023279352,-0.06745352918314315
-0.01016918023279352,-0.06642012461006305
-0.01016837023279352,-0.06594316865325597
-0.01016756023279352,-0.0663406319505952
-0.01016675023279352,-0.06578418333432029
-0.01016594023279352,-0.06649961726952959
-0.01016513023279352,-0.06610215397219167
-0.01016432023279352,-0.06649961726953089
-0.01016351023279352,-0.06697657322633796
-0.01016270023279352,-0.06665860258846586
-0.01016189023279352,-0.06626113929112736
-0.01016108023279352,-0.06554570535591675
-0.01016027023279352,-0.06554570535591675
-0.01015946023279352,-0.06483027142070616
-0.01015865023279352,-0.0647507787612383
-0.01015784023279352,-0.06435331546389908
-0.01015703023279352,-0.06395585216655986
-0.01015622023279352,-0.06395585216655986
-0.01015541023279352,-0.06411483748549526
-0.01015460023279352,-0.0641943301449634
-0.01015379023279352,-0.0647507787612383
-0.01015298023279352,-0.06427382280443124
-0.01015217023279352,-0.06411483748549411
-0.01015136023279352,-0.06331991089081711
-0.01015055023279352,-0.06276346227454219
-0.01014974023279352,-0.06244549163667081
-0.01014893023279352,-0.06252498429613865
-0.01014812023279352,-0.06220701365826786
-0.01014731023279352,-0.06196853567986374
-0.01014650023279352,-0.06196853567986374
-0.01014569023279352,-0.06157107238252452
-0.01014488023279352,-0.06204802833933332
-0.01014407023279352,-0.06300194025294573
-0.01014326023279352,-0.0618890430203959
-0.01014245023279352,-0.0617300577014602
-0.01014164023279352,-0.06141208706358883
-0.01014083023279352,-0.06069665312837823
-0.01014002023279352,-0.06006071185263546
-0.01013921023279352,-0.05966324855529624
-0.01013840023279352,-0.05974274121476408
-0.01013759023279352,-0.05934527791742558
-0.01013678023279352,-0.05934527791742486
-0.01013597023279352,-0.05918629259848918
-0.01013516023279352,-0.0594247705768927
-0.01013435023279352,-0.05934527791742486
-0.01013354023279352,-0.05950426323636056
-0.01013273023279352,-0.05886832196061779
-0.01013192023279352,-0.05823238068487503
-0.01013111023279352,-0.05759643940913228
-0.01013030023279352,-0.05688100547392298
-0.01012949023279352,-0.05672202015498599
-0.01012868023279352,-0.0565630348360503
-0.01012787023279352,-0.05624506419817892
-0.01012706023279352,-0.05608607887924367
-0.01012625023279352,-0.05632455685764677
-0.01012544023279352,-0.05672202015498599
-0.01012463023279352,-0.05672202015498599
-0.01012382023279352,-0.0565630348360503
-0.01012301023279352,-0.05584760090083969
-0.01012220023279352,-0.05529115228456478
-0.01012139023279352,-0.05481419632775772
-0.01012058023279352,-0.05417825505201496
-0.01011977023279352,-0.05386028441414415
-0.01011896023279352,-0.0542577477114828
-0.01011815023279352,-0.05354231377627219
-0.01011734023279352,-0.05362180643574005
-0.01011653023279352,-0.05346282111680435
-0.01011572023279352,-0.05393977707361142
-0.01011491023279352,-0.05433724037095064
-0.01011410023279352,-0.05409876239254711
-0.01011329023279352,-0.0542577477114828
-0.01011248023279352,-0.0533833284573381
-0.01011167023279352,-0.05258840186265806
-0.01011086023279352,-0.05219093856531884
-0.01011005023279352,-0.05171398260851177
-0.01010924023279352,-0.05171398260851047
-0.01010843023279352,-0.05099854867330117
-0.01010762023279352,-0.05083956335436549
-0.01010681023279352,-0.05107804133276901
-0.01010600023279352,-0.05139601197064039
-0.01010519023279352,-0.05155499728957608
-0.01010438023279352,-0.05139601197064039
-0.01010357023279352,-0.05068057803542979
-0.01010276023279352,-0.05036260739755841
-0.01010195023279352,-0.04948818814341371
-0.01010114023279352,-0.04901123218660505
-0.01010033023279352,-0.04869326154873367
-0.01009952023279352,-0.04869326154873367
-0.01009871023279352,-0.04781884229458738
-0.01009790023279352,-0.0467854377215054
-0.01009709023279352,-0.04599051112682695
-0.01009628023279352,-0.04567254048895557
-0.01009547023279352,-0.04654695974310187
-0.01009466023279352,-0.04718290101884346
-0.01009385023279352,-0.04686493038097324
-0.01009304023279352,-0.04670594506203755
-0.01009223023279352,-0.04630848176469833
-0.01009142023279352,-0.04614949644576294
-0.01009061023279352,-0.04630848176469833
-0.01008980023279352,-0.04614949644576265
-0.01008899023279352,-0.04630848176469833
-0.01008818023279352,-0.04559304782948773
-0.01008737023279352,-0.04487761389427712
-0.01008656023279352,-0.0444801505969379
-0.01008575023279352,-0.04487761389427712
-0.01008494023279352,-0.04487761389427712
-0.01008413023279352,-0.04479812123480957
-0.01008332023279352,-0.04495710655374498
-0.01008251023279352,-0.04376471666172729
-0.01008170023279352,-0.04352623868332377
-0.01008089023279352,-0.04281080474811316
-0.01008008023279352,-0.04225435613183826
-0.01007927023279352,-0.0421748634723704
-0.01007846023279352,-0.04153892219662765
-0.01007765023279352,-0.04161841485609549
-0.01007684023279352,-0.04137993687769239
-0.01007603023279352,-0.04106196623982059
-0.01007522023279352,-0.04098247358035273
-0.01007441023279352,-0.04122095155875627
-0.01007360023279352,-0.0420953708129014
-0.01007279023279352,-0.04145942953715981
-0.01007198023279352,-0.0407439956019492
-0.01007117023279352,-0.03979008368833506
-0.01007036023279352,-0.03907464975312445
-0.01006955023279352,-0.03835921581791386
-0.01006874023279352,-0.03820023049897817
-0.01006793023279352,-0.03724631858536404
-0.01006712023279352,-0.03756428922323542
-0.01006631023279352,-0.03740530390429957
-0.01006550023279352,-0.03732581124483188
-0.01006469023279352,-0.03716682592589619
-0.01006388023279352,-0.03756428922323542
-0.01006307023279352,-0.03764378188270326
-0.01006226023279352,-0.03708733326642834
-0.01006145023279352,-0.03629240667174989
-0.01006064023279352,-0.03621291401228205
-0.01005983023279352,-0.03533849475813576
-0.01005902023279352,-0.03510001677973266
-0.01005821023279352,-0.03438458284452163
-0.01005740023279352,-0.03406661220665025
-0.01005659023279352,-0.03414610486611809
-0.01005578023279352,-0.03398711954718254
-0.01005497023279352,-0.03406661220665025
-0.01005416023279352,-0.03430509018505377
-0.01005335023279352,-0.03406661220665025
-0.01005254023279352,-0.03351016359037533
-0.01005173023279352,-0.03327168561197224
-0.01005092023279352,-0.03247675901729336
-0.01005011023279352,-0.03168183242261491
-0.01004930023279352,-0.03128436912527568
-0.01004849023279352,-0.03072792050900033
-0.01004768023279352,-0.03048944253059723
-0.01004687023279352,-0.0302509645521937
-0.01004606023279352,-0.02969451593591878
-0.01004525023279352,-0.02937654529804741
-0.01004444023279352,-0.02913806731964387
-0.01004363023279352,-0.02929705263857956
-0.01004282023279352,-0.02882009668177249
-0.01004201023279352,-0.02874060402230465
-0.01004120023279352,-0.02770719944922455
-0.01004039023279352,-0.0272302434924156
-0.01003958023279352,-0.02659430221667284
-0.01003877023279352,-0.02611734625986577
-0.01003796023279352,-0.02564039030305712
-0.01003715023279352,-0.02476597104891241
-0.01003634023279352,-0.0242095224326375
-0.01003553023279352,-0.02389155179476612
-0.01003472023279352,-0.02397104445423397
-0.01003391023279352,-0.02389155179476627
-0.01003310023279352,-0.0234940884974269
-0.01003229023279352,-0.02325561051902336
-0.01003148023279352,-0.02269916190274845
-0.01003067023279352,-0.02198372796753553
-0.01002986023279352,-0.02071184541605233
-0.01002905023279352,-0.02015539679977742
-0.01002824023279352,-0.01951945552403466
-0.01002743023279352,-0.01912199222669544
-0.01002662023279352,-0.01832706563201699
-0.01002581023279352,-0.01769112435627423
-0.01002500023279352,-0.01705518308053148
-0.01002419023279352,-0.01713467573999932
-0.01002338023279352,-0.01689619776159622
-0.01002257023279352,-0.0167372124426601
-0.01002176023279352,-0.01641924180478872
-0.01002095023279352,-0.01570380786957811
-0.01002014023279352,-0.0151473592533032
-0.01001933023279352,-0.0144319253180926
-0.01001852023279352,-0.01379598404234984
-0.01001771023279352,-0.01300105744767139
-0.01001690023279352,-0.01244460883139648
-0.01001609023279352,-0.01188816021512258
-0.01001528023279352,-0.01157018957725019
-0.01001447023279352,-0.01093424830150743
-0.01001366023279352,-0.01085475564203959
-0.01001285023279352,-0.01117272627990996
-0.01001204023279352,-0.01061627766363605
-0.01001123023279352,-0.01029830702576467
-0.01001042023279352,-0.009582873090554072
-0.01000961023279352,-0.009105917133747003
-0.01000880023279352,-0.008469975858004245
-0.01000799023279352,-0.007913527241729333
-0.01000718023279352,-0.007595556603857954
-0.01000637023279352,-0.006800630009179506
-0.01000556023279352,-0.006482659371308706
-0.01000475023279352,-0.006323674052372438
-0.01000394023279352,-0.006562152030775972
-0.01000313023279352,-0.006482659371308127
-0.01000232023279352,-0.006959615328115196
-0.01000151023279352,-0.006721137349711662
-0.01000070023279352,-0.006085196073968904
-0.009999890232793523,-0.005528747457693991
-0.009999080232793523,-0.005210776819822612
-0.009998270232793524,-0.004495342884613311
-0.009997460232793524,-0.004574835544079854
-0.009996650232793523,-0.004336357565676321
-0.009995840232793523,-0.004018386927804941
-0.009995030232793523,-0.004415850225145033
-0.009994220232793524,-0.004892806181951233
-0.009993410232793523,-0.005449254798226146
-0.009992600232793523,-0.005528747457693991
-0.009991790232793523,-0.004813313522483389
-0.009990980232793524,-0.003938894268337097
-0.009990170232793524,-0.003779908949401408
-0.009989360232793523,-0.003620923630465718
-0.009988550232793523,-0.003700416289933563
-0.009987740232793524,-0.003541430970998162
-0.009986930232793524,-0.003541430970997873
-0.009986120232793523,-0.003461938311530029
-0.009985310232793523,-0.003382445652062184
-0.009984500232793523,-0.003541430970997873
-0.009983690232793524,-0.003700416289933563
-0.009982880232793524,-0.004177372246740631
-0.009982070232793523,-0.004018386927804941
-0.009981260232793523,-0.003859401608869252
-0.009980450232793524,-0.003461938311530752
-0.009979640232793524,-0.00314396767365865
-0.009978830232793523,-0.002508026397915892
-0.009978020232793523,-0.003064475014190805
-0.009977210232793523,-0.002508026397916326
-0.009976400232793524,-0.002746504376319426
-0.009975590232793523,-0.002905489695255115
-0.009974780232793523,-0.003461938311530029
-0.009973970232793523,-0.003700416289933563
-0.009973160232793524,-0.003223460333126494
-0.009972350232793524,-0.002031070441108823
-0.009971540232793523,-0.001156651186962532
-0.009970730232793523,-0.0009976658680268423
-0.009969920232793522,-0.0009976658680266976
-0.009969110232793524,-0.0009181732085589975
-0.009968300232793523,-0.001077158527494687
-0.009967490232793523,-0.0009976658680268423
-0.009966680232793523,-0.002031070441108823
-0.009965870232793524,-0.00314396767365865
-0.009965060232793524,-0.004097879587272786
-0.009964250232793523,-0.003700416289933563
-0.009963440232793523,-0.00314396767365865
-0.009962630232793524,-0.002190055760046248
-0.009961820232793524,-0.001395129165366066
-0.009961010232793523,-0.0009181732085589975
-0.009960200232793523,-0.001156651186962532
-0.009959390232793523,-0.0007591878896230189
-0.009958580232793524,-0.0006002025706876187
-0.009957770232793524,-0.000520709911219774
-0.009956960232793523,-0.000520709911219774
-0.009956150232793523,-0.0009181732085589975
-0.009955340232793524,-0.0006796952301554634
-0.009954530232793524,-0.0004412172517519292
-0.009953720232793523,0.0002742166834586732
-0.009952910232793523,0.0005921873213300521
-0.009952100232793522,0.0006716799807984752
-0.009951290232793524,0.0009896506186692757
-0.009950480232793523,0.001387113916008499
-0.009949670232793523,0.002023055191751257
-0.009948860232793523,0.002023055191751257
-0.009948050232793524,0.001864069872815568
-0.009947240232793524,0.001466606575476344
-0.009946430232793523,0.001148635937604965
-0.009945620232793523,0.001466606575476344
-0.009944810232793524,0.001546099234944044
-0.009944000232793524,0.002261533170154791
-0.009943190232793523,0.002817981786429704
-0.009942380232793523,0.002976967105365394
-0.009941570232793523,0.004010371678447375
-0.009940760232793524,0.004010371678447375
-0.009939950232793524,0.003533415721640306
-0.009939140232793523,0.004248849656850909
-0.009938330232793523,0.00408986433791522
-0.009937520232793524,0.004248849656850621
-0.009936710232793524,0.003771893700043841
-0.009935900232793523,0.004169356997383064
-0.009935090232793523,0.004487327635254443
-0.009934280232793522,0.005123268910997634
-0.009933470232793524,0.005361746889400735
-0.009932660232793523,0.005759210186739958
-0.009931850232793523,0.006077180824611337
-0.009931040232793523,0.006156673484079183
-0.009930230232793524,0.007031092738225474
-0.009929420232793524,0.006951600078757629
-0.009928610232793523,0.006951600078757629
-0.009927800232793523,0.007031092738225474
-0.009926990232793524,0.007190078057160875
-0.009926180232793524,0.006236166143547027
-0.009925370232793523,0.00679261475982194
-0.009924560232793523,0.007349063376096853
-0.009923750232793523,0.007667034013969099
-0.009922940232793524,0.008143989970775299
-0.009922130232793524,0.008779931246518057
-0.009921320232793523,0.00981333581960004
-0.009920510232793523,0.01029029177640711
-0.009919700232793524,0.01036978443587481
-0.009918890232793524,0.01052876975481064
-0.009918080232793523,0.01036978443587495
-0.009917270232793523,0.009972321138535729
-0.009916460232793523,0.009892828479068173
-0.009915650232793524,0.01005181379800357
-0.009914840232793523,0.01021079911693926
-0.009914030232793523,0.0111647110305534
-0.009913220232793523,0.01180065230629616
-0.009912410232793524,0.01211862294416754
-0.009911600232793524,0.01211862294416754
-0.009910790232793523,0.01283405687937814
-0.009909980232793523,0.01299304219831383
-0.009909170232793524,0.01283405687937843
-0.009908360232793524,0.01299304219831383
-0.009907550232793523,0.01362898347405659
-0.009906740232793523,0.01291354953884598
-0.009905930232793523,0.01299304219831383
-0.009905120232793524,0.01299304219831383
