synth-diodes-2f-1r-in-T10-L10-D00/100Hz-1V/scope.csv

#Digilent WaveForms Oscilloscope Acquisition
#Device Name: Discovery3
#Serial Number: SN:210415BD5874
#Date Time: 2025-04-06 19:57:07.229.322.830
#Sample rate: 208333Hz
#Samples: 32768
#Trigger: Source: Channel 1 Type: Edge Condition: Rising Level: 0 V Hyst.: Auto HoldOff: 0 s
#Channel 1: Range: 200 mV/div Offset: 0 V Sample Mode: Average
#Wavegen Channel 1: Running
#Mode: Simple
#Type: Sine
#Frequency: 100 Hz
#Period: 10 ms
#Amplitude: 1 V
#Offset: 0 V
#Symmetry: 50 %
#Phase: 0 °

Time (s),Channel 1 (V)
-0.09149660109804636,-0.104815079133032
-0.09149180109804636,-0.1029867479652716
-0.09148700109804636,-0.104338123176225
-0.09148220109804636,-0.1028277626463359
-0.09147740109804636,-0.1038611672194179
-0.09147260109804636,-0.1034637039220787
-0.09146780109804636,-0.1053715277493035
-0.09146300109804636,-0.1047355864735654
-0.09145820109804637,-0.1056100057277089
-0.09145340109804637,-0.1041791378572919
-0.09144860109804635,-0.1044971084951647
-0.09144380109804635,-0.1067229029602498
-0.09143900109804635,-0.1009199388191095
-0.09143420109804636,-0.1019533433921896
-0.09142940109804636,-0.1008404461596398
-0.09142460109804636,-0.1017148654137861
-0.09141980109804636,-0.1009994314785755
-0.09141500109804636,-0.1054510204087748
-0.09141020109804636,-0.1017943580732539
-0.09140540109804636,-0.1036226892410144
-0.09140060109804636,-0.1025892846679324
-0.09139580109804636,-0.1056894983871783
-0.09139100109804636,-0.1050535571114356
-0.09138620109804636,-0.1064049323223889
-0.09138140109804636,-0.1021918213705932
-0.09137660109804636,-0.1022713140300609
-0.09137180109804637,-0.1025097920084641
-0.09136700109804637,-0.1017943580732553
-0.09136220109804635,-0.1017148654137844
-0.09135740109804635,-0.1007609535001699
-0.09135260109804635,-0.0996480562676233
-0.09134780109804636,-0.1002839975433671
-0.09134300109804636,-0.1014763874353826
-0.09133820109804636,-0.1002839975433649
-0.09133340109804636,-0.1008404461596398
-0.09132860109804636,-0.1008404461596398
-0.09132380109804636,-0.100760953500172
-0.09131900109804636,-0.09972754892708999
-0.09131420109804636,-0.1013174021164469
-0.09130940109804636,-0.09933008562975076
-0.09130460109804636,-0.1006814608407041
-0.09129980109804636,-0.1003634902028327
-0.09129500109804636,-0.1020328360516575
-0.09129020109804636,-0.1035431965815438
-0.09128540109804636,-0.1025892846679341
-0.09128060109804637,-0.1005224755217722
-0.09127580109804637,-0.1023508066895255
-0.09127100109804635,-0.1004429828622981
-0.09126620109804635,-0.09909160765134477
-0.09126140109804635,-0.09774023244039966
-0.09125660109804636,-0.1009199388191077
-0.09125180109804636,-0.1006019681812363
-0.09124700109804636,-0.1013174021164469
-0.09124220109804636,-0.101237909456979
-0.09123740109804636,-0.1018738507327218
-0.09123260109804636,-0.1014763874353826
-0.09122780109804636,-0.103304718603143
-0.09122300109804636,-0.1013968947759147
-0.09121820109804636,-0.1018738507327218
-0.09121340109804636,-0.100760953500172
-0.09120860109804636,-0.098694144354008
-0.09120380109804636,-0.09861465169454016
-0.09119900109804636,-0.09972754892708796
-0.09119420109804637,-0.09821718839720368
-0.09118940109804637,-0.09893262233241024
-0.09118460109804635,-0.09933008562974989
-0.09117980109804635,-0.09885312967294758
-0.09117500109804635,-0.1009994314785752
-0.09117020109804636,-0.1008404461596447
-0.09116540109804636,-0.1035431965815465
-0.09116060109804636,-0.09964805626762215
-0.09115580109804636,-0.09877363701347584
-0.09115100109804636,-0.09670682786731188
-0.09114620109804636,-0.09781972509986171
-0.09114140109804636,-0.09734276914305465
-0.09113660109804636,-0.09686581318624757
-0.09113180109804636,-0.09615037925103698
-0.09112700109804636,-0.1009199388191077
-0.09112220109804636,-0.09416306276434085
-0.09111740109804636,-0.09495798935901931
-0.09111260109804636,-0.09575291595369631
-0.09110780109804636,-0.09559393063476235
-0.09110300109804637,-0.09583240861316517
-0.09109820109804637,-0.09328864351019918
-0.09109340109804635,-0.09297067287232115
-0.09108860109804635,-0.09185777563977784
-0.09108380109804635,-0.09432204808327307
-0.09107900109804636,-0.09241422425604827
-0.09107420109804636,-0.09368610680753378
-0.09106940109804636,-0.09599139393210128
-0.09106460109804636,-0.09694530584571542
-0.09105980109804636,-0.09615037925103698
-0.09105500109804636,-0.09877363701347584
-0.09105020109804636,-0.09702479850518327
-0.09104540109804636,-0.09805820307826524
-0.09104060109804636,-0.09758124712145817
-0.09103580109804636,-0.09519646733742283
-0.09103100109804636,-0.09471951138061577
-0.09102620109804636,-0.09376559946700162
-0.09102140109804636,-0.09201676095871222
-0.09101660109804637,-0.09233473159657984
-0.09101180109804637,-0.09018842979095251
-0.09100700109804635,-0.08963198117467558
-0.09100220109804635,-0.0906653857477567
-0.09099740109804635,-0.09122183436402742
-0.09099260109804636,-0.08947299585573802
-0.09098780109804636,-0.08796263532584897
-0.09098300109804636,-0.09026792245041647
-0.09097820109804636,-0.08875756192052742
-0.09097340109804636,-0.09018842979094861
-0.09096860109804636,-0.08971147383414155
-0.09096380109804636,-0.09058589308828784
-0.09095900109804636,-0.08931401053680232
-0.09095420109804636,-0.09130132702349844
-0.09094940109804636,-0.09042690776935215
-0.09094460109804636,-0.09146031234243414
-0.09093980109804636,-0.08963198117467371
-0.09093500109804636,-0.0901089371314799
-0.09093020109804636,-0.08979096649360997
-0.09092540109804637,-0.09058589308828639
-0.09092060109804637,-0.09002944447201394
-0.09091580109804635,-0.09225523893710738
-0.09091100109804635,-0.08939350319626554
-0.09090620109804635,-0.08684973809330189
-0.09090140109804636,-0.08836009862318819
-0.09089660109804636,-0.08828060596372034
-0.09089180109804636,-0.0890755325583988
-0.09088700109804636,-0.08804212798531681
-0.09088220109804636,-0.09114234170456276
-0.09087740109804636,-0.08915502521786664
-0.09087260109804636,-0.09010893713148077
-0.09086780109804636,-0.08947299585573802
-0.09086300109804636,-0.09018842979094861
-0.09085820109804636,-0.08939350319627017
-0.09085340109804636,-0.08836009862318819
-0.09084860109804636,-0.08700872341223483
-0.09084380109804636,-0.08788314266637952
-0.09083900109804637,-0.08907553255839663
-0.09083420109804637,-0.0851803922444815
-0.09082940109804635,-0.08494191426607578
-0.09082460109804635,-0.08764466468797615
-0.09081980109804635,-0.08684973809330029
-0.09081500109804636,-0.08748567936904189
-0.09081020109804636,-0.08772415734744543
-0.09080540109804636,-0.08788314266638111
-0.09080060109804636,-0.08692923075276698
-0.09079580109804636,-0.08843959128265604
-0.09079100109804636,-0.08883705457999526
-0.09078620109804636,-0.08796263532584897
-0.09078140109804636,-0.08541887022287793
-0.09077660109804636,-0.08486242160660303
-0.09077180109804636,-0.08541887022287793
-0.09076700109804636,-0.08470343628766733
-0.09076220109804636,-0.08382901703352104
-0.09075740109804636,-0.08367003171458565
-0.09075260109804636,-0.08208017852523135
-0.09074780109804637,-0.08080829597374525
-0.09074300109804637,-0.08215967118469385
-0.09073820109804635,-0.08200068586576205
-0.09073340109804635,-0.08279561246043673
-0.09072860109804635,-0.08152372990895773
-0.09072380109804636,-0.08382901703352104
-0.09071900109804636,-0.0814442372494857
-0.09071420109804636,-0.08351104639564966
-0.09070940109804636,-0.08406749501192458
-0.09070460109804636,-0.08510089958500655
-0.09069980109804636,-0.08454445096873164
-0.09069500109804636,-0.085895826179685
-0.09069020109804636,-0.08192119320629276
-0.09068540109804636,-0.08263662714150337
-0.09068060109804636,-0.08287510511990691
-0.09067580109804636,-0.08613430415808854
-0.09067100109804636,-0.08510089958500655
-0.09066620109804636,-0.08891654723945616
-0.09066140109804637,-0.0860548114986259
-0.09065660109804637,-0.08597531883915299
-0.09065180109804635,-0.08724720139063316
-0.09064700109804635,-0.08438546564979812
-0.09064220109804635,-0.08557785554180856
-0.09063740109804636,-0.08279561246043905
-0.09063260109804636,-0.08271611980097121
-0.09062780109804636,-0.08192119320629276
-0.09062300109804636,-0.08120575927108216
-0.09061820109804636,-0.0791389501249182
-0.09061340109804636,-0.07993387671959665
-0.09060860109804636,-0.07993387671959665
-0.09060380109804636,-0.08049032533587157
-0.09059900109804636,-0.0791389501249182
-0.09059420109804636,-0.0821596711846963
-0.09058940109804636,-0.08112626661161432
-0.09058460109804636,-0.08303409043884259
-0.09057980109804636,-0.08223916384416559
-0.09057500109804636,-0.08279561246043804
-0.09057020109804637,-0.08215967118469746
-0.09056540109804637,-0.07921844278439139
-0.09056060109804635,-0.07643619970301783
-0.09055580109804635,-0.07993387671960142
-0.09055100109804635,-0.08255713448204088
-0.09054620109804636,-0.08549836288234577
-0.09054140109804636,-0.08812162064478465
-0.09053660109804636,-0.0912218343640306
-0.09053180109804636,-0.09058589308828784
-0.09052700109804636,-0.09082437106669138
-0.09052220109804636,-0.0882011133042525
-0.09051740109804636,-0.08533937756341009
-0.09051260109804636,-0.08533937756341009
-0.09050780109804636,-0.08438546564979596
-0.09050300109804636,-0.08486242160660303
-0.09049820109804636,-0.08295459777937475
-0.09049340109804636,-0.08184170054682492
-0.09048860109804636,-0.08049032533587402
-0.09048380109804637,-0.08208017852522558
-0.09047900109804637,-0.08327256841724397
-0.09047420109804635,-0.0796953987411937
-0.09046940109804635,-0.08001336937906854
-0.09046460109804635,-0.08223916384416009
-0.09045980109804636,-0.08001336937906449
-0.09045500109804636,-0.08120575927108216
-0.09045020109804636,-0.08120575927108216
-0.09044540109804636,-0.0821596711846963
-0.09044060109804636,-0.08136474459001786
-0.09043580109804636,-0.08136474459001786
-0.09043100109804636,-0.08208017852522846
-0.09042620109804636,-0.08041083267640371
-0.09042140109804636,-0.08263662714150337
-0.09041660109804636,-0.08319307575777828
-0.09041180109804636,-0.08422648033086026
-0.09040700109804636,-0.08017235469800019
-0.09040220109804636,-0.08080829597374178
-0.09039740109804636,-0.08072880331427523
-0.09039260109804637,-0.07802605289237328
-0.09038780109804637,-0.07770808225449757
-0.09038300109804635,-0.0764361997030067
-0.09037820109804635,-0.07381294194056855
-0.09037340109804635,-0.0715871474754744
-0.09036860109804636,-0.0723820740701514
-0.09036380109804636,-0.06920236769143762
-0.09035900109804636,-0.07126917683760157
-0.09035420109804636,-0.07071272822132667
-0.09034940109804636,-0.07357446396216907
-0.09034460109804636,-0.07174613279440864
-0.09033980109804636,-0.07333598598376553
-0.09033500109804636,-0.06991780162664822
-0.09033020109804636,-0.07031526492398744
-0.09032540109804636,-0.06967932364824468
-0.09032060109804636,-0.07150765481600511
-0.09031580109804636,-0.07063323556185881
-0.09031100109804636,-0.07174613279440661
-0.09030620109804637,-0.06761251450208824
-0.09030140109804637,-0.06618164663166212
-0.09029660109804635,-0.06769200716155406
-0.09029180109804635,-0.07071272822132595
-0.09028700109804635,-0.07031526492398325
-0.09028220109804636,-0.06800997779941995
-0.09027740109804636,-0.07071272822132667
-0.09027260109804636,-0.06904338237250192
-0.09026780109804636,-0.07118968417813373
-0.09026300109804636,-0.0700767869455839
-0.09025820109804636,-0.07095120619973019
-0.09025340109804636,-0.07015627960505175
-0.09024860109804636,-0.07118968417813373
-0.09024380109804636,-0.06928186035090546
-0.09023900109804636,-0.07134866949706942
-0.09023420109804636,-0.07079222088079451
-0.09022940109804636,-0.07095120619973019
-0.09022460109804636,-0.06944084566984389
-0.09021980109804636,-0.06737403652368094
-0.09021500109804637,-0.06753302184261258
-0.09021020109804635,-0.06538672003697557
-0.09020540109804635,-0.06236599897720022
-0.09020060109804635,-0.06085563844731608
-0.09019580109804635,-0.06204802833932016
-0.09019100109804636,-0.05576810824137185
-0.09018620109804636,-0.05648354217658245
-0.09018140109804636,-0.05560912292243617
-0.09017660109804636,-0.0549731816466934
-0.09017180109804636,-0.05409876239254711
-0.09016700109804636,-0.05831187334434289
-0.09016220109804636,-0.05036260739755841
-0.09015740109804636,-0.04845478357033013
-0.09015260109804636,-0.04893173952713721
-0.09014780109804636,-0.04686493038097324
-0.09014300109804636,-0.04765985697565168
-0.09013820109804636,-0.04591101846735911
-0.09013340109804636,-0.04217486347237719
-0.09012860109804637,-0.0413799368776934
-0.09012380109804637,-0.04304928272651366
-0.09011900109804635,-0.03875667911525482
-0.09011420109804635,-0.03971059102886346
-0.09010940109804635,-0.03764378188269776
-0.09010460109804636,-0.03462306082292516
-0.09009980109804636,-0.03494103146079654
-0.09009500109804636,-0.03637189933121775
-0.09009020109804636,-0.02810466274656189
-0.09008540109804636,-0.02913806731964387
-0.09008060109804636,-0.0272302434924156
-0.09007580109804636,-0.02238119126487707
-0.09007100109804636,-0.02222220594594138
-0.09006620109804636,-0.02254017658381276
-0.09006140109804636,-0.01904249956722759
-0.09005660109804636,-0.02071184541605233
-0.09005180109804636,-0.02246068392434492
-0.09004700109804636,-0.0145114179775749
-0.09004220109804636,-0.01633974914531755
-0.09003740109804637,-0.01387547670182217
-0.09003260109804635,-0.008310990539070437
-0.09002780109804635,-0.009344395112151405
-0.09002300109804635,-0.0098213510689417
-0.09001820109804635,-0.001077158527497145
-0.09001340109804636,-0.002428533738448047
-0.09000860109804636,-0.0016336071437696
-0.09000380109804636,-0.0003617245922840845
-0.08999900109804636,-0.001395129165366066
-0.08999420109804636,-0.002428533738448047
-0.08998940109804636,0.004248849656850909
-0.08998460109804636,0.001387113916008499
-0.08997980109804636,0.00122812859707281
-0.08997500109804636,0.00981333581960004
-0.08997020109804636,0.00949536518172866
-0.08996540109804636,0.0104492770953428
-0.08996060109804636,0.01680868985277037
-0.08995580109804636,0.01513934400394867
-0.08995100109804637,0.01585477793915493
-0.08994620109804637,0.02285013197231385
-0.08994140109804635,0.02038585952882411
-0.08993660109804635,0.02078332282617056
-0.08993180109804635,0.02515541909689017
-0.08992700109804636,0.02300911729126226
-0.08992220109804636,0.02253216133445519
-0.08991740109804636,0.02873258877294708
-0.08991260109804636,0.02801715483773648
-0.08990780109804636,0.03095838323804673
-0.08990300109804636,0.03525098684931034
-0.08989820109804636,0.03477403089250328
-0.08989340109804636,0.03509200153037466
-0.08988860109804636,0.0449490913043874
-0.08988380109804636,0.04057699503365594
-0.08987900109804636,0.04335923811503051
-0.08987420109804636,0.04749285640735844
-0.08986940109804636,0.04590300321800444
-0.08986460109804636,0.04550553992066304
-0.08985980109804637,0.05258038661328763
-0.08985500109804635,0.0492416949156555
-0.08985020109804635,0.05170596735916172
-0.08984540109804635,0.05583958565147837
-0.08984060109804635,0.05377277650532135
-0.08983580109804636,0.05552161501361075
-0.08983100109804636,0.06283493968465247
-0.08982620109804636,0.05901929203019592
-0.08982140109804636,0.06076813053848851
-0.08981660109804636,0.06545819744709133
-0.08981180109804636,0.06275544702518461
-0.08980700109804636,0.06076813053848851
-0.08980220109804636,0.07285101477760089
-0.08979740109804636,0.07165862488558322
-0.08979260109804636,0.06935333776101572
-0.08978780109804636,0.07944890551343201
-0.08978300109804636,0.07793854498354295
-0.08977820109804636,0.07531528722110886
-0.08977340109804637,0.08660324486551749
-0.08976860109804637,0.08509288433565174
-0.08976380109804635,0.08652375220609172
-0.08975900109804635,0.09836815846677167
-0.08975420109804635,0.09431403283391911
-0.08974940109804636,0.09439352549338681
-0.08974460109804636,0.1036941666511246
-0.08973980109804636,0.1019453281428321
-0.08973500109804636,0.09860663644518258
-0.08973020109804636,0.1087022041975989
-0.08972540109804636,0.1049660492026102
-0.08972060109804636,0.1052045271810137
-0.08971580109804636,0.1149026316360908
-0.08971100109804636,0.1119614032357805
-0.08970620109804636,0.111166476641102
-0.08970140109804636,0.1180823380148045
-0.08969660109804636,0.1147436463171551
-0.08969180109804636,0.1132332857872688
-0.08968700109804636,0.124362258112744
-0.08968220109804637,0.1206261031177824
-0.08967740109804635,0.1211030590745991
-0.08967260109804635,0.1301652222539107
-0.08966780109804635,0.1267470378967989
-0.08966300109804635,0.1263495745994763
-0.08965820109804636,0.1350937671409233
-0.08965340109804636,0.1292113103403028
-0.08964860109804636,0.1280189204482851
-0.08964380109804636,0.137319561606023
-0.08963900109804636,0.135252752459859
-0.08963420109804636,0.1345373185246484
-0.08962940109804636,0.1413736872388831
-0.08962460109804636,0.1369220983086837
-0.08961980109804636,0.1366041276708124
-0.08961500109804636,0.1484485339315212
-0.08961020109804636,0.1454278128717431
-0.08960540109804636,0.1476536073368428
-0.08960060109804636,0.1547284540294681
-0.08959580109804637,0.1501178797803543
-0.08959100109804637,0.1517077329697
-0.08958620109804635,0.1606109108300954
-0.08958140109804635,0.1572722191324521
-0.08957660109804635,0.1573517117919359
-0.08957180109804636,0.1661753969928506
-0.08956700109804636,0.1616443154031835
-0.08956220109804636,0.161882793381587
-0.08955740109804636,0.1703090152851785
-0.08955260109804636,0.1659369190144471
-0.08954780109804636,0.1677652501822075
-0.08954300109804636,0.1713424198582605
-0.08953820109804636,0.1669703235875291
-0.08953340109804636,0.168003728160611
-0.08952860109804636,0.1754760381505884
-0.08952380109804636,0.1709449565609213
-0.08951900109804636,0.1733297363449566
-0.08951420109804636,0.1771453839994062
-0.08950940109804637,0.1738861849612375
-0.08950460109804637,0.1745221262369731
-0.08949980109804635,0.1852536352651245
-0.08949500109804635,0.1804045830376067
-0.08949020109804635,0.1869229811139672
-0.08948540109804635,0.1919310186604248
-0.08948060109804636,0.1877974003681044
-0.08947580109804636,0.1877974003681044
-0.08947100109804636,0.1959056516338245
-0.08946620109804636,0.1908181214278825
-0.08946140109804636,0.1928849305740464
-0.08945660109804636,0.2024240497101878
-0.08945180109804636,0.1989263726936026
-0.08944700109804636,0.2014701377965737
-0.08944220109804636,0.2075115799161299
-0.08943740109804636,0.20234455705072
-0.08943260109804636,0.2066371606619836
-0.08942780109804636,0.2077500578945334
-0.08942300109804636,0.2040139028995515
-0.08941820109804637,0.2009136891803044
-0.08941340109804637,0.2075115799161179
-0.08940860109804635,0.205603756088912
-0.08940380109804635,0.2113272275705947
-0.08939900109804635,0.2158583091602466
-0.08939420109804636,0.212042661505797
-0.08938940109804636,0.2144274412898323
-0.08938460109804636,0.2231716338312953
-0.08937980109804636,0.2190380155389673
-0.08937500109804636,0.2229331558528917
-0.08937020109804636,0.2246819943611843
-0.08936540109804636,0.2195149714957744
-0.08936060109804636,0.2203893907499207
-0.08935580109804636,0.223807575107038
-0.08935100109804636,0.2209458393661956
-0.08934620109804636,0.2214227953230027
-0.08934140109804636,0.221263810004067
-0.08933660109804636,0.2160967871386665
-0.08933180109804637,0.2142684559709
-0.08932700109804637,0.2169712063927985
-0.08932220109804635,0.2139504853330205
-0.08931740109804635,0.2113272275705882
-0.08931260109804635,0.2122811394841929
-0.08930780109804635,0.2080680285324056
-0.08930300109804636,0.2085449844892118
-0.08929820109804636,0.2062396973646443
-0.08929340109804636,0.20234455705072
-0.08928860109804636,0.2000392699261525
-0.08928380109804636,0.2029804983264627
-0.08927900109804636,0.1998802846072168
-0.08927420109804636,0.198210938758392
-0.08926940109804636,0.1970185488663743
-0.08926460109804636,0.1933618865308535
-0.08925980109804636,0.19312340855245
-0.08925500109804636,0.191056599406286
-0.08925020109804636,0.1896257315358674
-0.08924540109804636,0.1878768930275754
-0.08924060109804637,0.1870024737734275
-0.08923580109804637,0.1833458114379117
-0.08923100109804635,0.1819944362269471
