synth-diodes-out/-bkp-20250403/100Hz5V/scope.csv

#Digilent WaveForms Oscilloscope Acquisition
#Device Name: Discovery3
#Serial Number: SN:210415BD5874
#Date Time: 2025-04-02 18:38:47.006.856.390
#Sample rate: 294985Hz
#Samples: 32768
#Trigger: Source: Channel 1 Type: Edge Condition: Rising Level: 0 V Hyst.: Auto HoldOff: 0 s
#Channel 1: Range: 200 mV/div Offset: 0 V Sample Mode: Average
#Wavegen Channel 1: Running
#Mode: Simple
#Type: Sine
#Frequency: 100 Hz
#Period: 10 ms
#Amplitude: 5 V
#Offset: 0 V
#Symmetry: 50 %
#Phase: 0 °

Time (s),Channel 1 (V)
-0.0499010559772922,0.1211825517340505
-0.0498976659772922,0.13374239192997
-0.04989427597729219,0.1423275991524972
-0.04989088597729219,0.1450303495744039
-0.0498874959772922,0.1423275991524972
-0.0498841059772922,0.1520257036075743
-0.0498807159772922,0.1641880805061545
-0.0498773259772922,0.162916197954669
-0.0498739359772922,0.1660164116739093
-0.04987054597729219,0.1699115519878393
-0.04986715597729219,0.1777018326156881
-0.0498637659772922,0.1833458114379051
-0.0498603759772922,0.1836637820757764
-0.0498569859772922,0.1835842894163086
-0.0498535959772922,0.2072731019377263
-0.04985020597729219,0.2075115799161299
-0.04984681597729219,0.2109297642732472
-0.0498434259772922,0.2083859991702761
-0.0498400359772922,0.2331082162647758
-0.0498366459772922,0.2354929960488112
-0.0498332559772922,0.2327107529674366
-0.0498298659772922,0.2358109666866769
-0.04982647597729219,0.244316681249742
-0.04982308597729219,0.2534583370885441
-0.0498196959772922,0.2590228232512932
-0.0498163059772922,0.2568765214456614
-0.0498129159772922,0.264269338776171
-0.0498095259772922,0.2777035982262367
-0.04980613597729219,0.2767496863126266
-0.04980274597729219,0.2789754807777223
-0.0497993559772922,0.2777035982262367
-0.0497959659772922,0.2953509686280983
-0.0497925759772922,0.3000410355367011
-0.0497891859772922,0.2990076309636192
-0.0497857959772922,0.2976562557526657
-0.04978240597729219,0.323650355398651
-0.04977901597729219,0.3212655756146157
-0.0497756259772922,0.3224579655066333
-0.0497722359772922,0.3184038398737732
-0.0497688459772922,0.328737885604593
-0.0497654559772922,0.3421721450546588
-0.0497620659772922,0.3425696083519973
-0.04975867597729219,0.3414567111194482
-0.04975528597729219,0.3525856834449465
-0.0497518959772922,0.3608529200296023
-0.0497485059772922,0.3639531337488482
-0.0497451159772922,0.3609324126890702
-0.0497417259772922,0.3536985806774963
-0.04973833597729219,0.3804081142586921
-0.04973494597729219,0.3862905710593126
-0.0497315559772922,0.3829518793616631
-0.0497281659772922,0.3858931077619734
-0.0497247759772922,0.3985324406173607
-0.0497213859772922,0.4084690230508413
-0.0497179959772922,0.4107743101754046
-0.04971460597729219,0.4075151111372272
-0.04971121597729219,0.4219032825009071
-0.0497078259772922,0.4286601585556739
-0.0497044359772922,0.4273087833447205
-0.0497010459772922,0.4318398649343876
-0.0496976559772922,0.4327142841885339
-0.04969426597729219,0.4494077426767871
-0.04969087597729219,0.4525874490554951
-0.0496874859772922,0.4500436839525241
-0.0496840959772922,0.4553696921368697
-0.0496807059772922,0.4773096661499948
-0.0496773159772922,0.4743684377496846
-0.0496739259772922,0.4785815487014803
-0.04967053597729219,0.4760377835985093
-0.04966714597729219,0.4916978375136747
-0.0496637559772922,0.4969443530385524
-0.0496603659772922,0.4948775438923885
-0.0496569759772922,0.4972623236764239
-0.0496535859772922,0.5096631785534076
-0.0496501959772922,0.5182483857759193
-0.04964680597729219,0.5216665701330522
-0.04964341597729219,0.5193612830084847
-0.0496400259772922,0.519679253646356
-0.0496366359772922,0.5362137268156678
-0.0496332459772922,0.5361342341561999
-0.0496298559772922,0.5383600286212996
-0.04962646597729219,0.5362932194751661
-0.04962307597729219,0.552986677963383
-0.0496196859772922,0.5483761037142481
-0.0496162959772922,0.5455938606328734
-0.0496129059772922,0.5556099357258218
-0.0496095159772922,0.5630027530563314
-0.0496061259772922,0.5638771723104762
-0.04960273597729219,0.5638771723104777
-0.04959934597729219,0.561174421888571
-0.0495959559772922,0.5687262245380162
-0.0495925659772922,0.5670568786891915
-0.0495891759772922,0.5670568786891915
-0.0495857859772922,0.5713494823004551
-0.04958239597729219,0.5693621658137636
-0.04957900597729219,0.57190593091673
-0.0495756159772922,0.5733367987871513
-0.0495722259772922,0.571428974959923
-0.0495688359772922,0.5752446226143795
-0.0495654459772922,0.5668978933702559
-0.0495620559772922,0.5700775997489697
-0.04955866597729219,0.5732573061276834
-0.04955527597729219,0.5707930336841802
-0.0495518859772922,0.568328761240677
-0.0495484959772922,0.569362165813759
-0.0495451059772922,0.5668978933702559
-0.0495417159772922,0.5692826731542912
-0.0495383259772922,0.5674543419865341
-0.04953493597729219,0.5656260108187703
-0.04953154597729219,0.5688852098569519
-0.0495281559772922,0.5664209374134488
-0.0495247659772922,0.5657849961377059
-0.0495213759772922,0.5655465181593025
-0.0495179859772922,0.5637181869915421
-0.04951459597729219,0.5668978933702536
-0.04951120597729219,0.5657055034782381
-0.0495078159772922,0.5664209374134488
-0.0495044259772922,0.5688852098569519
-0.0495010359772922,0.5672158640081272
-0.0494976459772922,0.5705545557057767
-0.0494942559772922,0.5630027530563452
-0.04949086597729219,0.5619693484832494
-0.04948747597729219,0.5722239015546015
-0.0494840859772922,0.5691236878353555
-0.0494806959772922,0.5673748493270628
-0.0494773059772922,0.5655465181593025
-0.0494739159772922,0.5626052897589922
-0.04947052597729219,0.563877172310481
-0.04946713597729219,0.5656260108187703
-0.0494637459772922,0.5641156502888812
-0.0494603559772922,0.5690441951758877
-0.0494569659772922,0.5684877465596128
-0.0494535759772922,0.5677723126244021
-0.0494501859772922,0.5712699896409873
-0.04944679597729219,0.5695211511326947
-0.04944340597729219,0.5704750630463088
-0.0494400159772922,0.5733367987871513
-0.0494366259772922,0.5706340483652446
-0.0494332359772922,0.5732573061276834
-0.0494298459772922,0.5735752767655548
-0.0494264559772922,0.5713494823004591
-0.04942306597729219,0.5742112180412975
-0.04941967597729219,0.5721444088951336
-0.0494162859772922,0.5720649162356657
-0.0494128959772922,0.5720649162356657
-0.0494095059772922,0.5707930336841802
-0.0494061159772922,0.575006144635976
-0.04940272597729219,0.5735752767655561
-0.04939933597729219,0.5742907107007654
-0.0493959459772922,0.5761985345279936
-0.0493925559772922,0.5744496960197011
-0.0493891659772922,0.5779473730362862
-0.0493857759772922,0.5769934611226721
-0.0493823859772922,0.5757215785711889
-0.04937899597729219,0.5792987482472396
-0.04937560597729219,0.5773114317605434
-0.0493722159772922,0.5790602702688361
-0.0493688259772922,0.5730983208087477
-0.0493654359772922,0.5676133273054664
-0.0493620459772922,0.5767549831442685
-0.04935865597729219,0.5723828868735367
-0.04935526597729219,0.5721444088951336
-0.04935187597729219,0.5758805638901223
-0.0493484859772922,0.5733367987871513
-0.0493450959772922,0.5750856372954438
-0.0493417059772922,0.5773909244200113
-0.0493383159772922,0.5754036079333152
-0.04933492597729219,0.5732573061276834
-0.04933153597729219,0.5752446226143795
-0.0493281459772922,0.5736547694250226
-0.0493247559772922,0.57707295378214
-0.0493213659772922,0.5766754904848007
-0.0493179759772922,0.5757215785711866
-0.0493145859772922,0.5799346895229747
-0.04931119597729219,0.5779473730362862
-0.04930780597729219,0.5797757042040467
-0.0493044159772922,0.583670844517971
-0.0493010259772922,0.5815245427123392
-0.0492976359772922,0.5838298298369068
-0.0492942459772922,0.5820809913286141
-0.04929085597729219,0.5809680940960721
-0.04928746597729219,0.5852606977073279
-0.0492840759772922,0.5828759179232926
-0.0492806859772922,0.5848632344099888
-0.0492772959772922,0.5805706307987251
-0.0492739059772922,0.5784243289930933
-0.0492705159772922,0.5820014986691397
-0.04926712597729219,0.5802526601608538
-0.04926373597729219,0.5765959978253329
-0.0492603459772922,0.5800936748419181
-0.0492569559772922,0.5779473730362862
-0.0492535659772922,0.5798551968635145
-0.0492501759772922,0.5831938885611639
-0.04924678597729219,0.5815245427123336
-0.04924339597729219,0.5784243289930933
-0.04924000597729219,0.5773114317605434
-0.0492366159772922,0.582637439944889
-0.0492332259772922,0.5835118591990354
-0.0492298359772922,0.5817630206907428
-0.0492264459772922,0.5839888151558424
-0.04922305597729219,0.5848632344099888
-0.04921966597729219,0.5782653436741576
-0.0492162759772922,0.5840683078153103
-0.0492128859772922,0.582716932604357
-0.0492094959772922,0.5822399766475499
-0.0492061059772922,0.5858966389830708
-0.0492027159772922,0.5843067857937168
-0.04919932597729219,0.5858171463236028
-0.04919593597729219,0.5871685215345562
-0.0491925459772922,0.5952767728002764
-0.0491891559772922,0.5832733812206319
-0.0491857659772922,0.5822399766475499
-0.0491823759772922,0.5812065720744679
-0.04917898597729219,0.5823194693070126
-0.04917559597729219,0.5795372262256431
-0.0491722059772922,0.5835118591990354
-0.0491688159772922,0.5830349032422283
-0.0491654259772922,0.5815245427123392
-0.0491620359772922,0.5842272931342459
-0.0491586459772922,0.5824784546259566
-0.04915525597729219,0.5858966389830708
-0.04915186597729219,0.5854196830262637
-0.0491484759772922,0.5848632344099888
-0.0491450859772922,0.5881224334481704
-0.0491416959772922,0.5859761316425386
-0.0491383059772922,0.5883609114265739
-0.04913491597729219,0.5765165051658927
-0.04913152597729219,0.5916996031242234
-0.04912813597729219,0.5941638755677265
-0.0491247459772922,0.5913021398268842
-0.0491213559772922,0.5894738086591237
-0.0491179659772922,0.5920175737620947
-0.0491145759772922,0.5808886014365965
-0.04911118597729219,0.5880429407887026
-0.04910779597729219,0.5883609114265739
-0.0491044059772922,0.5800141821824502
-0.0491010159772922,0.5834323665395675
-0.0490976259772922,0.5843067857937139
-0.0490942359772922,0.5835913518585032
-0.0490908459772922,0.5862146096209373
-0.04908745597729219,0.5847837417505208
-0.04908406597729219,0.5876454774913633
-0.0490806759772922,0.5875659848318955
-0.0490772859772922,0.5865325802588135
-0.0490738959772922,0.5902687352538022
-0.0490705059772922,0.5885993894049775
-0.04906711597729219,0.5886788820644476
-0.04906372597729219,0.5899507646159308
-0.0490603359772922,0.5812860647339357
-0.0490569459772922,0.5850222197289244
-0.0490535559772922,0.5839093224963746
-0.0490501659772922,0.5838298298369068
-0.0490467759772922,0.586771058237217
-0.04904338597729219,0.5841478004747781
-0.04903999597729219,0.5874069995129597
-0.0490366059772922,0.5865325802588135
-0.0490332159772922,0.5854991756857315
-0.0490298259772922,0.5899507646159308
-0.0490264359772922,0.5880429407887026
-0.04902304597729219,0.5878044628103044
-0.04901965597729219,0.5908251838700771
-0.04901626597729219,0.5878839554697668
-0.0490128759772922,0.5904277205727378
-0.0490094859772922,0.5897917792969951
-0.0490060959772922,0.5876454774913633
-0.0490027059772922,0.5955152507786799
-0.04899931597729219,0.592415037059434
-0.04899592597729219,0.5928919930162411
-0.0489925359772922,0.5896327939780595
-0.0489891459772922,0.5866120729182813
-0.0489857559772922,0.5931304709946446
-0.0489823659772922,0.5901892425943344
-0.0489789759772922,0.5895533013185926
-0.04897558597729219,0.5927330076973053
-0.04897219597729219,0.5905867058916735
-0.0489688059772922,0.5925740223783696
-0.0489654159772922,0.5938459049298552
-0.0489620259772922,0.5891558380212524
-0.0489586359772922,0.5919380811026269
-0.04895524597729219,0.5962306847139136
-0.04895185597729219,0.6089495102287457
-0.0489484659772922,0.6109368267154418
-0.0489450759772922,0.6029875607686573
-0.0489416859772922,0.5987744498168616
-0.0489382959772922,0.5923355443999662
-0.0489349059772922,0.5844657711126495
-0.04893151597729219,0.5928919930162411
-0.04892812597729219,0.5889968527023166
-0.0489247359772922,0.5884404040860417
-0.0489213459772922,0.5921765590810304
-0.0489179559772922,0.5891558380212524
-0.0489145659772922,0.5893943159996559
-0.04891117597729219,0.5936869196109176
-0.04890778597729219,0.5926535150378375
-0.04890439597729219,0.5969461186491011
-0.0489010059772922,0.5898712719564629
-0.0488976159772922,0.5909841691890128
-0.0488942259772922,0.5937664122703873
-0.0488908359772922,0.5909841691890128
-0.04888744597729219,0.5931304709946446
-0.04888405597729219,0.5969461186491011
-0.0488806659772922,0.594481846205598
-0.0488772759772922,0.598059015881651
-0.0488738859772922,0.6039414726822715
-0.0488704959772922,0.6026695901307859
-0.0488671059772922,0.6017156782171735
-0.04886371597729219,0.6024311121523824
-0.04886032597729219,0.6053723405526926
-0.0488569359772922,0.6023516194929146
-0.0488535459772922,0.6001258250278149
-0.0488501559772922,0.6033850240659966
-0.0488467659772922,0.6026695901307859
-0.04884337597729219,0.593289456313587
-0.04883998597729219,0.5969461186491011
-0.0488365959772922,0.5940843829082587
-0.0488332059772922,0.5954357581192121
-0.0488298159772922,0.5953562654597442
-0.0488264259772922,0.5937664122703873
-0.0488230359772922,0.5973435819464403
-0.04881964597729219,0.5955152507786799
-0.04881625597729219,0.5954357581192121
-0.0488128659772922,0.599012927795265
-0.0488094759772922,0.5967871333301654
-0.0488060859772922,0.5986154644979259
-0.0488026959772922,0.5993308984331365
-0.0487993059772922,0.5979795232221855
-0.04879591597729219,0.6016361855577039
-0.04879252597729219,0.5991719131142008
-0.0487891359772922,0.5991719131142008
-0.0487857459772922,0.6020336488550432
-0.0487823559772922,0.5991719131142008
-0.0487789659772922,0.6001258250278149
-0.04877557597729219,0.6013977075793004
-0.04877218597729219,0.5895533013185915
-0.0487687959772922,0.5978205379032474
-0.0487654059772922,0.5936074269514516
-0.0487620159772922,0.5940048902487909
-0.0487586259772922,0.6009207516224934
-0.0487552359772922,0.5982180012005915
-0.04875184597729219,0.6013977075793004
-0.04874845597729219,0.6020336488550432
-0.0487450659772922,0.5950382948218729
-0.0487416759772922,0.6018746635361075
-0.0487382859772922,0.6050543699148213
-0.0487348959772922,0.6068032084231139
-0.04873150597729219,0.6079955983151273
-0.04872811597729219,0.605690311190564
-0.0487247259772922,0.6084725542719386
-0.0487213359772922,0.6097444368234242
-0.0487179459772922,0.6069621937420495
-0.0487145559772922,0.6036235020444001
-0.0487111659772922,0.600046332368347
-0.04870777597729219,0.5990924204547329
-0.04870438597729219,0.6017156782171718
-0.0487009959772922,0.5967076406706976
-0.0486976059772922,0.597502567265376
-0.0486942159772922,0.5977410452437796
-0.0486908259772922,0.5960716993949549
-0.0486874359772922,0.6017951708766293
-0.04868404597729219,0.603146546087593
-0.04868065597729219,0.6040209653417393
-0.0486772659772922,0.6057698038500319
-0.0486738759772922,0.6037824873633357
-0.0486704859772922,0.6126856652237344
-0.0486670959772922,0.6099034221423598
-0.04866370597729219,0.6103008854397034
-0.04866031597729219,0.6126856652237344
-0.0486569259772922,0.6092674808666171
-0.0486535359772922,0.6106983487370382
-0.0486501459772922,0.6110958120343775
-0.0486467559772922,0.6075981350177924
-0.0486433659772922,0.6052133552337613
-0.04863997597729219,0.604179950660675
-0.04863658597729219,0.606246759806839
-0.0486331959772922,0.6079955983151315
-0.0486298059772922,0.600046332368347
-0.0486264159772922,0.5992514057736686
-0.0486230259772922,0.598059015881651
-0.04861963597729219,0.5923355443999698
-0.04861624597729219,0.5943228608866622
-0.0486128559772922,0.598059015881651
-0.0486094659772922,0.5998873470494114
-0.0486060759772922,0.6001258250278149
-0.0486026859772922,0.5969461186491011
-0.0485992959772922,0.609823929482892
-0.04859590597729219,0.6087110322503422
-0.04859251597729219,0.6069621937420495
-0.0485891259772922,0.6094264661855527
-0.0485857359772922,0.6068827010825817
-0.0485823459772922,0.6085520469314064
-0.0485789559772922,0.6106983487370382
-0.0485755659772922,0.6079161056556688
-0.04857217597729219,0.6122882019263951
-0.04856878597729219,0.5967076406706976
-0.0485653959772922,0.5977410452437796
-0.0485620059772922,0.5997283617304757
-0.0485586159772922,0.5974230746059082
-0.0485552259772922,0.5931304709946446
-0.04855183597729219,0.5960716993949504
-0.04854844597729219,0.5936074269514516
-0.0485450559772922,0.5966281480112298
-0.0485416659772922,0.6064852377852424
-0.0485382759772922,0.613401099158945
-0.0485348859772922,0.6148319670293662
-0.0485314959772922,0.6110958120343842
-0.04852810597729219,0.616978268834998
-0.04852471597729219,0.6161038495808517
-0.0485213259772922,0.614911459688834
-0.0485179359772922,0.6191245706406298
-0.0485145459772922,0.6118112459695881
-0.0485111559772922,0.6072801643799209
-0.04850776597729219,0.611413782672244
-0.04850437597729219,0.6087110322503422
-0.0485009859772922,0.6099829148018276
-0.0484975959772922,0.6068032084231139
-0.0484942059772922,0.5952767728002764
-0.0484908159772922,0.5977410452437796
-0.0484874259772922,0.6018746635361075
-0.04848403597729219,0.6032260387470608
-0.04848064597729219,0.6120497239479916
-0.0484772559772922,0.6086315395908743
-0.0484738659772922,0.609823929482892
-0.0484704759772922,0.6165013128781909
-0.0484670859772922,0.6165808055376588
-0.0484636959772922,0.621270872446253
-0.04846030597729219,0.6188066000027584
-0.04845691597729219,0.6154679083051089
-0.0484535259772922,0.6119702312885238
-0.0484501359772922,0.610857334055974
-0.0484467459772922,0.6141165330941556
-0.0484433559772922,0.6140370404346878
-0.04843996597729219,0.6066442231041881
-0.04843657597729219,0.6120497239479916
-0.0484331859772922,0.6092674808666171
-0.0484297959772922,0.6102213927802312
-0.0484264059772922,0.6113342900127811
-0.0484230159772922,0.6095059588450206
-0.0484196259772922,0.6110163193749069
-0.04841623597729219,0.611890738629056
-0.04841284597729219,0.6075981350177924
-0.0484094559772922,0.6095854515044884
-0.0484060659772922,0.6099829148018276
-0.0484026759772922,0.6079955983151315
-0.0483992859772922,0.6148319670293662
-0.04839589597729219,0.6141165330941598
-0.04839250597729219,0.616421820218723
-0.04838911597729219,0.6172167468134016
-0.0483857259772922,0.6145934890509627
-0.0483823359772922,0.6110163193749096
-0.0483789459772922,0.6121292166074594
-0.0483755559772922,0.6116522606506524
-0.04837216597729219,0.6153089229861732
-0.04836877597729219,0.6095854515044884
-0.0483653859772922,0.6022721268334468
-0.0483619959772922,0.6111753046938453
-0.0483586059772922,0.6060877744879033
-0.0483552159772922,0.6064852377852424
-0.0483518259772922,0.6157063862834957
-0.04834843597729219,0.6136395771373485
-0.04834504597729219,0.6177731954296765
-0.0483416559772922,0.6122087092669273
-0.0483382659772922,0.6120497239479916
-0.0483348759772922,0.6145934890509627
-0.0483314859772922,0.6129241432021379
-0.04832809597729219,0.6164218202187033
-0.04832470597729219,0.6055313258716284
-0.0483213159772922,0.6002053176872828
-0.0483179259772922,0.6040209653417393
-0.0483145359772922,0.6022721268334468
-0.0483111459772922,0.5957537287570834
-0.0483077559772922,0.6005232883251455
-0.04830436597729219,0.5971845966275047
-0.04830097597729219,0.5967076406706976
-0.0482975859772922,0.6034645167254644
-0.0482941959772922,0.613401099158945
-0.0482908059772922,0.6158653716024481
-0.0482874159772922,0.6148319670293662
-0.04828402597729219,0.6142755184131069
-0.04828063597729219,0.6228607256356185
-0.04827724597729219,0.619522033937969
-0.0482738559772922,0.6210323944678581
-0.0482704659772922,0.6223042770193435
-0.0482670759772922,0.6191245706406298
-0.0482636859772922,0.6229402182950864
-0.04826029597729219,0.6227017403166828
-0.04825690597729219,0.6199989898947761
-0.0482535159772922,0.6197605119163726
-0.0482501259772922,0.6192040633000977
-0.0482467359772922,0.6166602981971266
-0.0482433459772922,0.6132421138400093
-0.0482399559772922,0.6132421138400093
-0.04823656597729219,0.6064057451257746
-0.04823317597729219,0.6087110322503422
-0.0482297859772922,0.6050543699148213
-0.0482263959772922,0.6049748772553535
-0.0482230059772922,0.5953562654597442
