synth-diodes-out/-bkp-20250403/1kHz2V/scope.csv

#Digilent WaveForms Oscilloscope Acquisition
#Device Name: Discovery3
#Serial Number: SN:210415BD5874
#Date Time: 2025-04-02 18:49:13.949.054.700
#Sample rate: 1.88679e+06Hz
#Samples: 32768
#Trigger: Source: Channel 1 Type: Edge Condition: Rising Level: 0 V Hyst.: Auto HoldOff: 0 s
#Channel 1: Range: 200 mV/div Offset: 0 V Sample Mode: Average
#Wavegen Channel 1: Running
#Mode: Simple
#Type: Sine
#Frequency: 1 kHz
#Period: 1 ms
#Amplitude: 2 V
#Offset: 0 V
#Symmetry: 50 %
#Phase: 0 °

Time (s),Channel 1 (V)
-0.013972195841935,0.06410682223613798
-0.013971665841935,0.06506073414975211
-0.013971135841935,0.06673007999857584
-0.013970605841935,0.06617363138230252
-0.013970075841935,0.06649160202017274
-0.013969545841935,0.06529921212815565
-0.013969015841935,0.06561718276602703
-0.013968485841935,0.06553769010655919
-0.013967955841935,0.08127723668120748
-0.013967425841935,0.08954447326583324
-0.013966895841935,0.08803411273595924
-0.013966365841935,0.08700070816287725
-0.013965835841935,0.08803411273595924
-0.013965305841935,0.0855698402924588
-0.013964775841935,0.08708020082234236
-0.013964245841935,0.0873186788007482
-0.013963715841935,0.08747766411968433
-0.013963185841935,0.09018041454159105
-0.013962655841935,0.09097534113627195
-0.013962125841935,0.09232671634722069
-0.013961595841935,0.09113432645520735
-0.013961065841935,0.0915317897525444
-0.013960535841935,0.09248570166615853
-0.013960005841935,0.09002142922265535
-0.013959475841935,0.09097534113626835
-0.013958945841935,0.09033939986052789
-0.013958415841935,0.0877956347575557
-0.013957885841935,0.08930599528744475
-0.013957355841935,0.08747766411968433
-0.013956825841935,0.08787512741702094
-0.013956295841935,0.08644425954660495
-0.013955765841935,0.08358252380576514
-0.013955235841935,0.08278759721108149
-0.013954705841935,0.08000535412970693
-0.013954175841935,0.08246962657321011
-0.013953645841935,0.0970962759153307
-0.013953115841935,0.1175258893984925
-0.013952585841935,0.1077482922839847
-0.013952055841935,0.1093381454733416
-0.013951525841935,0.1082252482407918
-0.013950995841935,0.1085432188786614
-0.013950465841935,0.1075893069650508
-0.013949935841935,0.1090996674949381
-0.013949405841935,0.1101330720680201
-0.013948875841935,0.1119614032357805
-0.013948345841935,0.1133127784467331
-0.013947815841935,0.1129153151493984
-0.013947285841935,0.1149821242955548
-0.013946755841935,0.1133127784467339
-0.013946225841935,0.1137102417440731
-0.013945695841935,0.1136307490846052
-0.013945165841935,0.1133922711062042
-0.013944635841935,0.1147436463171526
-0.013944105841935,0.1150616169550264
-0.013943575841935,0.1159360362091727
-0.013943045841935,0.1172874114201261
-0.013942515841935,0.1147436463171572
-0.013941985841935,0.1159360362091706
-0.013941455841935,0.114266690360351
-0.013940925841935,0.1140282123819445
-0.013940395841935,0.113233285787266
-0.013939865841935,0.1107690133437628
-0.013939335841935,0.1147436463172083
-0.013938805841935,0.1439969450012687
-0.013938275841935,0.1346168111841163
-0.013937745841935,0.134219347886777
-0.013937215841935,0.1329474653352915
-0.013936685841935,0.1357297084166671
-0.013936155841935,0.13628615703294
-0.013935625841935,0.1366836203302802
-0.013935095841935,0.1386709368169763
-0.013934565841935,0.1380349955412336
-0.013934035841935,0.1394658634116523
-0.013933505841935,0.1381144882007024
-0.013932975841935,0.1386709368169753
-0.013932445841935,0.1384324588385728
-0.013931915841935,0.1365246350113445
-0.013931385841935,0.1365246350113445
-0.013930855841935,0.1359681863950673
-0.013930325841935,0.1346963038435864
-0.013929795841935,0.1354912304382626
-0.013929265841935,0.1348552891625198
-0.013928735841935,0.1348552891625198
-0.013928205841935,0.1359681863950689
-0.013927675841935,0.1355707230977311
-0.013927145841935,0.1365246350113428
-0.013926615841935,0.1376375322438944
-0.013926085841935,0.1378760102222979
-0.013925555841935,0.138829922135912
-0.013925025841935,0.1381144882006507
-0.013924495841935,0.1102125647275387
-0.013923965841935,0.1650624997603008
-0.013923435841935,0.1609288814679729
-0.013922905841935,0.1584646090244697
-0.013922375841935,0.1577491750892591
-0.013921845841935,0.1577491750892591
-0.013921315841935,0.1573517117919198
-0.013920785841935,0.158305623705534
-0.013920255841935,0.1567952631756449
-0.013919725841935,0.1580671457271293
-0.013919195841935,0.1574312044513887
-0.013918665841935,0.1579876530676616
-0.013918135841935,0.1594980135975516
-0.013917605841935,0.1582261310460661
-0.013917075841935,0.1603724328516979
-0.013916545841935,0.1606904034895686
-0.013916015841935,0.1602929401922308
-0.013915485841935,0.1602929401922301
-0.013914955841935,0.1579876530676626
-0.013914425841935,0.1586235943434054
-0.013913895841935,0.1575901897703211
-0.013913365841935,0.1563183072188402
-0.013912835841935,0.1556823659430963
-0.013912305841935,0.1549669320078845
-0.013911775841935,0.1548874393484166
-0.013911245841935,0.1548079466889488
-0.013910715841935,0.153695049456481
-0.013910185841935,0.198767387374585
-0.013909655841935,0.179291685805045
-0.013909125841935,0.1786557445293022
-0.013908595841935,0.181358494951209
-0.013908065841935,0.1805635683565331
-0.013907535841935,0.1819944362269491
-0.013907005841935,0.1807225536754662
-0.013906475841935,0.180325090378127
-0.013905945841935,0.1810405243133376
-0.013905415841935,0.1804045830375944
-0.013904885841935,0.1801661050591917
-0.013904355841935,0.1784967592103696
-0.013903825841935,0.1793711784645128
-0.013903295841935,0.1798481344213199
-0.013902765841935,0.1771453839994132
-0.013902235841935,0.1777018326156871
-0.013901705841935,0.1771453839994142
-0.013901175841935,0.1787352371887701
-0.013900645841935,0.1796096564429164
-0.013900115841935,0.1807225536754662
-0.013899585841935,0.1827893628216248
-0.013899055841935,0.1798481344213252
-0.013898525841935,0.1816764655890803
-0.013897995841935,0.1805635683565305
-0.013897465841935,0.1794506711239807
-0.013896935841935,0.1795301637834471
-0.013896405841935,0.1787352371887722
-0.013895875841935,0.1799276270807856
-0.013895345841935,0.196700578228503
-0.013894815841935,0.1963826075906316
-0.013894285841935,0.1960646369527602
-0.013893755841935,0.1955081883364866
-0.013893225841935,0.1962236222716946
-0.013892695841935,0.1964621002500994
-0.013892165841935,0.1981314460989242
-0.013891635841935,0.1999597772666846
-0.013891105841935,0.1998802846072197
-0.013890575841935,0.2014701377965708
-0.013890045841935,0.2008341965208321
-0.013889515841935,0.1994033286504097
-0.013888985841935,0.201788108434445
-0.013888455841935,0.198767387374667
-0.013887925841935,0.1985289093962612
-0.013887395841935,0.1973365195042479
-0.013886865841935,0.1963031149311638
-0.013886335841935,0.1969390562069065
-0.013885805841935,0.1958261589743567
-0.013885275841935,0.1951902176986146
-0.013884745841935,0.1955876809959524
-0.013884215841935,0.1954286956770175
-0.013883685841935,0.19717753418531
-0.013883155841935,0.1961441296122281
-0.013882625841935,0.1990853580125395
-0.013882095841935,0.1997212992882999
-0.013881565841935,0.2100553450190821
-0.013881035841935,0.2354135033893434
-0.013880505841935,0.2207073613877921
-0.013879975841935,0.2218997512798098
-0.013879445841935,0.2208663467067268
-0.013878915841935,0.2203098980904539
-0.013878385841935,0.2192764935173709
-0.013877855841935,0.2182430889442889
-0.013877325841935,0.2200714201120493
-0.013876795841935,0.2186405522416265
-0.013876265841935,0.2177661329874834
-0.013875735841935,0.2191970008579004
-0.013875205841935,0.2162557724575928
-0.013874675841935,0.2180841036253532
-0.013874145841935,0.2173686696901426
-0.013873615841935,0.2201509127715193
-0.013873085841935,0.2213433026635327
-0.013872555841935,0.2206278687283242
-0.013872025841935,0.2218997512798098
-0.013871495841935,0.220230405430985
-0.013870965841935,0.2200714201120538
-0.013870435841935,0.222535692555548
-0.013869905841935,0.2207073613877921
-0.013869375841935,0.2199124347931136
-0.013868845841935,0.2172096843712069
-0.013868315841935,0.2170506990522708
-0.013867785841935,0.2168122210738619
-0.013867255841935,0.2136325146951597
-0.013866725841935,0.2172891770306748
-0.013866195841935,0.240183062957414
-0.013865665841935,0.2373213272165716
-0.013865135841935,0.2389906730653941
-0.013864605841935,0.2377187905139131
-0.013864075841935,0.2413754528494317
-0.013863545841935,0.2405805262547533
-0.013863015841935,0.242249872103578
-0.013862485841935,0.2413754528494304
-0.013861955841935,0.2406600189142224
-0.013861425841935,0.240421540935818
-0.013860895841935,0.2390701657248642
-0.013860365841935,0.2389111804059285
-0.013859835841935,0.2381162538112501
-0.013859305841935,0.23660589328136
-0.013858775841935,0.2360494446650871
-0.013858245841935,0.2357314740272147
-0.013857715841935,0.2352545180704077
-0.013857185841935,0.2353340107298755
-0.013856655841935,0.2343006061567968
-0.013856125841935,0.2361289373245506
-0.013855595841935,0.2351750254109398
-0.013855065841935,0.2368443712597646
-0.013854535841935,0.2374008198760395
-0.013854005841935,0.2372418345571038
-0.013853475841935,0.2372418345571038
-0.013852945841935,0.2363674153029591
-0.013852415841935,0.2472579096500522
-0.013851885841935,0.250437616028766
-0.013851355841935,0.2484502995420699
-0.013850825841935,0.2482118215636645
-0.013850295841935,0.2471784169905863
-0.013849765841935,0.2470989243311165
-0.013849235841935,0.245827041779631
-0.013848705841935,0.2463039977364381
-0.013848175841935,0.2473374023095178
-0.013847645841935,0.2460655197580368
-0.013847115841935,0.2474168949689879
-0.013846585841935,0.2481323289041985
-0.013846055841935,0.248370806882602
-0.013845525841935,0.2499606600719566
-0.013844995841935,0.2486887775204717
-0.013844465841935,0.247734865606861
-0.013843935841935,0.2470989243311165
-0.013843405841935,0.246860446352713
-0.013842875841935,0.2472579096500522
-0.013842345841935,0.2444756665686781
-0.013841815841935,0.2447141445470807
-0.013841285841935,0.2439987106118706
-0.013840755841935,0.2442371885902741
-0.013840225841935,0.2431242913577243
-0.013839695841935,0.2421703794441135
-0.013839165841935,0.2439987106118673
-0.013838635841935,0.2436012473145321
-0.013838105841935,0.2473374023095201
-0.013837575841935,0.2657002066465922
-0.013837045841935,0.2644283240951067
-0.013836515841935,0.2663361479223321
-0.013835985841935,0.2647462947329809
-0.013835455841935,0.2645873094140423
-0.013834925841935,0.2649847727113816
-0.013834395841935,0.2638718754788318
-0.013833865841935,0.2635539048409575
-0.013833335841935,0.2619640516516064
-0.013832805841935,0.2617255736731999
-0.013832275841935,0.2618050663326678
-0.013831745841935,0.2594202865486325
-0.013831215841935,0.2607716617595802
-0.013830685841935,0.2576714480403377
-0.013830155841935,0.2564790581483244
-0.013829625841935,0.2563200728293865
-0.013829095841935,0.2557636242131116
-0.013828565841935,0.2567175361267258
-0.013828035841935,0.2564790581483229
-0.013827505841935,0.2568765214456607
-0.013826975841935,0.2578304333592756
-0.013826445841935,0.2563200728293865
-0.013825915841935,0.2563995654888543
-0.013825385841935,0.2555251462347088
-0.013824855841935,0.2559226095320466
-0.013824325841935,0.2567175361267243
-0.013823795841935,0.2717416487661484
-0.013823265841935,0.2846194595999392
-0.013822735841935,0.2773061349288975
-0.013822205841935,0.2774651202478339
-0.013821675841935,0.2778625835451717
-0.013821145841935,0.2757957743990085
-0.013820615841935,0.2774651202478332
-0.013820085841935,0.2776241055667689
-0.013819555841935,0.2767496863126259
-0.013819025841935,0.2785780174803797
-0.013818495841935,0.2783395395019795
-0.013817965841935,0.2791344660966579
-0.013817435841935,0.2788959881182544
-0.013816905841935,0.27794207620464
-0.013816375841935,0.2777830908857
-0.013815845841935,0.2752393257827382
-0.013815315841935,0.2738879505717802
-0.013814785841935,0.2743649065285872
-0.013814255841935,0.2726955606797625
-0.013813725841935,0.2737289652528422
-0.013813195841935,0.2724570827013613
-0.013812665841935,0.2723775900418912
-0.013812135841935,0.2707082441930664
-0.013811605841935,0.2704697662146629
-0.013811075841935,0.2725365753608277
-0.013810545841935,0.273013531317633
-0.013810015841935,0.2737289652528432
-0.013809485841935,0.2667336112196741
-0.013808955841935,0.2679260011116918
-0.013808425841935,0.2901839457626884
-0.013807895841935,0.2866862687461032
-0.013807365841935,0.2866862687461032
-0.013806835841935,0.2853348935351498
-0.013806305841935,0.2840630109836643
-0.013805775841935,0.2844604742810035
-0.013805245841935,0.2818372165185659
-0.013804715841935,0.2824731577943063
-0.013804185841935,0.2820756944969682
-0.013803655841935,0.2808833046049505
-0.013803125841935,0.2826321431132431
-0.013802595841935,0.2806448266265486
-0.013802065841935,0.2815192458806942
-0.013801535841935,0.2819962018374995
-0.013801005841935,0.2821551871564361
-0.013800475841935,0.2845399669404714
-0.013799945841935,0.2834270697079216
-0.013799415841935,0.2842219963025999
-0.013798885841935,0.2841425036431323
-0.013798355841935,0.2812012752428219
-0.013797825841935,0.2826321431132431
-0.013797295841935,0.2804063486481435
-0.013796765841935,0.2793729440750617
-0.013796235841935,0.2795319293939969
-0.013795705841935,0.276511208334219
-0.013795175841935,0.2769881642910261
-0.013794645841935,0.3038566831911577
-0.013794115841935,0.2830296064105906
-0.013793585841935,0.2875606880002489
-0.013793055841935,0.2872427173623787
-0.013792525841935,0.2885145999138636
-0.013791995841935,0.2874811953407816
-0.013791465841935,0.2891505411896064
-0.013790935841935,0.2885940925733293
-0.013790405841935,0.287401702681316
-0.013789875841935,0.2875606880002495
-0.013789345841935,0.2866067760866354
-0.013788815841935,0.286765761405571
-0.013788285841935,0.2862093127892926
-0.013787755841935,0.2843014889620714
-0.013787225841935,0.2848579375783418
-0.013786695841935,0.2832680843889859
-0.013786165841935,0.2820756944969682
-0.013785635841935,0.2842219963026
-0.013785105841935,0.2839835183241988
-0.013784575841935,0.2852554008756797
-0.013784045841935,0.2854143861946177
-0.013783515841935,0.2862888054487639
-0.013782985841935,0.2873222100218459
-0.013782455841935,0.2855733715135519
-0.013781925841935,0.2847784449188764
-0.013781395841935,0.2850169228972785
-0.013780865841935,0.2828706210916466
-0.013780335841935,0.2918532916115131
-0.013779805841935,0.2964638658606462
-0.013779275841935,0.2954304612875652
-0.013778745841935,0.2949535053307599
-0.013778215841935,0.29344314480087
-0.013777685841935,0.2947150273523555
-0.013777155841935,0.2928072035251272
-0.013776625841935,0.2941585787360815
-0.013776095841935,0.2946355346928868
-0.013775565841935,0.294476549373952
-0.013775035841935,0.2963048805417124
-0.013774505841935,0.2967023438390516
-0.013773975841935,0.2974177777742631
-0.013773445841935,0.2978947337310684
-0.013772915841935,0.2967818364985215
-0.013772385841935,0.2963843732011803
-0.013771855841935,0.2952714759686304
-0.013771325841935,0.2953509686280983
-0.013770795841935,0.2933636521414007
-0.013770265841935,0.2925687255467251
-0.013769735841935,0.2913763356547061
-0.013769205841935,0.2916943062925774
-0.013768675841935,0.2911378576763025
-0.013768145841935,0.2896274971464166
-0.013767615841935,0.2913763356547029
-0.013767085841935,0.2913763356547061
-0.013766555841935,0.2884351072543958
-0.013766025841935,0.2728545459986982
-0.013765495841935,0.2983716896878827
-0.013764965841935,0.3018693667044627
-0.013764435841935,0.3025053079802031
-0.013763905841935,0.3017898740449937
-0.013763375841935,0.3010744401097831
-0.013762845841935,0.3010744401097831
-0.013762315841935,0.3013924107476516
-0.013761785841935,0.2998025575583005
-0.013761255841935,0.2992461089420226
-0.013760725841935,0.2981332117094728
-0.013760195841935,0.2967023438390516
-0.013759665841935,0.2973382851147945
-0.013759135841935,0.2974177777742621
-0.013758605841935,0.2960664025633113
-0.013758075841935,0.2962253878822446
-0.013757545841935,0.2947945200118234
-0.013757015841935,0.2957484319254375
-0.013756485841935,0.2975767630931985
-0.013755955841935,0.2978947337310687
-0.013755425841935,0.299087123623087
-0.013754895841935,0.2979742263905372
-0.013754365841935,0.2985306750068121
-0.013753835841935,0.2979742263905331
-0.013753305841935,0.2957484319254415
-0.013752775841935,0.2971792997958587
-0.013752245841935,0.2933636521414021
-0.013751715841935,0.3039361758506255
-0.013751185841935,0.3034592198938043
-0.013750655841935,0.2956689392659711
-0.013750125841935,0.2964638658606467
-0.013749595841935,0.2956689392659697
-0.013749065841935,0.2955099539470339
-0.013748535841935,0.2941585787360806
-0.013748005841935,0.2951919833091653
-0.013747475841935,0.2967023438390489
-0.013746945841935,0.2959074172443732
-0.013746415841935,0.2983716896878764
-0.013745885841935,0.2981332117094728
-0.013745355841935,0.2977357484121353
-0.013744825841935,0.298689660325746
-0.013744295841935,0.2963843732011803
-0.013743765841935,0.2963843732011803
-0.013743235841935,0.2947150273523555
-0.013742705841935,0.2941585787360806
-0.013742175841935,0.2941585787360764
-0.013741645841935,0.2918532916115173
-0.013741115841935,0.2914558283141739
-0.013740585841935,0.2901839457626884
-0.013740055841935,0.2893095265085421
-0.013739525841935,0.2901839457626853
-0.013738995841935,0.2885145999138667
-0.013738465841935,0.2896274971464134
-0.013737935841935,0.2887530778922672
-0.013737405841935,0.2939995934171449
-0.013736875841935,0.3183243472142694
-0.013736345841935,0.2985306750068481
-0.013735815841935,0.3005179914935046
-0.013735285841935,0.2998025575582976
-0.013734755841935,0.2979742263905372
-0.013734225841935,0.2982921970284085
-0.013733695841935,0.2967818364985202
-0.013733165841935,0.297179299795858
-0.013732635841935,0.2946355346928877
-0.013732105841935,0.2946355346928877
-0.013731575841935,0.2946355346928877
-0.013731045841935,0.2932046668224684
-0.013730515841935,0.2942380713955465
-0.013729985841935,0.2938406080982092
-0.013729455841935,0.2937611154387414
-0.013728925841935,0.2964638658606481
-0.013728395841935,0.2952714759686317
-0.013727865841935,0.2959869099038413
-0.013727335841935,0.2961458952227765
-0.013726805841935,0.2958279245849054
-0.013726275841935,0.2954304612875661
-0.013725745841935,0.293920100757677
-0.013725215841935,0.2946355346928841
-0.013724685841935,0.2926482182061951
-0.013724155841935,0.2915353209736417
-0.013723625841935,0.2907403943789633
-0.013723095841935,0.2896274971464134
-0.013722565841935,0.2913763356547013
-0.013722035841935,0.2887530778922719
-0.013721505841935,0.289865975124815
-0.013720975841935,0.2895480044869456
-0.013720445841935,0.2901839457626884
-0.013719915841935,0.2911378576763025
-0.013719385841935,0.2922507549088518
-0.013718855841935,0.2919327842709815
-0.013718325841935,0.2932841594819343
-0.013717795841935,0.2924892328872559
-0.013717265841935,0.2922507549088523
-0.013716735841935,0.2912968429952363
-0.013716205841935,0.2902634384221581
-0.013715675841935,0.2891505411896064
-0.013715145841935,0.2874811953407816
-0.013714615841935,0.2870042393839746
-0.013714085841935,0.2871632247029079
-0.013713555841935,0.2858913421514231
-0.013713025841935,0.2850169228972801
-0.013712495841935,0.2847784449188749
-0.013711965841935,0.2849374302378106
-0.013711435841935,0.2849374302378106
-0.013710905841935,0.2857323568324915
-0.013710375841935,0.28708373204344
-0.013709845841935,0.2875606880002495
-0.013709315841935,0.2885940925733315
-0.013708785841935,0.2872427173623781
-0.013708255841935,0.2870837320434415
-0.013707725841935,0.2866067760866363
-0.013707195841935,0.2860503274703615
-0.013706665841935,0.2846989522594071
-0.013706135841935,0.282711635772711
-0.013705605841935,0.2796909147129328
-0.013705075841935,0.276829178972085
-0.013704545841935,0.2738084579123178
-0.013704015841935,0.2747623698259265
-0.013703485841935,0.2756367890800728
-0.013702955841935,0.2757957743990085
-0.013702425841935,0.2780215688641079
-0.013701895841935,0.2779420762046405
-0.013701365841935,0.2777035982262367
-0.013700835841935,0.2754778037611371
