-20250405-BKP/synth-diodes-4f-1r-in-T10-L10-D10/100Hz5V/scope.csv

#Digilent WaveForms Oscilloscope Acquisition
#Device Name: Discovery3
#Serial Number: SN:210415BD5874
#Date Time: 2025-04-03 18:18:53.526.789.830
#Sample rate: 344828Hz
#Samples: 32768
#Trigger: Source: Channel 1 Type: Edge Condition: Rising Level: 0 V Hyst.: Auto HoldOff: 0 s
#Channel 1: Range: 200 mV/div Offset: 0 V Sample Mode: Average
#Wavegen Channel 1: Running
#Mode: Simple
#Type: Sine
#Frequency: 100 Hz
#Period: 10 ms
#Amplitude: 5 V
#Offset: 0 V
#Symmetry: 50 %
#Phase: 0 °

Time (s),Channel 1 (V)
-0.03483884691489882,0.01521883666341579
-0.03483594691489882,0.01649071921489769
-0.03483304691489882,0.01577528527968796
-0.03483014691489882,0.01553680730128428
-0.03482724691489882,0.01521883666341247
-0.03482434691489882,0.01466238804713987
-0.03482144691489882,0.01537782198234975
-0.03481854691489882,0.01569579262021954
-0.03481564691489882,0.01513934400394737
-0.03481274691489882,0.01561629996075386
-0.03480984691489881,0.01593427059862032
-0.03480694691489881,0.01490086602554297
-0.03480404691489881,0.01513934400394766
-0.03480114691489881,0.01569579262021968
-0.03479824691489881,0.01545731464181354
-0.03479534691489881,0.01450340272820635
-0.03479244691489881,0.01545731464181615
-0.03478954691489881,0.01521883666341175
-0.03478664691489881,0.01474188070660873
-0.03478374691489881,0.01537782198234888
-0.03478084691489881,0.01529832932287843
-0.03477794691489881,0.01450340272820432
-0.03477504691489881,0.01490086602554413
-0.03477214691489881,0.01545731464181441
-0.03476924691489881,0.01474188070660959
-0.03476634691489881,0.01561629996075068
-0.03476344691489881,0.01505985134447606
-0.03476054691489881,0.01458289538767275
-0.03475764691489883,0.01513934400394462
-0.03475474691489883,0.01553680730128413
-0.03475184691489883,0.01482137336607556
-0.03474894691489883,0.01545731464181586
-0.03474604691489883,0.01577528527968781
-0.03474314691489883,0.01521883666341449
-0.03474024691489883,0.01513934400394578
-0.03473734691489883,0.01569579262022055
-0.03473444691489883,0.01498035868500995
-0.03473154691489883,0.0149008660255421
-0.03472864691489883,0.01545731464181701
-0.03472574691489883,0.0149008660255421
-0.03472284691489883,0.0149008660255421
-0.03471994691489882,0.0149008660255421
-0.03471704691489882,0.01442391006873503
-0.03471414691489882,0.01505985134447779
-0.03471124691489882,0.01664970453383469
-0.03470834691489882,0.01585477793915624
-0.03470544691489882,0.01505985134447779
-0.03470254691489882,0.01521883666341348
-0.03469964691489882,0.01521883666341348
-0.03469674691489882,0.01553680730128486
-0.03469384691489882,0.01601376325809193
-0.03469094691489882,0.01529832932288133
-0.03468804691489882,0.01553680730128486
-0.03468514691489882,0.01585477793915624
-0.03468224691489882,0.01521883666341348
-0.03467934691489882,0.01545731464181701
-0.03467644691489882,0.01545731464181701
-0.03467354691489882,0.01529832932288133
-0.03467064691489882,0.01466238804713857
-0.03466774691489882,0.01537782198234917
-0.03466484691489882,0.0149008660255421
-0.03466194691489882,0.01474188070660641
-0.03465904691489882,0.01537782198234917
-0.03465614691489882,0.01505985134447779
-0.03465324691489882,0.01458289538767072
-0.03465034691489882,0.01505985134447779
-0.03464744691489882,0.01513934400394563
-0.03464454691489882,0.01458289538767072
-0.03464164691489882,0.01545731464181701
-0.03463874691489882,0.0156162999607527
-0.03463584691489882,0.0149008660255421
-0.03463294691489882,0.0156162999607527
-0.03463004691489882,0.01545731464181701
-0.03462714691489882,0.01482137336607426
-0.03462424691489882,0.01505985134447779
-0.03462134691489882,0.01577528527968839
-0.03461844691489882,0.01466238804713857
-0.03461554691489882,0.01521883666341377
-0.03461264691489882,0.0153778219823483
-0.03460974691489882,0.01490086602554268
-0.03460684691489882,0.0152188366634142
-0.03460394691489882,0.01561629996075111
-0.03460104691489882,0.01474188070660713
-0.03459814691489882,0.01513934400394563
-0.03459524691489882,0.01513934400394419
-0.03459234691489882,0.01434441740926806
-0.03458944691489882,0.014821373366077
-0.03458654691489882,0.01633173389596287
-0.03458364691489882,0.01609325591755833
-0.03458074691489882,0.01529832932288089
-0.03457784691489882,0.01505985134447866
-0.03457494691489882,0.01553680730128471
-0.03457204691489882,0.01545731464181716
-0.03456914691489882,0.01553680730128442
-0.03456624691489882,0.01529832932287988
-0.03456334691489882,0.0145034027282049
-0.03456044691489882,0.01561629996075241
-0.03455754691489882,0.01545731464181586
-0.03455464691489882,0.01482137336607541
-0.03455174691489882,0.01545731464181672
-0.03454884691489882,0.01529832932288002
-0.03454594691489882,0.0145828953876713
-0.03454304691489882,0.01490086602554254
-0.03454014691489882,0.01513934400394491
-0.03453724691489882,0.01474188070660656
-0.03453434691489882,0.01482137336607585
-0.03453144691489882,0.0156957926202191
-0.03452854691489882,0.01490086602554311
-0.03452564691489882,0.01545731464181846
-0.03452274691489882,0.01625224123649402
-0.03451984691489882,0.01545731464181846
-0.03451694691489882,0.01625224123649662
-0.03451404691489882,0.01688818251223764
-0.03451114691489882,0.01657021187436756
-0.03450824691489882,0.01696767517170722
-0.03450534691489882,0.01760361644744824
-0.03450244691489882,0.01728564580957744
-0.03449954691489882,0.01728564580957918
-0.03449664691489882,0.01823955772319057
-0.03449374691489882,0.01768310910691724
-0.03449084691489882,0.01784209442585612
-0.03448794691489881,0.01887549899893289
-0.03448504691489881,0.01847803570159338
-0.03448214691489881,0.01800107974479122
-0.03447924691489881,0.01887549899893405
-0.03447634691489881,0.01879600633946447
-0.03447344691489881,0.01823955772319418
-0.03447054691489881,0.01895499165840334
-0.03446764691489881,0.01927296229627124
-0.03446474691489881,0.01863702102053427
-0.03446184691489881,0.01959093293415044
-0.03445894691489881,0.02110129346402907
-0.03445604691489881,0.01974991825307745
-0.03445314691489881,0.01887549899893867
-0.03445024691489881,0.02006788889095143
-0.03444734691489881,0.01990890357201458
-0.03444444691489881,0.0194319476152107
-0.03444154691489881,0.01982941091254876
-0.03443864691489881,0.0199089035720143
-0.03443574691489883,0.01935245495574242
-0.03443284691489883,0.01951144027467681
-0.03442994691489883,0.01982941091254789
-0.03442704691489883,0.01911397697733917
-0.03442414691489883,0.01990890357201487
-0.03442124691489883,0.01943194761521012
-0.03441834691489883,0.01895499165840305
-0.03441544691489883,0.01911397697733787
-0.03441254691489883,0.01951144027467709
-0.03440964691489883,0.01887549899893434
-0.03440674691489883,0.0193524549557414
-0.03440384691489883,0.01951144027467709
-0.03440094691489883,0.01911397697733787
-0.03439804691489882,0.01974991825308063
-0.03439514691489882,0.01998839623148416
-0.03439224691489882,0.01943194761520925
-0.03438934691489882,0.01967042559361279
-0.03438644691489882,0.02014738155041985
-0.03438354691489882,0.01967042559361279
-0.03438064691489882,0.02014738155041985
-0.03437774691489882,0.02030636686935554
-0.03437484691489882,0.01943194761520925
-0.03437194691489882,0.01982941091254847
-0.03436904691489882,0.01974991825308063
-0.03436614691489882,0.01943194761520925
-0.03436324691489882,0.0193524549557414
-0.03436034691489882,0.01982941091254847
-0.03435744691489882,0.01927296229627356
-0.03435454691489882,0.01998839623148416
-0.03435164691489882,0.01974991825308063
-0.03434874691489882,0.01927296229627356
-0.03434584691489882,0.01959093293414494
-0.03434294691489882,0.02006788889095201
-0.03434004691489882,0.01967042559361279
-0.03433714691489882,0.02054484484775907
-0.03433424691489882,0.02149875676137321
-0.03433134691489882,0.02054484484775907
-0.03432844691489882,0.01919346963680572
-0.03432554691489882,0.0202268742098877
-0.03432264691489882,0.01982941091254847
-0.03431974691489882,0.01943194761520925
-0.03431684691489882,0.01998839623148416
-0.03431394691489882,0.01998839623148416
-0.03431104691489882,0.01959093293414494
-0.03430814691489882,0.01974991825308063
-0.03430524691489882,0.01990890357201632
-0.03430234691489882,0.01903448431787003
-0.03429944691489882,0.01919346963680572
-0.03429654691489882,0.0193524549557414
-0.03429364691489882,0.01879600633946678
-0.03429074691489882,0.01895499165840305
-0.03428784691489882,0.01943194761520896
-0.03428494691489882,0.01927296229627399
-0.03428204691489882,0.01951144027467738
-0.03427914691489882,0.01967042559361206
-0.03427624691489882,0.01927296229627341
-0.03427334691489882,0.019193469636806
-0.03427044691489882,0.01935245495574198
-0.03426754691489882,0.01967042559361163
-0.03426464691489882,0.01903448431787118
-0.03426174691489882,0.01967042559361264
-0.03425884691489882,0.01959093293414349
-0.03425594691489882,0.01879600633946736
-0.03425304691489882,0.01927296229627356
-0.03425014691489882,0.01927296229627269
-0.03424724691489882,0.01879600633946678
-0.03424434691489882,0.01895499165840305
-0.03424144691489882,0.01943194761520867
-0.03423854691489882,0.01911397697733773
-0.03423564691489882,0.01903448431787147
-0.03423274691489882,0.01982941091254833
-0.03422984691489882,0.01974991825307947
-0.03422694691489882,0.01911397697733917
-0.03422404691489882,0.01982941091254833
-0.03422114691489882,0.01974991825307947
-0.03421824691489882,0.01911397697733859
-0.03421534691489882,0.0195114402746784
-0.03421244691489882,0.02022687420988784
-0.03420954691489882,0.02030636686935554
-0.03420664691489882,0.02030636686935424
-0.03420374691489882,0.01959093293414407
-0.03420084691489882,0.01911397697733802
-0.03419794691489882,0.01919346963680716
-0.03419504691489882,0.01998839623148344
-0.03419214691489882,0.01959093293414479
-0.03418924691489882,0.01951144027467796
-0.03418634691489882,0.01998839623148402
-0.03418344691489882,0.01990890357201458
-0.03418054691489882,0.01895499165840334
-0.03417764691489882,0.01959093293414364
-0.03417474691489882,0.01887549899893419
-0.03417184691489882,0.01879600633946765
-0.03416894691489882,0.01911397697733642
-0.03416604691489881,0.01871651367999663
-0.03416314691489881,0.01816006506372518
-0.03416024691489881,0.0185575283610618
-0.03415734691489881,0.0182395577231884
-0.03415444691489881,0.01736513846904442
-0.03415154691489881,0.0171266604906406
-0.03414864691489881,0.01680868985276256
-0.03414574691489881,0.01466238804713336
-0.03414284691489881,0.01323152017671707
-0.03413994691489881,0.0131520275172446
-0.03413704691489881,0.01180065230629616
-0.03413414691489881,0.01180065230629616
-0.03413124691489881,0.01180065230629182
-0.03412834691489881,0.01060826241427906
-0.03412544691489881,0.01076724773321938
-0.03412254691489881,0.01219811560363856
-0.03411964691489881,0.01307253485778254
-0.03411674691489881,0.01331101283618955
-0.03411384691489883,0.01450340272820071
-0.03411094691489883,0.01521883666341218
-0.03410804691489883,0.01529832932288118
-0.03410514691489883,0.01680868985276763
-0.03410224691489883,0.01760361644744737
-0.03409934691489883,0.02650679430783123
-0.03409644691489883,0.02873258877294303
-0.03409354691489883,0.02507592643742623
-0.03409064691489883,0.02205520537764813
-0.03408774691489883,0.0216577420803089
-0.03408484691489883,0.02459897048061916
-0.03408194691489883,0.02300911729126226
-0.03407904691489883,0.02110129346403399
-0.03407614691489882,0.02046535218829123
-0.03407324691489882,0.0193524549557414
-0.03407034691489882,0.009097901884389437
-0.03406744691489882,0.008620945927582368
-0.03406454691489882,0.01203913028469969
-0.03406164691489882,0.01450340272820288
-0.03405874691489882,0.01529832932288133
-0.03405584691489882,0.01553680730128486
-0.03405294691489882,0.016490719214899
-0.03405004691489882,0.01664970453383469
-0.03404714691489882,0.0163317338959633
-0.03404424691489882,0.01672919719330253
-0.03404134691489882,0.02475795579955485
-0.03403844691489882,0.024678463140087
-0.03403554691489882,0.02300911729126226
-0.03403264691489882,0.0216577420803089
-0.03402974691489882,0.02006788889095201
-0.03402684691489882,0.01951144027467709
-0.03402394691489882,0.01974991825308063
-0.03402104691489882,0.01871651367999865
-0.03401814691489882,0.0186370210205308
-0.03401524691489882,0.01871651367999865
-0.03401234691489882,0.01100572571161771
-0.03400944691489882,0.008938916565453748
-0.03400654691489882,0.009336379862792971
-0.03400364691489882,0.008143989970775299
-0.03400074691489882,0.006633629440886251
-0.03399784691489882,0.007269570716629008
-0.03399494691489882,0.006872107419289785
-0.03399204691489882,0.005202761570465045
-0.03398914691489882,0.005043776251529356
-0.03398624691489882,0.004407834975786598
-0.03398334691489882,0.01219811560363538
-0.03398044691489882,0.01617274857702762
-0.03397754691489882,0.01736513846904529
-0.03397464691489882,0.01728564580957744
-0.03397174691489882,0.01704716783117275
-0.03396884691489882,0.01641122655542942
-0.03396594691489882,0.01545731464181701
-0.03396304691489882,0.01545731464181947
-0.03396014691489882,0.01680868985276647
-0.03395724691489882,0.0146623880471082
-0.03395434691489882,-0.002031070441154227
-0.03395144691489882,-0.02699176551404286
-0.03394854691489882,-0.04392370198067904
-0.03394564691489882,-0.05274738718160561
-0.03394274691489882,-0.05926578525796006
-0.03393984691489882,-0.06093513110678031
-0.03393694691489882,-0.06014020451210548
-0.03393404691489882,-0.06133259440412821
-0.03393114691489882,-0.06530722737751496
-0.03392824691489882,-0.06626113929108397
-0.03392534691489882,-0.04241334145073548
-0.03392244691489882,-0.02126829403231105
-0.03391954691489882,-0.01236511617192227
-0.03391664691489882,-0.00886743915534665
-0.03391374691489882,-0.01061627766364762
-0.03391084691489882,-0.01697569042107216
-0.03390794691489882,-0.02166575732967355
-0.03390504691489882,-0.02556089764359419
-0.03390214691489882,-0.02738922881135563
-0.03389924691489882,-0.02977400859546645
-0.03389634691489882,-0.07365395662167379
-0.03389344691489882,-0.09392458478593949
-0.03389054691489882,-0.09511697467795643
-0.03388764691489882,-0.09591190127263112
-0.03388474691489882,-0.09464001872112986
-0.03388184691489882,-0.08470343628766372
-0.03387894691489882,-0.08271611980096817
-0.03387604691489882,-0.08104677395214402
-0.03387314691489882,-0.0796953987411869
-0.03387024691489882,-0.07627721438399988
-0.03386734691489882,-0.03454356816343765
-0.03386444691489882,-0.02373256647583245
-0.03386154691489882,-0.02484546370838272
-0.03385864691489882,-0.02619683891933795
-0.03385574691489882,-0.02858161870340655
-0.03385284691489882,-0.0492497101650145
-0.03384994691489882,-0.05250890920318473
-0.03384704691489882,-0.05099854867330435
-0.03384414691489881,-0.05187296792747059
-0.03384124691489881,-0.05823238068499476
-0.03383834691489881,-0.09114234170458242
-0.03383544691489881,-0.0965478425483817
-0.03383254691489881,-0.09805820307825742
-0.03382964691489881,-0.09591190127261927
-0.03382674691489881,-0.09201676095870413
-0.03382384691489881,-0.09066538574774961
-0.03382094691489881,-0.08899603989893182
-0.03381804691489881,-0.08923451787733361
-0.03381514691489881,-0.08899603989890637
-0.03381224691489881,-0.08223916384406409
-0.03380934691489881,-0.05473470366827571
-0.03380644691489881,-0.05083956335436144
-0.03380354691489881,-0.04972666612181884
-0.03380064691489881,-0.05060108537594112
-0.03379774691489881,-0.04487761389424473
-0.03379484691489881,-0.03597443603387968
-0.03379194691489883,-0.03629240667174932
-0.03378904691489883,-0.0368488552880238
-0.03378614691489883,-0.03597443603388011
-0.03378324691489883,-0.04829579825137204
-0.03378034691489883,-0.0753233024704125
-0.03377744691489883,-0.07500533183259087
-0.03377454691489883,-0.07611822906513807
-0.03377164691489883,-0.0761182290651401
-0.03376874691489883,-0.07746960427609347
-0.03376584691489883,-0.09002944447201293
-0.03376294691489883,-0.09098335638562706
-0.03376004691489883,-0.08915502521786664
-0.03375714691489883,-0.08971147383414155
-0.03375424691489883,-0.08581633352021716
-0.03375134691489882,-0.064909764080174
-0.03374844691489882,-0.06308143291241357
-0.03374554691489882,-0.06355838886922063
-0.03374264691489882,-0.06276346227454219
-0.03373974691489882,-0.05982223387423194
-0.03373684691489882,-0.05735796143072874
-0.03373394691489882,-0.05576810824137185
-0.03373104691489882,-0.05648354217658245
-0.03372814691489882,-0.05664252749551814
-0.03372524691489882,-0.05791441004700366
-0.03372234691489882,-0.06435331546389908
-0.03371944691489882,-0.0647507787612383
-0.03371654691489882,-0.06308143291241357
-0.03371364691489882,-0.06339940355028495
-0.03371074691489882,-0.06483027142070616
-0.03370784691489882,-0.064909764080174
-0.03370494691489882,-0.0647507787612383
-0.03370204691489882,-0.06324041823134925
-0.03369914691489882,-0.06300194025294573
-0.03369624691489882,-0.06292244759347788
-0.03369334691489882,-0.06117360908518529
-0.03369044691489882,-0.06141208706358883
-0.03368754691489882,-0.06021969717157116
-0.03368464691489882,-0.06141208706358883
-0.03368174691489882,-0.06435331546389908
-0.03367884691489882,-0.06546621269644891
-0.03367594691489882,-0.06570469067485245
-0.03367304691489882,-0.06649961726953089
-0.03367014691489882,-0.06530722737751322
-0.03366724691489882,-0.06896388971303408
-0.03366434691489882,-0.07150765481600511
-0.03366144691489882,-0.07055374290239097
-0.03365854691489882,-0.06904338237250192
-0.03365564691489882,-0.06967932364824468
-0.03365274691489882,-0.06276346227454219
-0.03364984691489882,-0.05680151281445543
-0.03364694691489882,-0.05767593206860042
-0.03364404691489882,-0.05783491738753393
-0.03364114691489882,-0.0568015128144547
-0.03363824691489882,-0.05727846877126741
-0.03363534691489882,-0.06085563844731174
-0.03363244691489882,-0.05966324855529827
-0.03362954691489882,-0.06077614578784867
-0.03362664691489882,-0.06220701365827769
-0.03362374691489882,-0.06793048513996511
-0.03362084691489882,-0.07508482449205943
-0.03361794691489882,-0.07580025842726555
-0.03361504691489882,-0.07405141991897715
-0.03361214691489882,-0.07460786853526016
-0.03360924691489882,-0.07961590608172396
-0.03360634691489882,-0.07890047214651481
-0.03360344691489882,-0.07897996480598281
-0.03360054691489882,-0.07913895012491545
-0.03359764691489882,-0.07762858959501512
-0.03359474691489882,-0.06991780162664779
-0.03359184691489882,-0.06967932364824236
-0.03358894691489882,-0.0684074410967609
-0.03358604691489882,-0.06936135301037691
-0.03358314691489882,-0.07134866949706031
-0.03358024691489882,-0.06634063195057929
-0.03357734691489882,-0.05759643940913156
-0.03357444691489882,-0.05719897611179262
-0.03357154691489882,-0.05696049813339314
-0.03356864691489882,-0.05894781462009764
-0.03356574691489882,-0.06554570535591429
-0.03356284691489882,-0.06419433014496354
-0.03355994691489882,-0.06427382280443311
-0.03355704691489882,-0.0653072273775112
-0.03355414691489882,-0.06419433014497468
-0.03355124691489882,-0.07039475758346844
-0.03354834691489882,-0.07762858959502886
-0.03354544691489882,-0.07746960427609086
-0.03354254691489882,-0.07603873640567356
-0.03353964691489882,-0.07675417034089023
-0.03353674691489882,-0.08080829597374294
-0.03353384691489882,-0.08080829597374264
-0.03353094691489882,-0.08064931065480797
-0.03352804691489882,-0.08104677395214445
-0.03352514691489882,-0.0799338767195712
-0.03352224691489882,-0.07293852268642255
-0.03351934691489881,-0.07190511811333999
-0.03351644691489881,-0.07071272822132579
-0.03351354691489881,-0.07047425024293122
-0.03351064691489881,-0.07270004470801238
-0.03350774691489881,-0.06983830896717602
-0.03350484691489881,-0.06864591907516501
-0.03350194691489881,-0.06928186035090372
-0.03349904691489881,-0.06880490439409463
-0.03349614691489881,-0.06777149982104128
-0.03349324691489881,-0.07460786853525019
-0.03349034691489881,-0.07436939055684261
-0.03348744691489881,-0.07301801534589733
-0.03348454691489881,-0.07389243460003901
-0.03348164691489881,-0.07349497130267578
-0.03347874691489881,-0.06649961726953292
-0.03347584691489881,-0.06705606588580927
-0.03347294691489881,-0.0680099777994133
