-20250405-BKP/synth-diodes-1f-1r-in-T00-L10-D00/100Hz5V/scope.csv

#Digilent WaveForms Oscilloscope Acquisition
#Device Name: Discovery3
#Serial Number: SN:210415BD5874
#Date Time: 2025-04-03 15:11:39.052.491.060
#Sample rate: 268097Hz
#Samples: 32768
#Trigger: Source: Channel 1 Type: Edge Condition: Rising Level: 0 V Hyst.: Auto HoldOff: 0 s
#Channel 1: Range: 200 mV/div Offset: 0 V Sample Mode: Average
#Wavegen Channel 1: Running
#Mode: Simple
#Type: Sine
#Frequency: 100 Hz
#Period: 10 ms
#Amplitude: 5 V
#Offset: 0 V
#Symmetry: 50 %
#Phase: 0 °

Time (s),Channel 1 (V)
-0.04471495884532775,0.04900321693724749
-0.04471122884532774,0.04868524629937539
-0.04470749884532775,0.04828778300203689
-0.04470376884532774,0.04900321693724546
-0.04470003884532775,0.04789031970469766
-0.04469630884532774,0.04916220225618144
-0.04469257884532775,0.04820829034256904
-0.04468884884532774,0.04828778300203732
-0.04468511884532775,0.0485262609804394
-0.04468138884532775,0.0479698123641655
-0.04467765884532775,0.04884423161830919
-0.04467392884532775,0.0474133637478906
-0.04467019884532775,0.04860575363991058
-0.04466646884532775,0.04987763619139378
-0.04466273884532775,0.04955966555352081
-0.04465900884532775,0.04868524629937611
-0.04465527884532774,0.04828778300203804
-0.04465154884532775,0.04892372427777963
-0.04464781884532774,0.04908270959671389
-0.04464408884532775,0.04828778300203689
-0.04464035884532774,0.04924169491564871
-0.04463662884532775,0.0479698123641655
-0.04463289884532774,0.04852626098044012
-0.04462916884532775,0.04836727566150473
-0.04462543884532774,0.04789031970469868
-0.04462170884532775,0.04844676832097026
-0.04461797884532775,0.04717488576948706
-0.04461424884532775,0.0481287976831009
-0.04461051884532775,0.0479698123641655
-0.04460678884532775,0.0473338710884252
-0.04460305884532775,0.04868524629937611
-0.04459932884532775,0.0481287976831022
-0.04459559884532775,0.04868524629937611
-0.04459186884532775,0.0486852462993748
-0.04458813884532775,0.0479698123641655
-0.04458440884532774,0.04892372427777732
-0.04458067884532775,0.04765184172629412
-0.04457694884532774,0.04836727566150342
-0.04457321884532775,0.04765184172629412
-0.04456948884532774,0.0485262609804394
-0.04456575884532775,0.0479698123641655
-0.04456202884532774,0.04773133438576269
-0.04455829884532775,0.04812879768310119
-0.04455456884532775,0.0472543784289549
-0.04455083884532775,0.04836727566150299
-0.04454710884532775,0.0474133637478906
-0.04454337884532775,0.04876473895884757
-0.04453964884532775,0.05075205544554007
-0.04453591884532775,0.04884423161831107
-0.04453218884532775,0.04844676832097257
-0.04452845884532775,0.04820829034257006
-0.04452472884532775,0.04876473895884395
-0.04452099884532774,0.04860575363990769
-0.04451726884532775,0.04828778300203689
-0.04451353884532774,0.04852626098043853
-0.04450980884532775,0.04749285640735844
-0.04450607884532774,0.04852626098043853
-0.04450234884532775,0.04749285640735844
-0.04449861884532774,0.04836727566150328
-0.04449488884532775,0.04757234906682628
-0.04449115884532776,0.04781082704522982
-0.04448742884532775,0.04820829034256832
-0.04448369884532775,0.04781082704522982
-0.04447996884532775,0.04892372427777761
-0.04447623884532775,0.04781082704522982
-0.04447250884532775,0.04836727566150516
-0.04446877884532775,0.04860575363990827
-0.04446504884532775,0.04741336374789305
-0.04446131884532775,0.04876473895884395
-0.04445758884532774,0.04765184172629571
-0.04445385884532775,0.04852626098044041
-0.04445012884532774,0.04844676832097054
-0.04444639884532775,0.04733387108842274
-0.04444266884532774,0.04812879768309945
-0.04443893884532775,0.04717488576948706
-0.04443520884532774,0.04812879768309988
-0.04443147884532775,0.0474133637478906
-0.04442774884532774,0.04781082704523213
-0.04442401884532775,0.04844676832097185
-0.04442028884532775,0.04804930502363335
-0.04441655884532775,0.05011611416979542
-0.04441282884532775,0.04908270959671533
-0.04440909884532775,0.04796981236416608
-0.04440536884532775,0.04828778300203689
-0.04440163884532775,0.04836727566150545
-0.04439790884532775,0.04876473895884395
-0.04439417884532774,0.0478108270452317
-0.04439044884532775,0.04884423161831179
-0.04438671884532774,0.04796981236416623
-0.04438298884532775,0.04836727566150473
-0.04437925884532774,0.0484467683209704
-0.04437552884532775,0.0472543784289549
-0.04437179884532774,0.04828778300203544
-0.04436806884532775,0.04749285640735844
-0.04436433884532774,0.04820829034256991
-0.04436060884532775,0.04844676832097126
-0.04435687884532775,0.04773133438576196
-0.04435314884532775,0.04852626098043868
-0.04434941884532775,0.04757234906682628
-0.04434568884532775,0.04820829034256788
-0.04434195884532775,0.04757234906682628
-0.04433822884532775,0.04812879768310032
-0.04433449884532775,0.04765184172629412
-0.04433076884532774,0.04749285640735988
-0.04432703884532775,0.04828778300203689
-0.04432330884532774,0.0471748857694885
-0.04431957884532775,0.0479698123641655
-0.04431584884532774,0.0476518417262934
-0.04431211884532775,0.0472543784289549
-0.04430838884532774,0.04836727566150314
-0.04430465884532775,0.04749285640735844
-0.04430092884532774,0.0486852462993738
-0.04429719884532775,0.04741336374789262
-0.04429346884532775,0.04852626098044041
-0.04428973884532775,0.05019560682926198
-0.04428600884532775,0.04844676832097257
-0.04428227884532775,0.04796981236416449
-0.04427854884532775,0.0474133637478906
-0.04427481884532775,0.04844676832097113
-0.04427108884532775,0.04765184172629412
-0.04426735884532775,0.04836727566150444
-0.04426362884532775,0.04820829034256904
-0.04425989884532774,0.04765184172629543
-0.04425616884532775,0.04836727566150473
-0.04425243884532774,0.04757234906682888
-0.04424870884532775,0.04900321693724749
-0.04424497884532774,0.04876473895884439
-0.04424124884532775,0.04900321693724749
-0.04423751884532774,0.04971865087245707
-0.04423378884532775,0.04916220225618548
-0.04423005884532775,0.05043408480766869
-0.04422632884532775,0.04971865087245939
-0.04422259884532775,0.05043408480766869
-0.04421886884532775,0.05091104076447459
-0.04421513884532775,0.050275099488733
-0.04421140884532775,0.05146748938074908
-0.04420767884532775,0.05059307012660438
-0.04420394884532775,0.0515469820402175
-0.04420021884532775,0.05099053342394361
-0.04419648884532774,0.05138799672128384
-0.04419275884532775,0.05194444533755774
-0.04418902884532774,0.05122901140234858
-0.04418529884532775,0.05202393799702558
-0.04418156884532774,0.05178546001862278
-0.04417783884532775,0.05218292331596128
-0.04417410884532774,0.05250089395383135
-0.04417037884532775,0.05178546001862205
-0.04416664884532776,0.05361379118638247
-0.04416291884532775,0.0534548058674452
-0.04415918884532775,0.0525803866133005
-0.04415545884532775,0.05258038661329978
-0.04415172884532775,0.05218292331596128
-0.04414799884532775,0.05289835725116986
-0.04414426884532775,0.05178546001862205
-0.04414053884532775,0.0528188645917033
-0.04413680884532775,0.0524214012943648
-0.04413307884532774,0.05250089395383323
-0.04412934884532775,0.05281886459170403
-0.04412561884532774,0.05226241597543071
-0.04412188884532775,0.05313683522957541
-0.04411815884532774,0.05218292331596272
-0.04411442884532775,0.05297784991063972
-0.04411069884532774,0.05281886459170301
-0.04410696884532775,0.05226241597542912
-0.04410323884532776,0.05313683522957382
-0.04409950884532775,0.05226241597543028
-0.04409577884532775,0.05289835725117188
-0.04409204884532775,0.05218292331596128
-0.04408831884532775,0.05218292331596128
-0.04408458884532775,0.05250089395383165
-0.04408085884532775,0.05194444533755774
-0.04407712884532775,0.05273937193223503
-0.04407339884532775,0.05210343065649342
-0.04406966884532774,0.05281886459170359
-0.04406593884532775,0.0525803866133005
-0.04406220884532774,0.05234190863489812
-0.04405847884532775,0.05297784991063972
-0.04405474884532774,0.05210343065649371
-0.04405101884532775,0.05226241597542912
-0.04404728884532774,0.05234190863489696
-0.04404355884532775,0.05234190863489696
-0.04403982884532774,0.05385226916478254
-0.04403609884532775,0.05289835725117144
-0.04403236884532775,0.05265987927276834
-0.04402863884532775,0.052182923315962
-0.04402490884532775,0.0525803866133005
-0.04402117884532775,0.05234190863489652
-0.04401744884532775,0.05210343065649342
-0.04401371884532775,0.05297784991063799
-0.04400998884532775,0.05202393799702558
-0.04400625884532774,0.05265987927276747
-0.04400252884532775,0.05218292331596128
-0.04399879884532774,0.05273937193223589
-0.04399506884532775,0.0525803866133005
-0.04399133884532774,0.05170596735915579
-0.04398760884532775,0.0525803866133005
-0.04398387884532774,0.05250089395383251
-0.04398014884532775,0.0524214012943648
-0.04397641884532774,0.0525803866132992
-0.04397268884532775,0.05186495267809091
-0.04396895884532775,0.0524214012943648
-0.04396522884532775,0.05186495267809076
-0.04396149884532775,0.05234190863489696
-0.04395776884532775,0.05250089395383194
-0.04395403884532775,0.05210343065649342
-0.04395030884532775,0.05281886459170287
-0.04394657884532775,0.05218292331596128
-0.04394284884532774,0.05258038661330035
-0.04393911884532775,0.05250089395383266
-0.04393538884532774,0.05202393799702659
-0.04393165884532775,0.0525803866133005
-0.04392792884532774,0.05194444533755831
-0.04392419884532775,0.05226241597542912
-0.04392046884532774,0.05210343065649516
-0.04391673884532775,0.05305734257010757
-0.04391300884532774,0.05385226916478124
-0.04390927884532775,0.05122901140234858
-0.04390554884532775,0.05202393799702558
-0.04390181884532775,0.05178546001862191
-0.04389808884532775,0.0517059673591542
-0.04389435884532775,0.05178546001862119
-0.04389062884532775,0.05130850406181497
-0.04388689884532775,0.0517059673591513
-0.04388316884532775,0.0501161141697973
-0.04387943884532775,0.05035459214819983
-0.04387570884532775,0.04979814353192594
-0.04387197884532774,0.04876473895884482
-0.04386824884532775,0.04924169491565102
-0.04386451884532774,0.04796981236416623
-0.04386078884532775,0.04836727566150473
-0.04385705884532774,0.04725437842895547
-0.04385332884532775,0.04757234906682628
-0.04384959884532774,0.04717488576948706
-0.04384586884532775,0.04717488576948706
-0.04384213884532775,0.04773133438576196
-0.04383840884532775,0.04693640779108612
-0.04383467884532775,0.04836727566150473
-0.04383094884532775,0.04955966555352312
-0.04382721884532775,0.04995712885086162
-0.04382348884532775,0.0508315481050066
-0.04381975884532775,0.0501161141697973
-0.04381602884532775,0.05114951874287828
-0.04381229884532775,0.05059307012660438
-0.04380856884532774,0.0509110407644759
-0.04380483884532775,0.05099053342394361
-0.04380110884532774,0.05035459214820229
-0.04379737884532775,0.05114951874287929
-0.04379364884532774,0.05035459214820547
-0.04378991884532775,0.05289835725117188
-0.04378618884532774,0.05202393799702182
-0.04378245884532775,0.04995712885086162
-0.04377872884532776,0.05138799672128283
-0.04377499884532775,0.05075205544553949
-0.04377126884532775,0.05043408480766869
-0.04376753884532775,0.05075205544553631
-0.04376380884532775,0.04868524629937611
-0.04376007884532775,0.04868524629937437
-0.04375634884532775,0.04773133438576196
-0.04375261884532775,0.04614148119640406
-0.04374888884532775,0.04558503258013016
-0.04374515884532774,0.04288228215821954
-0.04374142884532775,0.04073598035259163
-0.04373769884532774,0.03747678131440306
-0.04373396884532775,0.03366113365995345
-0.04373023884532774,0.02960700802708195
-0.04372650884532775,0.02332708792913364
-0.04372277884532774,0.01823955772317712
-0.04371904884532775,0.01029029177640711
-0.04371531884532774,0.001625591894381668
-0.04371158884532775,-0.006721137349731616
-0.04370785884532775,-0.01769112435627423
-0.04370412884532775,-0.02818415540605302
-0.04370039884532775,-0.04098247358035273
-0.04369666884532775,-0.05250890920321206
-0.04369293884532775,-0.06451230078283478
-0.04368920884532775,-0.0767541703409005
-0.04368547884532775,-0.08645227479595992
-0.04368174884532774,-0.09615037925104927
-0.04367801884532775,-0.1029072553058038
-0.04367428884532774,-0.1087897121064341
-0.04367055884532775,-0.1141952129502377
-0.04366682884532774,-0.1161030367774741
-0.04366309884532775,-0.1205546257076653
-0.04365936884532774,-0.124847229318933
-0.04365563884532775,-0.1270730237840285
-0.04365190884532774,-0.1301732375032788
-0.04364817884532775,-0.1313656273952979
-0.04364444884532775,-0.134545333774006
-0.04364071884532775,-0.1359762016444316
-0.04363698884532775,-0.1384404740879303
-0.04363325884532775,-0.1400303272772897
-0.04362952884532775,-0.1413817024882406
-0.04362579884532775,-0.1437664822722783
-0.04362206884532775,-0.1450383648237615
-0.04361833884532774,-0.1475026372672656
-0.04361460884532775,-0.1480590858835396
-0.04361087884532774,-0.1504438656675761
-0.04360714884532775,-0.1510798069433177
-0.04360341884532774,-0.1525106748137422
-0.04359968884532775,-0.1543390059814993
-0.04359595884532774,-0.1547364692788429
-0.04359222884532775,-0.1571212490628739
-0.04358849884532774,-0.1574392197007491
-0.04358476884532775,-0.1595855215063788
-0.04358103884532775,-0.1605394334199912
-0.04357730884532775,-0.1614933453336098
-0.04357357884532775,-0.1639576177771085
-0.04356984884532775,-0.1639576177771124
-0.04356611884532775,-0.1661039195827403
-0.04356238884532775,-0.1672168168152913
-0.04355865884532775,-0.1678527580910329
-0.04355492884532775,-0.1699195672371966
-0.04355119884532775,-0.1697605819182612
-0.04354746884532774,-0.171906883723893
-0.04354373884532775,-0.171906883723893
-0.04354000884532774,-0.171509420426557
-0.04353627884532775,-0.1732582589348463
-0.04353254884532774,-0.1750865901026095
-0.04352881884532775,-0.1765969506324958
-0.04352508884532774,-0.1765174579730303
-0.04352135884532775,-0.1777893405245165
-0.04351762884532775,-0.1794586863733382
-0.04351389884532775,-0.1792997010544069
-0.04351016884532775,-0.1816844808384379
-0.04350643884532775,-0.1822409294547141
-0.04350270884532775,-0.1829563633899234
-0.04349897884532775,-0.1855796211523618
-0.04349524884532775,-0.1853411431739587
-0.04349151884532775,-0.1873284596606544
-0.04348778884532775,-0.1870899816822513
-0.04348405884532774,-0.1887593275310774
-0.04348032884532775,-0.1894747614662867
-0.04347659884532774,-0.1893952688068227
-0.04347286884532775,-0.1915415706124506
-0.04346913884532774,-0.1909851219961793
-0.04346540884532775,-0.1929724384828718
-0.04346167884532774,-0.1933699017802125
-0.04345794884532775,-0.1941648283748895
-0.04345421884532776,-0.195436710926375
-0.04345048884532775,-0.1955162035858466
-0.04344675884532775,-0.1975830127320068
-0.04344302884532775,-0.1971855494346708
-0.04343929884532775,-0.1989343879429602
-0.04343556884532775,-0.1991728659213659
-0.04343183884532775,-0.2003652558133814
-0.04342810884532775,-0.2012396750675275
-0.04342437884532775,-0.2011601824080598
-0.04342064884532774,-0.2029885135758171
-0.04341691884532775,-0.2012396750675277
-0.04341318884532774,-0.2021140943216784
-0.04340945884532775,-0.2045783667651772
-0.04340572884532774,-0.2052938007003896
-0.04340199884532775,-0.2063272052734697
-0.04339826884532774,-0.2061682199545375
-0.04339453884532775,-0.2080760437817623
-0.04339080884532776,-0.2080760437817623
-0.04338707884532775,-0.2096658969711201
-0.04338334884532775,-0.2101428529279263
-0.04337961884532775,-0.2107787942036719
-0.04337588884532775,-0.2123686473930259
-0.04337215884532775,-0.212209662074094
-0.04336842884532775,-0.2142764712202542
-0.04336469884532775,-0.2134020519661104
-0.04336096884532775,-0.2147534271770613
-0.04335723884532774,-0.2150713978149328
-0.04335350884532775,-0.2151508904744005
-0.04334977884532774,-0.2172176996205637
-0.04334604884532775,-0.2168202363232252
-0.04334231884532774,-0.2176946555773724
-0.04333858884532775,-0.2181716115341786
-0.04333485884532774,-0.2186485674909884
-0.04333112884532775,-0.2201589280208747
-0.04332739884532774,-0.2195229867451392
-0.04332366884532775,-0.2215103032318284
-0.04331993884532775,-0.2216692885507638
-0.04331620884532775,-0.2223847224859755
-0.04331247884532775,-0.2230206637617171
-0.04330874884532775,-0.2231001564211877
-0.04330501884532775,-0.224610516951074
-0.04330128884532775,-0.2238950830158659
-0.04329755884532775,-0.2252464582268168
-0.04329382884532774,-0.2249284875889437
-0.04329009884532775,-0.2239745756753313
-0.04328636884532774,-0.2257234141836263
-0.04328263884532775,-0.2270747893945772
-0.04327890884532774,-0.2279492086487223
-0.04327517884532775,-0.2273132673729807
-0.04327144884532774,-0.2283466719460637
-0.04326771884532775,-0.2289031205623376
-0.04326398884532774,-0.2290621058812788
-0.04326025884532775,-0.2305724664111612
-0.04325652884532775,-0.2299365251354196
-0.04325279884532775,-0.2315263783247757
-0.04324906884532775,-0.2310494223679694
-0.04324533884532775,-0.2319238416221163
-0.04324160884532775,-0.2322418122599871
-0.04323787884532775,-0.2320828269410548
-0.04323414884532775,-0.2339111581088119
-0.04323041884532774,-0.2336726801304102
-0.04322668884532775,-0.2347060847034903
-0.04322295884532774,-0.234865070022427
-0.04321922884532775,-0.2354215186387009
-0.04321549884532774,-0.2362164452333785
-0.04321176884532775,-0.2357394892765723
-0.04320803884532774,-0.2374088351253969
-0.04320430884532775,-0.2373293424659292
-0.04320057884532774,-0.237885791082206
-0.04319684884532775,-0.2389191956552849
-0.04319311884532775,-0.2382832543795433
-0.04318938884532775,-0.2400320928878346
-0.04318565884532775,-0.2393166589526253
-0.04318192884532775,-0.2399526002283691
-0.04317819884532775,-0.240509048844643
-0.04317446884532775,-0.2401115855473065
-0.04317073884532775,-0.2416219460771928
-0.04316700884532775,-0.2398731075689014
-0.04316327884532775,-0.240509048844643
-0.04315954884532774,-0.2425758579908078
-0.04315581884532775,-0.243052813947614
-0.04315208884532774,-0.2437682478828239
-0.04314835884532775,-0.2433707845854854
-0.04314462884532774,-0.2451196230937771
-0.04314089884532775,-0.2446426671369709
-0.04313716884532774,-0.2463915056452626
-0.04313343884532775,-0.2459145496884564
-0.04312970884532775,-0.2472659248994098
-0.04312597884532775,-0.2468684616020715
-0.04312224884532775,-0.2474249102183455
-0.04311851884532775,-0.2480608514940879
-0.04311478884532775,-0.2479018661751525
-0.04311105884532775,-0.2495712120239757
-0.04310732884532775,-0.248696792769831
-0.04310359884532775,-0.2497301973429127
-0.04309986884532775,-0.2495712120239773
-0.04309613884532774,-0.2503661386186563
-0.04309240884532775,-0.2506841092565271
-0.04308867884532774,-0.2507636019159971
-0.04308494884532775,-0.2519559918080126
-0.04308121884532774,-0.251161065213337
-0.04307748884532775,-0.252750918402691
-0.04307375884532774,-0.2520354844674811
-0.04307002884532775,-0.2524329477648197
-0.04306629884532776,-0.2524329477648197
-0.04306256884532775,-0.2523534551053545
-0.04305883884532775,-0.253784322975773
-0.04305510884532775,-0.2533073670189679
-0.04305137884532775,-0.2544202642515158
-0.04304764884532775,-0.2544202642515159
-0.04304391884532775,-0.2544997569109836
-0.04304018884532775,-0.2535458449973697
-0.04303645884532775,-0.2536253376568373
-0.04303272884532774,-0.2570435220139516
-0.04302899884532775,-0.2553741761651299
-0.04302526884532774,-0.2561691027598093
-0.04302153884532775,-0.2566460587166154
-0.04301780884532774,-0.2565665660571501
-0.04301407884532775,-0.257917941268101
-0.04301034884532774,-0.2567255513760849
-0.04300661884532775,-0.2575999706302296
-0.04300288884532776,-0.2573614926518265
-0.04299915884532775,-0.2574409853112961
-0.04299542884532775,-0.2586333752033115
-0.04299169884532775,-0.2579974339275704
-0.04298796884532775,-0.2588718531817151
-0.04298423884532775,-0.2587128678627794
-0.04298050884532775,-0.2587128678627794
-0.04297677884532775,-0.2599847504142648
-0.04297304884532775,-0.2599052577547971
-0.04296931884532774,-0.2610181549873449
-0.04296558884532775,-0.2599052577547971
-0.04296185884532774,-0.2610976476468152
-0.04295812884532775,-0.2613361256252183
-0.04295439884532774,-0.2610181549873488
-0.04295066884532775,-0.2620515595604289
-0.04294693884532774,-0.2607001843494777
-0.04294320884532775,-0.2618925742414932
