-20250405-BKP/real-diodes-in-T10-L10-D00/100Hz1V/scope.csv

#Digilent WaveForms Oscilloscope Acquisition
#Device Name: Discovery3
#Serial Number: SN:210415BD5874
#Date Time: 2025-04-03 16:06:20.664.780.620
#Sample rate: 344828Hz
#Samples: 32768
#Trigger: Source: Channel 1 Type: Edge Condition: Rising Level: 0 V Hyst.: Auto HoldOff: 0 s
#Channel 1: Range: 200 mV/div Offset: 0 V Sample Mode: Average
#Wavegen Channel 1: Running
#Mode: Simple
#Type: Sine
#Frequency: 100 Hz
#Period: 10 ms
#Amplitude: 1 V
#Offset: 0 V
#Symmetry: 50 %
#Phase: 0 °

Time (s),Channel 1 (V)
-0.03483863354091508,0.08008484678917939
-0.03483573354091508,0.07881296423769157
-0.03483283354091508,0.07913093487556004
-0.03482993354091508,0.07952839817289913
-0.03482703354091508,0.07841550094035205
-0.03482413354091508,0.07857448625928543
-0.03482123354091508,0.07905144221609191
-0.03481833354091508,0.07841550094035117
-0.03481543354091508,0.07777955966460842
-0.03481253354091508,0.07857448625928427
-0.03480963354091508,0.07833600828088261
-0.03480673354091508,0.07714361838886667
-0.03480383354091508,0.07793854498354151
-0.03480093354091508,0.07793854498354295
-0.03479803354091508,0.07682564775099515
-0.03479513354091508,0.07762057434567013
-0.03479223354091508,0.07762057434567157
-0.03478933354091508,0.07666666243205918
-0.03478643354091508,0.07714361838886363
-0.03478353354091508,0.0776205743456707
-0.03478063354091508,0.07674615509152688
-0.03477773354091508,0.07682564775099299
-0.03477483354091508,0.07714361838886392
-0.03477193354091508,0.07626919913471981
-0.03476903354091508,0.07626919913471822
-0.03476613354091508,0.07666666243205672
-0.03476323354091508,0.07698463306992824
-0.03476033354091508,0.07777955966460583
-0.03475743354091508,0.07714361838886566
-0.03475453354091508,0.07531528722110742
-0.03475163354091508,0.07483833126429788
-0.03474873354091508,0.07603072115631251
-0.03474583354091508,0.0761102138157824
-0.03474293354091508,0.07515630190217013
-0.03474003354091508,0.07579224317791
-0.03473713354091508,0.07579224317791115
-0.03473423354091508,0.07420238998855426
-0.03473133354091508,0.07515630190216839
-0.03472843354091508,0.07499731658323271
-0.03472553354091508,0.07420238998855426
-0.03472263354091508,0.07523579456163623
-0.03471973354091508,0.07499731658323271
-0.03471683354091508,0.07396391201015072
-0.03471393354091508,0.07420238998855426
-0.03471103354091508,0.07467934594536133
-0.03470813354091508,0.07324847807494012
-0.03470523354091508,0.07404340466961856
-0.03470233354091508,0.07404340466961856
-0.03469943354091508,0.07316898541547227
-0.03469653354091508,0.07285101477760089
-0.03469363354091508,0.07364594137227934
-0.03469073354091508,0.07308949275600443
-0.03468783354091508,0.07237405882079383
-0.03468493354091508,0.07308949275600443
-0.03468203354091508,0.07285101477760089
-0.03467913354091508,0.07149963956664754
-0.03467623354091508,0.07285101477760089
-0.03467333354091508,0.07277152211813305
-0.03467043354091508,0.07173811754505106
-0.03466753354091508,0.07229456616132598
-0.03466463354091508,0.07269202945866521
-0.03466173354091508,0.07149963956664754
-0.03465883354091508,0.07221507350185814
-0.03465593354091508,0.07229456616132598
-0.03465303354091508,0.07110217626930831
-0.03465013354091508,0.0719765955234546
-0.03464723354091508,0.07181761020451892
-0.03464433354091508,0.07078420563143693
-0.03464143354091508,0.07157913222611538
-0.03463853354091508,0.07277152211813305
-0.03463563354091508,0.07229456616132598
-0.03463273354091508,0.07181761020451892
-0.03462983354091508,0.07078420563143693
-0.03462693354091508,0.07070471297196909
-0.03462403354091508,0.06998927903675849
-0.03462113354091507,0.07118166892877616
-0.03461823354091507,0.07030724967462987
-0.03461533354091507,0.06975080105835654
-0.03461243354091507,0.07062522031250067
-0.03460953354091507,0.07030724967462799
-0.03460663354091507,0.06927384510154976
-0.03460373354091507,0.07030724967462987
-0.03460083354091507,0.07030724967462741
-0.03459793354091507,0.06895587446367837
-0.03459503354091509,0.06998927903675473
-0.03459213354091509,0.06975080105835582
-0.03458923354091509,0.06847891850687406
-0.03458633354091509,0.06887638180420722
-0.03458343354091509,0.06919435244207889
-0.03458053354091509,0.06784297723113158
-0.03457763354091509,0.06808145520952934
-0.03457473354091509,0.06871739648527066
-0.03457183354091509,0.06792246989059741
-0.03456893354091509,0.06736602127432163
-0.03456603354091509,0.06855841116633293
-0.03456313354091509,0.06736602127432395
-0.03456023354091509,0.06728652861485206
-0.03455733354091509,0.06784297723112465
-0.03455443354091509,0.06704805063645111
-0.03455153354091509,0.06657109467964289
-0.03454863354091509,0.06760449925271939
-0.03454573354091509,0.0675250065932556
-0.03454283354091509,0.06649160202017708
-0.03453993354091509,0.06760449925271909
-0.03453703354091509,0.06760449925272315
-0.03453413354091509,0.06633261670123995
-0.03453123354091509,0.06688906531751153
-0.03452833354091508,0.06712754329591565
-0.03452543354091508,0.06577616808496517
-0.03452253354091508,0.06665058733910741
-0.03451963354091508,0.066650587339109
-0.03451673354091508,0.065855660744432
-0.03451383354091508,0.06720703595538147
-0.03451093354091508,0.06824044052846402
-0.03450803354091508,0.06641210936070881
-0.03450513354091508,0.06545819744709307
-0.03450223354091508,0.06601464606336524
-0.03449933354091508,0.06506073414975384
-0.03449643354091508,0.06561718276602602
-0.03449353354091508,0.06625312404176863
-0.03449063354091508,0.06490174883081888
-0.03448773354091508,0.06521971946868722
-0.03448483354091508,0.06601464606336481
-0.03448193354091508,0.06521971946868925
-0.03447903354091508,0.0645837781929462
-0.03447613354091508,0.06537870478762205
-0.03447323354091508,0.0648222561713496
-0.03447033354091508,0.06370935893880078
-0.03446743354091508,0.06466327085241115
-0.03446453354091508,0.0643453002145421
-0.03446163354091508,0.06362986627933222
-0.03445873354091508,0.0641068222361371
-0.03445583354091508,0.06402732957667027
-0.03445293354091508,0.06267595436571922
-0.03445003354091508,0.06355037361986146
-0.03444713354091508,0.06347088096039535
-0.03444423354091508,0.06259646170625052
-0.03444133354091508,0.06275544702518432
-0.03443843354091508,0.06370935893879702
-0.03443553354091508,0.06251696904678325
-0.03443263354091508,0.06355037361986118
-0.03442973354091508,0.06402732957666926
-0.03442683354091508,0.06259646170625154
-0.03442393354091508,0.06204001308997503
-0.03442103354091508,0.06323240298198952
-0.03441813354091508,0.06291443234412089
-0.03441523354091508,0.06188102777103832
-0.03441233354091508,0.0623579837278454
-0.03440943354091508,0.06180153511157048
-0.03440653354091508,0.05655501958669273
-0.03440363354091508,0.05591907831094997
-0.03440073354091508,0.05814487277604963
-0.03439783354091508,0.05814487277604963
-0.03439493354091508,0.05965523330593868
-0.03439203354091508,0.06172204245210264
-0.03438913354091508,0.06267595436571677
-0.03438623354091508,0.06394783691720229
-0.03438333354091508,0.06490174883081642
-0.03438043354091508,0.06331189564145953
-0.03437753354091508,0.06283493968465247
-0.03437463354091508,0.06275544702518461
-0.03437173354091508,0.06355037361986306
-0.03436883354091508,0.06291443234412031
-0.03436593354091508,0.0616425497926348
-0.03436303354091508,0.06196052043050618
-0.03436013354091508,0.06156305713316695
-0.03435723354091508,0.05981421862487436
-0.03435433354091508,0.05981421862487436
-0.03435143354091508,0.0598937112843422
-0.03434853354091508,0.05830385809498531
-0.03434563354091508,0.05901929203019592
-0.03434273354091508,0.05925777000859946
-0.03433983354091508,0.05798588745711394
-0.03433693354091508,0.05790639479764609
-0.03433403354091508,0.05854233607338885
-0.03433113354091508,0.05719096086243548
-0.03432823354091508,0.05790639479764609
-0.03432533354091508,0.05814487277604963
-0.03432243354091508,0.05727045352190334
-0.03431953354091508,0.05742943884083902
-0.03431663354091508,0.05830385809498531
-0.03431373354091508,0.05742943884083902
-0.03431083354091508,0.05750893150030686
-0.03430793354091508,0.05854233607338885
-0.03430503354091508,0.05750893150030686
-0.03430213354091508,0.05742943884083902
-0.03429923354091508,0.05798588745711394
-0.03429633354091507,0.05727045352190334
-0.03429343354091507,0.05671400490562986
-0.03429053354091507,0.05750893150030528
-0.03428763354091507,0.05663451224615985
-0.03428473354091507,0.05623704894882251
-0.03428183354091507,0.05687299022456238
-0.03427893354091507,0.0559190783109494
-0.03427603354091507,0.05560110767308018
-0.03427313354091509,0.05647552692722171
-0.03427023354091509,0.05568060033254934
-0.03426733354091509,0.05504465905680599
-0.03426443354091509,0.05623704894881702
-0.03426153354091509,0.05766791681923736
-0.03425863354091509,0.05599857097042388
-0.03425573354091509,0.05536262969467737
-0.03425283354091509,0.05560110767307772
-0.03424993354091509,0.05520364437574081
-0.03424703354091509,0.05591907831094737
-0.03424413354091509,0.05560110767307975
-0.03424123354091509,0.05472668841893548
-0.03423833354091509,0.05552161501360785
-0.03423543354091509,0.05472668841893519
-0.03423253354091509,0.05409074714319186
-0.03422963354091509,0.05504465905680021
-0.03422673354091509,0.05417023980266057
-0.03422383354091509,0.05353429852691694
-0.03422093354091509,0.05424973246212263
-0.03421803354091509,0.05424973246212524
-0.03421513354091509,0.05281886459170663
-0.03421223354091509,0.05369328384584874
-0.03420933354091509,0.05305734257010872
-0.03420643354091508,0.05258038661330137
-0.03420353354091508,0.0532958205485098
-0.03420063354091508,0.0527393719322372
-0.03419773354091508,0.05242140129436538
-0.03419483354091508,0.05321632788904181
-0.03419193354091508,0.05250089395383396
-0.03418903354091508,0.05234190863489725
-0.03418613354091508,0.05297784991063857
-0.03418323354091508,0.05226241597543042
-0.03418033354091508,0.05218292331596142
-0.03417743354091508,0.05258038661329978
-0.03417453354091508,0.0518649526780912
-0.03417163354091508,0.0518649526780899
-0.03416873354091508,0.05234190863489609
-0.03416583354091508,0.05114951874288146
-0.03416293354091508,0.0509905334239439
-0.03416003354091508,0.05178546001862061
-0.03415713354091508,0.05075205544554195
-0.03415423354091508,0.05083154810500776
-0.03415133354091508,0.05114951874287871
-0.03414843354091508,0.04995712885086379
-0.03414553354091508,0.04971865087245852
-0.03414263354091508,0.05043408480766738
-0.03413973354091508,0.05059307012660409
-0.03413683354091508,0.05146748938074908
-0.03413393354091508,0.05226241597542768
-0.03413103354091508,0.04995712885086581
-0.03412813354091508,0.04908270959671692
-0.03412523354091508,0.05019560682926313
-0.03412233354091508,0.05043408480766825
-0.03411943354091508,0.04908270959671779
-0.03411653354091508,0.04948017289405383
-0.03411363354091508,0.04979814353192536
-0.03411073354091508,0.04868524629937813
-0.03410783354091508,0.04868524629937611
-0.03410493354091508,0.04924169491565
-0.03410203354091508,0.04749285640736162
-0.03409913354091508,0.04789031970469694
-0.03409623354091508,0.04836727566150386
-0.03409333354091508,0.04677742247214783
-0.03409043354091508,0.04693640779108352
-0.03408753354091508,0.04757234906682628
-0.03408463354091508,0.04661843715321214
-0.03408173354091508,0.04637995917480861
-0.03407883354091508,0.04709539311001922
-0.03407593354091508,0.04661843715321214
-0.03407303354091508,0.04598249587746939
-0.03407013354091508,0.04685691513161568
-0.03406723354091508,0.04661843715321214
-0.03406433354091508,0.04518756928279094
-0.03406143354091508,0.04614148119640507
-0.03405853354091508,0.04502858396385524
-0.03405563354091508,0.04447213534758034
-0.03405273354091508,0.0451080766233231
-0.03404983354091508,0.04439264268811249
-0.03404693354091508,0.04312076013662698
-0.03404403354091508,0.04415416470970895
-0.03404113354091508,0.04383619407183757
-0.03403823354091508,0.0426438041798199
-0.03403533354091508,0.04288228215822344
-0.03403243354091508,0.04296177481769128
-0.03402953354091508,0.04129242896886655
-0.03402663354091508,0.04176938492567361
-0.03402373354091508,0.04176938492567361
-0.03402083354091508,0.0403385170552524
-0.03401793354091508,0.04081547301205948
-0.03401503354091508,0.04113344364993085
-0.03401213354091508,0.04184887758514146
-0.03400923354091508,0.0419283702446093
-0.03400633354091508,0.03946409780110612
-0.03400343354091508,0.03882815652536337
-0.03400053354091508,0.03771525929281354
-0.03399763354091508,0.03803322993068492
-0.03399473354091508,0.03795373727121706
-0.03399183354091508,0.03596642078452095
-0.03398893354091508,0.03564845014664957
-0.03398603354091508,0.03556895748718172
-0.03398313354091508,0.03405859695729267
-0.03398023354091508,0.03334316302208208
-0.03397733354091508,0.0330251923842107
-0.03397443354091507,0.03111736855698242
-0.03397153354091507,0.0307993979191096
-0.03396863354091507,0.03000447132442913
-0.03396573354091507,0.0280966474972036
-0.03396283354091507,0.02769918419986438
-0.03395993354091507,0.02730172090252226
-0.03395703354091507,0.02531440441582947
-0.03395413354091507,0.02515541909689277
-0.03395123354091509,0.02443998516168607
-0.03394833354091509,0.02253216133446213
-0.03394543354091509,0.02173723473977964
-0.03394253354091509,0.02070383016669853
-0.03393963354091509,0.0183190503826681
-0.03393673354091509,0.01704716783117854
-0.03393383354091509,0.01633173389596591
-0.03393093354091509,0.01370847613353397
-0.03392803354091509,0.01243659358204354
-0.03392513354091509,0.01076724773322025
-0.03392223354091509,0.007985004651849733
-0.03391933354091509,0.006077180824618278
-0.03391643354091509,0.004328342316325116
-0.03391353354091509,0.001307621256551644
-0.03391063354091509,-0.0007591878896157889
-0.03390773354091509,-0.002825997035779752
-0.03390483354091509,-0.00568773277661927
-0.03390193354091509,-0.008152005220123902
-0.03389903354091509,-0.01021881436628931
-0.03389613354091509,-0.01395496936127194
-0.03389323354091509,-0.01673721244265504
-0.03389033354091509,-0.0189630069077557
-0.03388743354091509,-0.02055286009711375
-0.03388453354091508,-0.02444800041103395
-0.03388163354091508,-0.02794567742761984
-0.03387873354091508,-0.03215878837941431
-0.03387583354091508,-0.03645139199067778
-0.03387293354091508,-0.03971059102886129
-0.03387003354091508,-0.04463913591586463
-0.03386713354091508,-0.050362607397548
-0.03386423354091508,-0.05465521100881422
-0.03386133354091508,-0.05942477057688403
-0.03385843354091508,-0.06618164663164722
-0.03385553354091508,-0.07071272822131842
-0.03385263354091508,-0.07635670704353337
-0.03384973354091508,-0.08390850969297514
-0.03384683354091508,-0.0894729958557279
-0.03384393354091508,-0.09559393063475093
-0.03384103354091508,-0.1028277626463228
-0.03383813354091508,-0.1092666680632196
-0.03383523354091508,-0.115467095501712
-0.03383233354091508,-0.1233368687890256
-0.03382943354091508,-0.1305707008006006
-0.03382653354091508,-0.1374070695148359
-0.03382363354091508,-0.1464692326941662
-0.03382073354091508,-0.1539415426841465
-0.03381783354091508,-0.162447257247204
-0.03381493354091508,-0.1720658690428112
-0.03381203354091508,-0.1803331056274695
-0.03380913354091508,-0.1889183128499961
-0.03380623354091508,-0.1986164173050712
-0.03380333354091508,-0.2072016245276004
-0.03380043354091508,-0.2153893684527891
-0.03379753354091508,-0.2242130536537187
-0.03379463354091508,-0.2314468856652955
-0.03379173354091508,-0.2374088351253862
-0.03378883354091508,-0.2424963653313298
-0.03378593354091508,-0.2459145496884502
-0.03378303354091508,-0.246550490964198
-0.03378013354091508,-0.246073535007393
-0.03377723354091508,-0.2457555643695213
-0.03377433354091508,-0.2436887552233605
-0.03377143354091508,-0.2417809313961285
-0.03376853354091508,-0.2408270194825143
-0.03376563354091508,-0.2382832543795433
-0.03376273354091508,-0.2339111581088119
-0.03375983354091508,-0.2312084076869051
-0.03375693354091508,-0.2286646425839341
-0.03375403354091508,-0.2270747893945772
-0.03375113354091508,-0.2253259508862846
-0.03374823354091508,-0.2224642151454422
-0.03374533354091508,-0.2188870454693892
-0.03374243354091508,-0.2170587143016288
-0.03373953354091508,-0.2145944418581256
-0.03373663354091508,-0.2114147354794118
-0.03373373354091508,-0.2091889410143122
-0.03373083354091508,-0.2072811171870839
-0.03372793354091508,-0.2035449621920952
-0.03372503354091508,-0.2006832264512527
-0.03372213354091508,-0.1985369246456209
-0.03371923354091508,-0.195436710926375
-0.03371633354091508,-0.1922570045476612
-0.03371343354091508,-0.1905081660393686
-0.03371053354091508,-0.1874874449795905
-0.03370763354091508,-0.1846257092387481
-0.03370473354091508,-0.1828768707304556
-0.03370183354091508,-0.1800151349896131
-0.03369893354091508,-0.1768354286108993
-0.03369603354091508,-0.1758815166972852
-0.03369313354091508,-0.1723838396807
-0.03369023354091508,-0.1699195672371969
-0.03368733354091508,-0.1686476846857113
-0.03368443354091508,-0.1656269636259332
-0.03368153354091508,-0.1624472572472195
-0.03367863354091508,-0.1611753746957339
-0.03367573354091508,-0.1588700875711664
-0.03367283354091508,-0.156008351830324
-0.03366993354091508,-0.1544184986409671
-0.03366703354091508,-0.1525901674732067
-0.03366413354091508,-0.1490924904566215
-0.03366123354091508,-0.1474231446077968
-0.03365833354091508,-0.1461512620563113
-0.03365543354091508,-0.1434485116344046
-0.03365253354091507,-0.1413022098287728
-0.03364963354091507,-0.1403482979151547
-0.03364673354091507,-0.1382019961095229
-0.03364383354091507,-0.136055694303894
-0.03364093354091507,-0.1354992456876123
-0.03363803354091507,-0.1312066420763524
-0.03363513354091507,-0.1289808476112571
-0.03363223354091507,-0.1291398329301902
-0.03362933354091509,-0.1278679503787116
-0.03362643354091509,-0.1260396192109532
-0.03362353354091509,-0.1251651999568035
-0.03362063354091509,-0.122541942194371
-0.03361773354091509,-0.1215880302807508
-0.03361483354091509,-0.1204751330482015
-0.03361193354091509,-0.1184878165615086
-0.03360903354091509,-0.1173749193289556
-0.03360613354091509,-0.1165005000748084
-0.03360323354091509,-0.1141157202907785
-0.03360033354091509,-0.1130028230582241
-0.03359743354091509,-0.1126848524203498
-0.03359453354091509,-0.1106180432741922
-0.03359163354091509,-0.1095051460416389
-0.03358873354091509,-0.1094256533821673
-0.03358583354091509,-0.1075973222144133
-0.03358293354091509,-0.1064049323223933
-0.03358003354091509,-0.1064049323223889
-0.03357713354091509,-0.1042586305167649
-0.03357423354091509,-0.1037816745599518
-0.03357133354091509,-0.1039406598788855
-0.03356843354091509,-0.1017943580732578
-0.03356553354091509,-0.1009994314785769
-0.03356263354091508,-0.1009199388191078
-0.03355973354091508,-0.09933008562975365
-0.03355683354091508,-0.09789921775933216
-0.03355393354091508,-0.09789921775932955
-0.03355103354091508,-0.09583240861316936
-0.03354813354091508,-0.09416306276434389
-0.03354523354091508,-0.09416306276434085
-0.03354233354091508,-0.09201676095871295
-0.03353943354091508,-0.09066538574775815
-0.03353653354091508,-0.09074487840722339
-0.03353363354091508,-0.08931401053680493
-0.03353073354091508,-0.08780365000691602
-0.03352783354091508,-0.08772415734744557
-0.03352493354091508,-0.08700872341223613
-0.03352203354091508,-0.08510089958501002
-0.03351913354091508,-0.08486242160660346
-0.03351623354091508,-0.08438546564979683
-0.03351333354091508,-0.08144423724949104
-0.03351043354091508,-0.0806493106548087
-0.03350753354091508,-0.08088778863321036
-0.03350463354091508,-0.08120575927108158
-0.03350173354091508,-0.08064931065480826
-0.03349883354091508,-0.07929793544385635
-0.03349593354091508,-0.07794656023290299
-0.03349303354091508,-0.07810554555183592
-0.03349013354091508,-0.07794656023290082
-0.03348723354091508,-0.07611822906514343
-0.03348433354091508,-0.07619772172460781
-0.03348143354091508,-0.07619772172460795
-0.03347853354091508,-0.07476685385418935
-0.03347563354091508,-0.07428989789738055
-0.03347273354091508,-0.07421040523791197
-0.03346983354091508,-0.07476685385418573
-0.03346693354091508,-0.07405141991897744
-0.03346403354091508,-0.07285903002696063
