real-diodes-out/-bkp-20250401/100Hz5V/scope.csv

#Digilent WaveForms Oscilloscope Acquisition
#Device Name: Discovery3
#Serial Number: SN:210415BD5874
#Date Time: 2025-04-01 12:38:39.531.165.960
#Sample rate: 1.49254e+06Hz
#Samples: 32768
#Trigger: Source: Channel 1 Type: Edge Condition: Rising Level: 0 V Hyst.: Auto HoldOff: 0 s
#Channel 1: Range: 200 mV/div Offset: 0 V Sample Mode: Average
#Wavegen Channel 1: Running
#Mode: Simple
#Type: Sine
#Frequency: 100 Hz
#Period: 10 ms
#Amplitude: 5 V
#Offset: 0 V
#Symmetry: 50 %
#Phase: 0 °

Time (s),Channel 1 (V)
-0.01097697741935484,-0.61571440153287
-0.01097630741935484,-0.6159528795112731
-0.01097563741935484,-0.6160323721707414
-0.01097496741935484,-0.6164298354680806
-0.01097429741935484,-0.6161118648302093
-0.01097362741935484,-0.6162708501491446
-0.01097295741935484,-0.6161118648302093
-0.01097228741935484,-0.61571440153287
-0.01097161741935484,-0.61571440153287
-0.01097094741935484,-0.616270850149145
-0.01097027741935484,-0.6163503428086128
-0.01096960741935484,-0.6159528795112735
-0.01096893741935484,-0.6161913574896767
-0.01096826741935484,-0.6159528795112735
-0.01096759741935484,-0.6160323721707414
-0.01096692741935484,-0.6155554162139352
-0.01096625741935484,-0.61571440153287
-0.01096558741935484,-0.6154759235544665
-0.01096491741935484,-0.6149194749381925
-0.01096424741935484,-0.6147604896192559
-0.01096357741935484,-0.6149194749381915
-0.01096290741935484,-0.615237445576063
-0.01096223741935484,-0.6149989675976585
-0.01096156741935484,-0.6145220116408524
-0.01096089741935484,-0.615237445576063
-0.01096022741935484,-0.6148399822787245
-0.01095955741935484,-0.6148399822787237
-0.01095888741935484,-0.6151579529165951
-0.01095821741935484,-0.6145220116408524
-0.01095754741935484,-0.6144425189813852
-0.01095687741935484,-0.6148399822787237
-0.01095620741935484,-0.6143630263219166
-0.01095553741935484,-0.6146809969597875
-0.01095486741935484,-0.6146015043003202
-0.01095419741935484,-0.6147604896192559
-0.01095352741935484,-0.6146015043003206
-0.01095285741935484,-0.6146809969597881
-0.01095218741935484,-0.6148399822787237
-0.01095151741935484,-0.6143630263219166
-0.01095084741935484,-0.6148399822787233
-0.01095017741935484,-0.6146015043003202
-0.01094950741935484,-0.6145220116408524
-0.01094883741935484,-0.6146809969597877
-0.01094816741935484,-0.614204041002981
-0.01094749741935484,-0.6144425189813845
-0.01094682741935484,-0.6146809969597881
-0.01094615741935484,-0.6144425189813848
-0.01094548741935484,-0.6146015043003202
-0.01094481741935484,-0.6138860703651096
-0.01094414741935484,-0.6146015043003189
-0.01094347741935484,-0.6144425189813845
-0.01094280741935484,-0.6144425189813845
-0.01094213741935484,-0.6146015043003202
-0.01094146741935484,-0.6145220116408521
-0.01094079741935484,-0.6143630263219166
-0.01094012741935484,-0.6140450556840453
-0.01093945741935484,-0.614283533662448
-0.01093878741935484,-0.6138860703651096
-0.01093811741935484,-0.6139655630245774
-0.01093744741935484,-0.6139655630245774
-0.01093677741935484,-0.6136475923867061
-0.01093610741935484,-0.6138065777056417
-0.01093543741935484,-0.6138860703651096
-0.01093476741935484,-0.6137270850461738
-0.01093409741935484,-0.6136475923867061
-0.01093342741935484,-0.6137270850461739
-0.01093275741935484,-0.6135680997272386
-0.01093208741935484,-0.6134091144083025
-0.01093141741935484,-0.6134091144083025
-0.01093074741935484,-0.613170636429899
-0.01093007741935484,-0.6135680997272374
-0.01092940741935484,-0.6130911437704312
-0.01092873741935484,-0.6134886070677704
-0.01092806741935484,-0.6134886070677696
-0.01092739741935484,-0.6130911437704312
-0.01092672741935484,-0.6132501290893668
-0.01092605741935484,-0.6132501290893668
-0.01092538741935484,-0.6129321584514955
-0.01092471741935484,-0.613170636429899
-0.01092404741935484,-0.6130911437704312
-0.01092337741935484,-0.613329621748835
-0.01092270741935484,-0.6134886070677704
-0.01092203741935484,-0.6135680997272382
-0.01092136741935484,-0.613647592386706
-0.01092069741935484,-0.6133296217488347
-0.01092002741935484,-0.6133296217488347
-0.01091935741935484,-0.6129321584514955
-0.01091868741935484,-0.6130911437704313
-0.01091801741935484,-0.613170636429899
-0.01091734741935484,-0.6132501290893668
-0.01091667741935484,-0.6127731731325592
-0.01091600741935484,-0.6124552024946884
-0.01091533741935484,-0.6125346951541563
-0.01091466741935484,-0.6121372318568178
-0.01091399741935484,-0.6126141878136241
-0.01091332741935484,-0.6122962171757527
-0.01091265741935484,-0.6125346951541563
-0.01091198741935484,-0.612137231856817
-0.01091131741935484,-0.612137231856817
-0.01091064741935484,-0.6116602759000099
-0.01090997741935484,-0.6122962171757516
-0.01090930741935484,-0.6118987538784135
-0.01090863741935484,-0.6116602759000099
-0.01090796741935484,-0.6118192612189456
-0.01090729741935484,-0.612137231856817
-0.01090662741935484,-0.612137231856817
-0.01090595741935484,-0.612137231856817
-0.01090528741935484,-0.6121372318568173
-0.01090461741935484,-0.6122962171757527
-0.01090394741935484,-0.6118987538784135
-0.01090327741935484,-0.6121372318568166
-0.01090260741935484,-0.6118192612189456
-0.01090193741935484,-0.612137231856817
-0.01090126741935484,-0.6116602759000099
-0.01090059741935484,-0.6118192612189465
-0.01089992741935484,-0.6122962171757527
-0.01089925741935484,-0.6116602759000099
-0.01089858741935484,-0.6114217979216069
-0.01089791741935484,-0.6115807832405421
-0.01089724741935484,-0.6109448419647994
-0.01089657741935484,-0.6104678860079923
-0.01089590741935484,-0.6109448419647994
-0.01089523741935484,-0.6109448419647994
-0.01089456741935484,-0.6107858566458636
-0.01089389741935484,-0.6113423052621383
-0.01089322741935484,-0.6111833199432029
-0.01089255741935484,-0.6110243346242672
-0.01089188741935484,-0.6111833199432025
-0.01089121741935484,-0.6107063639863958
-0.01089054741935484,-0.6107063639863958
-0.01088987741935484,-0.6103883933485245
-0.01088920741935484,-0.6105473786674607
-0.01088853741935484,-0.6108653493053315
-0.01088786741935484,-0.6102294080295887
-0.01088719741935484,-0.6103883933485241
-0.01088652741935484,-0.6104678860079923
-0.01088585741935484,-0.6104678860079923
-0.01088518741935484,-0.6102294080295887
-0.01088451741935484,-0.6099909300511858
-0.01088384741935484,-0.6103089006890566
-0.01088317741935484,-0.6102294080295887
-0.01088250741935484,-0.6103089006890565
-0.01088183741935484,-0.6103883933485245
-0.01088116741935484,-0.6103883933485245
-0.01088049741935484,-0.6106268713269275
-0.01087982741935484,-0.6105473786674601
-0.01087915741935484,-0.6103883933485245
-0.01087848741935484,-0.6101499153701209
-0.01087781741935484,-0.6107858566458639
-0.01087714741935484,-0.6109448419647994
-0.01087647741935484,-0.6110243346242672
-0.01087580741935484,-0.6113423052621381
-0.01087513741935484,-0.6106268713269279
-0.01087446741935484,-0.6110243346242672
-0.01087379741935484,-0.6109448419647994
-0.01087312741935484,-0.6103883933485243
-0.01087245741935484,-0.6103089006890566
-0.01087178741935484,-0.6101499153701209
-0.01087111741935484,-0.6092754961159762
-0.01087044741935484,-0.6096729594133138
-0.01086977741935484,-0.6094344814349103
-0.01086910741935484,-0.6094344814349103
-0.01086843741935484,-0.6095139740943781
-0.01086776741935484,-0.609593466753846
-0.01086709741935484,-0.609593466753846
-0.01086642741935484,-0.609434481434909
-0.01086575741935484,-0.6087190474996997
-0.01086508741935484,-0.6087985401591676
-0.01086441741935484,-0.6090370181375706
-0.01086374741935484,-0.6090370181375711
-0.01086307741935484,-0.6093549887754425
-0.01086240741935484,-0.6091165107970389
-0.01086173741935484,-0.6091165107970392
-0.01086106741935484,-0.6092754961159746
-0.01086039741935484,-0.609593466753846
-0.01085972741935484,-0.6096729594133137
-0.01085905741935484,-0.6091960034565067
-0.01085838741935484,-0.6093549887754425
-0.01085771741935484,-0.6090370181375716
-0.01085704741935484,-0.6092754961159746
-0.01085637741935484,-0.6087985401591676
-0.01085570741935484,-0.6084010768618283
-0.01085503741935484,-0.608560062180764
-0.01085436741935484,-0.608560062180764
-0.01085369741935484,-0.6089575254781032
-0.01085302741935484,-0.6081625988834262
-0.01085235741935484,-0.6086395548402318
-0.01085168741935484,-0.6084010768618283
-0.01085101741935484,-0.6080036135644891
-0.01085034741935484,-0.6086395548402319
-0.01084967741935484,-0.6087190474996997
-0.01084900741935484,-0.6084805695212961
-0.01084833741935484,-0.6085600621807639
-0.01084766741935484,-0.6082420915428927
-0.01084699741935484,-0.6084805695212961
-0.01084632741935484,-0.6084805695212961
-0.01084565741935484,-0.6080036135644891
-0.01084498741935484,-0.6078446282455534
-0.01084431741935484,-0.6080831062239569
-0.01084364741935484,-0.6080831062239568
-0.01084297741935484,-0.6080036135644891
-0.01084230741935484,-0.6081625988834247
-0.01084163741935484,-0.6081625988834247
-0.01084096741935484,-0.6079241209050212
-0.01084029741935484,-0.6079241209050212
-0.01083962741935484,-0.6079241209050212
-0.01083895741935484,-0.6080831062239563
-0.01083828741935484,-0.6077651355860856
-0.01083761741935484,-0.6079241209050212
-0.01083694741935484,-0.6083215842023597
-0.01083627741935484,-0.6080831062239569
-0.01083560741935484,-0.6078446282455534
-0.01083493741935484,-0.6078446282455534
-0.01083426741935484,-0.6077651355860859
-0.01083359741935484,-0.6079241209050212
-0.01083292741935484,-0.6072881796292785
-0.01083225741935484,-0.6075266576076811
-0.01083158741935484,-0.6070497016508749
-0.01083091741935484,-0.6076061502671498
-0.01083024741935484,-0.6073676722887468
-0.01082957741935484,-0.6076061502671498
-0.01082890741935484,-0.6072881796292785
-0.01082823741935484,-0.6072881796292785
-0.01082756741935484,-0.607129194310343
-0.01082689741935484,-0.6072086869698107
-0.01082622741935484,-0.6072086869698107
-0.01082555741935484,-0.607129194310343
-0.01082488741935484,-0.6067317310130036
-0.01082421741935484,-0.6067317310130036
-0.01082354741935484,-0.6070497016508749
-0.01082287741935484,-0.6064137603751327
-0.01082220741935484,-0.6067317310130036
-0.01082153741935484,-0.6062547750561965
-0.01082086741935484,-0.6068907163319389
-0.01082019741935484,-0.6067317310130036
-0.01081952741935484,-0.6064137603751322
-0.01081885741935484,-0.6065727456940675
-0.01081818741935484,-0.6067317310130036
-0.01081751741935484,-0.6063342677156643
-0.01081684741935484,-0.6062547750561965
-0.01081617741935484,-0.6060162970777924
-0.01081550741935484,-0.6056983264399216
-0.01081483741935484,-0.6058573117588573
-0.01081416741935484,-0.6057778190993895
-0.01081349741935484,-0.6059368044183251
-0.01081282741935484,-0.6060957897372609
-0.01081215741935484,-0.6066522383535358
-0.01081148741935484,-0.6060957897372607
-0.01081081741935484,-0.6060162970777929
-0.01081014741935484,-0.6056983264399216
-0.01080947741935484,-0.6057778190993909
-0.01080880741935484,-0.6065727456940678
-0.01080813741935484,-0.6063342677156643
-0.01080746741935484,-0.6064137603751321
-0.01080679741935484,-0.6064137603751322
-0.01080612741935484,-0.6061752823967287
-0.01080545741935484,-0.6059368044183251
-0.01080478741935484,-0.6057778190993891
-0.01080411741935484,-0.6056188337804538
-0.01080344741935484,-0.6052213704831145
-0.01080277741935484,-0.6051418778236468
-0.01080210741935484,-0.6049033998452431
-0.01080143741935484,-0.6049033998452431
-0.01080076741935484,-0.6048239071857753
-0.01080009741935484,-0.6046649218668411
-0.01079942741935484,-0.605459848461518
-0.01079875741935484,-0.6048239071857753
-0.01079808741935484,-0.6049033998452422
-0.01079741741935484,-0.604426443888436
-0.01079674741935484,-0.6043469512289682
-0.01079607741935484,-0.6041084732505652
-0.01079540741935484,-0.6041879659100325
-0.01079473741935484,-0.6042674585695004
-0.01079406741935484,-0.6042674585695004
-0.01079339741935484,-0.6045854292073712
-0.01079272741935484,-0.6042674585695004
-0.01079205741935484,-0.6041879659100325
-0.01079138741935484,-0.6036315172937586
-0.01079071741935484,-0.6039494879316291
-0.01079004741935484,-0.603393039315354
-0.01078937741935484,-0.6036315172937576
-0.01078870741935484,-0.6037110099532255
-0.01078803741935484,-0.6037110099532255
-0.01078736741935484,-0.6037905026126933
-0.01078669741935484,-0.6036315172937576
-0.01078602741935484,-0.6036315172937576
-0.01078535741935484,-0.603472531974822
-0.01078468741935484,-0.6035520246342897
-0.01078401741935484,-0.6029160833585471
-0.01078334741935484,-0.6037110099532255
-0.01078267741935484,-0.6035520246342898
-0.01078200741935484,-0.6042674585694996
-0.01078133741935484,-0.6038699952721611
-0.01078066741935484,-0.6041084732505647
-0.01077999741935484,-0.6037110099532262
-0.01077932741935484,-0.6041084732505647
-0.01077865741935484,-0.6038699952721611
-0.01077798741935484,-0.6036315172937576
-0.01077731741935484,-0.6035520246342903
-0.01077664741935484,-0.6037905026126933
-0.01077597741935484,-0.6032340539964184
-0.01077530741935484,-0.6033930393153537
-0.01077463741935484,-0.6030750686774827
-0.01077396741935484,-0.6029160833585471
-0.01077329741935484,-0.6029955760180148
-0.01077262741935484,-0.6026776053801435
-0.01077195741935484,-0.6028365906990791
-0.01077128741935484,-0.6025981127206756
-0.01077061741935484,-0.6029160833585462
-0.01076994741935484,-0.60243912740174
-0.01076927741935484,-0.6029955760180149
-0.01076860741935484,-0.6028365906990795
-0.01076793741935484,-0.6029160833585471
-0.01076726741935484,-0.6026776053801435
-0.01076659741935484,-0.6025981127206756
-0.01076592741935484,-0.6027570980396116
-0.01076525741935484,-0.6029160833585471
-0.01076458741935484,-0.6031545613369506
-0.01076391741935484,-0.6032340539964183
-0.01076324741935484,-0.6032340539964184
-0.01076257741935484,-0.6028365906990791
-0.01076190741935484,-0.6022801420828052
-0.01076123741935484,-0.6025981127206756
-0.01076056741935484,-0.60243912740174
-0.01075989741935484,-0.6030750686774827
-0.01075922741935484,-0.6026776053801434
-0.01075855741935484,-0.6025981127206756
-0.01075788741935484,-0.6025186200612078
-0.01075721741935484,-0.6021211567638693
-0.01075654741935484,-0.6018826787854651
-0.01075587741935484,-0.6017236934665293
-0.01075520741935484,-0.6018826787854651
-0.01075453741935484,-0.6020416641044007
-0.01075386741935484,-0.6020416641044007
-0.01075319741935484,-0.6014852154881258
-0.01075252741935484,-0.6015647081475936
-0.01075185741935484,-0.6014852154881258
-0.01075118741935484,-0.6020416641044007
-0.01075051741935484,-0.6014852154881268
-0.01074984741935484,-0.6010082595313188
-0.01074917741935484,-0.6012467375097222
-0.01074850741935484,-0.6008492742123831
-0.01074783741935484,-0.6011672448502543
-0.01074716741935484,-0.6010877521907866
-0.01074649741935484,-0.6010082595313188
-0.01074582741935484,-0.600928766871851
-0.01074515741935484,-0.6008492742123831
-0.01074448741935484,-0.6008492742123831
-0.01074381741935484,-0.6009287668718509
-0.01074314741935484,-0.6014852154881245
-0.01074247741935484,-0.6007697815529153
-0.01074180741935484,-0.6012467375097222
-0.01074113741935484,-0.6006107962339806
-0.01074046741935484,-0.6015647081475937
-0.01073979741935484,-0.6014852154881258
-0.01073912741935484,-0.6012467375097227
-0.01073845741935484,-0.6013262301691902
-0.01073778741935484,-0.6012467375097222
-0.01073711741935484,-0.6010877521907866
-0.01073644741935484,-0.6009287668718505
-0.01073577741935484,-0.6006902888934473
-0.01073510741935484,-0.6006902888934473
-0.01073443741935484,-0.6002133329366411
-0.01073376741935484,-0.6002133329366403
-0.01073309741935484,-0.6002133329366403
-0.01073242741935484,-0.6001338402771724
-0.01073175741935484,-0.6003723182555759
-0.01073108741935484,-0.6002928255961082
-0.01073041741935484,-0.5999748549582368
-0.01072974741935484,-0.5996568843203659
-0.01072907741935484,-0.5996568843203653
-0.01072840741935484,-0.5995773916608975
-0.01072773741935484,-0.5998953622987684
-0.01072706741935484,-0.5996568843203649
-0.01072639741935484,-0.5994184063419619
-0.01072572741935484,-0.5992594210230262
-0.01072505741935484,-0.5991799283635582
-0.01072438741935484,-0.5991004357040904
-0.01072371741935484,-0.599338913682494
-0.01072304741935484,-0.5987029724067524
-0.01072237741935484,-0.5989414503851548
-0.01072170741935484,-0.5989414503851548
-0.01072103741935484,-0.5984644944283477
-0.01072036741935484,-0.5983055091094129
-0.01071969741935484,-0.5987824650662191
-0.01071902741935484,-0.5992594210230262
-0.01071835741935484,-0.5992594210230262
-0.01071768741935484,-0.5991004357040904
-0.01071701741935484,-0.5991004357040904
-0.01071634741935484,-0.5991799283635583
-0.01071567741935484,-0.5991004357040908
-0.01071500741935484,-0.5992594210230262
-0.01071433741935484,-0.5992594210230262
-0.01071366741935484,-0.5990209430446236
-0.01071299741935484,-0.5995773916608975
-0.01071232741935484,-0.5995773916608975
-0.01071165741935484,-0.5993389136824945
-0.01071098741935484,-0.5995773916608975
-0.01071031741935484,-0.5994184063419619
-0.01070964741935484,-0.598861957725687
-0.01070897741935484,-0.5983850017688794
-0.01070830741935484,-0.5981465237904764
-0.01070763741935484,-0.598305509109412
-0.01070696741935484,-0.5981465237904767
-0.01070629741935484,-0.5979875384715406
-0.01070562741935484,-0.5976695678336693
-0.01070495741935484,-0.5975900751742014
-0.01070428741935484,-0.5978285531526051
-0.01070361741935484,-0.5979080458120728
-0.01070294741935484,-0.5975105825147335
-0.01070227741935484,-0.5979080458120722
-0.01070160741935484,-0.5975900751742014
-0.01070093741935484,-0.5974310898552657
-0.01070026741935484,-0.597113119217395
-0.01069959741935484,-0.5976695678336693
-0.01069892741935484,-0.5977490604931371
-0.01069825741935484,-0.5974310898552657
-0.01069758741935484,-0.5974310898552657
-0.01069691741935484,-0.5974310898552657
-0.01069624741935484,-0.5970336265579265
-0.01069557741935484,-0.5975105825147327
-0.01069490741935484,-0.5974310898552657
-0.01069423741935484,-0.5965566706011195
-0.01069356741935484,-0.5968746412389908
-0.01069289741935484,-0.5968746412389908
-0.01069222741935484,-0.5968746412389908
-0.01069155741935484,-0.5965566706011195
-0.01069088741935484,-0.5963976852821843
-0.01069021741935484,-0.5967156559200552
-0.01068954741935484,-0.5961592073037802
-0.01068887741935484,-0.5961592073037802
-0.01068820741935484,-0.5966361632605873
-0.01068753741935484,-0.5961592073037802
-0.01068686741935484,-0.596795148579523
-0.01068619741935484,-0.5968746412389897
-0.01068552741935484,-0.5962386999632481
-0.01068485741935484,-0.5963976852821837
-0.01068418741935484,-0.596079714644313
-0.01068351741935484,-0.5958412366659088
-0.01068284741935484,-0.5958412366659088
-0.01068217741935484,-0.5955232660280375
-0.01068150741935484,-0.5952847880496336
-0.01068083741935484,-0.5951258027306983
-0.01068016741935484,-0.5954437733685696
-0.01067949741935484,-0.5953642807091012
-0.01067882741935484,-0.5950463100712304
-0.01067815741935484,-0.5948873247522947
-0.01067748741935484,-0.5952052953901655
-0.01067681741935484,-0.5949668174117626
-0.01067614741935484,-0.5952847880496339
-0.01067547741935484,-0.5952847880496339
-0.01067480741935484,-0.5955232660280375
-0.01067413741935484,-0.5955232660280375
-0.01067346741935484,-0.5955232660280375
-0.01067279741935484,-0.5952052953901666
-0.01067212741935484,-0.5952052953901661
-0.01067145741935484,-0.5952052953901661
-0.01067078741935484,-0.5952052953901661
-0.01067011741935484,-0.5953642807091022
-0.01066944741935484,-0.5956027586875053
-0.01066877741935484,-0.5954437733685696
-0.01066810741935484,-0.5948873247522957
-0.01066743741935484,-0.5949668174117626
-0.01066676741935484,-0.5946488467738912
-0.01066609741935484,-0.5948078320928265
-0.01066542741935484,-0.5950463100712304
-0.01066475741935484,-0.594728339433359
-0.01066408741935484,-0.5946488467738912
-0.01066341741935484,-0.5952847880496334
-0.01066274741935484,-0.5949668174117626
-0.01066207741935484,-0.5944898614549555
-0.01066140741935484,-0.5943308761360201
-0.01066073741935484,-0.5944898614549555
-0.01066006741935484,-0.5944898614549555
-0.01065939741935484,-0.5944898614549555
-0.01065872741935484,-0.594489861454956
