real-diodes-in-T00-L10-D00/100Hz-1V/scope.csv

#Digilent WaveForms Oscilloscope Acquisition
#Device Name: Discovery3
#Serial Number: SN:210415BD5874
#Date Time: 2025-04-06 21:06:57.017.753.100
#Sample rate: 100000Hz
#Samples: 32768
#Trigger: Source: Channel 1 Type: Edge Condition: Rising Level: 0 V Hyst.: Auto HoldOff: 0 s
#Average: 1
#Channel 1: Range: 500 mV/div Offset: 0 V Sample Mode: Average
#Wavegen Channel 1: Running
#Mode: Simple
#Type: Sine
#Frequency: 100 Hz
#Period: 10 ms
#Amplitude: 1 V
#Offset: 0 V
#Symmetry: 50 %
#Phase: 0 °

Time (s),Channel 1 (V)
-0.19972,0.1670498162469969
-0.19971,0.169038025909641
-0.1997,0.1733261636411591
-0.19969,0.1775106929625769
-0.19968,0.1814853259359768
-0.19967,0.1855724990789527
-0.19966,0.1898606368104708
-0.19965,0.1939701393521738
-0.19964,0.1977107602269148
-0.19963,0.2014424493421512
-0.19962,0.2051080434371629
-0.19961,0.2087557740131998
-0.1996,0.2124963948879271
-0.19959,0.2160405170538643
-0.19958,0.2194211880211143
-0.19957,0.2227223663289087
-0.19956,0.2260190787569515
-0.19955,0.229357770454595
-0.19954,0.2326589487623893
-0.19953,0.2363683084789112
-0.19952,0.2395310445145873
-0.19951,0.2422311154086464
-0.1995,0.2454286853063474
-0.19949,0.2484404746066292
-0.19948,0.2513951006461758
-0.19947,0.2542479046275221
-0.19946,0.2569310051785545
-0.19945,0.2594613726422892
-0.19944,0.2622436157236587
-0.19943,0.2651759123644832
-0.19942,0.2679385055749783
-0.19941,0.2706233924779033
-0.1994,0.2734190331985141
-0.19939,0.2759627983014896
-0.19938,0.2783940232348726
-0.19937,0.2807743371391624
-0.19936,0.2831260694130863
-0.19935,0.2854644040477653
-0.19934,0.2877035961521013
-0.19933,0.2897284260286549
-0.19932,0.2919077753444062
-0.19931,0.2942505758588349
-0.1993,0.2964853020834213
-0.19929,0.2983645442802833
-0.19928,0.3005215641973071
-0.19927,0.3023615066524027
-0.19926,0.3039861937037731
-0.19925,0.306187872418251
-0.19924,0.3079081292961701
-0.19923,0.3094184898260591
-0.19922,0.3110789039153901
-0.19921,0.3127946949135698
-0.1992,0.3146471418319552
-0.19919,0.3165308499085551
-0.19918,0.3181207030979154
-0.19917,0.3195980161176914
-0.19916,0.3210994448880868
-0.19915,0.3226937639571892
-0.19914,0.324204124487081
-0.19913,0.3257144850169673
-0.19912,0.3271123053772728
-0.19911,0.3282716477591766
-0.1991,0.329380079111979
-0.19909,0.3306850091735803
-0.19908,0.3321158770439989
-0.19907,0.3334342047448391
-0.19906,0.3346265946368568
-0.19905,0.3358189845288723
-0.19904,0.3368613208614473
-0.19903,0.3383359543533752
-0.19902,0.3395819348023357
-0.19901,0.340308086848935
-0.199,0.341429915840977
-0.19899,0.3422337741951449
-0.19898,0.3430197690303325
-0.19897,0.3440862211135283
-0.19896,0.3452786110055479
-0.19895,0.3462834339482596
-0.19894,0.3471158739327977
-0.19893,0.3479152664072231
-0.19892,0.3485931869525745
-0.19891,0.3496792889066498
-0.1989,0.3509315215872558
-0.19889,0.3516558872819585
-0.19888,0.3523248760678158
-0.19887,0.3529322357131882
-0.19886,0.353404725790249
-0.19885,0.3541487413558307
-0.19884,0.3549901130998613
-0.19883,0.3556680336452095
-0.19882,0.3561914347513698
-0.19881,0.3567014382182927
-0.1988,0.357262352714312
-0.19879,0.3580019024001486
-0.19878,0.3592228739225374
-0.19877,0.3596408802667052
-0.19876,0.3596382007388575
-0.19875,0.3602455603842306
-0.19874,0.3606055102917079
-0.19873,0.3610360210991629
-0.19872,0.3615549563255757
-0.19871,0.3619943988925225
-0.1987,0.3623918621898617
-0.19869,0.3627142987074779
-0.19868,0.3630653168554657
-0.19867,0.3636172995919965
-0.19866,0.3643282676474603
-0.19865,0.3648606005131103
-0.19864,0.365099078491514
-0.19863,0.3651875029104726
-0.19862,0.3653330905901719
-0.19861,0.3658806074469551
-0.1986,0.3664084744328606
-0.19859,0.3667264450707319
-0.19858,0.3670444157086028
-0.19857,0.3673623863464748
-0.19856,0.3676803569843461
-0.19855,0.3680733544019399
-0.19854,0.368362743409441
-0.19853,0.3689674235269662
-0.19852,0.3692219786724532
-0.19851,0.3689897529256928
-0.1985,0.3692746760534489
-0.19849,0.3695086881521066
-0.19848,0.3696766052305331
-0.19847,0.3697891454001165
-0.19846,0.3699150832089366
-0.19845,0.3699525965987979
-0.19844,0.370144629427849
-0.19843,0.3705376268454431
-0.19842,0.3707895024630832
-0.19841,0.3709770694123889
-0.1984,0.3711869657604221
-0.19839,0.3711119389806998
-0.19838,0.3711780340009312
-0.19837,0.3714584912489415
-0.19836,0.3714343754983165
-0.19835,0.3711914316401675
-0.19834,0.3711449864908155
-0.19833,0.3712244791502832
-0.19832,0.3713039718097512
-0.19831,0.3714209778590802
-0.1983,0.3715424497881548
-0.19829,0.3715469156679001
-0.19828,0.3718425569070443
-0.19827,0.3718077230450308
-0.19826,0.3716460581982475
-0.19825,0.3718693521855166
-0.19824,0.3716683875969746
-0.19823,0.3713968621084553
-0.19822,0.3711119389807002
-0.19821,0.3711030072212088
-0.1982,0.371337019319867
-0.19819,0.3715049363982932
-0.19818,0.3713548828388487
-0.19817,0.3710744255908386
-0.19816,0.3710985413414635
-0.19815,0.3713039718097512
-0.19814,0.371383464469219
-0.19813,0.3713504169591033
-0.19812,0.3710788914705839
-0.19811,0.3707564549529677
-0.1981,0.3705179769745636
-0.19809,0.3704670659454661
-0.19808,0.3705885378745404
-0.19807,0.3706305171441472
-0.19806,0.3705554903644245
-0.19805,0.3703589916556279
-0.19804,0.3701205136772244
-0.19803,0.3704447365467389
-0.19802,0.3704233003239617
-0.19801,0.3699481307190524
-0.198,0.3698114747988431
-0.19799,0.3694050797420138
-0.19798,0.3692041151534714
-0.19797,0.369045129834536
-0.19796,0.3691112248547673
-0.19795,0.3692041151534714
-0.19794,0.3691201566142583
-0.19793,0.3689701030548134
-0.19792,0.3685771056372197
-0.19791,0.3686253371384694
-0.1979,0.3688486311257388
-0.19789,0.3684225861980286
-0.19788,0.3680867520411762
-0.19787,0.3678991850918701
-0.19786,0.367576748574254
-0.19785,0.3674508107654335
-0.19784,0.3674508107654335
-0.19783,0.3672632438161277
-0.19782,0.3669032939086494
-0.19781,0.3665102964910552
-0.1978,0.3662584208734158
-0.19779,0.3661083673139709
-0.19778,0.3664656376936009
-0.19777,0.3662655662810088
-0.19776,0.3654215150091307
-0.19775,0.3651633871598481
-0.19774,0.3647525262232721
-0.19773,0.364518514124614
-0.19772,0.3643130836563267
-0.19771,0.3641210508272748
-0.1977,0.3638030801894034
-0.19769,0.3635226229413938
-0.19768,0.3633216583528509
-0.19767,0.3632752132034989
-0.19766,0.3633171924731055
-0.19765,0.3632046523035218
-0.19764,0.3627035805960889
-0.19763,0.3621712477304398
-0.19762,0.3620077965317588
-0.19761,0.3618157637027076
-0.1976,0.3614602796749747
-0.19759,0.3611378431573579
-0.19758,0.3610119053485382
-0.19757,0.3607868250093708
-0.19756,0.3605349493917309
-0.19755,0.3604974360018697
-0.19754,0.3602303763930959
-0.19753,0.3603536346740674
-0.19752,0.3599481327931879
-0.19751,0.3590996156415643
-0.1975,0.3591460607909163
-0.19749,0.3588039744024201
-0.19748,0.358280573296261
-0.19747,0.3579956501685058
-0.19746,0.357724124679986
-0.19745,0.3574016881623692
-0.19744,0.3573132637434107
-0.19743,0.3572802162332948
-0.19742,0.35685863718533
-0.19741,0.356518337148732
-0.1974,0.3563727494690326
-0.19739,0.3562378799007221
-0.19738,0.3563593518297964
-0.19737,0.3561387373703746
-0.19736,0.3556948289236841
-0.19735,0.3553768582858119
-0.19734,0.3550213742580793
-0.19733,0.3547739645201854
-0.19732,0.3547319852505783
-0.19731,0.3545444183012718
-0.1973,0.3543345219532391
-0.19729,0.3541844683937942
-0.19728,0.354316658434257
-0.19727,0.3541273051330535
-0.19726,0.3535771087484218
-0.19725,0.3533940076788615
-0.19724,0.3529920785017765
-0.19723,0.3525615676943216
-0.19722,0.3521551726374922
-0.19721,0.3519917214388103
-0.1972,0.3518372019996201
-0.19719,0.3514111570719105
-0.19718,0.3509627827454738
-0.19717,0.3506117645974862
-0.19716,0.3503598889798468
-0.19715,0.3503598889798468
-0.19714,0.3500597818609563
-0.19713,0.3495738941446592
-0.19712,0.3492184101169267
-0.19711,0.348783433429727
-0.1971,0.3483064774729191
-0.19709,0.3481296286350017
-0.19708,0.3479885068350481
-0.19707,0.3475490642681018
-0.19706,0.347151600970762
-0.19705,0.3467541376734234
-0.19704,0.3464692145456678
-0.19703,0.3469104434645111
-0.19702,0.3466728586620578
-0.19701,0.3457493147307118
-0.197,0.3454116942219616
-0.19699,0.344808800456334
-0.19698,0.3444443846691105
-0.19697,0.3441308799109851
-0.19696,0.343845956783229
-0.19695,0.343649458074432
-0.19694,0.3432609265365837
-0.19693,0.3427795047000312
-0.19692,0.3425320949621369
-0.19691,0.3426026558621138
-0.1969,0.3425035133317664
-0.19689,0.3419890439850972
-0.19688,0.3413950819789621
-0.19687,0.3408341674829418
-0.19686,0.3420453140698868
-0.19685,0.3427821842278789
-0.19684,0.3415496014181524
-0.19683,0.3409601052917627
-0.19682,0.3400195910173838
-0.19681,0.339014768074672
-0.1968,0.3389325958873567
-0.19679,0.3405108377893751
-0.19678,0.3409913664499769
-0.19677,0.3394631424011089
-0.19676,0.3385333462381196
-0.19675,0.3375222710637667
-0.19674,0.3364665370919557
-0.19673,0.3375937251396898
-0.19672,0.3382930819078171
-0.19671,0.3370185198284852
-0.1967,0.3365040504818154
-0.19669,0.3356850081365135
-0.19668,0.334797191243131
-0.19667,0.3341987633572491
-0.19666,0.3340174486395866
-0.19665,0.3339933328889616
-0.19664,0.3337128756409509
-0.19663,0.3333993708828256
-0.19662,0.3331144477550699
-0.19661,0.3326553553172454
-0.1966,0.3336985848257654
-0.19659,0.3342854014243103
-0.19658,0.3326973345868541
-0.19657,0.3320855090617334
-0.19656,0.3314674313049706
-0.19655,0.3305135193913582
-0.19654,0.3298222012067725
-0.19653,0.3299499253674899
-0.19652,0.3297650379460318
-0.19651,0.3292478890715159
-0.1965,0.3292988001006133
-0.19649,0.3289147344425105
-0.19648,0.3282787931667677
-0.19647,0.3292559276550552
-0.19646,0.3298248807346201
-0.19645,0.3287048380944766
-0.19644,0.3283538199464901
-0.19643,0.3273891899214874
-0.19642,0.3262164499003483
-0.19641,0.3257216304245604
-0.1964,0.3255251317157635
-0.19639,0.325436707296805
-0.19638,0.3251785794475217
-0.19637,0.324542638171779
-0.19636,0.3239817236757597
-0.19635,0.3235047677189515
-0.19634,0.3247909410856213
-0.19633,0.3255742563929618
-0.19632,0.3242621809237688
-0.19631,0.3236307055277697
-0.1963,0.3226526778635324
-0.19629,0.3214558220917693
-0.19628,0.3212432462158885
-0.19627,0.3212503916234816
-0.19626,0.3207886196578086
-0.19625,0.3204885125389195
-0.19624,0.319815057873315
-0.19623,0.3191746507178268
-0.19622,0.3187307422711363
-0.19621,0.3200258473972961
-0.1962,0.3206501773856996
-0.19619,0.3192166299874334
-0.19618,0.3185056619319682
-0.19617,0.317485654998121
-0.19616,0.3166639331249715
-0.19615,0.3168336365552958
-0.19614,0.3180367445587
-0.19613,0.3175722930651834
-0.19612,0.3157939797505707
-0.19611,0.314941889895153
-0.1961,0.3137825475132496
-0.19609,0.3128616831097513
-0.19608,0.3137923724486884
-0.19607,0.3143657914079971
-0.19606,0.3128661489894949
-0.19605,0.3119122370758826
-0.19604,0.3108457849926848
-0.19603,0.3101410691688621
-0.19602,0.3097570035107599
-0.19601,0.310546571049743
-0.196,0.3103054135434943
-0.19599,0.3084761891997835
-0.19598,0.3077830846633001
-0.19597,0.3065951606510299
-0.19596,0.3054733316589872
-0.19595,0.3062075222891282
-0.19594,0.3066550034396162
-0.19593,0.3051178476312545
-0.19592,0.3043095233973382
-0.19591,0.303415454272314
-0.1959,0.3021810851106897
-0.19589,0.3015889094564524
-0.19588,0.3024936966928657
-0.19587,0.3019586842993701
-0.19586,0.3002044867353854
-0.19585,0.2995203139583896
-0.19584,0.2981734046271817
-0.19583,0.2968175635364829
-0.19582,0.2973463236983354
-0.19581,0.2976767987994925
-0.1958,0.2962432514012263
-0.19579,0.2953822297863162
-0.19578,0.294494412892931
-0.19577,0.2930331770402443
-0.19576,0.2918863391216289
-0.19575,0.2929876250668382
-0.19574,0.2926160638720257
-0.19573,0.2906037384587548
-0.19572,0.2895837315249108
-0.19571,0.2881617954139787
-0.1957,0.2868345359536516
-0.19569,0.2876017740939063
-0.19568,0.2880957003937471
-0.19567,0.2864790519259157
-0.19566,0.285403668083229
-0.19565,0.2839201028318126
-0.19564,0.2820828399045646
-0.19563,0.2809386815137934
-0.19562,0.2803072061177961
-0.19561,0.2794792320130033
-0.1956,0.2786003468791102
-0.19559,0.2776553667249848
-0.19558,0.2765049561025759
-0.19557,0.2758002402787539
-0.19556,0.2766541164860707
-0.19555,0.2765781965304005
-0.19554,0.274531037255116
-0.19553,0.2735744458136518
-0.19552,0.2722150320191599
-0.19551,0.2703000627843385
-0.1955,0.2691166046518139
-0.19549,0.2680278231698868
-0.19548,0.2671203564056248
-0.19547,0.2659744116629613
-0.19546,0.2650026362303633
-0.19545,0.2643291815647575
-0.19544,0.2633136405106591
-0.19543,0.2636503678434601
-0.19542,0.2634753053574387
-0.19541,0.2614763775834077
-0.1954,0.2603304328407421
-0.19539,0.2586834163906476
-0.19538,0.2568792009735091
-0.19537,0.2554063538334812
-0.19536,0.254088026132646
-0.19535,0.2528956362406259
-0.19534,0.2519658400776353
-0.19533,0.2511423318525879
-0.19532,0.250108927279506
-0.19531,0.2489629825368408
-0.1953,0.2491916355798032
-0.19529,0.2488861694052202
-0.19528,0.2472668414095407
-0.19527,0.2459360092454191
-0.19526,0.2437343305309443
-0.19525,0.2418265067037195
-0.19524,0.2400687364359326
-0.19523,0.2386664501958818
-0.19522,0.2375866004734497
-0.19521,0.2365201483902499
-0.1952,0.2353652718880913
-0.19519,0.23413983448596
-0.19518,0.2327509458851455
-0.19517,0.2328956403888952
-0.19516,0.2329653081129241
-0.19515,0.2310530184059504
-0.19514,0.2284744194409705
-0.19513,0.2251687752534321
-0.19512,0.2241273320968072
-0.19511,0.224916006459841
-0.1951,0.2243622373714151
-0.19509,0.2223731345328168
-0.19508,0.2198954644500818
-0.19507,0.218007290493733
-0.19506,0.2165344433537031
-0.19505,0.2154036826021736
-0.19504,0.2160342648222211
-0.19503,0.2160842826753706
-0.19502,0.2133993957724457
-0.19501,0.2112039692896142
-0.195,0.2093693858902138
-0.19499,0.2072802473453194
-0.19498,0.2057609550559395
-0.19497,0.2044095798449886
-0.19496,0.2031707448036164
-0.19495,0.2018327672318966
-0.19494,0.200355454212126
-0.19493,0.1989290522214503
-0.19492,0.1975687452510066
-0.19491,0.1978768909534367
-0.1949,0.1973883237092931
-0.19489,0.1947668522987568
-0.19488,0.1929340552512461
-0.19487,0.1909226230139251
-0.19486,0.1887673894488064
-0.19485,0.1869676399114124
-0.19484,0.1856778938409429
-0.19483,0.1844238748084413
-0.19482,0.1828715350089457
-0.19481,0.1815487414283603
-0.1948,0.1802482772465068
-0.19479,0.1787004033267565
-0.19478,0.1790612464101818
-0.19477,0.1783788599850896
-0.19476,0.1754367384088295
-0.19475,0.1738183035891051
-0.19474,0.1716898653024521
-0.19473,0.1694131598082549
-0.19472,0.1674964042215358
-0.19471,0.1659351326625493
-0.1947,0.1647713244008998
-0.19469,0.1635923321481206
-0.19468,0.1620489241081157
-0.19467,0.1603795782592882
-0.19466,0.1588602859699111
-0.19465,0.1574338839792353
-0.19464,0.1558484966696267
-0.19463,0.1542541776005215
-0.19462,0.1527063036807713
-0.19461,0.1511164504914173
-0.1946,0.1495265973020575
-0.19459,0.1479742575025591
-0.19458,0.1465014103625339
-0.19457,0.1450330291022516
-0.19456,0.1435226685723596
-0.19455,0.141937281262751
-0.19454,0.1401929086342039
-0.19453,0.1388522515346416
-0.19452,0.1374195973123202
-0.19451,0.1356859427951617
-0.1945,0.1342264932943728
-0.19449,0.1324446072759617
-0.19448,0.1305367834487335
-0.19447,0.1287039864012276
-0.19446,0.127142714842241
-0.19445,0.1256787994617009
-0.19444,0.1239013793230411
-0.19443,0.1219890896160674
-0.19442,0.1200107048888588
-0.19441,0.11816451020212
-0.1944,0.1165040961127861
-0.19439,0.1143756578261399
-0.19438,0.1119864121623553
-0.19437,0.1094560446986205
-0.19436,0.1065612614476676
-0.19435,0.1035780537777454
-0.19434,0.1007118521571519
-0.19433,0.09755447517717097
-0.19432,0.0937897385518119
-0.19431,0.08966505201896639
-0.1943,0.08503482789896033
-0.19429,0.07965165645387404
-0.19428,0.07422382621134332
-0.19427,0.06782779323999452
-0.19426,0.06002858085265489
-0.19425,0.05175955791611629
-0.19424,0.04221418654831666
-0.19423,0.0320391261364141
-0.19422,0.02190157911440963
-0.19421,0.01154341763296489
-0.1942,0.0009289146541159514
-0.19419,-0.009493555495643603
-0.19418,-0.01982313534671799
-0.19417,-0.03001159339785592
-0.19416,-0.03964806871242932
-0.19415,-0.04924881698905682
-0.19414,-0.05918539942251934
-0.19413,-0.06897192829657317
-0.19412,-0.07859054009218239
-0.19411,-0.08794655815874611
-0.1941,-0.09693369455837501
-0.19409,-0.1058368724187894
-0.19408,-0.114514969940005
-0.19407,-0.1231662721827637
-0.19406,-0.1319193964837326
-0.19405,-0.1402420099772163
-0.19404,-0.1482332551936074
-0.19403,-0.1558449006316271
-0.19402,-0.1639790539998839
-0.19401,-0.1723329286516006
-0.194,-0.1798802654212867
-0.19399,-0.1871739402214627
-0.19398,-0.1942023417647618
-0.19397,-0.2013566811168548
-0.19396,-0.2082109133500712
-0.19395,-0.2148043382061687
-0.19394,-0.221331668042011
-0.19393,-0.2274660004602713
-0.19392,-0.2334985108203257
-0.19391,-0.2394363445298001
-0.1939,-0.2453429170810455
-0.19389,-0.2512807507904981
-0.19388,-0.2570372697823095
-0.19387,-0.2625821060741792
-0.19386,-0.2677116155497186
-0.19385,-0.2728741725353924
-0.19384,-0.2780081478906959
-0.19383,-0.2832037523864667
-0.19382,-0.2883091461113905
-0.19381,-0.2929661655098859
-0.1938,-0.2975347604894059
-0.19379,-0.3021828481284021
-0.19378,-0.306235187409357
-0.19377,-0.3106242540231277
-0.19376,-0.3153634456089303
-0.19375,-0.3192541200431022
-0.19374,-0.3233412931860851
-0.19373,-0.3275544041378886
-0.19372,-0.3317675150896766
-0.19371,-0.3357555457023051
-0.1937,-0.3393791605277165
-0.19369,-0.3428393241544342
-0.19368,-0.3463700486811351
-0.19367,-0.3499516842369271
-0.19366,-0.3531492541346291
-0.19365,-0.3563110969943611
-0.19364,-0.3596962338413565
-0.19363,-0.3628804060998219
-0.19362,-0.3661681867683739
-0.19361,-0.3695158102255142
-0.1936,-0.3726580032143668
-0.19359,-0.3756831901538955
-0.19358,-0.378511878384617
-0.19357,-0.3812521421963849
-0.19356,-0.3839218451081808
-0.19355,-0.3866531771604529
-0.19354,-0.3894818653911796
-0.19353,-0.3916219149651642
-0.19352,-0.3939575700720038
-0.19351,-0.3969166619912957
-0.1935,-0.3993523528044241
-0.19349,-0.4018782543884178
-0.19348,-0.4044773964002361
-0.19347,-0.4067826835247993
-0.19346,-0.408937917089922
-0.19345,-0.4110377737462056
-0.19344,-0.4131510280417178
-0.19343,-0.4152133713081363
-0.19342,-0.4174346998934864
-0.19341,-0.4192147995600011
-0.1934,-0.4207448099607697
-0.19339,-0.4227651739575779
-0.19338,-0.4247989355936297
-0.19337,-0.4267817862005804
-0.19336,-0.4286985417872995
-0.19335,-0.4304098669057309
-0.19334,-0.4320416993646974
-0.19333,-0.4336315525540514
-0.19332,-0.435183892353547
-0.19331,-0.4367692796631616
-0.1933,-0.4385136522917057
-0.19329,-0.4400418763405764
-0.19328,-0.440709078774536
-0.19327,-0.4418764597399801
-0.19326,-0.4437735654558197
-0.19325,-0.4452749942262151
-0.19324,-0.4469818534649038
-0.19323,-0.4483180446847251
-0.19322,-0.4493800308881755
-0.19321,-0.4507269402193834
-0.1932,-0.4519702411405007
-0.19319,-0.4531536992730254
-0.19318,-0.4543175075346727
-0.19317,-0.455233906058424
-0.19316,-0.4560332985328495
-0.19315,-0.4570113261970886
-0.19314,-0.4583957489181552
-0.19313,-0.459606002329157
-0.19312,-0.460592961752889
-0.19311,-0.4617058589854368
-0.1931,-0.4627812428281254
-0.19309,-0.4636645938417642
-0.19308,-0.464530081336418
-0.19307,-0.465375918960194
-0.19306,-0.4661244004055218
-0.19305,-0.4669613062698054
-0.19304,-0.4678687730340675
-0.19303,-0.4682644499795082
-0.19302,-0.4689593408678902
-0.19301,-0.4702249711877325
-0.193,-0.4708233990736129
-0.19299,-0.4715299012493338
-0.19298,-0.4723668071136203
-0.19297,-0.4731242203184361
-0.19296,-0.4738396542536467
-0.19295,-0.4747051417483032
-0.19294,-0.4753258990329108
-0.19293,-0.4757099646910138
-0.19292,-0.4763834193566165
-0.19291,-0.4768737729526611
-0.1929,-0.4770747375412034
-0.19289,-0.4776088567587502
-0.19288,-0.4782626615534756
-0.19287,-0.4788057125305158
-0.19286,-0.4796381525150539
-0.19285,-0.4802499780401718
-0.19284,-0.4806054620679051
-0.19283,-0.4810029253652436
-0.19282,-0.4811377949335544
-0.19281,-0.481391456903093
-0.1928,-0.4819943506687189
-0.19279,-0.4824337932356648
