real-diodes-out/100Hz-1V/scope.csv

#Digilent WaveForms Oscilloscope Acquisition
#Device Name: Discovery3
#Serial Number: SN:210415BD5874
#Date Time: 2025-04-06 22:04:24.874.884.890
#Sample rate: 100000Hz
#Samples: 32768
#Trigger: Source: Channel 1 Type: Edge Condition: Rising Level: 0 V Hyst.: Auto HoldOff: 0 s
#Average: 1
#Channel 1: Range: 500 mV/div Offset: 0 V Sample Mode: Average
#Wavegen Channel 1: Running
#Mode: Simple
#Type: Sine
#Frequency: 100 Hz
#Period: 10 ms
#Amplitude: 1 V
#Offset: 0 V
#Symmetry: 50 %
#Phase: 0 °

Time (s),Channel 1 (V)
-0.19972,0.1833458114379051
-0.19971,0.1876786079668756
-0.1997,0.1938558128306914
-0.19969,0.2001125103539638
-0.19968,0.2060548099431839
-0.19967,0.2120828544235039
-0.19966,0.2182037892025279
-0.19965,0.2242684538967602
-0.19964,0.2301410857619519
-0.19963,0.2361691302422609
-0.19962,0.2419524445125339
-0.19961,0.2479340438435126
-0.1996,0.2538298982833586
-0.19959,0.2599704829332622
-0.19958,0.265743972268085
-0.19957,0.271533538770012
-0.19956,0.2773597254858406
-0.19955,0.2832752297965662
-0.19954,0.289012098917498
-0.19953,0.2945998076549333
-0.19952,0.3001642938176723
-0.19951,0.3059538603195887
-0.1995,0.3116112367810519
-0.19949,0.3171194528589992
-0.19948,0.3226044463622806
-0.19947,0.3277518193568015
-0.19946,0.3329849372424524
-0.19945,0.3383672155115898
-0.19944,0.3437727163553934
-0.19943,0.3490094069448412
-0.19942,0.3538388093015001
-0.19941,0.3586414163796867
-0.1994,0.3633216583528497
-0.19939,0.3680447727715767
-0.19938,0.3725892520004718
-0.19937,0.3772659212698384
-0.19936,0.3816415902443743
-0.19935,0.3860235114505375
-0.19934,0.3901937499567777
-0.19933,0.3943604157592138
-0.19932,0.3988548771349763
-0.19931,0.4029590206209849
-0.1993,0.4065728105109436
-0.19929,0.4102392977819108
-0.19928,0.4135252920985705
-0.19927,0.416569235733019
-0.19926,0.4198150371319644
-0.19925,0.4230974587448275
-0.19924,0.4260753073590445
-0.19923,0.4292746636086379
-0.19922,0.4321631946279475
-0.19921,0.4349222151346513
-0.1992,0.4377044582160259
-0.19919,0.4412182123996878
-0.19918,0.4442460788670652
-0.19917,0.4459922378475148
-0.19916,0.4481876643303416
-0.19915,0.4500561884158107
-0.19914,0.4519273920291307
-0.19913,0.4540835187701984
-0.19912,0.4561405029809226
-0.19911,0.4581840895524144
-0.1991,0.4603071687833663
-0.19909,0.4620595799954553
-0.19908,0.463930783608768
-0.19907,0.4656367496715083
-0.19906,0.4689709754894118
-0.19905,0.4708305678153873
-0.19904,0.4718407498137967
-0.19903,0.4729304244716728
-0.19902,0.4742121319585958
-0.19901,0.4751696165760064
-0.199,0.4765272440186058
-0.19899,0.4780608271231682
-0.19898,0.479289837229098
-0.19897,0.4807403549703961
-0.19896,0.4822739380749639
-0.19895,0.4835029481808938
-0.19894,0.4846721154982334
-0.19893,0.487833958357967
-0.19892,0.4891638973461445
-0.19891,0.489739995833298
-0.1989,0.4907930502772595
-0.19889,0.4911413888974007
-0.19888,0.4915915495757344
-0.19887,0.4929590019537708
-0.19886,0.495753749498427
-0.19885,0.4960869041274388
-0.19884,0.4969005874170473
-0.19883,0.497735706929433
-0.19882,0.4981796153761258
-0.19881,0.4988584290974241
-0.1988,0.5011726479814776
-0.19879,0.5025383140076209
-0.19878,0.5030286676036652
-0.19877,0.5035386710705871
-0.19876,0.5035324188389438
-0.19875,0.5035190211997094
-0.19874,0.5044988352158446
-0.19873,0.5073132326313854
-0.19872,0.5074677520705765
-0.19871,0.507963464722314
-0.1987,0.5083118033424543
-0.19869,0.5084243435120377
-0.19868,0.5093711100180591
-0.19867,0.5115433139262154
-0.19866,0.512455246570222
-0.19865,0.5124686442094583
-0.19864,0.5127830421435332
-0.19863,0.5128661075067974
-0.19862,0.5130116951864969
-0.19861,0.5139254141824007
-0.1986,0.5165808262790075
-0.19859,0.5164638202296795
-0.19858,0.5167541024131284
-0.19857,0.5170559958839172
-0.19856,0.5172248061382927
-0.19855,0.5172944738623207
-0.19854,0.519489007169202
-0.19853,0.5203384174967748
-0.19852,0.520258924837307
-0.19851,0.5202357022626309
-0.1985,0.5202919723474232
-0.19849,0.5205402752612661
-0.19848,0.5211958664078885
-0.19847,0.5236226254615253
-0.19846,0.5234591742628499
-0.19845,0.5232992957679646
-0.19844,0.5237530291500949
-0.19843,0.524173715022111
-0.19842,0.523727127047576
-0.19841,0.5255206243533184
-0.1984,0.5261878267872795
-0.19839,0.5261181590632521
-0.19838,0.5264557795720024
-0.19837,0.5263137645960994
-0.19836,0.5261413816379278
-0.19835,0.526286969317627
-0.19834,0.5268067977199896
-0.19833,0.527273928741356
-0.19832,0.5278402022930716
-0.19831,0.5286449538231899
-0.1983,0.5289566722294179
-0.19829,0.5292049751432611
-0.19828,0.5308734278161372
-0.19827,0.5312985795678976
-0.19826,0.5312056892691935
-0.19825,0.5313744995235687
-0.19824,0.5312190869084298
-0.19823,0.5309573863553503
-0.19822,0.5308877186313222
-0.19821,0.5317317699031996
-0.1982,0.5322489187777153
-0.19819,0.5326562070104935
-0.19818,0.5334707834760524
-0.19817,0.5332430236090382
-0.19816,0.5332591007761213
-0.19815,0.5352089038729556
-0.19814,0.5355813582437207
-0.19813,0.5351374497970302
-0.19812,0.5349650668388582
-0.19811,0.5345479536706402
-0.1981,0.5342728554783237
-0.19809,0.5345077607529308
-0.19808,0.5350177642198528
-0.19807,0.5353491324969613
-0.19806,0.5359815010689076
-0.19805,0.5360449165612923
-0.19804,0.5361440590916398
-0.19803,0.5364388071548386
-0.19802,0.5383886102516694
-0.19801,0.5387610646224352
-0.198,0.5381483459213681
-0.19799,0.5379062952391686
-0.19798,0.5375454521557416
-0.19797,0.5374061167076857
-0.19796,0.5374623867924773
-0.19795,0.5375981495367369
-0.19794,0.5379822151948392
-0.19793,0.5388530617451898
-0.19792,0.5386485244528517
-0.19791,0.5387208717047265
-0.1979,0.5388369845781066
-0.19789,0.540525087121862
-0.19788,0.5408278737685992
-0.19787,0.5402151550675325
-0.19786,0.5400856445549164
-0.19785,0.5400525970448004
-0.19784,0.5393541334526224
-0.19783,0.5390754625565107
-0.19782,0.5394130830652611
-0.19781,0.5400588492764442
-0.1978,0.5403803926181115
-0.19779,0.5407644582762146
-0.19778,0.5407912535546867
-0.19777,0.5406885383205431
-0.19776,0.5421846080352464
-0.19775,0.5421926466187887
-0.19774,0.5418246581277689
-0.19773,0.5417782129784169
-0.19772,0.5414405924696666
-0.19771,0.540907366428067
-0.1977,0.5406885383205431
-0.19769,0.5406090456610754
-0.19768,0.5415986846126521
-0.19767,0.5417353405328612
-0.19766,0.541675497744273
-0.19765,0.5417549904037409
-0.19764,0.5414968625544604
-0.19763,0.5429563120552487
-0.19762,0.5436628142309692
-0.19761,0.5431233359577279
-0.1976,0.5428348401261749
-0.19759,0.5421363765339969
-0.19758,0.5415200851291349
-0.19757,0.5412119394267022
-0.19756,0.5417612426353845
-0.19755,0.5419041507872367
-0.19754,0.5419139757226765
-0.19753,0.5419371982973521
-0.19752,0.5417121179581853
-0.19751,0.5414504174051057
-0.1975,0.5432376624792047
-0.19749,0.5436663869347655
-0.19748,0.5429643506387912
-0.19747,0.5425633146376563
-0.19746,0.541987216150501
-0.19745,0.5414405924696659
-0.19744,0.5414137971911934
-0.19743,0.5419104030188802
-0.19742,0.5417022930227455
-0.19741,0.5417085452543888
-0.1974,0.5414405924696659
-0.19739,0.5414137971911936
-0.19738,0.5415165124253374
-0.19737,0.5413709247456379
-0.19736,0.5414137971911933
-0.19735,0.5414039722557537
-0.19734,0.5413244795962858
-0.19733,0.5413012570216098
-0.19732,0.5413575271064016
-0.19731,0.5416058300202444
-0.1973,0.5413048297254063
-0.19729,0.5410860016178823
-0.19728,0.541062779043206
-0.19727,0.5408939687888308
-0.19726,0.5407680309800109
-0.19725,0.5405197280661681
-0.19724,0.5403705676826718
-0.19723,0.5402910750232038
-0.19722,0.5403241225333195
-0.19721,0.5406286955319548
-0.1972,0.5401258374726248
-0.19719,0.5399266592359804
-0.19718,0.5403437724041993
-0.19717,0.5399436295790123
-0.19716,0.5394863234930857
-0.19715,0.5393371631095897
-0.19714,0.5392014003653296
-0.19713,0.5389298748768107
-0.19712,0.5387807144933148
-0.19711,0.5385886816642637
-0.1971,0.5384064737706517
-0.19709,0.5383600286212996
-0.19708,0.5383600286212996
-0.19707,0.5381349482821323
-0.19706,0.5383234084073865
-0.19705,0.5378205503480573
-0.19704,0.5376213721114129
-0.19703,0.5375883246012962
-0.19702,0.5371149413482865
-0.19701,0.5367603504965028
-0.197,0.5365218725180998
-0.19699,0.5363959347092795
-0.19698,0.5363727121346035
-0.19697,0.5362039018802283
-0.19696,0.5360216939866163
-0.19695,0.5356376283285132
-0.19694,0.5354420227956653
-0.19693,0.5357564207297403
-0.19692,0.5353330553298778
-0.19691,0.5352133697527016
-0.1969,0.5348096542237191
-0.19689,0.5344550633719346
-0.19688,0.5340477751391564
-0.19687,0.5337396294367248
-0.19686,0.5336699617126969
-0.19685,0.533557421543113
-0.19684,0.5331170858002182
-0.19683,0.532841987607903
-0.19682,0.5325141920345913
-0.19681,0.5327356996699616
-0.1968,0.5324248744396837
-0.19679,0.5320702835879001
-0.19678,0.5315504551855363
-0.19677,0.5310270540793782
-0.19676,0.5305500981225713
-0.19675,0.5303544925897236
-0.19674,0.5300499195910882
-0.19673,0.5299338067177081
-0.19672,0.5294273759545824
-0.19671,0.5289932924433302
-0.1967,0.5286190517206661
-0.19669,0.5281653183385359
-0.19668,0.5284198734840225
-0.19667,0.5279071904892515
-0.19666,0.5272346289995977
-0.19665,0.526621910298531
-0.19664,0.5260422391075795
-0.19663,0.5257108708304725
-0.19662,0.5254723928520689
-0.19661,0.5250651046192907
-0.1966,0.5247569589168584
-0.19659,0.5240120501753284
-0.19658,0.5236208391096332
-0.19657,0.5234618537906968
-0.19656,0.5233591385565517
-0.19655,0.5227169450491669
-0.19654,0.522011336049396
-0.19653,0.5215442050280276
-0.19652,0.5208653913067304
-0.19651,0.520351815136011
-0.1965,0.5198980817538807
-0.19649,0.5191397753731138
-0.19648,0.5184904364581349
-0.19647,0.5179902579266527
-0.19646,0.5174007618002611
-0.19645,0.5169899008636847
-0.19644,0.5165031199714387
-0.19643,0.5162842918639148
-0.19642,0.51541701801736
-0.19641,0.5146185187188864
-0.1964,0.5140951176127273
-0.19639,0.5133930813167543
-0.19638,0.5127106948916582
-0.19637,0.5120747536159155
-0.19636,0.5112137320010069
-0.19635,0.5104849004265586
-0.19634,0.5099052292356077
-0.19633,0.5091799703649585
-0.19632,0.5083287736854869
-0.19631,0.5078482450248819
-0.1963,0.5070238436238856
-0.19629,0.5059341689660118
-0.19628,0.5052151623270036
-0.19627,0.5045461735411462
-0.19626,0.5036056592667683
-0.19625,0.5026285247784799
-0.19624,0.5018996932040313
-0.19623,0.5009824015043294
-0.19622,0.5002303473552079
-0.19621,0.4996506761642556
-0.1962,0.4985877967848526
-0.19619,0.4976535347421197
-0.19618,0.4969711483170249
-0.19617,0.4958287762781536
-0.19616,0.4946462113215779
-0.19615,0.4937021243434035
-0.19614,0.4925463546653002
-0.19613,0.4913870122833962
-0.19612,0.4901053047964709
-0.19611,0.4891478201790621
-0.1961,0.4881278132452146
-0.19609,0.4871274561822484
-0.19608,0.4855545733359242
-0.19607,0.4842326729312902
-0.19606,0.4831760457835295
-0.19605,0.4816924805321157
-0.19604,0.4804170252768337
-0.19603,0.4790790477051137
-0.19602,0.4775356396651116
-0.19601,0.4759457864757548
-0.196,0.4744122033711925
-0.19599,0.473126923180468
-0.19598,0.471709452949283
-0.19597,0.4702553625041884
-0.19596,0.4685431442098055
-0.19595,0.4666585429572498
-0.19594,0.4648069892148168
-0.19593,0.4633162785558073
-0.19592,0.4612333922425566
-0.19591,0.4592425030520677
-0.1959,0.4570202812907644
-0.19589,0.4550293921002755
-0.19588,0.4526383600845932
-0.19587,0.4506340732548644
-0.19586,0.4486601544074081
-0.19585,0.4461994546676977
-0.19584,0.443857547329218
-0.19583,0.4414066725249511
-0.19582,0.43886290742198
-0.19581,0.4364316824885879
-0.1958,0.43382182236539
-0.19579,0.430893991604316
-0.19578,0.4279295406293239
-0.19577,0.4247632318898522
-0.19576,0.4215040328516705
-0.19575,0.4184699141526617
-0.19574,0.4153036054131786
-0.19573,0.4119318662054133
-0.19572,0.4080072510851767
-0.19571,0.4041549832168008
-0.1957,0.400475098306597
-0.19569,0.3967058958014994
-0.19568,0.3928902481470429
-0.19567,0.3886807098990355
-0.19566,0.3842523435435202
-0.19565,0.3799695648676964
-0.19564,0.375418833407158
-0.19563,0.3710663870072978
-0.19562,0.3664031153771674
-0.19561,0.3617228734040129
-0.1956,0.3568309487309103
-0.19559,0.3518229111844273
-0.19558,0.3469836838923374
-0.19557,0.3418765038155157
-0.19556,0.3365737182058364
-0.19555,0.3311914399367087
-0.19554,0.3258422091776871
-0.19553,0.3204599309085397
-0.19552,0.3149981599799444
-0.19551,0.309513166476663
-0.1955,0.3038593627190166
-0.19549,0.2981358912373215
-0.19548,0.2924124197556367
-0.19547,0.2868014884435457
-0.19546,0.2808993817720354
-0.19545,0.2749142097372603
-0.19544,0.2690085303619746
-0.19543,0.263126073561354
-0.19542,0.2571873466759315
-0.19541,0.2515630177246043
-0.1954,0.2456841336277802
-0.19539,0.2396989615930267
-0.19538,0.2336244719633438
-0.19537,0.2276160773539035
-0.19536,0.2215978578090342
-0.19535,0.2155564156894671
-0.19534,0.2095149735698999
-0.19533,0.2034735314503547
-0.19532,0.1972070089916312
-0.19531,0.1909601364037759
-0.1953,0.1847034388805036
-0.19529,0.1787611392912948
-0.19528,0.1726768247261718
-0.19527,0.1665326673724829
-0.19526,0.1602991924238752
-0.19525,0.1540755424107187
-0.19524,0.1481001953113827
-0.19523,0.1418801180020113
-0.19522,0.1355207052445953
-0.19521,0.1294426429111152
-0.1952,0.1232556131118483
-0.19519,0.1170319630986917
-0.19518,0.1108315356601998
-0.19517,0.1046311082216965
-0.19516,0.09837441069842418
-0.19515,0.09215076068525627
-0.19514,0.08600660333156739
-0.19513,0.07960431812857305
-0.19512,0.07331100039137707
-0.19511,0.06699803278331301
-0.1951,0.06063862002587397
-0.19509,0.05439174743801876
-0.19508,0.04819131999953814
-0.19507,0.04176581222187896
-0.19506,0.03547249448467181
-0.19505,0.02932833713098293
-0.19504,0.02303859209758341
-0.19503,0.01684798959454257
-0.19502,0.01067078473071544
-0.19501,0.004132736783472602
-0.195,-0.002600916696605931
-0.19499,-0.008963902157842204
-0.19498,-0.01510805951154227
-0.19497,-0.02145407462972207
-0.19496,-0.02783670996183721
-0.19495,-0.03419612271927636
-0.19494,-0.04055553547669236
-0.19493,-0.04697121831891176
-0.19492,-0.05318504339665112
-0.19491,-0.05936224826045576
-0.1949,-0.06561894578373947
-0.19489,-0.07184259579689606
-0.19488,-0.07804302323539927
-0.19487,-0.0843559908434748
-0.19486,-0.09054659334651566
-0.19485,-0.09678006829513459
-0.19484,-0.1030599883931052
-0.19483,-0.1090585580670949
-0.19482,-0.1152223652916746
-0.19481,-0.121446015304854
-0.1948,-0.127758982912918
-0.19479,-0.1341183956703456
-0.19478,-0.1402527280885947
-0.19477,-0.1464067103777457
-0.19476,-0.1525508677314458
-0.19475,-0.1586718025104587
-0.19474,-0.1649052774590775
-0.19473,-0.1712414676418291
-0.19472,-0.1775446103144648
-0.19471,-0.1836557201580491
-0.1947,-0.1895846221080328
-0.19469,-0.1957484293326013
-0.19468,-0.2019720793457692
-0.19467,-0.2081725067842719
-0.19466,-0.2141478538835856
-0.19465,-0.2201428508537898
-0.19464,-0.2261280228885433
-0.19463,-0.2320899723486425
-0.19462,-0.2381644619783145
-0.19461,-0.244172856587744
-0.1946,-0.2501910761326351
-0.19459,-0.2564013285065773
-0.19458,-0.2621748178414001
-0.19457,-0.2680769245129002
-0.19456,-0.273724476038924
-0.19455,-0.2794345498813622
-0.19454,-0.2854625943616821
-0.19453,-0.291189638547153
-0.19452,-0.2969792050490798
-0.19451,-0.3026928515953249
-0.1945,-0.3083368304175316
-0.19449,-0.3139808092397588
-0.19448,-0.3194559778076003
-0.19447,-0.3248052085666219
-0.19446,-0.3303562970901348
-0.19445,-0.3355501152340252
-0.19444,-0.3399391818477814
-0.19443,-0.344804311242403
-0.19442,-0.3498025238534462
-0.19441,-0.3546185285708602
-0.1944,-0.3595568983933063
-0.19439,-0.3643961256853962
-0.19438,-0.3692219553382676
-0.19437,-0.3737333870570551
-0.19436,-0.3783305636669456
-0.19435,-0.3825704698972222
-0.19434,-0.386905945954049
-0.19433,-0.3911324545450733
-0.19432,-0.3950972625830258
-0.19431,-0.3989924028969576
-0.1943,-0.40305635346525
-0.19429,-0.4067960811640352
-0.19428,-0.4105420610944568
-0.19427,-0.4140200882401693
-0.19426,-0.4174150500226106
-0.19425,-0.4206644241253465
-0.19424,-0.4239566706736499
-0.19423,-0.4270140119473454
-0.19422,-0.4298427001780668
-0.19421,-0.4326812133442332
-0.1942,-0.4355429490850807
-0.19419,-0.4383484147411262
-0.19418,-0.4406242270593743
-0.19417,-0.443028656714294
-0.19416,-0.4456286919020521
-0.19415,-0.4481394094949074
-0.19414,-0.4506599520231978
-0.19413,-0.4529786367870061
-0.19412,-0.4550356209977303
-0.19411,-0.4570229374844227
-0.1941,-0.4590665240559143
-0.19409,-0.4610770631172903
-0.19408,-0.4631769197735662
-0.19407,-0.4649293309856553
-0.19406,-0.4665191841750154
-0.19405,-0.4683341177035364
-0.19404,-0.4699605911068055
-0.19403,-0.4716960319758587
-0.19402,-0.4734680930588304
-0.19401,-0.4752732016519149
-0.194,-0.4767639123109216
-0.19399,-0.4780590174370859
-0.19398,-0.4797810606669088
-0.19397,-0.4813512639853833
-0.19396,-0.4825570515166372
-0.19395,-0.4838950290883566
-0.19394,-0.4851570867044001
-0.19393,-0.4858430458332914
-0.19392,-0.4872765932315569
-0.19391,-0.4885984936361935
-0.1939,-0.490105281462286
-0.19389,-0.4911556563783988
-0.19388,-0.4923444735666219
-0.19387,-0.4933582282688244
-0.19386,-0.4944014577773442
-0.19385,-0.4955143550098959
-0.19384,-0.4965147120728641
-0.19383,-0.4975811641560599
-0.19382,-0.4983564408798588
-0.19381,-0.4989923821556036
-0.1938,-0.5001347541944707
-0.19379,-0.5013735892358404
-0.19378,-0.5024534389582724
-0.19377,-0.5032617631921891
-0.19376,-0.5037521167882324
-0.19375,-0.5045997407639047
-0.19374,-0.5054643350826128
-0.19373,-0.5063155317620845
-0.19372,-0.5071899510162293
-0.19371,-0.5078392899312083
-0.1937,-0.5084520086322765
-0.19369,-0.5092567601623933
-0.19368,-0.5095684785686213
-0.19367,-0.5107733729239234
-0.19366,-0.5117112076704566
-0.19365,-0.5125159592005749
-0.19364,-0.5129964878611775
-0.19363,-0.5136520790078007
-0.19362,-0.5144470056024792
-0.19361,-0.5150168518579904
-0.1936,-0.5157751582387565
-0.19359,-0.5164244971537362
-0.19358,-0.516812135515635
-0.19357,-0.5173551864926736
-0.19356,-0.5175972371748749
-0.19355,-0.5183519708518434
-0.19354,-0.5189914848313826
-0.19353,-0.5194121707033971
-0.19352,-0.5199784442551125
-0.19351,-0.5206143855308553
-0.1935,-0.5213628669761804
-0.19349,-0.5219889833164847
-0.19348,-0.5224328917631768
-0.19347,-0.5228866251453069
-0.19346,-0.523363581102114
-0.19345,-0.5238968071437138
-0.19344,-0.524396985675196
-0.19343,-0.5243675108688767
-0.19342,-0.5250293542471411
-0.19341,-0.525500057972306
-0.1934,-0.5259636162898769
-0.19339,-0.5264075247365674
-0.19338,-0.5269737982882828
-0.19337,-0.5274409293096501
-0.19336,-0.527950932776573
-0.19335,-0.5281134907993051
-0.19334,-0.5283948412232651
-0.19333,-0.5288485746053954
-0.19332,-0.5292692604774105
-0.19331,-0.5293853733507913
-0.1933,-0.5297229938595416
-0.19329,-0.5299185993923896
-0.19328,-0.5302794424758158
-0.19327,-0.5309814787717908
-0.19326,-0.5315513250273021
-0.19325,-0.5318594707297331
-0.19324,-0.5319291384537617
-0.19323,-0.5322104888777215
-0.19322,-0.5325516820902683
-0.19321,-0.5327008424737641
-0.1932,-0.5332304958115673
-0.19319,-0.5336645793228181
-0.19318,-0.5332510388583956
-0.19317,-0.5336047365342291
-0.19316,-0.5339495024505736
-0.19315,-0.5344461082782602
-0.19314,-0.5349695093844183
-0.19313,-0.535277655086851
-0.19312,-0.5355161330652548
-0.19311,-0.5356983409588661
-0.1931,-0.5358573262778019
-0.19309,-0.5362413919359054
-0.19308,-0.5364932675535447
-0.19307,-0.5367085229572721
-0.19306,-0.5364405701725499
-0.19305,-0.5367513954028278
-0.19304,-0.5371059862546114
-0.19303,-0.537231924063431
-0.19302,-0.53764903723165
-0.19301,-0.5379804055087577
-0.193,-0.5380500732327856
-0.19299,-0.5382188834871612
-0.19298,-0.5384010913807731
-0.19297,-0.538447536530125
-0.19296,-0.5385600766997086
-0.19295,-0.5387190620186446
-0.19294,-0.5388780473375799
-0.19293,-0.5384180617238056
-0.19292,-0.5389405696540142
-0.19291,-0.539355003294387
-0.1929,-0.5395702586981146
-0.19289,-0.5399212768461011
-0.19288,-0.53998111963469
-0.19287,-0.5400704372295978
-0.19286,-0.5401168823789497
-0.19285,-0.5402856926333252
-0.19284,-0.5404679005269372
-0.19283,-0.5405706157610808
-0.19282,-0.5406501084205486
