real-diodes-out/-bkp-20250401/100Hz200mV/scope.csv

#Digilent WaveForms Oscilloscope Acquisition
#Device Name: Discovery3
#Serial Number: SN:210415BD5874
#Date Time: 2025-04-01 12:42:41.341.159.380
#Sample rate: 1.49254e+06Hz
#Samples: 32768
#Trigger: Source: Channel 1 Type: Edge Condition: Rising Level: 0 V Hyst.: Auto HoldOff: 0 s
#Channel 1: Range: 200 mV/div Offset: 0 V Sample Mode: Average
#Wavegen Channel 1: Running
#Mode: Simple
#Type: Sine
#Frequency: 100 Hz
#Period: 10 ms
#Amplitude: 200 mV
#Offset: 0 V
#Symmetry: 50 %
#Phase: 0 °

Time (s),Channel 1 (V)
-0.01097698222222222,-0.1136387643339628
-0.01097631222222222,-0.1140362276313013
-0.01097564222222222,-0.1136387643339628
-0.01097497222222222,-0.1134797790150271
-0.01097430222222222,-0.1138772423123663
-0.01097363222222222,-0.1137182569934295
-0.01097296222222222,-0.1130823157176879
-0.01097229222222222,-0.1130823157176879
-0.01097162222222222,-0.1136387643339618
-0.01097095222222222,-0.1137182569934306
-0.01097028222222222,-0.1134002863555593
-0.01096961222222222,-0.1134797790150271
-0.01096894222222222,-0.1133207936960911
-0.01096827222222222,-0.1131618083771557
-0.01096760222222222,-0.1129233303987522
-0.01096693222222222,-0.1127643450798168
-0.01096626222222222,-0.1122873891230095
-0.01096559222222222,-0.1126053597608808
-0.01096492222222222,-0.1132413010366224
-0.01096425222222222,-0.1130823157176879
-0.01096358222222222,-0.1126053597608808
-0.01096291222222222,-0.1124463744419451
-0.01096224222222222,-0.1128438377392845
-0.01096157222222222,-0.1129233303987522
-0.01096090222222222,-0.1126848524203487
-0.01096023222222222,-0.1121284038040748
-0.01095956222222222,-0.1117309405067345
-0.01095889222222222,-0.1122078964635416
-0.01095822222222222,-0.1121284038040738
-0.01095755222222222,-0.1115719551877983
-0.01095688222222222,-0.1112539845499275
-0.01095621222222222,-0.1115719551877988
-0.01095554222222222,-0.111810433166202
-0.01095487222222222,-0.1114129698688632
-0.01095420222222222,-0.1118104331662024
-0.01095353222222222,-0.1114924625283316
-0.01095286222222222,-0.1109360139120561
-0.01095219222222222,-0.1112539845499275
-0.01095152222222222,-0.1109360139120561
-0.01095085222222222,-0.1110949992309921
-0.01095018222222222,-0.1112539845499275
-0.01094951222222222,-0.1116514478472667
-0.01094884222222222,-0.111571955187799
-0.01094817222222222,-0.1119694184851381
-0.01094750222222222,-0.1120489111446059
-0.01094683222222222,-0.1119694184851381
-0.01094616222222222,-0.1115719551877986
-0.01094549222222222,-0.1114129698688632
-0.01094482222222222,-0.1117309405067345
-0.01094415222222222,-0.1112539845499283
-0.01094348222222222,-0.111492462528331
-0.01094281222222222,-0.1110949992309918
-0.01094214222222222,-0.1115719551877988
-0.01094147222222222,-0.1115719551877977
-0.01094080222222222,-0.1109360139120561
-0.01094013222222222,-0.1105385506147169
-0.01093946222222222,-0.110379565295781
-0.01093879222222222,-0.1103000726363133
-0.01093812222222222,-0.1099026093389741
-0.01093745222222222,-0.1099026093389741
-0.01093678222222222,-0.1098231166795063
-0.01093611222222222,-0.110459057955249
-0.01093544222222222,-0.1105385506147169
-0.01093477222222222,-0.1100615946579101
-0.01093410222222222,-0.1102205799768455
-0.01093343222222222,-0.1093461607226992
-0.01093276222222222,-0.108869204765893
-0.01093209222222222,-0.1091076827442957
-0.01093142222222222,-0.1085512341280207
-0.01093075222222222,-0.1096641313605706
-0.01093008222222222,-0.1098231166795047
-0.01092941222222222,-0.10894869742536
-0.01092874222222222,-0.1090281900848278
-0.01092807222222222,-0.1095846387011023
-0.01092740222222222,-0.1093461607226992
-0.01092673222222222,-0.1091076827442957
-0.01092606222222222,-0.1091076827442957
-0.01092539222222222,-0.1086307267874886
-0.01092472222222222,-0.10894869742536
-0.01092405222222222,-0.1092666680632313
-0.01092338222222222,-0.1093461607226989
-0.01092271222222222,-0.1091871754037635
-0.01092204222222222,-0.1087897121064243
-0.01092137222222222,-0.1087897121064243
-0.01092070222222222,-0.1084717414685529
-0.01092003222222222,-0.1081537708306815
-0.01091936222222222,-0.1080742781712137
-0.01091869222222222,-0.1084717414685523
-0.01091802222222222,-0.1081537708306815
-0.01091735222222222,-0.1082332634901494
-0.01091668222222222,-0.108630726787487
-0.01091601222222222,-0.1077563075333423
-0.01091534222222222,-0.107915292852278
-0.01091467222222222,-0.1081537708306811
-0.01091400222222222,-0.1074383368954709
-0.01091333222222222,-0.1075178295549388
-0.01091266222222222,-0.1073588442360031
-0.01091199222222222,-0.1075973222144059
-0.01091132222222222,-0.1071998589170674
-0.01091065222222222,-0.1071203662575995
-0.01090998222222222,-0.1068818882791964
-0.01090931222222222,-0.1073588442360031
-0.01090864222222222,-0.1070408735981317
-0.01090797222222222,-0.1070408735981317
-0.01090730222222222,-0.1065639176413243
-0.01090663222222222,-0.1064049323223889
-0.01090596222222222,-0.1064844249818568
-0.01090529222222222,-0.106722902960261
-0.01090462222222222,-0.1071203662575995
-0.01090395222222222,-0.1069613809386638
-0.01090328222222222,-0.1072793515765346
-0.01090261222222222,-0.1068023956197282
-0.01090194222222222,-0.1069613809386638
-0.01090127222222222,-0.1070408735981317
-0.01090060222222222,-0.1066434103007923
-0.01089993222222222,-0.1065639176413246
-0.01089926222222222,-0.1066434103007925
-0.01089859222222222,-0.1063254396629217
-0.01089792222222222,-0.1068023956197282
-0.01089725222222222,-0.1065639176413246
-0.01089658222222222,-0.1060869616845176
-0.01089591222222222,-0.1061664543439855
-0.01089524222222222,-0.1062459470034532
-0.01089457222222222,-0.1056894983871783
-0.01089390222222222,-0.1052125424303717
-0.01089323222222222,-0.1054510204087748
-0.01089256222222222,-0.1051330497709034
-0.01089189222222222,-0.1052125424303711
-0.01089122222222222,-0.1048945717924999
-0.01089055222222222,-0.1049740644519677
-0.01088988222222222,-0.1051330497709034
-0.01088921222222222,-0.1050535571114359
-0.01088854222222222,-0.1052125424303713
-0.01088787222222222,-0.1047355864735642
-0.01088720222222222,-0.1049740644519673
-0.01088653222222222,-0.1049740644519677
-0.01088586222222222,-0.1045766011546285
-0.01088519222222222,-0.1044971084951607
-0.01088452222222222,-0.1044971084951614
-0.01088385222222222,-0.1048945717924999
-0.01088318222222222,-0.1047355864735642
-0.01088251222222222,-0.1045766011546288
-0.01088184222222222,-0.1041791378572893
-0.01088117222222222,-0.1038611672194179
-0.01088050222222222,-0.1039406598788856
-0.01087983222222222,-0.1037021819004822
-0.01087916222222222,-0.1037021819004822
-0.01087849222222222,-0.1036226892410144
-0.01087782222222222,-0.103861167219417
-0.01087715222222222,-0.1033842112626108
-0.01087648222222222,-0.103304718603143
-0.01087581222222222,-0.103304718603143
-0.01087514222222222,-0.1031457332842073
-0.01087447222222222,-0.1033842112626108
-0.01087380222222222,-0.1032252259436752
-0.01087313222222222,-0.1037021819004818
-0.01087246222222222,-0.1034637039220787
-0.01087179222222222,-0.1032252259436752
-0.01087112222222222,-0.1033047186031429
-0.01087045222222222,-0.1037021819004822
-0.01086978222222222,-0.1037021819004822
-0.01086911222222222,-0.1026687773274021
-0.01086844222222222,-0.1021123287111253
-0.01086777222222222,-0.1028277626463359
-0.01086710222222222,-0.1025892846679324
-0.01086643222222222,-0.1023508066895287
-0.01086576222222222,-0.102271314030061
-0.01086509222222222,-0.1017943580732539
-0.01086442222222222,-0.1018738507327216
-0.01086375222222222,-0.1017943580732539
-0.01086308222222222,-0.1011584167975112
-0.01086241222222222,-0.1006019681812363
-0.01086174222222222,-0.10155588009485
-0.01086107222222222,-0.1013174021164469
-0.01086040222222222,-0.101237909456979
-0.01085973222222222,-0.101237909456979
-0.01085906222222222,-0.1013174021164469
-0.01085839222222222,-0.1014763874353826
-0.01085772222222222,-0.1017943580732534
-0.01085705222222222,-0.1017943580732539
-0.01085638222222222,-0.1010789241380433
-0.01085571222222222,-0.100760953500172
-0.01085504222222222,-0.1007609535001724
-0.01085437222222222,-0.1009994314785755
-0.01085370222222222,-0.1009994314785755
-0.01085303222222222,-0.1017148654137848
-0.01085236222222222,-0.1017148654137861
-0.01085169222222222,-0.1018738507327218
-0.01085102222222222,-0.101237909456979
-0.01085035222222222,-0.1002045048838966
-0.01084968222222222,-0.09996602690549351
-0.01084901222222222,-0.1002839975433649
-0.01084834222222222,-0.1002839975433649
-0.01084767222222222,-0.1003634902028327
-0.01084700222222222,-0.09980704158655783
-0.01084633222222222,-0.09972754892709013
-0.01084566222222222,-0.1006019681812363
-0.01084499222222222,-0.1006019681812363
-0.01084432222222222,-0.1005224755217684
-0.01084365222222222,-0.09940957828921904
-0.01084298222222222,-0.09964805626762215
-0.01084231222222222,-0.1002839975433649
-0.01084164222222222,-0.0998070415865587
-0.01084097222222222,-0.1002839975433649
-0.01084030222222222,-0.09964805626762215
-0.01083963222222222,-0.1001250122244292
-0.01083896222222222,-0.1001250122244286
-0.01083829222222222,-0.09980704158655783
-0.01083762222222222,-0.09861465169454016
-0.01083695222222222,-0.09877363701347555
-0.01083628222222222,-0.09917110031081507
-0.01083561222222222,-0.09948907094868645
-0.01083494222222222,-0.09933008562975106
-0.01083427222222222,-0.09948907094868557
-0.01083360222222222,-0.09901211499187938
-0.01083293222222222,-0.09940957828921861
-0.01083226222222222,-0.09933008562974946
-0.01083159222222222,-0.09861465169454016
-0.01083092222222222,-0.09893262233241154
-0.01083025222222222,-0.09901211499187924
-0.01082958222222222,-0.09925059297028292
-0.01082891222222222,-0.09940957828921861
-0.01082824222222222,-0.09940957828921861
-0.01082757222222222,-0.0990121149918801
-0.01082690222222222,-0.09940957828921861
-0.01082623222222222,-0.09901211499187938
-0.01082556222222222,-0.09869414435400858
-0.01082489222222222,-0.09837617371613662
-0.01082422222222222,-0.09861465169454016
-0.01082355222222222,-0.09877363701347584
-0.01082288222222222,-0.09829668105666819
-0.01082221222222222,-0.0979787104187974
-0.01082154222222222,-0.09805820307826524
-0.01082087222222222,-0.09805820307826452
-0.01082020222222222,-0.09766073978092601
-0.01081953222222222,-0.09702479850518327
-0.01081886222222222,-0.09726327648358636
-0.01081819222222222,-0.09686581318624757
-0.01081752222222222,-0.09686581318624757
-0.01081685222222222,-0.09718378382411895
-0.01081618222222222,-0.09766073978092471
-0.01081551222222222,-0.09694530584571542
-0.01081484222222222,-0.09742226180252249
-0.01081417222222222,-0.09726327648358708
-0.01081350222222222,-0.09694530584571542
-0.01081283222222222,-0.09678632052677973
-0.01081216222222222,-0.09678632052677973
-0.01081149222222222,-0.09750175446198975
-0.01081082222222222,-0.09718378382411895
-0.01081015222222222,-0.09742226180252249
-0.01080948222222222,-0.09734276914305451
-0.01080881222222222,-0.09726327648358679
-0.01080814222222222,-0.09734276914305465
-0.01080747222222222,-0.09710429116465154
-0.01080680222222222,-0.09702479850518327
-0.01080613222222222,-0.09622987191050482
-0.01080546222222222,-0.09615037925103698
-0.01080479222222222,-0.09615037925103712
-0.01080412222222222,-0.09622987191050482
-0.01080345222222222,-0.0963888572294405
-0.01080278222222222,-0.095991393932102
-0.01080211222222222,-0.09646834988890834
-0.01080144222222222,-0.09670682786731188
-0.01080077222222222,-0.09615037925103698
-0.01080010222222222,-0.09583240861316501
-0.01079943222222222,-0.09551443797529421
-0.01079876222222222,-0.09551443797529421
-0.01079809222222222,-0.09559393063476163
-0.01079742222222222,-0.09535545265635853
-0.01079675222222222,-0.09511697467795499
-0.01079608222222222,-0.0949579893590196
-0.01079541222222222,-0.09543494531582637
-0.01079474222222222,-0.09495798935901931
-0.01079407222222222,-0.09432204808327654
-0.01079340222222222,-0.09487849669955102
-0.01079273222222222,-0.09464001872114793
-0.01079206222222222,-0.09479900404008361
-0.01079139222222222,-0.09408357010487431
-0.01079072222222222,-0.09384509212646948
-0.01079005222222222,-0.0942425554238087
-0.01078938222222222,-0.0933681361696624
-0.01078871222222222,-0.09432204808327539
-0.01078804222222222,-0.09368610680753378
-0.01078737222222222,-0.09360661414806594
-0.01078670222222222,-0.09360661414806652
-0.01078603222222222,-0.09392458478593732
-0.01078536222222222,-0.0933681361696624
-0.01078469222222222,-0.0937655994670009
-0.01078402222222222,-0.09392458478593732
-0.01078335222222222,-0.09464001872114793
-0.01078268222222222,-0.0942425554238087
-0.01078201222222222,-0.09312965819126032
-0.01078134222222222,-0.09392458478593732
-0.01078067222222222,-0.09320915085072672
-0.01078000222222222,-0.09352712148859751
-0.01077933222222222,-0.0935271214885981
-0.01077866222222222,-0.09344762882913026
-0.01077799222222222,-0.0935271214885981
-0.01077732222222222,-0.09297067287232405
-0.01077665222222222,-0.09344762882913026
-0.01077598222222222,-0.0933681361696624
-0.01077531222222222,-0.09265270223445311
-0.01077464222222222,-0.09249371691551611
-0.01077397222222222,-0.09241422425604827
-0.01077330222222222,-0.09265270223445138
-0.01077263222222222,-0.09249371691551611
-0.01077196222222222,-0.09265270223445181
-0.01077129222222222,-0.0919372682992412
-0.01077062222222222,-0.09241422425604856
-0.01076995222222222,-0.09257320957498395
-0.01076928222222222,-0.09233473159658043
-0.01076861222222222,-0.09241422425604813
-0.01076794222222222,-0.09209625361817689
-0.01076727222222222,-0.0919372682992412
-0.01076660222222222,-0.09177828298030551
-0.01076593222222222,-0.09217574627764502
-0.01076526222222222,-0.09233473159658043
-0.01076459222222222,-0.09249371691551611
-0.01076392222222222,-0.09201676095870992
-0.01076325222222222,-0.09177828298030551
-0.01076258222222222,-0.09098335638562706
-0.01076191222222222,-0.09114234170456247
-0.01076124222222222,-0.09106284904509492
-0.01076057222222222,-0.09114234170456276
-0.01075990222222222,-0.09153980500190198
-0.01075923222222222,-0.09098335638562749
-0.01075856222222222,-0.0912218343640306
-0.01075789222222222,-0.09090386372615922
-0.01075722222222222,-0.09066538574775612
-0.01075655222222222,-0.09066538574775569
-0.01075588222222222,-0.09066538574775569
-0.01075521222222222,-0.09066538574775569
-0.01075454222222222,-0.09098335638562778
-0.01075387222222222,-0.09138081968296628
-0.01075320222222222,-0.09098335638562706
-0.01075253222222222,-0.09138081968296556
-0.01075186222222222,-0.09082437106669138
-0.01075119222222222,-0.09050640042881999
-0.01075052222222222,-0.0900294444720138
-0.01074985222222222,-0.09018842979094861
-0.01074918222222222,-0.09002944447201293
-0.01074851222222222,-0.08979096649360939
-0.01074784222222222,-0.08939350319627132
-0.01074717222222222,-0.09002944447201293
-0.01074650222222222,-0.08979096649360939
-0.01074583222222222,-0.08987045915307711
-0.01074516222222222,-0.08963198117467371
-0.01074449222222222,-0.08947299585573802
-0.01074382222222222,-0.08947299585573802
-0.01074315222222222,-0.08939350319627003
-0.01074248222222222,-0.08931401053680232
-0.01074181222222222,-0.08939350319627017
-0.01074114222222222,-0.08987045915307637
-0.01074047222222222,-0.08963198117467371
-0.01073980222222222,-0.08939350319627017
-0.01073913222222222,-0.08907553255839938
-0.01073846222222222,-0.08939350319627017
-0.01073779222222222,-0.08971147383414155
-0.01073712222222222,-0.08939350319627017
-0.01073645222222222,-0.08875756192052872
-0.01073578222222222,-0.08947299585573802
-0.01073511222222222,-0.08931401053680232
-0.01073444222222222,-0.08923451787733462
-0.01073377222222222,-0.08915502521786664
-0.01073310222222222,-0.08851908394212388
-0.01073243222222222,-0.08836009862318819
-0.01073176222222222,-0.08859857660159057
-0.01073109222222222,-0.08796263532584897
-0.01073042222222222,-0.08796263532584897
-0.01072975222222222,-0.08843959128265516
-0.01072908222222222,-0.08812162064478465
-0.01072841222222222,-0.08796263532584897
-0.01072774222222222,-0.08836009862318747
-0.01072707222222222,-0.08756517202851018
-0.01072640222222222,-0.08780365000691327
-0.01072573222222222,-0.08772415734744543
-0.01072506222222222,-0.08764466468797745
-0.01072439222222222,-0.08756517202850975
-0.01072372222222222,-0.08724720139063837
-0.01072305222222222,-0.08772415734744456
-0.01072238222222222,-0.08780365000691327
-0.01072171222222222,-0.08748567936904189
-0.01072104222222222,-0.08692923075276698
-0.01072037222222222,-0.08661126011489546
-0.01071970222222222,-0.08653176745542776
-0.01071903222222222,-0.0867702454338313
-0.01071836222222222,-0.0871677087311698
-0.01071769222222222,-0.08700872341223483
-0.01071702222222222,-0.0866112601148956
-0.01071635222222222,-0.08684973809329914
-0.01071568222222222,-0.08637278213649237
-0.01071501222222222,-0.08653176745542776
-0.01071434222222222,-0.08645227479595992
-0.01071367222222222,-0.0865317674554279
-0.01071300222222222,-0.0866112601148956
-0.01071233222222222,-0.0866112601148956
-0.01071166222222222,-0.0866112601148956
-0.01071099222222222,-0.08629328947702422
-0.01071032222222222,-0.08653176745542776
-0.01070965222222222,-0.0860548114986207
-0.01070898222222222,-0.08581633352021686
-0.01070831222222222,-0.08565734820128147
-0.01070764222222222,-0.08581633352021716
-0.01070697222222222,-0.08597531883915256
-0.01070630222222222,-0.0860548114986207
-0.01070563222222222,-0.08565734820128147
-0.01070496222222222,-0.08557785554181363
-0.01070429222222222,-0.08533937756340922
-0.01070362222222222,-0.08486242160660303
-0.01070295222222222,-0.08494191426607087
-0.01070228222222222,-0.08494191426607087
-0.01070161222222222,-0.08494191426607087
-0.01070094222222222,-0.08502140692553871
-0.01070027222222222,-0.08486242160660332
-0.01069960222222222,-0.08478292894713518
-0.01069893222222222,-0.08454445096873164
-0.01069826222222222,-0.08454445096873164
-0.01069759222222222,-0.08446495830926322
-0.01069692222222222,-0.08414698767139242
-0.01069625222222222,-0.0837495243740532
-0.01069558222222222,-0.08390850969298859
-0.01069491222222222,-0.0843059729903281
-0.01069424222222222,-0.08414698767139242
-0.01069357222222222,-0.08343155373618182
-0.01069290222222222,-0.08374952437405261
-0.01069223222222222,-0.08343155373618182
-0.01069156222222222,-0.08382901703352104
-0.01069089222222222,-0.08398800235245571
-0.01069022222222222,-0.08343155373618182
-0.01068955222222222,-0.08367003171458536
-0.01068888222222222,-0.08343155373618225
-0.01068821222222222,-0.08343155373618182
-0.01068754222222222,-0.08351104639564966
-0.01068687222222222,-0.08390850969298888
-0.01068620222222222,-0.08382901703352016
-0.01068553222222222,-0.08335206107671397
-0.01068486222222222,-0.08327256841724613
-0.01068419222222222,-0.08319307575777841
-0.01068352222222222,-0.08351104639564966
-0.01068285222222222,-0.08367003171458536
-0.01068218222222222,-0.08390850969298888
-0.01068151222222222,-0.08303409043884302
-0.01068084222222222,-0.08327256841724613
-0.01068017222222222,-0.0835905390551175
-0.01067950222222222,-0.08343155373618037
-0.01067883222222222,-0.08263662714150337
-0.01067816222222222,-0.08303409043884259
-0.01067749222222222,-0.08271611980097179
-0.01067682222222222,-0.08247764182256768
-0.01067615222222222,-0.08208017852522846
-0.01067548222222222,-0.08184170054682492
-0.01067481222222222,-0.0820801785252286
-0.01067414222222222,-0.0821596711846963
-0.01067347222222222,-0.08184170054682492
-0.01067280222222222,-0.08104677395214792
-0.01067213222222222,-0.08184170054682492
-0.01067146222222222,-0.08168271522788924
-0.01067079222222222,-0.08160322256842138
-0.01067012222222222,-0.08120575927108245
-0.01066945222222222,-0.08136474459001786
-0.01066878222222222,-0.08136474459001786
-0.01066811222222222,-0.08192119320629175
-0.01066744222222222,-0.08152372990895354
-0.01066677222222222,-0.08160322256842138
-0.01066610222222222,-0.08192119320629218
-0.01066543222222222,-0.08128525193055001
-0.01066476222222222,-0.08160322256842138
-0.01066409222222222,-0.08112626661161432
-0.01066342222222222,-0.08088778863321266
