synth-diodes-out/100Hz2V/scope.csv

#Digilent WaveForms Oscilloscope Acquisition
#Device Name: Discovery3
#Serial Number: SN:210415BD5874
#Date Time: 2025-04-03 12:12:34.697.571.230
#Sample rate: 352113Hz
#Samples: 32768
#Trigger: Source: Channel 1 Type: Edge Condition: Rising Level: 0 V Hyst.: Auto HoldOff: 0 s
#Channel 1: Range: 200 mV/div Offset: 0 V Sample Mode: Average
#Wavegen Channel 1: Running
#Mode: Simple
#Type: Sine
#Frequency: 100 Hz
#Period: 10 ms
#Amplitude: 2 V
#Offset: 0 V
#Symmetry: 50 %
#Phase: 0 °

Time (s),Channel 1 (V)
-0.01320180368443561,-0.5700061223388593
-0.01319896368443561,-0.5654750407491922
-0.01319612368443561,-0.5661109820249349
-0.01319328368443561,-0.5681777911710989
-0.01319044368443561,-0.5657930113870635
-0.0131876036844356,-0.5669059086196252
-0.01318476368443561,-0.5734243066959767
-0.01318192368443561,-0.5717549608471549
-0.01317908368443561,-0.5692111957441809
-0.01317624368443561,-0.5724703947823625
-0.01317340368443561,-0.5712780048903449
-0.01317056368443561,-0.5648390994734495
-0.0131677236844356,-0.5665084453222762
-0.01316488368443561,-0.567621342554824
-0.01316204368443561,-0.5651570701113252
-0.01315920368443561,-0.5689727177657773
-0.01315636368443561,-0.5741397406311872
-0.01315352368443561,-0.5702446003172629
-0.01315068368443561,-0.5725498874418303
-0.0131478436844356,-0.5757295938205387
-0.01314500368443561,-0.572708872760766
-0.01314216368443561,-0.573503799355443
-0.01313932368443561,-0.5750936525448014
-0.01313648368443561,-0.5724703947823625
-0.01313364368443561,-0.5718344535066198
-0.01313080368443561,-0.5741397406311872
-0.0131279636844356,-0.5728678580796959
-0.01312512368443561,-0.5696086590415201
-0.01312228368443561,-0.5785118369019024
-0.01311944368443561,-0.5782733589235152
-0.01311660368443561,-0.570165107657795
-0.01311376368443561,-0.5715164828687483
-0.01311092368443561,-0.5739012626527837
-0.0131080836844356,-0.571675468187684
-0.01310524368443561,-0.5705625709551342
-0.01310240368443561,-0.57382176999331
-0.01309956368443561,-0.5742192332906551
-0.01309672368443561,-0.5713574975498127
-0.01309388368443561,-0.5739012626527837
-0.01309104368443561,-0.5741397406311872
-0.01308820368443561,-0.5728678580797018
-0.01308536368443561,-0.5753321305232049
-0.0130825236844356,-0.5732653213770375
-0.01307968368443561,-0.5713574975498127
-0.01307684368443561,-0.5733448140365052
-0.01307400368443561,-0.5731063360581052
-0.01307116368443561,-0.5694496737225844
-0.01306832368443561,-0.5718344535066198
-0.01306548368443561,-0.5723909021228947
-0.0130626436844356,-0.5685752544684419
-0.01305980368443561,-0.5706420636146021
-0.01305696368443561,-0.5728678580796978
-0.01305412368443561,-0.5690522104252451
-0.01305128368443561,-0.5685752544684382
-0.01304844368443561,-0.572231916803959
-0.01304560368443561,-0.5704035856361985
-0.0130427636844356,-0.5698471370199291
-0.01303992368443561,-0.5728678580797018
-0.01303708368443561,-0.5704830782956707
-0.01303424368443561,-0.5702446003172629
-0.01303140368443561,-0.5743782186095908
-0.01302856368443561,-0.5738217699933159
-0.01302572368443561,-0.5723114094634268
-0.0130228836844356,-0.5747756819069263
-0.01302004368443561,-0.5727883654202339
-0.01301720368443561,-0.5709600342524768
-0.01301436368443561,-0.5736627846743801
-0.01301152368443561,-0.5726293801012982
-0.01300868368443561,-0.5699266296793914
-0.01300584368443561,-0.5720729314850233
-0.0130030036844356,-0.5730268433986284
-0.01300016368443561,-0.5680982985116311
-0.01299732368443561,-0.5739012626527732
-0.01299448368443561,-0.5739012626527837
-0.01299164368443561,-0.56555453340866
-0.01298880368443561,-0.5657135187275957
-0.01298596368443561,-0.5708010489335378
-0.0129831236844356,-0.5715164828687502
-0.01298028368443561,-0.5725498874418303
-0.01297744368443561,-0.5737422773338458
-0.01297460368443561,-0.5713574975498127
-0.01297176368443561,-0.5738217699933159
-0.01296892368443561,-0.5759680717989477
-0.01296608368443561,-0.5720729314850233
-0.0129632436844356,-0.5727883654202387
-0.01296040368443561,-0.5754116231826728
-0.01295756368443561,-0.5725498874418355
-0.01295472368443561,-0.5727883654202339
-0.01295188368443561,-0.5745372039285265
-0.01294904368443561,-0.5714369902092805
-0.01294620368443561,-0.5711190195714091
-0.0129433636844356,-0.5738217699933139
-0.01294052368443561,-0.572708872760766
-0.01293768368443561,-0.5692111957441872
-0.01293484368443561,-0.5725498874418303
-0.01293200368443561,-0.572708872760766
-0.01292916368443561,-0.5699266296793914
-0.01292632368443561,-0.5730268433986374
-0.0129234836844356,-0.5733448140365088
-0.01292064368443561,-0.5700856149983271
-0.01291780368443561,-0.5733448140365029
-0.01291496368443561,-0.5750936525448014
-0.01291212368443561,-0.572708872760766
-0.01290928368443561,-0.573742277333848
-0.01290644368443561,-0.5759680717989477
-0.01290360368443561,-0.573742277333848
-0.01290076368443561,-0.573742277333848
-0.0128979236844356,-0.576127057117879
-0.01289508368443561,-0.573742277333848
-0.01289224368443561,-0.5719934388255554
-0.01288940368443561,-0.5746961892474621
-0.01288656368443561,-0.5728678580797018
-0.01288372368443561,-0.5713574975498127
-0.01288088368443561,-0.5739807553122516
-0.0128780436844356,-0.5733448140365045
-0.01287520368443561,-0.5709600342524734
-0.01287236368443561,-0.5800221974317913
-0.01286952368443561,-0.5810556020048897
-0.01286668368443561,-0.5727883654202339
-0.01286384368443561,-0.5710395269119413
-0.01286100368443561,-0.5766835057341583
-0.0128581636844356,-0.5744577112690592
-0.01285532368443561,-0.57477568190693
-0.01285248368443561,-0.5780348809451057
-0.01284964368443561,-0.5750141598853336
-0.01284680368443561,-0.5751731452042692
-0.01284396368443561,-0.577319447009901
-0.01284112368443561,-0.5726293801012982
-0.0128382836844356,-0.5675418498953594
-0.01283544368443561,-0.5692906884036487
-0.01283260368443561,-0.5689727177657778
-0.01282976368443561,-0.5663494600033384
-0.01282692368443561,-0.5712780048903449
-0.01282408368443561,-0.5746166965879943
-0.01282124368443561,-0.5700856149983271
-0.0128184036844356,-0.5716754681876872
-0.01281556368443561,-0.5734243066959767
-0.01281272368443561,-0.5707215562740748
-0.01280988368443561,-0.5715959755282162
-0.01280704368443561,-0.5732653213770409
-0.01280420368443561,-0.5700856149983271
-0.01280136368443561,-0.5720729314850233
-0.0127985236844356,-0.5738217699933074
-0.01279568368443561,-0.5691317030847131
-0.01279284368443561,-0.5681777911711007
-0.01279000368443561,-0.5708805415930056
-0.01278716368443561,-0.5704830782956664
-0.01278432368443561,-0.5675418498953562
-0.01278148368443561,-0.5695291663820522
-0.0127786436844356,-0.5702446003172549
-0.01277580368443561,-0.5658725040465313
-0.01277296368443561,-0.5679393131926915
-0.01277012368443561,-0.5692906884036487
-0.01276728368443561,-0.5656340260681278
-0.01276444368443561,-0.5668264159601455
-0.01276160368443561,-0.5673828645764204
-0.0127587636844356,-0.56499808479239
-0.01275592368443561,-0.5677008352142918
-0.01275308368443561,-0.5738217699933048
-0.01275024368443561,-0.5695291663820522
-0.01274740368443561,-0.5778758956261759
-0.01274456368443561,-0.5797042267939364
-0.01274172368443561,-0.5718344535066198
-0.0127388836844356,-0.5731858287175802
-0.01273604368443561,-0.5770809690314975
-0.01273320368443561,-0.574298725950128
-0.01273036368443561,-0.576286042436819
-0.01272752368443561,-0.5770809690314975
-0.01272468368443561,-0.572708872760766
-0.01272184368443561,-0.5742192332906551
-0.0127190036844356,-0.5761270571178834
-0.01271616368443561,-0.5723114094634268
-0.0127133236844356,-0.5724703947823573
-0.01271048368443561,-0.5696086590415201
-0.01270764368443561,-0.5653955480897244
-0.01270480368443561,-0.5648390994734495
-0.01270196368443561,-0.5673828645764204
-0.01269912368443561,-0.5646801141545137
-0.01269628368443561,-0.564521128835578
-0.0126934436844356,-0.5667469233006737
-0.01269060368443561,-0.564521128835578
-0.01268776368443561,-0.5630107683056917
-0.01268492368443561,-0.5662699673438706
-0.01268208368443561,-0.568654747127906
-0.01267924368443561,-0.5692906884036487
-0.01267640368443561,-0.5725498874418303
-0.0126735636844356,-0.5727883654202292
-0.01267072368443561,-0.570165107657795
-0.01266788368443561,-0.5696086590415211
-0.01266504368443561,-0.5677008352142918
-0.01266220368443561,-0.564044172878771
-0.01265936368443561,-0.566587937981742
-0.01265652368443561,-0.5688137324468416
-0.0126536836844356,-0.5651570701113221
-0.01265084368443561,-0.5658725040465313
-0.01264800368443561,-0.5670648939385469
-0.01264516368443561,-0.5639646802193031
-0.01264232368443561,-0.5653160554302564
-0.01263948368443561,-0.5695291663820522
-0.01263664368443561,-0.5684957618089702
-0.0126338036844356,-0.5687342397873795
-0.01263096368443561,-0.5718344535066198
-0.01262812368443561,-0.5684162691495086
-0.01262528368443561,-0.5705625709551342
-0.01262244368443561,-0.5788298075397901
-0.01261960368443561,-0.5762065497773512
-0.01261676368443561,-0.5732653213770409
-0.0126139236844356,-0.573662784674379
-0.01261108368443561,-0.5730268433986374
-0.01260824368443561,-0.5735037993554436
-0.01260540368443561,-0.5753321305232049
-0.01260256368443561,-0.5733448140365088
-0.01259972368443561,-0.5714369902092805
-0.01259688368443561,-0.5744577112690586
-0.0125940436844356,-0.5739012626527772
-0.01259120368443561,-0.5703240929767307
-0.01258836368443561,-0.5719139461660847
-0.01258552368443561,-0.5726293801012982
-0.01258268368443561,-0.5687342397873738
-0.01257984368443561,-0.5705625709551342
-0.01257700368443561,-0.5713574975498127
-0.0125741636844356,-0.5672238792574877
-0.01257132368443561,-0.5688932251063095
-0.01256848368443561,-0.5716754681876789
-0.01256564368443561,-0.5689727177657773
-0.01256280368443561,-0.5694496737225844
-0.01255996368443561,-0.572708872760766
-0.01255712368443561,-0.570165107657795
-0.0125542836844356,-0.5716754681876888
-0.01255144368443561,-0.5742987259501229
-0.01254860368443561,-0.5706420636146088
-0.01254576368443561,-0.5693701810631165
-0.01254292368443561,-0.5724703947823625
-0.01254008368443561,-0.5694496737225844
-0.01253724368443561,-0.5710395269119413
-0.0125344036844356,-0.5729473507391696
-0.01253156368443561,-0.5702446003172629
-0.01252872368443561,-0.568098298511635
-0.01252588368443561,-0.5715959755282162
-0.01252304368443561,-0.5711190195714091
-0.01252020368443561,-0.567621342554824
-0.01251736368443561,-0.5700061223388593
-0.01251452368443561,-0.570165107657795
-0.01251168368443561,-0.567621342554824
-0.0125088436844356,-0.5735037993554436
-0.01250600368443561,-0.5730268433986374
-0.01250316368443561,-0.5683367764900431
-0.01250032368443561,-0.5732653213770409
-0.01249748368443561,-0.5789887928587257
-0.01249464368443561,-0.5770809690314975
-0.01249180368443561,-0.5762065497773512
-0.0124889636844356,-0.5736627846743759
-0.01248612368443561,-0.5713574975498127
-0.01248328368443561,-0.572867858079699
-0.01248044368443561,-0.5754911158421406
-0.01247760368443561,-0.571675468187684
-0.01247476368443561,-0.572231916803959
-0.01247192368443561,-0.5743782186095908
-0.0124690836844356,-0.570483078295666
-0.01246624368443561,-0.5703240929767307
-0.01246340368443561,-0.5724703947823586
-0.01246056368443561,-0.5704035856361985
-0.01245772368443561,-0.566587937981742
-0.01245488368443561,-0.570165107657795
-0.01245204368443561,-0.570165107657795
-0.0124492036844356,-0.5670648939385523
-0.01244636368443561,-0.5688137324468416
-0.01244352368443561,-0.5703240929767279
-0.01244068368443561,-0.5677803278737596
-0.01243784368443561,-0.571675468187684
-0.01243500368443561,-0.5732653213770409
-0.01243216368443561,-0.568654747127906
-0.0124293236844356,-0.5708805415930085
-0.01242648368443561,-0.5724703947823625
-0.01242364368443561,-0.5680982985116391
-0.01242080368443561,-0.5708805415930056
-0.01241796368443561,-0.5714369902092805
-0.01241512368443561,-0.5675418498953562
-0.01241228368443561,-0.5680982985116311
-0.0124094436844356,-0.5715164828687426
-0.01240660368443561,-0.5683367764900346
-0.01240376368443561,-0.5678598205332284
-0.01240092368443561,-0.570165107657795
-0.01239808368443561,-0.5684957618089702
-0.01239524368443561,-0.5660314893654671
-0.01239240368443561,-0.5691317030847131
-0.0123895636844356,-0.5690522104252408
-0.01238672368443561,-0.5666674306412098
-0.01238388368443561,-0.5696086590415148
-0.01238104368443561,-0.5708010489335378
-0.01237820368443561,-0.5688137324468416
-0.01237536368443561,-0.5719934388255554
-0.01237252368443561,-0.5789093001992579
-0.0123696836844356,-0.5751731452042643
-0.01236684368443561,-0.5724703947823625
-0.01236400368443561,-0.5711190195714115
-0.01236116368443561,-0.5690522104252451
-0.01235832368443561,-0.5710395269119413
-0.01235548368443561,-0.5723114094634268
-0.01235264368443561,-0.5689727177657773
-0.0123498036844356,-0.5703240929767307
-0.01234696368443561,-0.5719934388255554
-0.01234412368443561,-0.5693701810631213
-0.01234128368443561,-0.5670648939385491
-0.01233844368443561,-0.5696086590415201
-0.01233560368443561,-0.5697676443604558
-0.01233276368443561,-0.5653160554302564
-0.0123299236844356,-0.5673828645764204
-0.01232708368443561,-0.5695291663820522
-0.0123242436844356,-0.5665084453222751
-0.01232140368443561,-0.5669854012790813
-0.01231856368443561,-0.5708805415930056
-0.01231572368443561,-0.5696086590415201
-0.01231288368443561,-0.5670648939385491
-0.01231004368443561,-0.5698471370199236
-0.01230720368443561,-0.5706420636146021
-0.0123043636844356,-0.5671443865980191
-0.01230152368443561,-0.5683367764900346
-0.01229868368443561,-0.5680982985116315
-0.01229584368443561,-0.5660314893654671
-0.01229300368443561,-0.5684162691495024
-0.01229016368443561,-0.5689727177657773
-0.01228732368443561,-0.5646801141545137
-0.0122844836844356,-0.5668264159601489
-0.01228164368443561,-0.5687342397873738
-0.01227880368443561,-0.5653160554302626
-0.01227596368443561,-0.5658725040465313
-0.01227312368443561,-0.5669854012790813
-0.01227028368443561,-0.5642031581977066
-0.01226744368443561,-0.5663494600033384
-0.0122646036844356,-0.5688137324468363
-0.01226176368443561,-0.5658725040465313
-0.01225892368443561,-0.5675418498953532
-0.01225608368443561,-0.5695291663820522
-0.01225324368443561,-0.5663494600033384
-0.01225040368443561,-0.5680982985116311
-0.01224756368443561,-0.5757295938205441
-0.0122447236844356,-0.5723114094634187
-0.01224188368443561,-0.5678598205332275
-0.01223904368443561,-0.5675418498953567
-0.01223620368443561,-0.566587937981742
-0.01223336368443561,-0.5673828645764204
-0.01223052368443561,-0.568654747127906
-0.01222768368443561,-0.566587937981742
-0.0122248436844356,-0.5653160554302616
-0.01222200368443561,-0.5681777911710989
-0.01221916368443561,-0.5670648939385511
-0.01221632368443561,-0.5631697536246246
-0.01221348368443561,-0.56555453340866
-0.01221064368443561,-0.5673828645764204
-0.01220780368443561,-0.5635672169219639
-0.0122049636844356,-0.5651570701113267
-0.01220212368443561,-0.5684162691495024
-0.01219928368443561,-0.5669854012790838
-0.01219644368443561,-0.5644416361761102
-0.01219360368443561,-0.5674623572358882
-0.01219076368443561,-0.5677803278737596
-0.01218792368443561,-0.5638056949003675
-0.0121850836844356,-0.5657135187275985
-0.01218224368443561,-0.5672238792574847
-0.01217940368443561,-0.5653160554302599
-0.01217656368443561,-0.5643621435166424
-0.01217372368443561,-0.5665084453222742
-0.01217088368443561,-0.5651570701113208
-0.01216804368443561,-0.5632492462840926
-0.0121652036844356,-0.5661904746844002
-0.01216236368443561,-0.5647596068139815
-0.01215952368443561,-0.5621363490515474
-0.01215668368443561,-0.5643621435166424
-0.01215384368443561,-0.5638056949003675
-0.01215100368443561,-0.5626133050083497
-0.01214816368443561,-0.5648390994734495
-0.0121453236844356,-0.5649980847923851
-0.01214248368443561,-0.5623748270299462
-0.0121396436844356,-0.566269967343872
-0.01213680368443561,-0.5670648939385491
-0.01213396368443561,-0.5643621435166424
-0.01213112368443561,-0.5653160554302564
-0.01212828368443561,-0.5659519967059993
-0.01212544368443561,-0.5627722903272855
-0.01212260368443561,-0.570165107657795
-0.0121197636844356,-0.5725498874418169
-0.01211692368443561,-0.5651570701113208
-0.01211408368443561,-0.5626133050083544
-0.01211124368443561,-0.5667469233006777
-0.01210840368443561,-0.5642826508571744
-0.01210556368443561,-0.5656340260681278
-0.01210272368443561,-0.5677008352142918
-0.0120998836844356,-0.5637262022408999
-0.01209704368443561,-0.5638851875598353
-0.01209420368443561,-0.5660314893654632
-0.01209136368443561,-0.5629312756462211
-0.01208852368443561,-0.5638851875598353
-0.01208568368443561,-0.5658725040465313
-0.01208284368443561,-0.564044172878771
-0.0120800036844356,-0.5633287389435661
-0.01207716368443561,-0.5664289526628064
-0.01207432368443561,-0.5648390994734523
-0.01207148368443561,-0.5622953343704784
-0.01206864368443561,-0.5639646802193031
-0.01206580368443561,-0.5636467095814317
-0.01206296368443561,-0.5611824371379286
-0.0120601236844356,-0.5638056949003657
-0.01205728368443561,-0.5628517829867533
-0.01205444368443561,-0.5607849738405931
-0.01205160368443561,-0.5633287389435604
-0.01204876368443561,-0.5608644665000572
-0.01204592368443561,-0.5610234518189928
-0.01204308368443561,-0.5642826508571744
-0.0120402436844356,-0.5622953343704771
-0.01203740368443561,-0.5615799004352677
-0.01203456368443561,-0.5637262022408956
-0.01203172368443561,-0.5615004077757999
-0.01202888368443561,-0.5607849738405893
-0.01202604368443561,-0.5634082316030282
-0.01202320368443561,-0.5635672169219639
-0.0120203636844356,-0.5622953343704841
-0.01201752368443561,-0.5653955480897244
-0.01201468368443561,-0.5635672169219672
-0.01201184368443561,-0.5612619297973964
-0.01200900368443561,-0.5639646802193031
-0.01200616368443561,-0.5622953343704784
-0.01200332368443561,-0.5604670032027179
-0.0120004836844356,-0.5626927976678253
-0.01199764368443561,-0.5669854012790813
-0.01199480368443561,-0.5640441728787763
-0.01199196368443561,-0.5620568563920748
-0.01198912368443561,-0.5611824371379286
-0.01198628368443561,-0.5589566426728289
-0.01198344368443561,-0.5600695399053788
-0.0119806036844356,-0.562295334370473
-0.01197776368443561,-0.5592746133107003
-0.01197492368443561,-0.5604670032027157
-0.01197208368443561,-0.5618183784136713
-0.01196924368443561,-0.5583207013970861
-0.01196640368443561,-0.5594335986296359
-0.01196356368443561,-0.563010768305689
-0.0119607236844356,-0.5615004077757999
-0.01195788368443561,-0.5597515692675074
-0.01195504368443561,-0.5614209151163291
-0.01195220368443561,-0.5610234518189928
-0.01194936368443561,-0.5579232380997469
-0.01194652368443561,-0.5600695399053788
-0.01194368368443561,-0.5611824371379286
-0.01194084368443561,-0.5565718628887936
-0.01193800368443561,-0.557366789483472
-0.0119351636844356,-0.5600695399053736
-0.01193232368443561,-0.5572078041645363
-0.01192948368443561,-0.5560154142725209
-0.01192664368443561,-0.5591156279917646
-0.01192380368443561,-0.5566513555482614
-0.01192096368443561,-0.5556974436346472
-0.01191812368443561,-0.5582412087376183
-0.0119152836844356,-0.5584001940565481
-0.01191244368443561,-0.5551409950183723
-0.01190960368443561,-0.5580822234186773
-0.01190676368443561,-0.5597515692675074
-0.01190392368443561,-0.5567308482077292
-0.01190108368443561,-0.5587181646944254
-0.01189824368443561,-0.560943959159525
-0.0118954036844356,-0.5576847601213412
-0.01189256368443561,-0.5564923702293257
-0.01188972368443561,-0.5595130912890983
-0.01188688368443561,-0.5587976573538932
-0.01188404368443561,-0.5555384583157116
-0.01188120368443561,-0.5579232380997469
-0.01187836368443561,-0.5589566426728289
-0.0118755236844356,-0.5556974436346571
-0.01187268368443561,-0.5611029444784607
-0.01186984368443561,-0.5645211288355718
-0.01186700368443561,-0.5574462821429399
-0.01186416368443561,-0.5541075904452903
-0.01186132368443561,-0.5593541059701681
-0.01185848368443561,-0.557366789483472
-0.0118556436844356,-0.5564923702293306
-0.01185280368443561,-0.5591951206512324
-0.01184996368443561,-0.5567308482077337
-0.01184712368443561,-0.5571283115050685
