synth-diodes-4f-1r-in-T00-L10-D00/1kHz-2V/scope.csv

#Digilent WaveForms Oscilloscope Acquisition
#Device Name: Discovery3
#Serial Number: SN:210415BD5874
#Date Time: 2025-04-06 20:22:43.037.064.430
#Sample rate: 1.23457e+06Hz
#Samples: 32768
#Trigger: Source: Channel 1 Type: Edge Condition: Rising Level: 0 V Hyst.: Auto HoldOff: 0 s
#Channel 1: Range: 200 mV/div Offset: 0 V Sample Mode: Average
#Wavegen Channel 1: Running
#Mode: Simple
#Type: Sine
#Frequency: 1 kHz
#Period: 1 ms
#Amplitude: 2 V
#Offset: 0 V
#Symmetry: 50 %
#Phase: 0 °

Time (s),Channel 1 (V)
-0.01027703173279352,-0.07595924374620441
-0.01027622173279352,-0.07540279512992951
-0.01027541173279352,-0.07556178044886519
-0.01027460173279352,-0.07587975108673657
-0.01027379173279352,-0.07603873640567226
-0.01027298173279352,-0.0758002584272696
-0.01027217173279352,-0.07667467768141342
-0.01027136173279352,-0.07627721438407652
-0.01027055173279352,-0.07572076576780189
-0.01026974173279352,-0.07540279512993009
-0.01026893173279352,-0.07492583917312243
-0.01026812173279352,-0.07532330247046165
-0.01026731173279352,-0.07460786853525106
-0.01026650173279352,-0.07476685385418602
-0.01026569173279352,-0.07436939055684896
-0.01026488173279352,-0.07476685385418602
-0.01026407173279352,-0.07500533183258985
-0.01026326173279352,-0.07540279512992878
-0.01026245173279352,-0.07532330247046179
-0.01026164173279352,-0.07580025842726873
-0.01026083173279352,-0.07580025842726873
-0.01026002173279352,-0.07595924374620441
-0.01025921173279352,-0.0752438098109925
-0.01025840173279352,-0.07452837587578581
-0.01025759173279352,-0.07460786853525092
-0.01025678173279352,-0.07428989789738026
-0.01025597173279352,-0.07421040523791197
-0.01025516173279352,-0.07436939055684752
-0.01025435173279352,-0.07436939055684752
-0.01025354173279352,-0.07444888321631536
-0.01025273173279352,-0.0745283758757832
-0.01025192173279352,-0.07484634651365343
-0.01025111173279352,-0.07492583917312229
-0.01025030173279352,-0.07452837587578393
-0.01024949173279352,-0.07357446396217081
-0.01024868173279352,-0.07301801534589517
-0.01024787173279352,-0.07301801534589415
-0.01024706173279352,-0.07309750800536201
-0.01024625173279352,-0.07285903002695847
-0.01024544173279352,-0.07293852268642631
-0.01024463173279352,-0.07262055204855608
-0.01024382173279352,-0.07230258141068414
-0.01024301173279352,-0.07285903002695746
-0.01024220173279352,-0.07325649332429697
-0.01024139173279352,-0.07293852268642689
-0.01024058173279352,-0.07301801534589415
-0.01023977173279352,-0.0723820740701514
-0.01023896173279352,-0.07198461077281218
-0.01023815173279352,-0.07087171354026235
-0.01023734173279352,-0.07015627960505436
-0.01023653173279352,-0.06880490439410085
-0.01023572173279352,-0.06769200716155059
-0.01023491173279352,-0.06642012461006537
-0.01023410173279352,-0.06594316865325685
-0.01023329173279352,-0.06578418333432029
-0.01023248173279352,-0.06602266131272383
-0.01023167173279352,-0.06626113929112736
-0.01023086173279352,-0.06657910992899874
-0.01023005173279352,-0.06602266131272586
-0.01022924173279352,-0.06562519801538533
-0.01022843173279352,-0.0651482420585784
-0.01022762173279352,-0.06530722737751293
-0.01022681173279352,-0.06546621269644862
-0.01022600173279352,-0.06618164663165951
-0.01022519173279352,-0.0672150512047415
-0.01022438173279352,-0.06689708056687012
-0.01022357173279352,-0.06713555854527394
-0.01022276173279352,-0.06729454386420876
-0.01022195173279352,-0.06753302184261244
-0.01022114173279352,-0.06721505120474208
-0.01022033173279352,-0.06713555854527378
-0.01021952173279352,-0.06673809524793442
-0.01021871173279352,-0.06586367599378813
-0.01021790173279352,-0.06554570535591675
-0.01021709173279352,-0.06530722737751322
-0.01021628173279352,-0.06451230078283507
-0.01021547173279352,-0.06467128610177017
-0.01021466173279352,-0.06427382280443196
-0.01021385173279352,-0.06419433014496354
-0.01021304173279352,-0.06451230078283419
-0.01021223173279352,-0.06387635950709201
-0.01021142173279352,-0.06443280812336694
-0.01021061173279352,-0.06427382280443124
-0.01020980173279352,-0.06467128610177046
-0.01020899173279352,-0.06459179344230291
-0.01020818173279352,-0.06411483748549643
-0.01020737173279352,-0.06331991089081855
-0.01020656173279352,-0.06260447695560781
-0.01020575173279352,-0.0619685356798649
-0.01020494173279352,-0.06228650631773512
-0.01020413173279352,-0.06212752099879942
-0.01020332173279352,-0.06196853567986374
-0.01020251173279352,-0.06165056504199236
-0.01020170173279352,-0.06220701365826525
-0.01020089173279352,-0.06244549163667037
-0.01020008173279352,-0.06268396961507391
-0.01019927173279352,-0.06252498429613894
-0.01019846173279352,-0.06236599897720325
-0.01019765173279352,-0.06180955036092806
-0.01019684173279352,-0.06117360908518529
-0.01019603173279352,-0.06061716046891039
-0.01019522173279352,-0.06069665312837823
-0.01019441173279352,-0.06053766780944311
-0.01019360173279352,-0.05990172653370094
-0.01019279173279352,-0.05902730727955507
-0.01019198173279352,-0.05847085866327958
-0.01019117173279352,-0.05878882930114938
-0.01019036173279352,-0.05982223387423194
-0.01018955173279352,-0.05966324855529624
-0.01018874173279352,-0.05926578525795702
-0.01018793173279352,-0.05918629259848918
-0.01018712173279352,-0.05918629259848918
-0.01018631173279352,-0.05950426323635998
-0.01018550173279352,-0.05958375589582825
-0.01018469173279352,-0.0593452779174253
-0.01018388173279352,-0.05926578525795702
-0.01018307173279352,-0.05831187334434289
-0.01018226173279352,-0.05751694674966444
-0.01018145173279352,-0.05815288802540719
-0.01018064173279352,-0.05855035132274685
-0.01017983173279352,-0.05878882930114909
-0.01017902173279352,-0.05862984398221455
-0.01017821173279352,-0.05807339536594036
-0.01017740173279352,-0.05711948345232695
-0.01017659173279352,-0.05664252749551814
-0.01017578173279352,-0.05648354217658245
-0.01017497173279352,-0.05608607887924323
-0.01017416173279352,-0.05640404951711461
-0.01017335173279352,-0.05584760090084172
-0.01017254173279352,-0.05505267430616269
-0.01017173173279352,-0.05378079175467804
-0.01017092173279352,-0.05274738718159563
-0.01017011173279352,-0.05195246058691674
-0.01016930173279352,-0.05179347526797962
-0.01016849173279352,-0.0505215927164941
-0.01016768173279352,-0.05020362207862272
-0.01016687173279352,-0.04996514410021918
-0.01016606173279352,-0.04917021750554363
-0.01016525173279352,-0.04932920282447614
-0.01016444173279352,-0.04845478357033172
-0.01016363173279352,-0.04821630559192704
-0.01016282173279352,-0.04853427622979741
-0.01016201173279352,-0.04948818814341212
-0.01016120173279352,-0.04972666612181566
-0.01016039173279352,-0.05012412941915488
-0.01015958173279352,-0.05036260739755841
-0.01015877173279352,-0.0509190560138313
-0.01015796173279352,-0.05163448994904263
-0.01015715173279352,-0.05171398260851163
-0.01015634173279352,-0.05139601197064097
-0.01015553173279352,-0.05036260739756029
-0.01015472173279352,-0.04917021750554074
-0.01015391173279352,-0.04948818814341212
-0.01015310173279352,-0.04861376888926583
-0.01015229173279352,-0.04845478357032941
-0.01015148173279352,-0.04805732027299235
-0.01015067173279352,-0.04758036431618471
-0.01014986173279352,-0.04765985697565154
-0.01014905173279352,-0.04750087165671629
-0.01014824173279352,-0.047500871656716
-0.01014743173279352,-0.047500871656716
-0.01014662173279352,-0.04781884229458738
-0.01014581173279352,-0.04813681293245876
-0.01014500173279352,-0.04742137899724685
-0.01014419173279352,-0.04670594506204016
-0.01014338173279352,-0.04638797442416675
-0.01014257173279352,-0.04591101846735997
-0.01014176173279352,-0.0455930478294883
-0.01014095173279352,-0.04471862857534144
-0.01014014173279352,-0.04487761389427712
-0.01013933173279352,-0.0451955845321485
-0.01013852173279352,-0.04479812123480928
-0.01013771173279352,-0.04479812123480928
-0.01013690173279352,-0.04519558453214778
-0.01013609173279352,-0.045593047829487
-0.01013528173279352,-0.04511609187268153
-0.01013447173279352,-0.04455964325640677
-0.01013366173279352,-0.04440065793747006
-0.01013285173279352,-0.04384420932119515
-0.01013204173279352,-0.04281080474811316
-0.01013123173279352,-0.0430492827265167
-0.01013042173279352,-0.0430492827265167
-0.01012961173279352,-0.04336725336438749
-0.01012880173279352,-0.04304928272651728
-0.01012799173279352,-0.04328776070491979
-0.01012718173279352,-0.04273131208864633
-0.01012637173279352,-0.04273131208864532
-0.01012556173279352,-0.04225435613183826
-0.01012475173279352,-0.04177740017503118
-0.01012394173279352,-0.04153892219662765
-0.01012313173279352,-0.04106196623982232
-0.01012232173279352,-0.04066450294248208
-0.01012151173279352,-0.04050551762354596
-0.01012070173279352,-0.04034653230461027
-0.01011989173279352,-0.04042602496407768
-0.01011908173279352,-0.0407439956019492
-0.01011827173279352,-0.04034653230460998
-0.01011746173279352,-0.0400285616667386
-0.01011665173279352,-0.03931312773152799
-0.01011584173279352,-0.03851820113685244
-0.01011503173279352,-0.03812073783951105
-0.01011422173279352,-0.03716682592589793
-0.01011341173279352,-0.03700784060696079
-0.01011260173279352,-0.0372463185853636
-0.01011179173279352,-0.03629240667174989
-0.01011098173279352,-0.03613342135281421
-0.01011017173279352,-0.03645139199068559
-0.01010936173279352,-0.0363718993312163
-0.01010855173279352,-0.03557697273654219
-0.01010774173279352,-0.03462306082292689
-0.01010693173279352,-0.03335117827144195
-0.01010612173279352,-0.03168183242261795
-0.01010531173279352,-0.02993299391432232
-0.01010450173279352,-0.0286611113628368
-0.01010369173279352,-0.02699176551401206
-0.01010288173279352,-0.02643531689773715
-0.01010207173279352,-0.02603785360039938
-0.01010126173279352,-0.02484546370838243
-0.01010045173279352,-0.02420952243263865
-0.01009964173279352,-0.0238915517947667
-0.01009883173279352,-0.02325561051902452
-0.01009802173279352,-0.02357358115689474
-0.01009721173279352,-0.02389155179476612
-0.01009640173279352,-0.02373256647583043
-0.01009559173279352,-0.0242095224326375
-0.01009478173279352,-0.02373256647583217
-0.01009397173279352,-0.02317611785955653
-0.01009316173279352,-0.02222220594594312
-0.01009235173279352,-0.02190423530807058
-0.01009154173279352,-0.0213477866917961
-0.01009073173279352,-0.02039387477818095
-0.01008992173279352,-0.02039387477818095
-0.01008911173279352,-0.02007590414030958
-0.01008830173279352,-0.01920148488616328
-0.01008749173279352,-0.01928097754563084
-0.01008668173279352,-0.01864503626988952
-0.01008587173279352,-0.01753213903734057
-0.01008506173279352,-0.01705518308053234
-0.01008425173279352,-0.01641924180478987
-0.01008344173279352,-0.01538583723170674
-0.01008263173279352,-0.01506786659383536
-0.01008182173279352,-0.01403446202075338
-0.01008101173279352,-0.01387547670181769
-0.01008020173279352,-0.01371649138288258
-0.01007939173279352,-0.0133190280855435
-0.01007858173279352,-0.01228562351246267
-0.01007777173279352,-0.01292156478820239
-0.01007696173279352,-0.01276257946926815
-0.01007615173279352,-0.01244460883139648
-0.01007534173279352,-0.01236511617192864
-0.01007453173279352,-0.01157018957725019
-0.01007372173279352,-0.01053678500416806
-0.01007291173279352,-0.01045729234470065
-0.01007210173279352,-0.009582873090555662
-0.01007129173279352,-0.009344395112150971
-0.01007048173279352,-0.009423887771618239
-0.01006967173279352,-0.008628961176939936
-0.01006886173279352,-0.008152005220132867
-0.01006805173279352,-0.00735707862545442
-0.01006724173279352,-0.006959615328115196
-0.01006643173279352,-0.006959615328116208
-0.01006562173279352,-0.007516063944388085
-0.01006481173279352,-0.007118600647051609
-0.01006400173279352,-0.006800630009180085
-0.01006319173279352,-0.006800630009179506
-0.01006238173279352,-0.006641644690243817
-0.01006157173279352,-0.006562152030775972
-0.01006076173279352,-0.006482659371308127
-0.01005995173279352,-0.006641644690243817
-0.01005914173279352,-0.00624418139290604
-0.01005833173279352,-0.005449254798227592
-0.01005752173279352,-0.005290269479290745
-0.01005671173279352,-0.005290269479290457
-0.01005590173279352,-0.005767225436096658
-0.01005509173279352,-0.005926210755033214
-0.01005428173279352,-0.005608240117161836
-0.01005347173279352,-0.005210776819822612
-0.01005266173279352,-0.005131284160354768
-0.01005185173279352,-0.004574835544081879
-0.01005104173279352,-0.004177372246741354
-0.01005023173279352,-0.00370041628993443
-0.01004942173279352,-0.003859401608868963
-0.01004861173279352,-0.003461938311530752
-0.01004780173279352,-0.003382445652062184
-0.01004699173279352,-0.003382445652062184
-0.01004618173279352,-0.003541430970997873
-0.01004537173279352,-0.003620923630465718
-0.01004456173279352,-0.003938894268335939
-0.01004375173279352,-0.003779908949401697
-0.01004294173279352,-0.002746504376321306
-0.01004213173279352,-0.002031070441110125
-0.01004132173279352,-0.0008386805490933217
-0.01004051173279352,0.0002742166834586732
-0.01003970173279352,0.00122812859707281
-0.01003889173279352,0.001625591894412033
-0.01003808173279352,0.002420518489091059
-0.01003727173279352,0.002738489126960703
-0.01003646173279352,0.002579503808026459
-0.01003565173279352,0.00250001114855847
-0.01003484173279352,0.002182040510687525
-0.01003403173279352,0.002261533170154646
-0.01003322173279352,0.002102547851219102
-0.01003241173279352,0.002102547851219102
-0.01003160173279352,0.001148635937604965
-0.01003079173279352,0.0008306652997324295
-0.01002998173279352,0.0001947240239931421
-0.01002917173279352,0.0001947240239908285
-0.01002836173279352,0.0001947240239908285
-0.01002755173279352,0.0002742166834585286
-0.01002674173279352,-4.375395441270566e-05
-0.01002593173279352,0.0001947240239908285
-0.01002512173279352,0.0001152313645229838
-0.01002431173279352,-0.000520709911219774
-0.01002350173279352,-0.0006002025706873295
-0.01002269173279352,-0.0006796952301553188
-0.01002188173279352,-0.0006002025706877633
-0.01002107173279352,-0.0003617245922845183
-0.01002026173279352,-0.0002027392733486843
-0.01001945173279352,0.0001152313645229838
-0.01001864173279352,-0.0001232466138805504
-0.01001783173279352,0.0002742166834586732
-0.01001702173279352,0.0001947240239908285
-0.01001621173279352,-0.0002822319328145047
-0.01001540173279352,-0.0001232466138808396
-0.01001459173279352,-0.0003617245922836507
-0.01001378173279352,-0.0003617245922840845
-0.01001297173279352,-0.001077158527493386
-0.01001216173279352,-0.001236143846430376
-0.01001135173279352,-0.001315636505898221
-0.01001054173279352,-0.001156651186962532
-0.01000973173279352,-0.001236143846430376
-0.01000892173279352,-0.001077158527495265
-0.01000811173279352,-0.001077158527494687
-0.01000730173279352,-0.0006002025706884863
-0.01000649173279352,-0.0002822319328168182
-0.01000568173279352,-0.0006002025706870404
-0.01000487173279352,-0.0004412172517519292
-0.01000406173279352,-0.0009181732085589975
-0.01000325173279352,-0.001951577781640979
-0.01000244173279352,-0.002031070441108823
-0.01000163173279352,-0.002349041078979046
-0.01000082173279352,-0.002269548419512502
-0.01000001173279352,-0.001554114484303057
-0.009999201732793523,-0.001554114484301755
-0.009998391732793523,-0.001156651186963255
-0.009997581732793522,-0.001156651186962532
-0.009996771732793522,-0.0009976658680268423
-0.009995961732793521,-0.0009181732085589975
-0.009995151732793521,-0.0006002025706873295
-0.009994341732793524,-0.0004412172517525077
-0.009993531732793524,-0.0003617245922842291
-0.009992721732793523,-4.375395441328403e-05
-0.009991911732793523,-0.0002027392733481059
-0.009991101732793523,-0.000520709911219774
-0.009990291732793522,-0.0006796952301554634
-0.009989481732793522,-0.0002027392733483951
-0.009988671732793521,0.0005126946618622074
-0.009987861732793524,0.001148635937602652
-0.009987051732793524,0.001307621256540365
-0.009986241732793524,0.001228128597072954
-0.009985431732793523,0.002182040510685211
-0.009984621732793523,0.002658996467493147
-0.009983811732793522,0.002500011148558325
-0.009983001732793522,0.00273848912696186
-0.009982191732793522,0.003135952424301083
-0.009981381732793521,0.002817981786429704
-0.009980571732793524,0.003056459764832371
-0.009979761732793524,0.003056459764833238
-0.009978951732793524,0.003533415721639439
-0.009978141732793523,0.004407834975785008
-0.009977331732793523,0.004725805613657399
-0.009976521732793522,0.005123268910997201
-0.009975711732793522,0.005759210186739958
-0.009974901732793522,0.005918195505675648
-0.009974091732793521,0.006315658803014872
-0.009973281732793524,0.006792614759820206
-0.009972471732793524,0.00655413678141884
-0.009971661732793523,0.006554136781418406
-0.009970851732793523,0.006633629440886106
-0.009970041732793523,0.00615667348408005
-0.009969231732793522,0.006236166143547027
-0.009968421732793522,0.007031092738225474
-0.009967611732793522,0.007667034013968232
-0.009966801732793521,0.00830297528971099
-0.009965991732793524,0.009018409224918989
-0.009965181732793524,0.009813335819598593
-0.009964371732793523,0.009733843160132339
-0.009963561732793523,0.009972321138535295
-0.009962751732793523,0.01013130645747113
-0.009961941732793522,0.01076724773321418
-0.009961131732793522,0.01021079911693926
-0.009960321732793521,0.00981333581960004
-0.009959511732793521,0.009972321138535585
-0.009958701732793524,0.009892828479068173
-0.009957891732793524,0.01068775507374488
-0.009957081732793523,0.01116471103055253
-0.009956271732793523,0.0120391302846981
-0.009955461732793523,0.01243659358203891
-0.009954651732793522,0.01299304219831383
-0.009953841732793522,0.01307253485778167
-0.009953031732793521,0.01339050549565305
-0.009952221732793521,0.01370847613352356
-0.009951411732793524,0.0132315201767191
-0.009950601732793524,0.01323152017671736
-0.009949791732793523,0.01315202751724966
-0.009948981732793523,0.01331101283618492
-0.009948171732793522,0.01410593943086365
-0.009947361732793522,0.01505985134447779
-0.009946551732793522,0.01537782198234917
-0.009945741732793521,0.01593427059862408
-0.009944931732793524,0.01609325591755919
-0.009944121732793524,0.01672919719330137
-0.009943311732793524,0.01704716783117333
-0.009942501732793523,0.01903448431786641
-0.009941691732793523,0.01911397697733773
-0.009940881732793522,0.01839854304212727
-0.009940071732793522,0.01808057240425589
-0.009939261732793522,0.01855752836106296
-0.009938451732793521,0.01847803570159511
-0.009937641732793524,0.01847803570159511
-0.009936831732793524,0.01863702102053051
-0.009936021732793524,0.0184780357015954
-0.009935211732793523,0.01879600633946591
-0.009934401732793523,0.01847803570159569
-0.009933591732793522,0.01967042559361279
-0.009932781732793522,0.02030636686935554
-0.009931971732793522,0.02086281548563046
-0.009931161732793521,0.02054484484775907
-0.009930351732793524,0.02006788889095374
-0.009929541732793524,0.01990890357201661
-0.009928731732793523,0.02070383016669332
-0.009927921732793523,0.02149875676137177
-0.009927111732793523,0.02205520537764711
-0.009926301732793522,0.0223731760155195
-0.009925491732793522,0.0232475952696658
-0.009924681732793521,0.02364505856700502
-0.009923871732793521,0.02380404388594129
-0.009923061732793524,0.02412201452381093
-0.009922251732793524,0.02396302920487669
-0.009921441732793523,0.0240425218643441
-0.009920631732793523,0.02388353654540884
-0.009919821732793523,0.02364505856700545
-0.009919011732793522,0.02428099984274778
-0.009918201732793522,0.02507592643742623
-0.009917391732793521,0.02547338973476545
-0.009916581732793521,0.02595034569157367
-0.009915771732793524,0.02658628696731296
-0.009914961732793524,0.02690425760518607
-0.009914151732793523,0.02722222824305745
-0.009913341732793523,0.02769918419986423
-0.009912531732793523,0.02785816951880079
-0.009911721732793522,0.02936853004868984
-0.009910911732793522,0.03016345664336829
-0.009910101732793521,0.03032244196230397
-0.009909291732793524,0.03119686121644709
-0.009908481732793524,0.03199178781112727
-0.009907671732793524,0.03254823642740262
-0.009906861732793523,0.03302519238420983
-0.009906051732793523,0.03374062631942
-0.009905241732793522,0.03397910429782483
-0.009904431732793522,0.03413808961676053
