-20250406-BKP/synth-diodes-2f-1r-in-T00-L10-D00/1kHz-1V/scope.csv

#Digilent WaveForms Oscilloscope Acquisition
#Device Name: Discovery3
#Serial Number: SN:210415BD5874
#Date Time: 2025-04-06 20:18:43.498.618.170
#Sample rate: 1.23457e+06Hz
#Samples: 32768
#Trigger: Source: Channel 1 Type: Edge Condition: Rising Level: 0 V Hyst.: Auto HoldOff: 0 s
#Channel 1: Range: 200 mV/div Offset: 0 V Sample Mode: Average
#Wavegen Channel 1: Running
#Mode: Simple
#Type: Sine
#Frequency: 1 kHz
#Period: 1 ms
#Amplitude: 1 V
#Offset: 0 V
#Symmetry: 50 %
#Phase: 0 °

Time (s),Channel 1 (V)
-0.01027720273279352,-0.1105385506147169
-0.01027639273279352,-0.1155465881611911
-0.01027558273279352,-0.1405867758935622
-0.01027477273279352,-0.1491719831160894
-0.01027396273279352,-0.1503643730081071
-0.01027315273279352,-0.1508413289649124
-0.01027234273279352,-0.1510003142838495
-0.01027153273279352,-0.1512387922622529
-0.01027072273279352,-0.1513977775811887
-0.01026991273279352,-0.1504438656675766
-0.01026910273279352,-0.1498874170513
-0.01026829273279352,-0.1498079243918321
-0.01026748273279352,-0.1482975638619431
-0.01026667273279352,-0.1473436519483262
-0.01026586273279352,-0.1458332914184454
-0.01026505273279352,-0.1440844529101505
-0.01026424273279352,-0.1427330776991964
-0.01026343273279352,-0.1414611951477107
-0.01026262273279352,-0.1402688052556929
-0.01026181273279352,-0.1466282180131183
-0.01026100273279352,-0.1668193535179509
-0.01026019273279352,-0.1753250680810103
-0.01025938273279352,-0.1782662964813229
-0.01025857273279352,-0.1795381790328014
-0.01025776273279352,-0.1793791937138706
-0.01025695273279352,-0.1788227450975965
-0.01025614273279352,-0.1780278185029185
-0.01025533273279352,-0.175961009356753
-0.01025452273279352,-0.1750070974431389
-0.01025371273279352,-0.1734967369132499
-0.01025290273279352,-0.1726223176591036
-0.01025209273279352,-0.1714299277670902
-0.01025128273279352,-0.1707144938318766
-0.01025047273279352,-0.1700785525561337
-0.01024966273279352,-0.1692041333019878
-0.01024885273279352,-0.1681707287289061
-0.01024804273279352,-0.167773265431565
-0.01024723273279352,-0.1819229588168414
-0.01024642273279352,-0.1989343879429602
-0.01024561273279352,-0.2034654695326273
-0.01024480273279352,-0.2041809034678353
-0.01024399273279352,-0.2032269915542256
-0.01024318273279352,-0.202909020916353
-0.01024237273279352,-0.2017166310243369
-0.01024156273279352,-0.2013191677269962
-0.01024075273279352,-0.2007627191107206
-0.01023994273279352,-0.2002062704944457
-0.01023913273279352,-0.1994113438997673
-0.01023832273279352,-0.1978214907104104
-0.01023751273279352,-0.1968675787967997
-0.01023670273279352,-0.1958341742237161
-0.01023589273279352,-0.1940853357154248
-0.01023508273279352,-0.1921775118881968
-0.01023427273279352,-0.1901107027420331
-0.01023346273279352,-0.1904286733799008
-0.01023265273279352,-0.2081555364412302
-0.01023184273279352,-0.2205563913182139
-0.01023103273279352,-0.224610516951074
-0.01023022273279352,-0.2262003701404251
-0.01022941273279352,-0.2258823995025601
-0.01022860273279352,-0.2250079802484148
-0.01022779273279352,-0.224531024291607
-0.01022698273279352,-0.223259141740123
-0.01022617273279352,-0.2215103032318281
-0.01022536273279352,-0.2196819720640676
-0.01022455273279352,-0.2176151629179037
-0.01022374273279352,-0.215548353771737
-0.01022293273279352,-0.2140379932418562
-0.01022212273279352,-0.2126071253714321
-0.01022131273279352,-0.2118916914362202
-0.01022050273279352,-0.2111762575010096
-0.01021969273279352,-0.2106198088847334
-0.01021888273279352,-0.2171382069610966
-0.01021807273279352,-0.2373293424659292
-0.01021726273279352,-0.2422578873529355
-0.01021645273279352,-0.2444836818180336
-0.01021564273279352,-0.2436092625638905
-0.01021483273279352,-0.2416219460771964
-0.01021402273279352,-0.2401910782067742
-0.01021321273279352,-0.237965283741676
-0.01021240273279352,-0.2364549232117829
-0.01021159273279352,-0.2355010112981687
-0.01021078273279352,-0.2347855773629581
-0.01020997273279352,-0.2339111581088119
-0.01020916273279352,-0.2324802902383959
-0.01020835273279352,-0.2313673930058429
-0.01020754273279352,-0.2303339884327607
-0.01020673273279352,-0.2289031205623402
-0.01020592273279352,-0.2265183407783066
-0.01020511273279352,-0.2248489949294775
-0.01020430273279352,-0.2304929737516945
-0.01020349273279352,-0.2467094762831349
-0.01020268273279352,-0.252750918402691
-0.01020187273279352,-0.254897220208315
-0.01020106273279352,-0.2552151908461937
-0.01020025273279352,-0.2546587422299203
-0.01019944273279352,-0.2533868596784362
-0.01019863273279352,-0.2526714257432245
-0.01019782273279352,-0.251240557872802
-0.01019701273279352,-0.2503661386186557
-0.01019620273279352,-0.2498891826618486
-0.01019539273279352,-0.2475838955372811
-0.01019458273279352,-0.2450401304343194
-0.01019377273279352,-0.2434502772449561
-0.01019296273279352,-0.2409860048014545
-0.01019215273279352,-0.2400320928878376
-0.01019134273279352,-0.2393961516120943
-0.01019053273279352,-0.2398731075689002
-0.01018972273279352,-0.256884536695019
-0.01018891273279352,-0.2655492365770141
-0.01018810273279352,-0.266344163171694
-0.01018729273279352,-0.2671390897663681
-0.01018648273279352,-0.2657082218959523
-0.01018567273279352,-0.2638798907281926
-0.01018486273279352,-0.262369530198303
-0.01018405273279352,-0.2599847504142649
-0.01018324273279352,-0.2581564192465045
-0.01018243273279352,-0.2576794632896974
-0.01018162273279352,-0.2561691027598084
-0.01018081273279352,-0.2548177275488524
-0.01018000273279352,-0.253386859678439
-0.01017919273279352,-0.2521149771269506
-0.01017838273279352,-0.2509225872349328
-0.01017757273279352,-0.2496507046834474
-0.01017676273279352,-0.247663388196749
-0.01017595273279352,-0.2478223735156847
-0.01017514273279352,-0.2603027210521363
-0.01017433273279352,-0.2689674209341314
-0.01017352273279352,-0.2713522007181581
-0.01017271273279352,-0.2723061126317791
-0.01017190273279352,-0.2718291566749746
-0.01017109273279352,-0.2707162594424259
-0.01017028273279352,-0.2697623475288116
-0.01016947273279352,-0.26864945029626
-0.01016866273279352,-0.2672185824258388
-0.01016785273279352,-0.2669006117879674
-0.01016704273279352,-0.265072280620207
-0.01016623273279352,-0.2625285155172452
-0.01016542273279352,-0.2607001843494788
-0.01016461273279352,-0.2583154045654445
-0.01016380273279352,-0.2567255513760862
-0.01016299273279352,-0.2544997569109877
-0.01016218273279352,-0.253784322975773
-0.01016137273279352,-0.2583154045654402
-0.01016056273279352,-0.2738164731616699
-0.01015975273279352,-0.2796989299622904
-0.01015894273279352,-0.281209290492174
-0.01015813273279352,-0.2807323345353733
-0.01015732273279352,-0.2798579152812277
-0.01015651273279352,-0.2789834960270814
-0.01015570273279352,-0.2785065400702736
-0.01015489273279352,-0.2771551648593194
-0.01015408273279352,-0.275326833691559
-0.01015327273279352,-0.2739754584806056
-0.01015246273279352,-0.2726240832696498
-0.01015165273279352,-0.2712727080587038
-0.01015084273279352,-0.2696033622098772
-0.01015003273279352,-0.2675365530637139
-0.01014922273279352,-0.2648338026418084
-0.01014841273279352,-0.2634029347713848
-0.01014760273279352,-0.2613361256252183
-0.01014679273279352,-0.2657082218959497
-0.01014598273279352,-0.2787450180486763
-0.01014517273279352,-0.2831171143194099
-0.01014436273279352,-0.2843095042114211
-0.01014355273279352,-0.2839915335735546
-0.01014274273279352,-0.2836735629356832
-0.01014193273279352,-0.2824016803841994
-0.01014112273279352,-0.2815272611300508
-0.01014031273279352,-0.2806528418759046
-0.01013950273279352,-0.2796194373028226
-0.01013869273279352,-0.2787450180486763
-0.01013788273279352,-0.2778705987945331
-0.01013707273279352,-0.2760422676267729
-0.01013626273279352,-0.2732600245454
-0.01013545273279352,-0.2712727080587025
-0.01013464273279352,-0.2697623475288126
-0.01013383273279352,-0.2685699576367921
-0.01013302273279352,-0.2697623475288098
-0.01013221273279352,-0.2846274748492968
-0.01013140273279352,-0.2879661665469462
-0.01013059273279352,-0.2880456592064138
-0.01012978273279352,-0.2876481959090756
-0.01012897273279352,-0.286296820698124
-0.01012816273279352,-0.2850249381466383
-0.01012735273279352,-0.2837530555951528
-0.01012654273279352,-0.2816067537895187
-0.01012573273279352,-0.2789834960270798
-0.01012492273279352,-0.276837194221448
-0.01012411273279352,-0.2745319070968805
-0.01012330273279352,-0.2734190098643347
-0.01012249273279352,-0.2723061126317828
-0.01012168273279352,-0.2715111860371038
-0.01012087273279352,-0.2703982888045546
-0.01012006273279352,-0.2693648842314725
-0.01011925273279352,-0.2683314796583886
-0.01011844273279352,-0.2653902512580784
-0.01011763273279352,-0.2731010392264593
-0.01011682273279352,-0.2784270474108049
-0.01011601273279352,-0.2794604519838831
-0.01011520273279352,-0.278904003367613
-0.01011439273279352,-0.2768371942214518
-0.01011358273279352,-0.2750883557131586
-0.01011277273279352,-0.2734985025238014
-0.01011196273279352,-0.2726240832696522
-0.01011115273279352,-0.2716701713560381
-0.01011034273279352,-0.2708752447613597
-0.01010953273279352,-0.2696828548693392
-0.01010872273279352,-0.2681724943394584
-0.01010791273279352,-0.2670595971069051
-0.01010710273279352,-0.2657082218959522
-0.01010629273279352,-0.2641183687065957
-0.01010548273279352,-0.2612566329657504
-0.01010467273279352,-0.2602232283926684
-0.01010386273279352,-0.2646748173228677
-0.01010305273279352,-0.2685699576367921
-0.01010224273279352,-0.2671390897663762
-0.01010143273279352,-0.2660261925338231
-0.01010062273279352,-0.2653107585986118
-0.01009981273279352,-0.2636414127497888
-0.01009900273279352,-0.2624490228577703
-0.01009819273279352,-0.2618130815820253
-0.01009738273279352,-0.2601437357332006
-0.01009657273279352,-0.2588718531817151
-0.01009576273279352,-0.2564870733976797
-0.01009495273279352,-0.2542612789325882
-0.01009414273279352,-0.252432947764823
-0.01009333273279352,-0.250763601915998
-0.01009252273279352,-0.250207153299721
-0.01009171273279352,-0.2495712120239784
-0.01009090273279352,-0.2482993294724918
-0.01009009273279352,-0.2473454175588776
-0.01008928273279352,-0.2447221597964387
-0.01008847273279352,-0.2401115855473037
-0.01008766273279352,-0.2371703571470042
-0.01008685273279352,-0.2347855773629625
-0.01008604273279352,-0.2315263783247825
-0.01008523273279352,-0.22794920864873
-0.01008442273279352,-0.2226232004643876
-0.01008361273279352,-0.2150713978149326
-0.01008280273279352,-0.2066451759113411
-0.01008199273279352,-0.1980599686888139
-0.01008118273279352,-0.1886798348716082
-0.01008037273279352,-0.1804125982869824
-0.01007956273279352,-0.1732582589348594
-0.01007875273279352,-0.1647525443718024
-0.01007794273279352,-0.1583136389549032
-0.01007713273279352,-0.1510798069433308
-0.01007632273279352,-0.1444819162074865
-0.01007551273279352,-0.1403482979151586
-0.01007470273279352,-0.1315246127142279
-0.01007389273279352,-0.1199186844319115
-0.01007308273279352,-0.1138772423123883
-0.01007227273279352,-0.1084717414685627
-0.01007146273279352,-0.1049740644519741
-0.01007065273279352,-0.1008404461596473
-0.01006984273279352,-0.09766073978092601
-0.01006903273279352,-0.09456052606168008
-0.01006822273279352,-0.09090386372615922
-0.01006741273279352,-0.08812162064478465
-0.01006660273279352,-0.08422648033085245
-0.01006579273279352,-0.07993387671961226
-0.01006498273279352,-0.07715163363822715
-0.01006417273279352,-0.07421040523791719
-0.01006336273279352,-0.07230258141068703
-0.01006255273279352,-0.06967932364824468
-0.01006174273279352,-0.06800997779941995
-0.01006093273279352,-0.06816896311835563
-0.01006012273279352,-0.07770808225449699
-0.01005931273279352,-0.08104677395213433
-0.01005850273279352,-0.08136474459001727
-0.01005769273279352,-0.07969539874119616
-0.01005688273279352,-0.07754909693556521
-0.01005607273279352,-0.0757207657678042
-0.01005526273279352,-0.0738129419405726
-0.01005445273279352,-0.07293852268642631
-0.01005364273279352,-0.0716666401349408
-0.01005283273279352,-0.07118968417813373
-0.01005202273279352,-0.07031526492399062
-0.01005121273279352,-0.06912287503197194
-0.01005040273279352,-0.06800997779942197
-0.01004959273279352,-0.06785099248048454
-0.01004878273279352,-0.06761251450208115
-0.01004797273279352,-0.06649961726953089
-0.01004716273279352,-0.06411483748549555
-0.01004635273279352,-0.05926578525795702
-0.01004554273279352,-0.05696049813338952
-0.01004473273279352,-0.05473470366829798
-0.01004392273279352,-0.05409876239254827
-0.01004311273279352,-0.05386028441414401
-0.01004230273279352,-0.05393977707361127
-0.01004149273279352,-0.05354231377627292
-0.01004068273279352,-0.05306535781946513
-0.01003987273279352,-0.05274738718159375
-0.01003906273279352,-0.0544167330304185
-0.01003825273279352,-0.05465521100882029
-0.01003744273279352,-0.05370129909521136
-0.01003663273279352,-0.05242941654372469
-0.01003582273279352,-0.05115753399223916
-0.01003501273279352,-0.04932920282447976
-0.01003420273279352,-0.04980615878128263
-0.01003339273279352,-0.04901123218660505
-0.01003258273279352,-0.05139601197064039
-0.01003177273279352,-0.05083956335436549
-0.01003096273279352,-0.04106196623981306
-0.01003015273279352,-0.03692834794750769
-0.01002934273279352,-0.03446407550399395
-0.01002853273279352,-0.03215878837942616
-0.01002772273279352,-0.03152284710368037
-0.01002691273279352,-0.03112538380633999
-0.01002610273279352,-0.03112538380633999
-0.01002529273279352,-0.0302509645521937
-0.01002448273279352,-0.03001248657379016
-0.01002367273279352,-0.02961502327645239
-0.01002286273279352,-0.02953553061698324
-0.01002205273279352,-0.0306484278495309
-0.01002124273279352,-0.03128436912527452
-0.01002043273279352,-0.03255625167675889
-0.01001962273279352,-0.03215878837942197
-0.01001881273279352,-0.03112538380633999
-0.01001800273279352,-0.02405053711370181
-0.01001719273279352,-0.01562431521011027
-0.01001638273279352,-0.0132395354260836
-0.01001557273279352,-0.01220613085299483
-0.01001476273279352,-0.01157018957725135
-0.01001395273279352,-0.01188816021512099
-0.01001314273279352,-0.01212663819352467
-0.01001233273279352,-0.01188816021512157
-0.01001152273279352,-0.01236511617192864
-0.01001071273279352,-0.01236511617192864
-0.01000990273279352,-0.01276257946926786
-0.01000909273279352,-0.01149069691778697
-0.01000828273279352,-0.01053678500416994
-0.01000747273279352,-0.009821351068958907
-0.01000666273279352,-0.01005982904736071
-0.01000585273279352,-0.01109323362044124
-0.01000504273279352,-0.01157018957725019
-0.01000423273279352,-0.01236511617192864
-0.01000342273279352,-0.01093424830150743
-0.01000261273279352,0.0001947240239908285
-0.01000180273279352,0.006554136781395271
-0.01000099273279352,0.009972321138529512
-0.01000018273279352,0.01140318900895433
-0.009999372732793523,0.01267507156044013
-0.009998562732793523,0.01339050549565175
-0.009997752732793522,0.01307253485778167
-0.009996942732793522,0.01362898347405659
-0.009996132732793522,0.01132369634948909
-0.009995322732793521,0.01156217432789233
-0.009994512732793524,0.01140318900895751
-0.009993702732793524,0.01029029177640913
-0.009992892732793524,0.01068775507374561
-0.009992082732793523,0.01029029177640783
-0.009991272732793523,0.009574857841196506
-0.009990462732793522,0.01076724773321418
-0.009989652732793522,0.01235710092257107
-0.009988842732793522,0.02149875676137321
-0.009988032732793525,0.02761969154037499
-0.009987222732793524,0.03151483185431456
-0.009986412732793524,0.03207128047059554
-0.009985602732793523,0.03167381717325805
-0.009984792732793523,0.03215077313006354
-0.009983982732793523,0.03103787589751458
-0.009983172732793522,0.03111736855698242
-0.009982362732793522,0.03032244196230397
-0.009981552732793521,0.02905055941081846
-0.009980742732793525,0.03071990525963713
-0.009979932732793524,0.0305609199407078
-0.009979122732793524,0.03111736855698141
-0.009978312732793523,0.03071990525964392
-0.009977502732793523,0.0300839639839016
-0.009976692732793523,0.02920954472975415
-0.009975882732793522,0.02833512547560786
-0.009975072732793522,0.02952751536762553
-0.009974262732793521,0.03628439142239233
-0.009973452732793524,0.04240532620139411
-0.009972642732793524,0.04502858396385047
-0.009971832732793524,0.04518756928279065
-0.009971022732793523,0.04606198853693564
-0.009970212732793523,0.04653894449374343
-0.009969402732793523,0.04701590045055136
-0.009968592732793522,0.04685691513161568
-0.009967782732793522,0.04534655460172662
-0.009966972732793521,0.04439264268811249
-0.009966162732793524,0.04351822343396938
-0.009965352732793524,0.0424848188608861
-0.009964542732793524,0.04208735556354572
-0.009963732732793523,0.04113344364993259
-0.009962922732793523,0.04049750237418926
-0.009962112732793522,0.03898714184429905
-0.009961302732793522,0.03954359046057396
-0.009960492732793522,0.0428027894987556
-0.009959682732793521,0.05075205544555077
-0.009958872732793524,0.05663451224613918
-0.009958062732793524,0.05782690213817607
-0.009957252732793524,0.05822436543551675
-0.009956442732793523,0.05814487277604977
-0.009955632732793523,0.05695248288403196
-0.009954822732793522,0.05758842415977472
-0.009954012732793522,0.05639603426775704
-0.009953202732793522,0.05544212235414291
-0.009952392732793521,0.05480618107839971
-0.009951582732793524,0.05456770309999748
-0.009950772732793524,0.05520364437573821
-0.009949962732793523,0.05520364437573937
-0.009949152732793523,0.05576009299201327
-0.009948342732793523,0.05536262969467506
-0.009947532732793522,0.05432922512159308
-0.009946722732793522,0.05321632788904325
-0.009945912732793522,0.05202393799702558
-0.009945102732793525,0.06052965256005402
-0.009944292732793524,0.06410682223613147
-0.009943482732793524,0.06490174883081498
-0.009942672732793523,0.06633261670123503
-0.009941862732793523,0.06641210936070534
-0.009941052732793523,0.06720703595538392
-0.009940242732793522,0.06728652861485176
-0.009939432732793522,0.06633261670123763
-0.009938622732793521,0.06506073414975211
-0.009937812732793525,0.06434530021454413
-0.009937002732793524,0.06410682223613841
-0.009936192732793524,0.06331189564146097
-0.009935382732793523,0.06235798372784714
-0.009934572732793523,0.0615630571331684
-0.009933762732793523,0.06068863787902065
-0.009932952732793522,0.06060914521955281
-0.009932142732793522,0.06410682223613798
-0.009931332732793521,0.07118166892877616
-0.009930522732793524,0.07332797073440014
-0.009929712732793524,0.07380492669121416
-0.009928902732793524,0.07388441935068274
-0.009928092732793523,0.07308949275600587
-0.009927282732793523,0.07277152211813363
-0.009926472732793522,0.07173811754505106
-0.009925662732793522,0.07022775701516203
-0.009924852732793522,0.06990978637729064
-0.009924042732793521,0.06855841116633714
-0.009923232732793524,0.06847891850686973
-0.009922422732793524,0.06895587446367563
-0.009921612732793524,0.0688763818042088
-0.009920802732793523,0.06919435244207946
-0.009919992732793523,0.06847891850687074
-0.009919182732793522,0.06855841116633728
-0.009918372732793522,0.06744551393378745
-0.009917562732793522,0.07110217626930831
-0.009916752732793521,0.07634869179419083
-0.009915942732793524,0.07897194955661539
-0.009915132732793524,0.08016433944864045
-0.009914322732793523,0.08016433944864261
-0.009913512732793523,0.07897194955662711
-0.009912702732793523,0.07905144221609278
-0.009911892732793522,0.07881296423768926
-0.009911082732793522,0.08016433944864261
-0.009910272732793522,0.07913093487556062
-0.009909462732793525,0.07785905232407973
-0.009908652732793524,0.07785905232407511
-0.009907842732793524,0.07706412572939811
-0.009907032732793523,0.07595122849684886
-0.009906222732793523,0.07364594137228353
-0.009905412732793523,0.07094319095037262
-0.009904602732793522,0.07038674233409771
-0.009903792732793522,0.06887638180420866
-0.009902982732793521,0.06561718276602703
-0.009902172732793525,0.0745998532858608
-0.009901362732793524,0.08040281742703559
-0.009900552732793524,0.08405947976256035
-0.009899742732793523,0.0858083182708564
-0.009898932732793523,0.08779563475755209
-0.009898122732793523,0.08795462007649139
-0.009897312732793522,0.08692121550340941
-0.009896502732793522,0.08556984029245605
