-20250405-BKP/synth-diodes-1f-1r-out/-bkp-20250403/100Hz1V/scope.csv

#Digilent WaveForms Oscilloscope Acquisition
#Device Name: Discovery3
#Serial Number: SN:210415BD5874
#Date Time: 2025-04-02 18:37:12.596.888.210
#Sample rate: 294985Hz
#Samples: 32768
#Trigger: Source: Channel 1 Type: Edge Condition: Rising Level: 0 V Hyst.: Auto HoldOff: 0 s
#Channel 1: Range: 200 mV/div Offset: 0 V Sample Mode: Average
#Wavegen Channel 1: Running
#Mode: Simple
#Type: Sine
#Frequency: 100 Hz
#Period: 10 ms
#Amplitude: 1 V
#Offset: 0 V
#Symmetry: 50 %
#Phase: 0 °

Time (s),Channel 1 (V)
-0.04990332229897052,0.05448821044052878
-0.04989993229897052,0.05822436543551747
-0.04989654229897052,0.05528313703520722
-0.04989315229897052,0.05830385809498531
-0.04988976229897052,0.06712754329591608
-0.04988637229897052,0.06426580755507366
-0.04988298229897052,0.06529921212815565
-0.04987959229897052,0.06816094786899805
-0.04987620229897052,0.06601464606337015
-0.04987281229897052,0.06831993318793375
-0.04986942229897052,0.06919435244208004
-0.04986603229897052,0.0675250065932553
-0.04986264229897052,0.08064129540544968
-0.04985925229897052,0.07714361838886451
-0.04985586229897052,0.07897194955662494
-0.04985247229897052,0.07913093487556062
-0.04984908229897052,0.07308949275600443
-0.04984569229897052,0.0856493329519239
-0.04984230229897052,0.08342353848682424
-0.04983891229897052,0.08572882561139174
-0.04983552229897052,0.08890853199010552
-0.04983213229897052,0.08938548794691173
-0.04982874229897052,0.09177026773094794
-0.04982535229897052,0.08453643571937407
-0.04982196229897052,0.08684172284394157
-0.04981857229897052,0.09534743740700095
-0.04981518229897052,0.09494997410966173
-0.04981179229897052,0.09741424655316491
-0.04980840229897052,0.09526794474754555
-0.04980501229897052,0.1021043134617678
-0.04980162229897052,0.1079867702623883
-0.04979823229897052,0.1057609757972886
-0.04979484229897052,0.1064764097324992
-0.04979145229897052,0.1116434325979091
-0.04978806229897052,0.1114049546195056
-0.04978467229897052,0.1151411096144943
-0.04978128229897052,0.1134717637656695
-0.04977789229897052,0.1159360362091727
-0.04977450229897052,0.1200696545015007
-0.04977111229897052,0.1181618306742724
-0.04976772229897052,0.1176053820579975
-0.04976433229897052,0.1175258893985298
-0.04976094229897052,0.1258726186426533
-0.04975755229897052,0.1280189204482851
-0.04975416229897052,0.1274624718320102
-0.04975077229897052,0.1266675452373318
-0.04974738229897052,0.1340603625678413
-0.04974399229897052,0.1325500020379523
-0.04974060229897052,0.1336628992705021
-0.04973721229897052,0.1350937671409233
-0.04973382229897052,0.1372400689465551
-0.04973043229897052,0.1408172386226081
-0.04972704229897052,0.1391478927737834
-0.04972365229897052,0.1393863707521869
-0.04972026229897052,0.1394658634116547
-0.04971687229897052,0.1430430330877078
-0.04971348229897052,0.145984261488018
-0.04971009229897052,0.1453483202122753
-0.04970670229897052,0.1439969450013219
-0.04970331229897052,0.1499588944614103
-0.04969992229897052,0.142407091811965
-0.04969653229897052,0.1389889074548651
-0.04969314229897052,0.1485280265909891
-0.04968975229897052,0.1508333137155566
-0.04968636229897052,0.152661644883317
-0.04968297229897052,0.1529796155211884
-0.04967958229897052,0.1510717916939601
-0.04967619229897052,0.1590210576407446
-0.04967280229897052,0.1568747558351128
-0.04966941229897052,0.1598954768948909
-0.04966602229897052,0.1596569989164874
-0.04966263229897052,0.1488459972288605
-0.04965924229897052,0.1663343823117863
-0.04965585229897052,0.1656189483765757
-0.04965246229897052,0.1640290951872217
-0.04964907229897052,0.1684806841174181
-0.04964568229897052,0.1692756107120965
-0.04964229229897052,0.1686396694363538
-0.04963890229897052,0.1681627134795467
-0.04963551229897052,0.1653804703981722
-0.04963212229897052,0.1733297363449566
-0.04962873229897052,0.1720578537934729
-0.04962534229897052,0.1730117657070853
-0.04962195229897052,0.1739656776206994
-0.04961856229897052,0.1761119794263312
-0.04961517229897052,0.1856510985624726
-0.04961178229897052,0.1839817527136478
-0.04960839229897052,0.1830278408000354
-0.04960500229897052,0.1902616728116076
-0.04960161229897052,0.1879563856870401
-0.04959822229897052,0.1908181214278825
-0.04959483229897052,0.1898642095142683
-0.04959144229897052,0.1885923269627828
-0.04958805229897052,0.2015496304560415
-0.04958466229897052,0.1970185488663752
-0.04958127229897052,0.1974955048231814
-0.04957788229897052,0.1967800708879708
-0.04957449229897052,0.1937593498281927
-0.04957110229897052,0.2022650643912521
-0.04956771229897052,0.2021060790723164
-0.04956432229897052,0.2068756386403871
-0.04956093229897052,0.2098168670406974
-0.04955754229897052,0.2100553450191009
-0.04955415229897052,0.2127580954410076
-0.04955076229897052,0.2100553450191009
-0.04954737229897052,0.214109470651961
-0.04954398229897052,0.2217407659608741
-0.04954059229897052,0.2212638100040679
-0.04953720229897052,0.2246819943611843
-0.04953381229897052,0.2223767072366168
-0.04953042229897052,0.2291335832913836
-0.04952703229897052,0.2277027154209624
-0.04952364229897052,0.2247614870206522
-0.04952025229897052,0.2272257594641554
-0.04951686229897052,0.2305644511618032
-0.04951347229897052,0.2296900319076585
-0.04951008229897052,0.2344595914757292
-0.04950669229897052,0.2310414071186119
-0.04950330229897052,0.2365264006218932
-0.04949991229897052,0.2382752391301858
-0.04949652229897052,0.2360494446650902
-0.04949313229897052,0.2390701657248642
-0.04948974229897052,0.2300080025455299
-0.04948635229897052,0.2427268280603851
-0.04948296229897052,0.2449526225254847
-0.04947957229897052,0.242249872103578
-0.04947618229897052,0.244316681249742
-0.04947279229897052,0.2548892049589586
-0.04946940229897052,0.2511530499639766
-0.04946601229897052,0.2536173224074798
-0.04946262229897052,0.2502786307098303
-0.04945923229897052,0.2565585508077901
-0.04945584229897052,0.2612486177163929
-0.04945245229897052,0.2591818085702289
-0.04944906229897052,0.2566380434672579
-0.04944567229897052,0.2598177498459717
-0.04944228229897052,0.265302743349253
-0.04943889229897052,0.2682439717495632
-0.04943550229897052,0.2664951332412707
-0.04943211229897052,0.2695953469605166
-0.04942872229897052,0.2770676569504804
-0.04942533229897052,0.2757162817395406
-0.04942194229897052,0.2764317156747512
-0.04941855229897052,0.2780215688641081
-0.04941516229897052,0.2741264285501837
-0.04941177229897052,0.2831090990700502
-0.04940838229897052,0.2815987385401612
-0.04940499229897052,0.2805653339670929
-0.04940160229897052,0.2881171366165244
-0.04939821229897052,0.2847784449188749
-0.04939482229897052,0.2876401806597174
-0.04939143229897052,0.2874017026813138
-0.04938804229897052,0.2879581512975887
-0.04938465229897052,0.2938406080981985
-0.04938126229897052,0.2923302475683202
-0.04937787229897052,0.2927277108656594
-0.04937448229897052,0.2979742263905372
-0.04937109229897052,0.2962253878822446
-0.04936770229897052,0.2990076309636192
-0.04936431229897052,0.2981332117094728
-0.04936092229897052,0.2962253878822513
-0.04935753229897052,0.2999615428772333
-0.04935414229897052,0.3024258153207364
-0.04935075229897052,0.3009949474503152
-0.04934736229897052,0.3022668300018008
-0.04934397229897052,0.3035387125532863
-0.04934058229897052,0.3054465363805146
-0.04933719229897052,0.3063209556346608
-0.04933380229897052,0.3042541464884969
-0.04933041229897052,0.3086262427592283
-0.04932702229897052,0.3092621840349711
-0.04932363229897052,0.3046516097858361
-0.04932024229897052,0.3076723308456142
-0.04931685229897052,0.3109315298837899
-0.04931346229897052,0.3179268839169662
-0.04931007229897052,0.3168934793438842
-0.04930668229897052,0.314429206900381
-0.04930329229897052,0.3173704353006913
-0.04929990229897052,0.3071953748888072
-0.04929651229897052,0.3207091269983408
-0.04929312229897052,0.3219015168903522
-0.04928973229897052,0.3184833325332411
-0.04928634229897052,0.3279429590099146
-0.04928295229897052,0.3300097681560786
-0.04927956229897052,0.3296917975182072
-0.04927617229897052,0.3330304892158567
-0.04927278229897052,0.3336664304915983
-0.04926939229897052,0.3360512102756348
-0.04926600229897052,0.3372436001676524
-0.04926261229897052,0.3355742543188277
-0.04925922229897052,0.3384359900596701
-0.04925583229897052,0.3397078726111556
-0.04925244229897052,0.3412182331410447
-0.04924905229897052,0.3439209835629488
-0.04924566229897052,0.3424901156925302
-0.04924227229897052,0.3475776458984722
-0.04923888229897052,0.3498829330230397
-0.04923549229897052,0.3458288073901797
-0.04923210229897052,0.3455903294117761
-0.04922871229897052,0.3496444550446362
-0.04922532229897052,0.3490085137688935
-0.04922193229897052,0.351790756850268
-0.04921854229897052,0.3508368449366539
-0.04921515229897052,0.3532216247206892
-0.04921176229897052,0.3564808237588709
-0.04920837229897052,0.354890970569514
-0.04920498229897052,0.3570372723751419
-0.04920159229897052,0.3560038678020638
-0.04919820229897052,0.3473391679200687
-0.04919481229897052,0.3587861108834384
-0.04919142229897052,0.3613298759864094
-0.04918803229897052,0.3618863246026843
-0.04918464229897052,0.3658609575760765
-0.04918125229897052,0.3638736410893842
-0.04917786229897052,0.3659404502355444
-0.04917447229897052,0.3629197291757663
-0.04917108229897052,0.3720613850145684
-0.04916769229897052,0.3735717455444575
-0.04916430229897052,0.3719818923551006
-0.04916091229897052,0.3750821060743408
-0.04915752229897052,0.3736512382039253
-0.04915413229897052,0.3742076868202002
-0.04915074229897052,0.3769104372421069
-0.04914735229897052,0.3747641354364751
-0.04914396229897052,0.3776258711773176
-0.04914057229897052,0.3835878206374059
-0.04913718229897052,0.3848597031888959
-0.04913379229897052,0.3873239756323946
-0.04913040229897052,0.3838262986158094
-0.04912701229897052,0.3894702774380264
-0.04912362229897052,0.3905831746705762
-0.04912023229897052,0.3881983948865409
-0.04911684229897052,0.390742159989512
-0.04911345229897052,0.39376288104929
-0.04911006229897052,0.3924115058383367
-0.04910667229897052,0.394796285622372
-0.04910328229897052,0.3930474471140794
-0.04909989229897052,0.3905036820111084
-0.04909650229897052,0.4047328680558526
-0.04909311229897052,0.4036199708233048
-0.04908972229897052,0.4074356184777593
-0.04908633229897052,0.4047328680558526
-0.04908294229897052,0.4062432285857416
-0.04907955229897052,0.4067996772020165
-0.04907616229897052,0.4028250442286243
-0.04907277229897052,0.4020301176339459
-0.04906938229897052,0.40767409645617
-0.04906599229897052,0.4115692367700872
-0.04906260229897052,0.4130795972999763
-0.04905921229897052,0.4095819202833911
-0.04905582229897052,0.4133975679378477
-0.04905243229897052,0.4188030687816611
-0.04904904229897052,0.4164977816570936
-0.04904565229897052,0.4192800247384682
-0.04904226229897052,0.4210288632467608
-0.04903887229897052,0.4237316136686675
-0.04903548229897052,0.4254009595174922
-0.04903209229897052,0.4225392237766498
-0.04902870229897052,0.4261163934527028
-0.04902531229897052,0.4296935631287582
-0.04902192229897052,0.4309654456802414
-0.04901853229897052,0.4319193575938555
-0.04901514229897052,0.4295345778098201
-0.04901175229897052,0.4389942042864937
-0.04900836229897052,0.436291453864587
-0.04900497229897052,0.4355760199293763
-0.04900158229897052,0.4379607997134117
-0.04899819229897052,0.4344631226968265
-0.04899480229897052,0.4362119612051191
-0.04899141229897052,0.4351785566320371
-0.04898802229897052,0.4324758062101304
-0.04898463229897052,0.4304884897234343
-0.04898124229897052,0.4398686235406229
-0.04897785229897052,0.4396301455622365
-0.04897446229897052,0.4425713739625467
-0.04897107229897052,0.439312174924365
-0.04896768229897052,0.4477383968279566
-0.04896429229897052,0.4462280362980676
-0.04896090229897052,0.4443997051303071
-0.04895751229897052,0.4474204261900816
-0.04895412229897052,0.4454331097033891
-0.04895073229897052,0.4437637638545643
-0.04894734229897052,0.4424918813030788
-0.04894395229897052,0.4425713739625467
-0.04894056229897052,0.4488512940605064
-0.04893717229897052,0.4500436839525241
-0.04893378229897052,0.4467844849143425
-0.04893039229897052,0.4492487573578456
-0.04892700229897052,0.4512360738445418
-0.04892361229897052,0.4508386105472025
-0.04892022229897052,0.4556081701152732
-0.04891683229897052,0.4538593316069806
-0.04891344229897052,0.4526669417149712
-0.04891005229897052,0.4571980233046301
-0.04890666229897052,0.4548132435205948
-0.04890327229897052,0.4564825893694195
-0.04889988229897052,0.4571980233046301
-0.04889649229897052,0.4552901994774018
-0.04889310229897052,0.4632394654241863
-0.04888971229897052,0.4606957003212153
-0.04888632229897052,0.4628420021268471
-0.04888293229897052,0.4657832305271574
-0.04887954229897052,0.4640343920188648
-0.04887615229897052,0.4666576497813036
-0.04887276229897052,0.4635574360620577
-0.04886937229897052,0.4630804801052515
-0.04886598229897052,0.4654652598892859
-0.04886259229897052,0.463398450743122
-0.04885920229897052,0.4663396791434323
-0.04885581229897052,0.4645908406351397
-0.04885242229897052,0.4637959140404612
-0.04884903229897052,0.4671346057381107
-0.04884564229897052,0.4648293186135471
-0.04884225229897052,0.466975620419175
-0.04883886229897052,0.4698373561600174
-0.04883547229897052,0.4699963414789531
-0.04883208229897052,0.4735735111550061
-0.04882869229897052,0.4707912680736316
-0.04882530229897052,0.4684064882895962
-0.04882191229897052,0.465942215846093
-0.04881852229897052,0.4679295323327892
-0.04881513229897052,0.4708707607330994
-0.04881174229897052,0.4684859809490641
-0.04880835229897052,0.4662601864839644
-0.04880496229897052,0.4699963414789531
-0.04880157229897052,0.4683269956301314
-0.04879818229897052,0.4683269956301284
-0.04879479229897052,0.4771506808310592
-0.04879140229897052,0.4739709744523454
-0.04878801229897052,0.4773891588094626
-0.04878462229897052,0.476196768917445
-0.04878123229897052,0.4675320690354499
-0.04877784229897052,0.4828741523127439
-0.04877445229897052,0.48080734316658
-0.04877106229897052,0.4827946596532761
-0.04876767229897052,0.4865308146482648
-0.04876428229897052,0.4849409614589079
-0.04876089229897052,0.4882796531565574
-0.04875750229897052,0.4853384247562525
-0.04875411229897052,0.4827946596532761
-0.04875072229897052,0.4858948733725221
-0.04874733229897052,0.4844640055021008
-0.04874394229897052,0.4839870495452938
-0.04874055229897052,0.4858153807130542
-0.04873716229897052,0.4827946596532761
-0.04873377229897052,0.4860538586914592
-0.04873038229897052,0.4868487852861362
-0.04872699229897052,0.4839075568858259
-0.04872360229897052,0.4911413888973998
-0.04872021229897052,0.4917773301731426
-0.04871682229897052,0.490505447621657
-0.04871343229897052,0.4940031246382422
-0.04871004229897052,0.4905849402811249
-0.04870665229897052,0.4912208815568677
-0.04870326229897052,0.4938441393193065
-0.04869987229897052,0.4850999467778436
-0.04869648229897052,0.487484726561879
-0.04869309229897052,0.4934466760219673
-0.04868970229897052,0.492731242086758
-0.04868631229897052,0.4949570365518564
-0.04868292229897052,0.491538852194739
-0.04867953229897052,0.4917773301731426
-0.04867614229897052,0.4958314558060026
-0.04867275229897052,0.4932876907030316
-0.04866936229897052,0.4955929778275991
-0.04866597229897052,0.4950365292113236
-0.04866258229897052,0.4947185585734528
-0.04865919229897052,0.4984547135684415
-0.04865580229897052,0.4958314558060026
-0.04865241229897052,0.4975008016548274
-0.04864902229897052,0.4980572502711023
-0.04864563229897052,0.4960699337844098
-0.04864224229897052,0.4993291328225878
-0.04863885229897052,0.4962289191033419
-0.04863546229897052,0.4940031246382422
-0.04863207229897052,0.4980572502711023
-0.04862868229897052,0.4960699337844062
-0.04862529229897052,0.4940826172977101
-0.04862190229897052,0.4991701475036548
-0.04861851229897052,0.5006805080335411
-0.04861512229897052,0.5006805080335411
-0.04861173229897052,0.5035422437743836
-0.04860834229897052,0.5003625373956698
-0.04860495229897052,0.5028268098391729
-0.04860156229897052,0.5039397070717228
-0.04859817229897052,0.5006805080335411
-0.04859478229897052,0.5040191997311907
-0.04859139229897052,0.5030652878175765
-0.04858800229897052,0.5014754346282196
-0.04858461229897052,0.5044961556879978
-0.04858122229897052,0.5014754346282196
-0.04857783229897052,0.5002035520767364
-0.04857444229897052,0.4970238456980203
-0.04857105229897052,0.4935261686814352
-0.04856766229897052,0.4971033383574882
-0.04856427229897052,0.5017139126066231
-0.04856088229897052,0.4979777576116344
-0.04855749229897052,0.5014754346282196
-0.04855410229897052,0.4998060887793947
-0.04855071229897052,0.499726596119927
-0.04854732229897052,0.50330376579598
-0.04854393229897052,0.5010779713308804
-0.04854054229897052,0.502270361222898
-0.04853715229897052,0.5044166630285298
-0.04853376229897052,0.501713912606628
-0.04853037229897052,0.5052115896232083
-0.04852698229897052,0.5027473171797051
-0.04852359229897052,0.5016344199471553
-0.04852020229897052,0.5032242731365122
-0.04851681229897052,0.500283044736202
-0.04851342229897052,0.5016344199471553
-0.04851003229897052,0.5029063024986367
-0.04850664229897052,0.5006010153740733
-0.04850325229897052,0.5044166630285298
-0.04849986229897052,0.5021908685634302
-0.04849647229897052,0.5024293465418338
-0.04849308229897052,0.5085502813208578
-0.04848969229897052,0.5064834721746938
-0.04848630229897052,0.5093452079155363
-0.04848291229897052,0.5087887592992614
-0.04847952229897052,0.5072783987693723
-0.04847613229897052,0.5103786124886183
-0.04847274229897052,0.5086297739803256
-0.04846935229897052,0.5091862225966005
-0.04846596229897052,0.5075168767477788
-0.04846257229897052,0.5006805080335411
-0.04845918229897052,0.5044166630285298
-0.04845579229897052,0.5014754346282196
-0.04845240229897052,0.5009984786714126
-0.04844901229897052,0.4977392796332309
-0.04844562229897052,0.4957519631465348
-0.04844223229897052,0.5043371703690567
-0.04843884229897052,0.5013959419687518
-0.04843545229897052,0.5002035520767341
-0.04843206229897052,0.5034627511149158
-0.04842867229897052,0.5004420300551377
-0.04842528229897052,0.501316449309284
-0.04842189229897052,0.5034627511149119
-0.04841850229897052,0.5015549272876875
-0.04841511229897052,0.5055295602610796
-0.04841172229897052,0.5034627511149158
-0.04840833229897052,0.5027473171797051
-0.04840494229897052,0.5056885455800154
-0.04840155229897052,0.5024293465418338
-0.04839816229897052,0.5037807217527865
-0.04839477229897052,0.5034627511149158
-0.04839138229897052,0.501236956649816
-0.04838799229897052,0.5049731116448047
-0.04838460229897052,0.5034627511149158
-0.04838121229897052,0.5024293465418338
-0.04837782229897052,0.5056885455800154
-0.04837443229897052,0.50330376579598
-0.04837104229897052,0.5044961556879978
-0.04836765229897052,0.5052115896232083
-0.04836426229897052,0.5027473171797051
-0.04836087229897052,0.5063244868557581
-0.04835748229897052,0.5045756483474656
-0.04835409229897052,0.5044166630285302
-0.04835070229897052,0.5060860088773547
-0.04834731229897052,0.5027473171797051
-0.04834392229897052,0.5051320969637405
-0.04834053229897052,0.5044961556879978
-0.04833714229897052,0.5008394933524769
-0.04833375229897052,0.5041781850501263
-0.04833036229897052,0.5021113759039643
-0.04832697229897052,0.5031447804770444
-0.04832358229897052,0.4973418163358917
-0.04832019229897052,0.4969443530385524
-0.04831680229897052,0.5063244868557581
-0.04831341229897052,0.5027473171797051
-0.04831002229897052,0.5026678245202374
-0.04830663229897052,0.5054500676016118
-0.04830324229897052,0.5020318832444945
-0.04829985229897052,0.5048936189853369
-0.04829646229897052,0.5060065162178867
-0.04829307229897052,0.5030652878175765
-0.04828968229897052,0.5066424574936296
-0.04828629229897052,0.5046551410069325
-0.04828290229897052,0.5041781850501263
-0.04827951229897052,0.505370574942144
-0.04827612229897052,0.5025088392013016
-0.04827273229897052,0.505370574942144
-0.04826934229897052,0.506403979515226
-0.04826595229897052,0.5040986923906585
-0.04826256229897052,0.5071989061099045
-0.04825917229897052,0.5044961556879978
-0.04825578229897052,0.5051320969637405
