-20250406-BKP/synth-diodes-1f-1r-in-T10-L10-D00/1kHz-1V/scope.csv

#Digilent WaveForms Oscilloscope Acquisition
#Device Name: Discovery3
#Serial Number: SN:210415BD5874
#Date Time: 2025-04-06 20:15:55.896.588.360
#Sample rate: 1.23457e+06Hz
#Samples: 32768
#Trigger: Source: Channel 1 Type: Edge Condition: Rising Level: 0 V Hyst.: Auto HoldOff: 0 s
#Channel 1: Range: 200 mV/div Offset: 0 V Sample Mode: Average
#Wavegen Channel 1: Running
#Mode: Simple
#Type: Sine
#Frequency: 1 kHz
#Period: 1 ms
#Amplitude: 1 V
#Offset: 0 V
#Symmetry: 50 %
#Phase: 0 °

Time (s),Channel 1 (V)
-0.01027685843046794,-0.1003634902028585
-0.01027604843046794,-0.1145131835881091
-0.01027523843046794,-0.1319220760115671
-0.01027442843046794,-0.1373275768553805
-0.01027361843046794,-0.1395533713204802
-0.01027280843046794,-0.1402688052556908
-0.01027199843046794,-0.1400303272772872
-0.01027118843046794,-0.1395533713204802
-0.01027037843046794,-0.1389969227042053
-0.01026956843046794,-0.1384404740879313
-0.01026875843046794,-0.1385199667473982
-0.01026794843046794,-0.1370096062175091
-0.01026713843046794,-0.1354197530281522
-0.01026632843046794,-0.1336709145198579
-0.01026551843046794,-0.1327170026062455
-0.01026470843046794,-0.1319220760115671
-0.01026389843046794,-0.1312066420763565
-0.01026308843046794,-0.1305707008006137
-0.01026227843046794,-0.1334324365414509
-0.01026146843046794,-0.1535440793868209
-0.01026065843046794,-0.1664218902206117
-0.01025984843046794,-0.1707144938318753
-0.01025903843046794,-0.1721453617022969
-0.01025822843046794,-0.1723838396807
-0.01025741843046794,-0.170873479150811
-0.01025660843046794,-0.1688861626641149
-0.01025579843046794,-0.1671373241558223
-0.01025498843046794,-0.1665013828800795
-0.01025417843046794,-0.166262904901676
-0.01025336843046794,-0.165229500328594
-0.01025255843046794,-0.1644345737339156
-0.01025174843046794,-0.1628447205445616
-0.01025093843046794,-0.1624472572472195
-0.01025012843046794,-0.1615728379930731
-0.01024931843046794,-0.160618926079459
-0.01024850843046794,-0.1602214627821198
-0.01024769843046794,-0.1692836259614541
-0.01024688843046794,-0.1864540404065086
-0.01024607843046794,-0.1919390339097898
-0.01024526843046794,-0.1932109164612754
-0.01024445843046794,-0.193846857737017
-0.01024364843046794,-0.1936083797586146
-0.01024283843046794,-0.1928134531639361
-0.01024202843046794,-0.1917800485908542
-0.01024121843046794,-0.1912235999745798
-0.01024040843046794,-0.1915415706124506
-0.01023959843046794,-0.1900312100825616
-0.01023878843046794,-0.1889978055094796
-0.01023797843046794,-0.1873284596606548
-0.01023716843046794,-0.1850231725360874
-0.01023635843046794,-0.1831153487088591
-0.01023554843046794,-0.1819229588168414
-0.01023473843046794,-0.1804920909464202
-0.01023392843046794,-0.181604988178968
-0.01023311843046794,-0.2008422117701885
-0.01023230843046794,-0.2131635739877044
-0.01023149843046794,-0.2167407436637574
-0.01023068843046794,-0.2181716115341786
-0.01022987843046794,-0.2180126262152429
-0.01022906843046794,-0.2175356702584358
-0.01022825843046794,-0.2159458170690789
-0.01022744843046794,-0.2135610372850436
-0.01022663843046794,-0.2115737207983511
-0.01022582843046794,-0.2106198088847334
-0.01022501843046794,-0.2088709703764408
-0.01022420843046794,-0.2076785804844231
-0.01022339843046794,-0.2066451759113395
-0.01022258843046794,-0.2057707566571948
-0.01022177843046794,-0.2049758300625164
-0.01022096843046794,-0.2040219181489022
-0.01022015843046794,-0.2028295282568846
-0.01021934843046794,-0.2196024794045998
-0.01021853843046794,-0.2379652837416719
-0.01021772843046794,-0.2391576736336896
-0.01021691843046794,-0.2386012250174147
-0.01021610843046794,-0.2370908644875222
-0.01021529843046794,-0.2351830406602974
-0.01021448843046794,-0.2339111581088119
-0.01021367843046794,-0.2324007975789228
-0.01021286843046794,-0.2319238416221157
-0.01021205843046794,-0.2320828269410514
-0.01021124843046794,-0.2307314517300981
-0.01021043843046794,-0.2298570324759518
-0.01020962843046794,-0.2285851499244662
-0.01020881843046794,-0.2271542820540477
-0.01020800843046794,-0.2254849362052203
-0.01020719843046794,-0.2238155903563956
-0.01020638843046794,-0.2218282738696994
-0.01020557843046794,-0.2199999427019555
-0.01020476843046794,-0.2290621058812733
-0.01020395843046794,-0.244086218520696
-0.01020314843046794,-0.2495712120239773
-0.01020233843046794,-0.2524329477648197
-0.01020152843046794,-0.2542612789325801
-0.01020071843046794,-0.2538638156352409
-0.01019990843046794,-0.2528304110621589
-0.01019909843046794,-0.2506841092565271
-0.01019828843046794,-0.2494917193645093
-0.01019747843046794,-0.2494122267050416
-0.01019666843046794,-0.2473454175588776
-0.01019585843046794,-0.2440067258612281
-0.01019504843046794,-0.2401115855473037
-0.01019423843046794,-0.2370113718280578
-0.01019342843046794,-0.2362164452333793
-0.01019261843046794,-0.2350240553413617
-0.01019180843046794,-0.2346265920440224
-0.01019099843046794,-0.238203761720069
-0.01019018843046794,-0.2556126541435335
-0.01018937843046794,-0.2625285155172359
-0.01018856843046794,-0.2653107585986105
-0.01018775843046794,-0.2657082218959462
-0.01018694843046794,-0.2638003980687215
-0.01018613843046794,-0.2616540962630897
-0.01018532843046794,-0.25942830179799
-0.01018451843046794,-0.2580769265870366
-0.01018370843046794,-0.2570435220139546
-0.01018289843046794,-0.2560896101003405
-0.01018208843046794,-0.2549767128677907
-0.01018127843046794,-0.2535458449973695
-0.01018046843046794,-0.2526714257432206
-0.01017965843046794,-0.251240557872802
-0.01017884843046794,-0.25020715329972
-0.01017803843046794,-0.248696792769831
-0.01017722843046794,-0.2475044028778133
-0.01017641843046794,-0.2608591696684112
-0.01017560843046794,-0.2719086493344416
-0.01017479843046794,-0.2739754584806056
-0.01017398843046794,-0.2747703850752841
-0.01017317843046794,-0.2743729217779455
-0.01017236843046794,-0.2733395172048628
-0.01017155843046794,-0.2720676346533773
-0.01017074843046794,-0.2709547374208275
-0.01016993843046794,-0.2700803181666798
-0.01016912843046794,-0.2692853915720028
-0.01016831843046794,-0.2680930016799851
-0.01016750843046794,-0.2657877145554176
-0.01016669843046794,-0.2633234421119144
-0.01016588843046794,-0.2616540962630927
-0.01016507843046794,-0.2593488091385222
-0.01016426843046794,-0.2580769265870366
-0.01016345843046794,-0.2557716394624692
-0.01016264843046794,-0.257440985311325
-0.01016183843046794,-0.2745319070968805
-0.01016102843046794,-0.282958129000472
-0.01016021843046794,-0.2861378353791859
-0.01015940843046794,-0.2861378353791859
-0.01015859843046794,-0.2854224014439752
-0.01015778843046794,-0.2841505188924897
-0.01015697843046794,-0.2819247244273901
-0.01015616843046794,-0.2795399446433547
-0.01015535843046794,-0.277870598794533
-0.01015454843046794,-0.2759627749673017
-0.01015373843046794,-0.2742139364590091
-0.01015292843046794,-0.2731010392264593
-0.01015211843046794,-0.2720676346533757
-0.01015130843046794,-0.271193215399231
-0.01015049843046794,-0.2700803181666812
-0.01014968843046794,-0.2685699576367921
-0.01014887843046794,-0.2676955383826459
-0.01014806843046794,-0.2783475547513177
-0.01014725843046794,-0.2894765270768353
-0.01014644843046794,-0.2916228288824671
-0.01014563843046794,-0.2910663802661922
-0.01014482843046794,-0.2897944977147036
-0.01014401843046794,-0.2881251518658819
-0.01014320843046794,-0.2868532693143964
-0.01014239843046794,-0.2858198647413144
-0.01014158843046794,-0.2849454454871682
-0.01014077843046794,-0.2841505188924897
-0.01013996843046794,-0.2828786363410042
-0.01013915843046794,-0.281447768470583
-0.01013834843046794,-0.2797784226217582
-0.01013753843046794,-0.2782680620918719
-0.01013672843046794,-0.2762012529457052
-0.01013591843046794,-0.2741344437995413
-0.01013510843046794,-0.2715906786965702
-0.01013429843046794,-0.2714316933776346
-0.01013348843046794,-0.2833555922978113
-0.01013267843046794,-0.2925767407960813
-0.01013186843046794,-0.2951205058990523
-0.01013105843046794,-0.2956769545153272
-0.01013024843046794,-0.2947230426017148
-0.01012943843046794,-0.2938486233475668
-0.01012862843046794,-0.2919407995203385
-0.01012781843046794,-0.2913843509040636
-0.01012700843046794,-0.2897944977147035
-0.01012619843046794,-0.2880456592064141
-0.01012538843046794,-0.2848659528277003
-0.01012457843046794,-0.2828786363410042
-0.01012376843046794,-0.2808118271948402
-0.01012295843046794,-0.2795399446433547
-0.01012214843046794,-0.2780295841134657
-0.01012133843046794,-0.2770756721998515
-0.01012052843046794,-0.2760422676267695
-0.01011971843046794,-0.2773141501782527
-0.01011890843046794,-0.2880456592064141
-0.01011809843046794,-0.2914638435635314
-0.01011728843046794,-0.2918613068608706
-0.01011647843046794,-0.2904304389904495
-0.01011566843046794,-0.2885226151632212
-0.01011485843046794,-0.2868532693143964
-0.01011404843046794,-0.2855018941034431
-0.01011323843046794,-0.2839120409140862
-0.01011242843046794,-0.2830376216599415
-0.01011161843046794,-0.2822426950652615
-0.01011080843046794,-0.2808118271948402
-0.01010999843046794,-0.2799374079406939
-0.01010918843046794,-0.2781090767729313
-0.01010837843046794,-0.2769166868809159
-0.01010756843046794,-0.2754858190104946
-0.01010675843046794,-0.2734985025237985
-0.01010594843046794,-0.2731010392264593
-0.01010513843046794,-0.2809708125137759
-0.01010432843046794,-0.2813682758111151
-0.01010351843046794,-0.2800963932596297
-0.01010270843046794,-0.2792219740054833
-0.01010189843046794,-0.2775526281566617
-0.01010108843046794,-0.2767577015619802
-0.01010027843046794,-0.2754063263510268
-0.01009946843046794,-0.2746908924158162
-0.01009865843046794,-0.273260024545395
-0.01009784843046794,-0.2720676346533773
-0.01009703843046794,-0.2709547374208275
-0.01009622843046794,-0.2692058989125349
-0.01009541843046794,-0.267139089766371
-0.01009460843046794,-0.2646748173228722
-0.01009379843046794,-0.2624490228577681
-0.01009298843046794,-0.2614156182846861
-0.01009217843046794,-0.2603027210521363
-0.01009136843046794,-0.2564870733976752
-0.01009055843046794,-0.2540228009541766
-0.01008974843046794,-0.252750918402691
-0.01008893843046794,-0.2510020798943985
-0.01008812843046794,-0.2498096900023808
-0.01008731843046794,-0.2488557780887667
-0.01008650843046794,-0.2479018661751525
-0.01008569843046794,-0.2459940423479242
-0.01008488843046794,-0.244086218520696
-0.01008407843046794,-0.2415424534177206
-0.01008326843046794,-0.2391576736336896
-0.01008245843046794,-0.2347060847034903
-0.01008164843046794,-0.2280287013081913
-0.01008083843046794,-0.2203974059992783
-0.01008002843046794,-0.2110967648415404
-0.01007921843046794,-0.2002857631539135
-0.01007840843046794,-0.1920980192287255
-0.01007759843046794,-0.1854206358334266
-0.01007678843046794,-0.1798561496706876
-0.01007597843046794,-0.1613343600146696
-0.01007516843046794,-0.1475026372672646
-0.01007435843046794,-0.1386789520663339
-0.01007354843046794,-0.133114465903577
-0.01007273843046794,-0.1288218622923211
-0.01007192843046794,-0.1249267219783968
-0.01007111843046794,-0.1202366550697939
-0.01007030843046794,-0.1161825294369338
-0.01006949843046794,-0.112525867101413
-0.01006868843046794,-0.1085512341280207
-0.01006787843046794,-0.1056100057277105
-0.01006706843046794,-0.1024302993489967
-0.01006625843046794,-0.09869414435400208
-0.01006544843046794,-0.09543494531582637
-0.01006463843046794,-0.09153980500190198
-0.01006382843046794,-0.0882011133042525
-0.01006301843046794,-0.0837495243740532
-0.01006220843046794,-0.09026792245041647
-0.01006139843046794,-0.09599139393210128
-0.01006058843046794,-0.09622987191050482
-0.01005977843046794,-0.09471951138061577
-0.01005896843046794,-0.09312965819126176
-0.01005815843046794,-0.09082437106669138
-0.01005734843046794,-0.08859857660159172
-0.01005653843046794,-0.08645227479595992
-0.01005572843046794,-0.08422648033085636
-0.01005491843046794,-0.08208017852522846
-0.01005410843046794,-0.07858250150864329
-0.01005329843046794,-0.07691315565981854
-0.01005248843046794,-0.07524380981099381
-0.01005167843046794,-0.07444888321631681
-0.01005086843046794,-0.07349497130270123
-0.01005005843046794,-0.07206410343228002
-0.01004924843046794,-0.07071272822132667
-0.01004843843046794,-0.07118968417813315
-0.01004762843046794,-0.07087171354026235
-0.01004681843046794,-0.06896388971303408
-0.01004600843046794,-0.06745352918314503
-0.01004519843046794,-0.06546621269644891
-0.01004438843046794,-0.06355838886922063
-0.01004357843046794,-0.06236599897720296
-0.01004276843046794,-0.06157107238252452
-0.01004195843046794,-0.06133259440412098
-0.01004114843046794,-0.06188904302039488
-0.01004033843046794,-0.06141208706358883
-0.01003952843046794,-0.06141208706358883
-0.01003871843046794,-0.06037868249050685
-0.01003790843046794,-0.05998121919316834
-0.01003709843046794,-0.06037868249050685
-0.01003628843046794,-0.05982223387423194
-0.01003547843046794,-0.05870933664168211
-0.01003466843046794,-0.05926578525795702
-0.01003385843046794,-0.05481419632776582
-0.01003304843046794,-0.0444801505969379
-0.01003223843046794,-0.03994906900727076
-0.01003142843046794,-0.03796175252057464
-0.01003061843046794,-0.03708733326642935
-0.01002980843046794,-0.03764378188270326
-0.01002899843046794,-0.0377232745421711
-0.01002818843046794,-0.03827972315844601
-0.01002737843046794,-0.03804124518004248
-0.01002656843046794,-0.03851820113684955
-0.01002575843046794,-0.03867718645578523
-0.01002494843046794,-0.03732581124483188
-0.01002413843046794,-0.03676936262855697
-0.01002332843046794,-0.03676936262855697
-0.01002251843046794,-0.03621291401228205
-0.01002170843046794,-0.03676936262855697
-0.01002089843046794,-0.03645139199068559
-0.01002008843046794,-0.03048944253059723
-0.01001927843046794,-0.02238119126487707
-0.01001846843046794,-0.01777061701574208
-0.01001765843046794,-0.01626025648585303
-0.01001684843046794,-0.01538583723170674
-0.01001603843046794,-0.01506786659383593
-0.01001522843046794,-0.01459091063702829
-0.01001441843046794,-0.0144319253180926
-0.01001360843046794,-0.01427293999915691
-0.01001279843046794,-0.0136369987234143
-0.01001198843046794,-0.013716491382882
-0.01001117843046794,-0.01308055010713924
-0.01001036843046794,-0.01347801340447846
-0.01000955843046794,-0.01403446202075338
-0.01000874843046794,-0.01395496936128553
-0.01000793843046794,-0.01522685191277105
-0.01000712843046794,-0.01522685191277105
-0.01000631843046794,-0.0151473592533032
-0.01000550843046794,-0.0112522189393859
-0.01000469843046794,-0.002905489695255115
-0.01000388843046794,0.0002742166834586732
-0.01000307843046794,0.00257950380802617
-0.01000226843046794,0.004328342316318754
-0.01000145843046794,0.004725805613657977
-0.01000064843046794,0.00544123954886858
-0.009999838430467941,0.00408986433791522
-0.009999028430467941,0.003851386359511685
-0.009998218430467942,0.002341025829625383
-0.009997408430467942,0.002023055191751257
-0.009996598430467941,0.002023055191751257
-0.009995788430467941,0.001307621256540655
-0.009994978430467941,0.0012281285970744
-0.009994168430467942,0.002102547851219102
-0.009993358430467942,0.002420518489090481
-0.009992548430467941,0.003612908381108151
-0.009991738430467941,0.00798500465183961
-0.009990928430467942,0.01657021187436684
-0.009990118430467942,0.02133977144243752
-0.009989308430467941,0.0223731760155195
-0.009988498430467941,0.02340658058860149
-0.009987688430467942,0.02285013197232759
-0.009986878430467942,0.0232475952696658
-0.009986068430467942,0.02269114665339088
-0.009985258430467941,0.02213469803711597
-0.009984448430467941,0.02285013197232657
-0.009983638430467942,0.02308860995073011
-0.009982828430467942,0.02356556590753717
-0.009982018430467941,0.02253216133445519
-0.009981208430467941,0.02173723473977675
-0.009980398430467942,0.02157824942084135
-0.009979588430467942,0.02086281548563046
-0.009978778430467941,0.02030636686935554
-0.009977968430467941,0.01831905038265942
-0.009977158430467941,0.01839854304214621
-0.009976348430467942,0.02881208143241493
-0.009975538430467942,0.03413808961676053
-0.009974728430467941,0.03715881067653862
-0.009973918430467941,0.03851018588749199
-0.009973108430467942,0.03954359046057396
-0.009972298430467942,0.03914612716323473
-0.009971488430467941,0.03811272259015276
-0.009970678430467941,0.03755627397387784
-0.009969868430467941,0.03509200153037379
-0.009969058430467942,0.03461504557356759
-0.009968248430467942,0.03461504557356759
-0.009967438430467941,0.03405859695729267
-0.009966628430467941,0.03389961163835699
-0.009965818430467942,0.03310468504367854
-0.009965008430467942,0.03310468504367854
-0.009964198430467941,0.03413808961676053
-0.009963388430467941,0.04320025279609482
-0.009962578430467942,0.05226241597541263
-0.009961768430467942,0.05265987927276834
-0.009960958430467941,0.05226241597542912
-0.009960148430467941,0.05154698204021851
-0.009959338430467941,0.05075205544553992
-0.009958528430467942,0.05067256278607223
-0.009957718430467942,0.04987763619139378
-0.009956908430467941,0.04924169491565102
-0.009956098430467941,0.04844676832097257
-0.009955288430467942,0.0474133637478906
-0.009954478430467942,0.04963915821299024
-0.009953668430467941,0.04971865087245808
-0.009952858430467941,0.04916220225618317
-0.009952048430467941,0.04765184172628979
-0.009951238430467942,0.04526706194225878
-0.009950428430467942,0.04471061332598388
-0.009949618430467941,0.04447213534758034
-0.009948808430467941,0.04645945183427645
-0.009947998430467942,0.0524214012943648
-0.009947188430467942,0.05591907831094997
-0.009946378430467941,0.05766791681924256
-0.009945568430467941,0.05949624798700298
-0.009944758430467942,0.06156305713316319
-0.009943948430467942,0.06251696904678108
-0.009943138430467941,0.06251696904678108
-0.009942328430467941,0.0616425497926348
-0.009941518430467941,0.05917827734913132
-0.009940708430467942,0.05901929203019592
-0.009939898430467942,0.05814487277604963
-0.009939088430467941,0.05663451224616058
-0.009938278430467941,0.05679349756509626
-0.009937468430467942,0.05568060033254847
-0.009936658430467942,0.05544212235414291
-0.009935848430467941,0.05480618107840014
-0.009935038430467941,0.05607806362988567
-0.009934228430467941,0.06283493968466231
-0.009933418430467942,0.0682404405284659
-0.009932608430467942,0.07006877169622633
-0.009931798430467941,0.07094319095037262
-0.009930988430467941,0.07030724967462987
-0.009930178430467942,0.06967130839888711
-0.009929368430467942,0.06887638180420866
-0.009928558430467941,0.06847891850686944
-0.009927748430467941,0.06768399191219099
-0.009926938430467942,0.06633261670124009
-0.009926128430467942,0.06673007999857686
-0.009925318430467941,0.06585566074443056
-0.009924508430467941,0.06673007999857686
-0.009923698430467941,0.06665058733910828
-0.009922888430467942,0.06625312404176978
-0.009922078430467942,0.06625312404176978
-0.009921268430467941,0.06442479287400936
-0.009920458430467941,0.06259646170624893
-0.009919648430467942,0.06903536712313264
-0.009918838430467942,0.07324847807494012
-0.009918028430467941,0.07467934594536133
-0.009917218430467941,0.07467934594536133
-0.009916408430467941,0.07483833126429744
-0.009915598430467942,0.07507680924270055
-0.009914788430467942,0.07507680924270055
-0.009913978430467941,0.07531528722110409
-0.009913168430467941,0.07285101477760089
-0.009912358430467942,0.07245355148026167
-0.009911548430467942,0.07118166892877616
-0.009910738430467941,0.07062522031250125
-0.009909928430467941,0.06967130839888711
-0.009909118430467942,0.06839942584740391
-0.009908308430467942,0.06816094786899805
-0.009907498430467941,0.06704805063644823
-0.009906688430467941,0.07277152211813305
-0.009905878430467941,0.08549034763298952
-0.009905068430467942,0.0862057815681988
-0.009904258430467942,0.08652375220607018
-0.009903448430467941,0.08596730358979528
-0.009902638430467941,0.08541085497352036
-0.009901828430467942,0.08429795774097257
-0.009901018430467942,0.0833440458273564
-0.009900208430467941,0.08342353848682424
-0.009899398430467941,0.0817541926379995
-0.009898588430467941,0.08040281742704673
-0.009897778430467942,0.08072078806491752
-0.009896968430467942,0.08151571465959596
-0.009896158430467941,0.0817541926379995
