-20250405-BKP/synth-diodes-4f-1r-out-T10-L10-D10/1kHz5V/scope.csv

#Digilent WaveForms Oscilloscope Acquisition
#Device Name: Discovery3
#Serial Number: SN:210415BD5874
#Date Time: 2025-04-03 18:49:02.171.435.600
#Sample rate: 3.0303e+06Hz
#Samples: 32768
#Trigger: Source: Channel 1 Type: Edge Condition: Rising Level: 0 V Hyst.: Auto HoldOff: 0 s
#Channel 1: Range: 200 mV/div Offset: 0 V Sample Mode: Average
#Wavegen Channel 1: Running
#Mode: Simple
#Type: Sine
#Frequency: 1 kHz
#Period: 1 ms
#Amplitude: 5 V
#Offset: 0 V
#Symmetry: 50 %
#Phase: 0 °

Time (s),Channel 1 (V)
-0.004345903177392739,-0.004018386927804941
-0.004345573177392739,-0.004654328203544373
-0.004345243177392739,-0.002825997035787271
-0.004344913177392739,-0.002825997035787271
-0.004344583177392739,-0.002031070441108823
-0.004344253177392739,-0.001156651186962242
-0.004343923177392739,-0.0009976658680268423
-0.004343593177392739,-4.375395441270566e-05
-0.004343263177392739,3.573870505513906e-05
-0.004342933177392739,-0.0001232466138791044
-0.004342603177392739,0.0006716799807978968
-0.004342273177392739,0.0007511726402657415
-0.004341943177392739,0.001228128597071942
-0.004341613177392739,0.001625591894410154
-0.004341283177392739,0.0005921873213300521
-0.004340953177392739,0.00122812859707281
-0.004340623177392739,0.000671679980798909
-0.004340293177392739,0.00106914327813712
-0.004339963177392739,0.002023055191751257
-0.004339633177392739,0.001864069872815568
-0.004339303177392739,0.001784577213347867
-0.004338973177392739,0.001943562532283412
-0.004338643177392739,0.001148635937604965
-0.004338313177392739,0.002420518489090481
-0.00433798317739274,0.001625591894413479
-0.004337653177392739,0.001784577213347723
-0.004337323177392739,0.002023055191751257
-0.004336993177392739,0.001387113916008499
-0.004336663177392739,0.002023055191746051
-0.004336333177392739,-0.0008386805490911528
-0.004336003177392739,-0.008946931814811314
-0.004335673177392739,-0.01665771978319225
-0.004335343177392739,-0.02349408849743283
-0.004335013177392739,-0.02675328753560853
-0.004334683177392739,-0.02913806731964387
-0.004334353177392739,-0.03168183242261491
-0.004334023177392739,-0.03168183242261751
-0.004333693177392739,-0.0331127002930361
-0.004333363177392739,-0.03390762688771455
-0.004333033177392739,-0.03374864156877916
-0.004332703177392739,-0.03446407550398803
-0.004332373177392739,-0.03366914890931103
-0.004332043177392739,-0.03414610486611809
-0.004331713177392739,-0.03422559752558579
-0.004331383177392739,-0.0325562516767612
-0.004331053177392739,-0.03351016359037533
-0.004330723177392739,-0.03287422231463258
-0.004330393177392739,-0.03271523699569717
-0.004330063177392739,-0.03271523699569688
-0.004329733177392739,-0.03223828103888982
-0.004329403177392739,-0.03215878837942197
-0.00432907317739274,-0.03223828103888967
-0.004328743177392739,-0.03160233976314705
-0.004328413177392739,-0.03192031040101843
-0.004328083177392739,-0.03072792050900077
-0.004327753177392739,-0.03064842784953205
-0.004327423177392739,-0.03017147189272585
-0.004327093177392739,-0.02889958934124034
-0.004326763177392739,-0.02897908200070818
-0.004326433177392739,-0.02818415540602771
-0.004326103177392739,-0.02707125817347991
-0.004325773177392739,-0.02667379487614068
-0.004325443177392739,-0.02611734625986678
-0.004325113177392739,-0.02595836094092965
-0.004324783177392739,-0.02571988296252655
-0.004324453177392739,-0.02524292700571948
-0.004324123177392739,-0.02484546370838098
-0.004323793177392739,-0.02452749307050801
-0.004323463177392739,-0.02405053711370181
-0.004323133177392739,-0.02452749307050888
-0.004322803177392739,-0.02428901509210578
-0.004322473177392739,-0.0249249563678481
-0.004322143177392739,-0.02905857466017603
-0.004321813177392739,-0.03812073783951032
-0.004321483177392739,-0.04702391569989274
-0.004321153177392739,-0.05234992388425452
-0.004320823177392739,-0.05592709356030755
-0.004320493177392739,-0.05878882930114995
-0.004320163177392739,-0.05990172653370253
-0.004319833177392739,-0.06141208706358883
-0.004319503177392739,-0.06268396961507434
-0.004319173177392739,-0.06252498429613865
-0.004318843177392739,-0.06236599897720224
-0.004318513177392739,-0.06196853567986374
-0.004318183177392739,-0.06069665312837823
-0.004317853177392739,-0.06165056504199236
-0.004317523177392739,-0.0599812191931669
-0.004317193177392739,-0.0595837558958284
-0.004316863177392739,-0.05902730727955348
-0.004316533177392739,-0.05862984398221498
-0.004316203177392739,-0.05855035132274569
-0.004315873177392739,-0.05815288802540719
-0.004315543177392739,-0.05743745409019659
-0.004315213177392739,-0.05759643940913199
-0.004314883177392739,-0.05696049813338836
-0.004314553177392739,-0.05632455685764677
-0.004314223177392739,-0.05672202015498599
-0.004313893177392739,-0.05576810824137358
-0.004313563177392739,-0.05648354217658245
-0.004313233177392739,-0.05624506419817892
-0.004312903177392739,-0.05521165962509694
-0.004312573177392739,-0.05608607887924164
-0.004312243177392739,-0.05529115228456478
-0.004311913177392739,-0.05473470366828988
-0.004311583177392739,-0.0551321669656291
-0.004311253177392739,-0.05362180643574193
-0.004310923177392739,-0.05465521100882202
-0.004310593177392739,-0.05362180643574005
-0.004310263177392739,-0.05322434313840083
-0.004309933177392739,-0.05393977707360997
-0.004309603177392739,-0.05314485047893297
-0.004309273177392739,-0.05290637250052944
-0.004308943177392739,-0.05258840186265806
-0.004308613177392739,-0.05036260739755855
-0.004308283177392739,-0.05044210005702626
-0.004307953177392739,-0.04972666612181566
-0.004307623177392739,-0.05370129909520066
-0.004307293177392739,-0.06737403652369034
-0.004306963177392739,-0.07460786853525106
-0.004306633177392739,-0.07866199416811114
-0.004306303177392739,-0.08112626661160983
-0.004305973177392739,-0.08231865650363199
-0.004305643177392739,-0.08541887022287793
-0.004305313177392739,-0.08533937756341009
-0.004304983177392739,-0.0863727821364902
-0.004304653177392739,-0.08724720139063837
-0.004304323177392739,-0.08597531883915285
-0.004303993177392739,-0.08684973809329914
-0.004303663177392739,-0.08621379681755753
-0.004303333177392739,-0.08510089958500655
-0.004303003177392739,-0.08629328947702422
-0.004302673177392739,-0.08478292894713518
-0.004302343177392739,-0.0854983628823462
-0.004302013177392739,-0.08573684086074931
-0.004301683177392739,-0.08422648033086026
-0.004301353177392739,-0.08518039224447441
-0.004301023177392739,-0.08382901703351843
-0.004300693177392739,-0.08239814916309983
-0.004300363177392739,-0.08279561246043905
-0.004300033177392739,-0.08041083267640371
-0.004299703177392739,-0.080251847357466
-0.004299373177392739,-0.0791389501249182
-0.004299043177392739,-0.07739011161662562
-0.004298713177392739,-0.07810554555183491
-0.004298383177392739,-0.07524380981099266
-0.004298053177392739,-0.07460786853525106
-0.004297723177392739,-0.0745283758757832
-0.004297393177392739,-0.0734949713027031
-0.004297063177392739,-0.0745283758757832
-0.004296733177392739,-0.07309750800536201
-0.004296403177392739,-0.07301801534589415
-0.004296073177392739,-0.07357446396216806
-0.004295743177392739,-0.0723820740701514
-0.004295413177392739,-0.07277953736749063
-0.004295083177392739,-0.07270004470802278
-0.004294753177392739,-0.07230258141068428
-0.004294423177392739,-0.07349497130270123
-0.004294093177392739,-0.07214359609174786
-0.004293763177392739,-0.0716666401349408
-0.004293433177392739,-0.07262055204855941
-0.004293103177392739,-0.07508482449205812
-0.004292773177392739,-0.08454445096873164
-0.004292443177392739,-0.09209625361817689
-0.004292113177392739,-0.09583240861317195
-0.004291783177392739,-0.09933008562975076
-0.004291453177392739,-0.100760953500172
-0.004291123177392739,-0.1023508066895289
-0.004290793177392739,-0.1032252259436741
-0.004290463177392739,-0.1026687773274002
-0.004290133177392739,-0.1027482699868681
-0.004289803177392739,-0.1018738507327234
-0.004289473177392739,-0.1021123287111247
-0.004289143177392739,-0.1017943580732539
-0.004288813177392739,-0.09996602690549351
-0.004288483177392739,-0.1006019681812351
-0.004288153177392739,-0.09964805626762215
-0.004287823177392739,-0.098694144354008
-0.004287493177392739,-0.09948907094868645
-0.004287163177392739,-0.09837617371613865
-0.004286833177392739,-0.09877363701347584
-0.004286503177392739,-0.09813769573773309
-0.004286173177392739,-0.09718378382411895
-0.00428584317739274,-0.09789921775932825
-0.004285513177392739,-0.09750175446199033
-0.004285183177392739,-0.09646834988890834
-0.004284853177392739,-0.09758124712145817
-0.004284523177392739,-0.09622987191050439
-0.004284193177392739,-0.09599139393210128
-0.004283863177392739,-0.09511697467795499
-0.004283533177392739,-0.09543494531582637
-0.004283203177392739,-0.09567342329422802
-0.004282873177392739,-0.09464001872114793
-0.004282543177392739,-0.09464001872114793
-0.004282213177392739,-0.094083570104873
-0.004281883177392739,-0.09336813616966139
-0.004281553177392739,-0.09281168755338749
-0.004281223177392739,-0.09177828298030551
-0.004280893177392739,-0.09122183436403161
-0.004280563177392739,-0.09074487840722223
-0.004280233177392739,-0.09002944447201293
-0.004279903177392739,-0.08915502521786664
-0.004279573177392739,-0.08836009862318964
-0.004279243177392739,-0.08875756192052742
-0.004278913177392739,-0.08804212798531681
-0.004278583177392739,-0.08812162064478465
-0.004278253177392739,-0.09424255542379757
-0.004277923177392739,-0.1010789241380433
-0.004277593177392739,-0.1072793515765352
-0.004277263177392739,-0.111492462528331
-0.00427693317739274,-0.1134797790150235
-0.004276603177392739,-0.1154670955017232
-0.004276273177392739,-0.1159440514585303
-0.004275943177392739,-0.1169774560316123
-0.004275613177392739,-0.1172159340100154
-0.004275283177392739,-0.1169774560316123
-0.004274953177392739,-0.1178518752857586
-0.004274623177392739,-0.1165799927342731
-0.004274293177392739,-0.1167389780532089
-0.004273963177392739,-0.1168184707126766
-0.004273633177392739,-0.1158645587990625
-0.004273303177392739,-0.1160235441179979
-0.004272973177392739,-0.1149901395449137
-0.004272643177392739,-0.1136387643339628
-0.004272313177392739,-0.114036227631302
-0.004271983177392739,-0.1118899258256741
-0.004271653177392739,-0.1116514478472667
-0.004271323177392739,-0.1116514478472667
-0.004270993177392739,-0.1096641313605706
-0.004270663177392739,-0.1103000726363122
-0.004270333177392739,-0.1084717414685529
-0.004270003177392739,-0.107915292852278
-0.004269673177392739,-0.1081537708306815
-0.004269343177392739,-0.1059279763655859
-0.004269013177392739,-0.1073588442360031
-0.004268683177392739,-0.1062459470034532
-0.004268353177392739,-0.1054510204087748
-0.004268023177392739,-0.1063254396629186
-0.004267693177392739,-0.1049740644519677
-0.004267363177392739,-0.105848483706114
-0.004267033177392739,-0.1057689910466462
-0.004266703177392739,-0.1044971084951623
-0.004266373177392739,-0.105371527749307
-0.004266043177392739,-0.1039406598788857
-0.004265713177392739,-0.1032252259436752
-0.004265383177392739,-0.1040996451978188
-0.004265053177392739,-0.1026687773274002
-0.004264723177392739,-0.1062459470034532
-0.004264393177392739,-0.1130823157176755
-0.004264063177392739,-0.1215085376212897
-0.004263733177392739,-0.1271525164434964
-0.004263403177392739,-0.1284243989949819
-0.004263073177392739,-0.1304912081411421
-0.004262743177392739,-0.1316041053736957
-0.004262413177392739,-0.1316041053736957
-0.004262083177392739,-0.1327170026062455
-0.004261753177392739,-0.1312066420763592
-0.004261423177392739,-0.1313656273952922
-0.004261093177392739,-0.1319220760115671
-0.004260763177392739,-0.1300937448438066
-0.004260433177392739,-0.1309681640979514
-0.004260103177392739,-0.1297757742059353
-0.004259773177392739,-0.1293783109085961
-0.004259443177392739,-0.1300937448438066
-0.004259113177392739,-0.1285038916544506
-0.004258783177392739,-0.1289808476112568
-0.004258453177392739,-0.1287423696328533
-0.004258123177392739,-0.1270730237840285
-0.004257793177392739,-0.1276294724003019
-0.004257463177392739,-0.1267550531461572
-0.004257133177392739,-0.126357589848818
-0.004256803177392739,-0.1258806338920109
-0.004256473177392739,-0.1248472293189299
-0.004256143177392739,-0.1254036779352038
-0.004255813177392739,-0.124290780702654
-0.004255483177392739,-0.1239728100647832
-0.004255153177392739,-0.1237343320863763
-0.004254823177392739,-0.12222397155649
-0.004254493177392739,-0.1226214348538293
-0.004254163177392739,-0.1210315816644753
-0.004253833177392739,-0.1205546257076653
-0.004253503177392739,-0.1200776697508582
-0.004253173177392739,-0.1192032504967119
-0.004252843177392739,-0.1192827431561796
-0.004252513177392739,-0.1180108606046943
-0.004252183177392739,-0.1174544119884194
-0.004251853177392739,-0.1168184707126766
-0.004251523177392739,-0.1163415147558704
-0.004251193177392739,-0.116103036777466
-0.004250863177392739,-0.1153876028422554
-0.004250533177392739,-0.1145926762475769
-0.004250203177392739,-0.1148311542259826
-0.004249873177392739,-0.1160235441179981
-0.004249543177392739,-0.1226214348538293
-0.004249213177392739,-0.1292988182491282
-0.004248883177392739,-0.1345453337740138
-0.004248553177392739,-0.1388379373852696
-0.004248223177392739,-0.1399508346178194
-0.004247893177392739,-0.1428125703586618
-0.004247563177392739,-0.142733077699195
-0.004247233177392739,-0.1432895263154689
-0.004246903177392739,-0.1446409015264222
-0.004246573177392739,-0.1438459749317452
-0.004246243177392739,-0.1442434382290821
-0.004245913177392739,-0.143766482272276
-0.004245583177392739,-0.1423356144018547
-0.004245253177392739,-0.1424151070613224
-0.004244923177392739,-0.1408252538719657
-0.004244593177392739,-0.1402688052556908
-0.004244263177392739,-0.1399508346178194
-0.004243933177392739,-0.1385994594068685
-0.004243603177392739,-0.1382019961095268
-0.004243273177392739,-0.1366916355796378
-0.004242943177392739,-0.1363736649417664
-0.004242613177392739,-0.1366916355796372
-0.004242283177392739,-0.135022289730813
-0.004241953177392739,-0.1354992456876201
-0.004241623177392739,-0.1347838117524095
-0.004241293177392739,-0.1339093924982649
-0.004240963177392739,-0.1348633044118773
-0.004240633177392739,-0.1332734512225204
-0.004240303177392739,-0.1327964952657134
-0.004239973177392739,-0.1335914218603881
-0.004239643177392739,-0.1315246127142279
-0.004239313177392739,-0.1325580172873098
-0.004238983177392739,-0.13144512005476
-0.004238653177392739,-0.1307296861195517
-0.004238323177392739,-0.1320015686710349
-0.004237993177392739,-0.1293783109085961
-0.004237663177392739,-0.1298552668654022
-0.004237333177392739,-0.1292988182491256
-0.004237003177392739,-0.127867950378707
-0.004236673177392739,-0.1286628769733854
-0.004236343177392739,-0.1265165751677576
-0.004236013177392739,-0.1265960678272215
-0.004235683177392739,-0.1305707008006137
-0.004235353177392739,-0.1368506208985734
-0.004235023177392739,-0.1436869896127957
-0.004234693177392739,-0.1462307547157791
-0.004234363177392739,-0.1479001005646039
-0.004234033177392739,-0.1502848803486392
-0.00423370317739274,-0.1497284317323653
-0.004233373177392739,-0.1506028509865106
-0.004233043177392739,-0.1512387922622533
-0.004232713177392739,-0.1506823436459784
-0.004232383177392739,-0.1517157482190575
-0.004232053177392739,-0.1501258950297035
-0.004231723177392739,-0.1500464023702357
-0.004231393177392739,-0.1506028509865106
-0.004231063177392739,-0.1487745198187509
-0.004230733177392739,-0.1491719831160894
-0.004230403177392739,-0.1486950271592823
-0.004230073177392739,-0.1475026372672668
-0.004229743177392739,-0.1482975638619399
-0.004229413177392739,-0.1465487253536505
-0.004229083177392739,-0.1466282180131183
-0.004228753177392739,-0.1468666959915214
-0.004228423177392739,-0.1453563354616342
-0.004228093177392739,-0.1460717693968434
-0.004227763177392739,-0.145276842802165
-0.004227433177392739,-0.1435280042938756
-0.004227103177392739,-0.1440844529101473
-0.004226773177392739,-0.1420176437639833
-0.004226443177392739,-0.1420176437639833
-0.004226113177392739,-0.1411432245098387
-0.004225783177392739,-0.1397918492988837
-0.004225453177392739,-0.1401893125962229
-0.004225123177392739,-0.1385199667473982
-0.00422479317739274,-0.1384404740879305
-0.004224463177392739,-0.1389969227042053
-0.004224133177392739,-0.1373275768553805
-0.004223803177392739,-0.1371685915364448
-0.004223473177392739,-0.1365326502607015
-0.004223143177392739,-0.1362146796228307
-0.004222813177392739,-0.1370096062175091
-0.004222483177392739,-0.1356582310065558
-0.004222153177392739,-0.135976201644427
-0.004221823177392739,-0.1358967089849593
-0.004221493177392739,-0.1344658411145381
-0.004221163177392739,-0.1358967089849567
-0.004220833177392739,-0.1393943860015568
-0.004220503177392739,-0.1461512620563113
-0.004220173177392739,-0.1514772702406569
-0.004219843177392739,-0.1535440793868171
-0.004219513177392739,-0.1555313958735199
-0.004219183177392739,-0.1571212490628739
-0.004218853177392739,-0.1573597270412774
-0.004218523177392739,-0.1579161756575513
-0.004218193177392739,-0.1576776976791488
-0.004217863177392739,-0.1574392197007452
-0.004217533177392739,-0.1572802343818095
-0.004217203177392739,-0.1556903811924555
-0.004216873177392739,-0.1552134252356456
-0.004216543177392739,-0.1546569766193707
-0.004216213177392739,-0.1537030647057565
-0.004215883177392739,-0.153226108748949
-0.004215553177392739,-0.1529876307705459
-0.004215223177392739,-0.1513182849217212
-0.004214893177392739,-0.1507618363054463
-0.004214563177392739,-0.1494899537539615
-0.004214233177392739,-0.1498874170513
-0.004213903177392739,-0.1497284317323643
-0.004213573177392739,-0.1485360418403466
-0.004213243177392739,-0.1482180712024748
-0.004212913177392739,-0.1479795932240717
-0.004212583177392739,-0.1475026372672646
-0.004212253177392739,-0.1475821299267323
-0.004211923177392739,-0.1468666959915212
-0.004211593177392739,-0.1464692326941827
-0.004211263177392739,-0.146310247375247
-0.004210933177392739,-0.1451178574832315
-0.004210603177392739,-0.1451178574832293
-0.004210273177392739,-0.145276842802165
-0.004209943177392739,-0.1439254675912116
-0.004209613177392739,-0.1445614088669532
-0.004209283177392739,-0.143210033656001
-0.004208953177392739,-0.1428125703586618
-0.004208623177392739,-0.1430510483370653
-0.004208293177392739,-0.1408252538719697
-0.004207963177392739,-0.1403482979151586
-0.004207633177392739,-0.1390764153636731
-0.004207303177392739,-0.1383609814284625
-0.004206973177392739,-0.1381225034500581
-0.004206643177392739,-0.1376455474932519
-0.004206313177392739,-0.1436869896128081
-0.004205983177392739,-0.150920821624382
-0.004205653177392739,-0.154259513322039
-0.004205323177392739,-0.1583931316143594
-0.004204993177392739,-0.1603009554415877
-0.004204663177392739,-0.1610958820362661
-0.004204333177392739,-0.1637191397987035
-0.004204003177392739,-0.1629242132040265
-0.004203673177392739,-0.16316269118243
-0.004203343177392739,-0.1634806618203009
-0.004203013177392739,-0.1623677645877539
-0.004202683177392739,-0.1636396471392371
-0.004202353177392739,-0.1626062425661551
-0.004202023177392739,-0.161572837993075
-0.004201693177392739,-0.1621292866093481
-0.004201363177392739,-0.1603009554415877
-0.004201033177392739,-0.1609368967173304
-0.004200703177392739,-0.1599034921442503
-0.004200373177392739,-0.1590290728901021
-0.004200043177392739,-0.1599829848037163
-0.004199713177392739,-0.1582341462954237
-0.004199383177392739,-0.158154653635956
-0.004199053177392739,-0.1579956683170201
-0.004198723177392739,-0.1556108885329848
-0.004198393177392739,-0.1556108885329848
-0.004198063177392739,-0.1537030647057557
-0.004197733177392739,-0.1532261087489495
-0.004197403177392739,-0.1535440793868209
-0.004197073177392739,-0.1516362555595926
-0.004196743177392739,-0.1517952408785271
-0.004196413177392739,-0.1511592996027855
-0.004196083177392739,-0.1499669097107678
-0.004195753177392739,-0.1505233583270427
-0.004195423177392739,-0.14877451981875
-0.004195093177392739,-0.1486950271592823
-0.004194763177392739,-0.1492514757755572
-0.004194433177392739,-0.1477411152456709
