-20250406-BKP/synth-diodes-1f-1r-in-T00-L10-D00/1kHz-1V/scope.csv

#Digilent WaveForms Oscilloscope Acquisition
#Device Name: Discovery3
#Serial Number: SN:210415BD5874
#Date Time: 2025-04-06 20:13:46.419.978.670
#Sample rate: 1.23457e+06Hz
#Samples: 32768
#Trigger: Source: Channel 1 Type: Edge Condition: Rising Level: 0 V Hyst.: Auto HoldOff: 0 s
#Channel 1: Range: 200 mV/div Offset: 0 V Sample Mode: Average
#Wavegen Channel 1: Running
#Mode: Simple
#Type: Sine
#Frequency: 1 kHz
#Period: 1 ms
#Amplitude: 1 V
#Offset: 0 V
#Symmetry: 50 %
#Phase: 0 °

Time (s),Channel 1 (V)
-0.01027720619433198,-0.1341478704766677
-0.01027639619433198,-0.1347043190929416
-0.01027558619433198,-0.1347838117524095
-0.01027477619433198,-0.1353402603686844
-0.01027396619433198,-0.1355787383470879
-0.01027315619433198,-0.1354197530281522
-0.01027234619433198,-0.1351017823902809
-0.01027153619433198,-0.135022289730813
-0.01027072619433198,-0.1348633044118773
-0.01026991619433198,-0.1343068557956034
-0.01026910619433198,-0.1339888851577311
-0.01026829619433198,-0.1341478704766667
-0.01026748619433198,-0.1346248264334738
-0.01026667619433198,-0.1340683778171996
-0.01026586619433198,-0.1344658411145381
-0.01026505619433198,-0.135022289730813
-0.01026424619433198,-0.135022289730813
-0.01026343619433198,-0.1349427970713452
-0.01026262619433198,-0.1345453337740067
-0.01026181619433198,-0.1343068557956024
-0.01026100619433198,-0.1337504071793275
-0.01026019619433198,-0.1338298998387953
-0.01025938619433198,-0.1333529438819882
-0.01025857619433198,-0.1332734512225204
-0.01025776619433198,-0.133511929200924
-0.01025695619433198,-0.1332734512225204
-0.01025614619433198,-0.133511929200924
-0.01025533619433198,-0.1339093924982632
-0.01025452619433198,-0.1342273631361346
-0.01025371619433198,-0.1340683778171989
-0.01025290619433198,-0.1340683778171989
-0.01025209619433199,-0.1334324365414573
-0.01025128619433198,-0.1327170026062455
-0.01025047619433198,-0.1323990319683742
-0.01024966619433198,-0.1323990319683742
-0.01024885619433198,-0.1319220760115671
-0.01024804619433198,-0.1316041053736957
-0.01024723619433198,-0.1320015686710349
-0.01024642619433198,-0.1316041053736957
-0.01024561619433198,-0.1323195393089063
-0.01024480619433198,-0.1319220760115678
-0.01024399619433198,-0.1322400466494384
-0.01024318619433198,-0.1326375099467777
-0.01024237619433198,-0.1316041053736957
-0.01024156619433198,-0.1311271494168876
-0.01024075619433198,-0.1305707008006137
-0.01023994619433198,-0.1300142521843388
-0.01023913619433198,-0.1297757742059353
-0.01023832619433198,-0.129934759524871
-0.01023751619433198,-0.1292193255896604
-0.01023670619433198,-0.1292988182491282
-0.01023589619433198,-0.1291398329301925
-0.01023508619433198,-0.1296962815464674
-0.01023427619433199,-0.1300142521843382
-0.01023346619433198,-0.129934759524871
-0.01023265619433198,-0.1291398329301925
-0.01023184619433198,-0.1285833843139176
-0.01023103619433198,-0.1281859210165784
-0.01023022619433198,-0.1274704870813678
-0.01022941619433198,-0.1276294724003035
-0.01022860619433198,-0.1270730237840285
-0.01022779619433198,-0.1272320091029642
-0.01022698619433198,-0.1269140384650934
-0.01022617619433198,-0.1271525164434964
-0.01022536619433198,-0.1273909944218999
-0.01022455619433198,-0.1273909944218999
-0.01022374619433198,-0.1273115017624314
-0.01022293619433198,-0.1269140384650929
-0.01022212619433198,-0.1256421559136073
-0.01022131619433198,-0.1254036779352038
-0.01022050619433198,-0.1250062146378646
-0.01021969619433198,-0.1250857072973324
-0.01021888619433198,-0.1252446926162681
-0.01021807619433198,-0.1250062146378646
-0.01021726619433198,-0.1243702733621218
-0.01021645619433198,-0.1240523027242505
-0.01021564619433198,-0.1240523027242505
-0.01021483619433198,-0.1244497660215897
-0.01021402619433198,-0.1247677366594611
-0.01021321619433198,-0.1238933174053148
-0.01021240619433198,-0.1236548394269112
-0.01021159619433198,-0.1233368687890399
-0.01021078619433198,-0.122780420172765
-0.01020997619433198,-0.1221444788970222
-0.01020916619433198,-0.1214290449618129
-0.01020835619433198,-0.1210315816644724
-0.01020754619433198,-0.1208725963455367
-0.01020673619433198,-0.1203956403887296
-0.01020592619433198,-0.120157162410327
-0.01020511619433198,-0.1206341183671331
-0.01020430619433198,-0.1207931036860688
-0.01020349619433198,-0.1211110743239402
-0.01020268619433198,-0.1204751330481975
-0.01020187619433198,-0.1198391917724547
-0.01020106619433198,-0.1190442651777762
-0.01020025619433198,-0.1188057871993727
-0.01019944619433198,-0.1188057871993727
-0.01019863619433198,-0.1179313679452255
-0.01019782619433198,-0.1174544119884194
-0.01019701619433198,-0.1174544119884194
-0.01019620619433198,-0.117136441350548
-0.01019539619433198,-0.1169774560316123
-0.01019458619433198,-0.1167389780532088
-0.01019377619433198,-0.117136441350548
-0.01019296619433198,-0.1169774560316123
-0.01019215619433198,-0.1160235441179981
-0.01019134619433198,-0.114990139544918
-0.01019053619433198,-0.1136387643339628
-0.01018972619433198,-0.1129233303987522
-0.01018891619433198,-0.112525867101413
-0.01018810619433198,-0.112446374441945
-0.01018729619433198,-0.1123668817824773
-0.01018648619433198,-0.1124463744419451
-0.01018567619433198,-0.1126053597608808
-0.01018486619433198,-0.1128438377392844
-0.01018405619433198,-0.1132413010366236
-0.01018324619433198,-0.1139567349718342
-0.01018243619433198,-0.1134002863555593
-0.01018162619433198,-0.1126848524203487
-0.01018081619433198,-0.1117309405067325
-0.01018000619433198,-0.1106180432741847
-0.01017919619433198,-0.1096641313605706
-0.01017838619433198,-0.109425653382167
-0.01017757619433198,-0.1088692047658921
-0.01017676619433198,-0.1085512341280207
-0.01017595619433198,-0.1085512341280207
-0.01017514619433198,-0.1084717414685529
-0.01017433619433198,-0.1083127561496172
-0.01017352619433198,-0.1088692047658911
-0.01017271619433198,-0.1083127561496172
-0.01017190619433198,-0.1078358001928101
-0.01017109619433198,-0.106881888279196
-0.01017028619433198,-0.1058484837061137
-0.01016947619433198,-0.1056894983871783
-0.01016866619433198,-0.1052920350898391
-0.01016785619433198,-0.105371527749307
-0.01016704619433198,-0.1049740644519677
-0.01016623619433198,-0.1044176158356938
-0.01016542619433198,-0.1045766011546285
-0.01016461619433198,-0.1047355864735642
-0.01016380619433198,-0.1046560938140964
-0.01016299619433198,-0.1040996451978207
-0.01016218619433198,-0.1037021819004822
-0.01016137619433198,-0.1025097920084646
-0.01016056619433198,-0.102271314030061
-0.01015975619433198,-0.1013174021164469
-0.01015894619433198,-0.1009994314785755
-0.01015813619433198,-0.1004429828623006
-0.01015732619433198,-0.1001250122244292
-0.01015651619433198,-0.09988653424602567
-0.01015570619433198,-0.1005224755217673
-0.01015489619433198,-0.1002045048838971
-0.01015408619433198,-0.1002045048838971
-0.01015327619433198,-0.09972754892708999
-0.01015246619433198,-0.09925059297028105
-0.01015165619433198,-0.09821718839720094
-0.01015084619433198,-0.09781972509986171
-0.01015003619433198,-0.09710429116465111
-0.01014922619433198,-0.09646834988890834
-0.01014841619433198,-0.09615037925103756
-0.01014760619433198,-0.09575291595369775
-0.01014679619433198,-0.09559393063476206
-0.01014598619433198,-0.0956734232942299
-0.01014517619433198,-0.09607088659156912
-0.01014436619433198,-0.09607088659156912
-0.01014355619433198,-0.09495798935901931
-0.01014274619433198,-0.0942425554238087
-0.01014193619433198,-0.09344762882913026
-0.01014112619433198,-0.09273219489391965
-0.01014031619433198,-0.09241422425604827
-0.01013950619433198,-0.09177828298030551
-0.01013869619433198,-0.09153980500190198
-0.01013788619433198,-0.09201676095870817
-0.01013707619433198,-0.0912218343640306
-0.01013626619433198,-0.09153980500190198
-0.01013545619433198,-0.0912218343640306
-0.01013464619433198,-0.09018842979094861
-0.01013383619433198,-0.08979096649360939
-0.01013302619433198,-0.08915502521786664
-0.01013221619433198,-0.08796263532584897
-0.01013140619433198,-0.08780365000691327
-0.01013059619433198,-0.08732669405010708
-0.01012978619433198,-0.08645227479595992
-0.01012897619433198,-0.08629328947702422
-0.01012816619433198,-0.08629328947702422
-0.01012735619433198,-0.08605481149862027
-0.01012654619433198,-0.08581633352021716
-0.01012573619433198,-0.08557785554181363
-0.01012492619433198,-0.08518039224447441
-0.01012411619433198,-0.08478292894713518
-0.01012330619433198,-0.08382901703352104
-0.01012249619433198,-0.08247764182256768
-0.01012168619433198,-0.08192119320629276
-0.01012087619433198,-0.08184170054682492
-0.01012006619433199,-0.08088778863321253
-0.01011925619433198,-0.08041083267640371
-0.01011844619433198,-0.08017235469800019
-0.01011763619433198,-0.08001336937906449
-0.01011682619433198,-0.07985438406012881
-0.01011601619433198,-0.07969539874119312
-0.01011520619433198,-0.07953641342225742
-0.01011439619433198,-0.0784235161897076
-0.01011358619433198,-0.07754909693556131
-0.01011277619433198,-0.07683366300035201
-0.01011196619433198,-0.07619772172460795
-0.01011115619433198,-0.07587975108673657
-0.01011034619433198,-0.07516431715152597
-0.01010953619433198,-0.07492583917312257
-0.01010872619433198,-0.07500533183259028
-0.01010791619433198,-0.0738129419405726
-0.01010710619433198,-0.07357446396216907
-0.01010629619433198,-0.07365395662163692
-0.01010548619433198,-0.07373344928110476
-0.01010467619433198,-0.07317700066482985
-0.01010386619433198,-0.07325649332429769
-0.01010305619433198,-0.07206410343228002
-0.01010224619433199,-0.07087171354026452
-0.01010143619433198,-0.07039475758345529
-0.01010062619433198,-0.069520338329309
-0.01009981619433198,-0.06904338237250192
-0.01009900619433198,-0.06880490439409839
-0.01009819619433198,-0.06816896311835563
-0.01009738619433198,-0.06793048513995209
-0.01009657619433198,-0.06800997779941995
-0.01009576619433198,-0.06800997779941995
-0.01009495619433198,-0.06769200716154915
-0.01009414619433198,-0.06697657322633796
-0.01009333619433198,-0.06610215397219167
-0.01009252619433198,-0.06530722737751322
-0.01009171619433198,-0.06443280812336606
-0.01009090619433198,-0.06395585216655986
-0.01009009619433198,-0.06363788152868848
-0.01008928619433198,-0.06284295493401003
-0.01008847619433198,-0.06252498429613865
-0.01008766619433198,-0.0618890430203959
-0.01008685619433198,-0.06204802833933158
-0.01008604619433198,-0.06196853567986374
-0.01008523619433198,-0.0617300577014602
-0.01008442619433198,-0.06141208706358652
-0.01008361619433198,-0.06014020451210331
-0.01008280619433198,-0.05926578525795702
-0.01008199619433198,-0.05894781462008564
-0.01008118619433198,-0.05823238068487503
-0.01008037619433198,-0.05735796143072874
-0.01007956619433198,-0.0572784687712609
-0.01007875619433198,-0.05672202015498599
-0.01007794619433198,-0.0565630348360503
-0.01007713619433198,-0.0564835421765826
-0.01007632619433198,-0.05592709356030755
-0.01007551619433198,-0.05545013760350047
-0.01007470619433198,-0.05449622568988634
-0.01007389619433198,-0.05378079175467443
-0.01007308619433198,-0.05306535781946513
-0.01007227619433198,-0.052111445905851
-0.01007146619433198,-0.05179347526797962
-0.01007065619433198,-0.05091905601383333
-0.01006984619433198,-0.05060108537596195
-0.01006903619433198,-0.0498061587812835
-0.01006822619433198,-0.04948818814341212
-0.01006741619433198,-0.04924971016500858
-0.01006660619433198,-0.0490112321866026
-0.01006579619433198,-0.04765985697565168
-0.01006498619433198,-0.04638797442416617
-0.01006417619433198,-0.04575203314842342
-0.01006336619433198,-0.04551355517001988
-0.01006255619433198,-0.04471862857534144
-0.01006174619433198,-0.04400319464013083
-0.01006093619433198,-0.04360573134279161
-0.01006012619433198,-0.04384420932119515
-0.01005931619433198,-0.04432116527800135
-0.01005850619433198,-0.04384420932119515
-0.01005769619433198,-0.04360573134279161
-0.01005688619433198,-0.04281080474811316
-0.01005607619433198,-0.04241334145077263
-0.01005526619433198,-0.04169790751556333
-0.01005445619433198,-0.04130044421822411
-0.01005364619433198,-0.04066450294248136
-0.01005283619433198,-0.03971059102886722
-0.01005202619433198,-0.03827972315844861
-0.01005121619433198,-0.03796175252057464
-0.01005040619433198,-0.03724631858536404
-0.01004959619433198,-0.03661037730962127
-0.01004878619433198,-0.03653088465015227
-0.01004797619433198,-0.03589494337441067
-0.01004716619433198,-0.0355769727365393
-0.01004635619433198,-0.0355769727365393
-0.01004554619433198,-0.0354179874176036
-0.01004473619433198,-0.03517950943920008
-0.01004392619433198,-0.034702553482393
-0.01004311619433198,-0.03374864156877887
-0.01004230619433198,-0.03279472965516472
-0.01004149619433198,-0.03168183242261693
-0.01004068619433198,-0.0309663984874043
-0.01003987619433198,-0.03048944253059723
-0.01003906619433198,-0.02985350125485448
-0.01003825619433198,-0.02953553061698251
-0.01003744619433198,-0.02921755997911172
-0.01003663619433198,-0.02810466274656189
-0.01003582619433198,-0.02897908200070818
-0.01003501619433198,-0.02858161870336896
-0.01003420619433198,-0.02826364806549816
-0.01003339619433198,-0.02738922881135129
-0.01003258619433198,-0.026514809557205
-0.01003177619433198,-0.02579937562199439
-0.01003096619433198,-0.02508394168678278
-0.01003015619433198,-0.02452749307050888
-0.01002934619433198,-0.02397104445423397
-0.01002853619433198,-0.0234940884974269
-0.01002772619433198,-0.02269916190274845
-0.01002691619433198,-0.02269916190274845
-0.01002610619433198,-0.02230169860540923
-0.01002529619433198,-0.02190423530807
-0.01002448619433198,-0.02166575732966647
-0.01002367619433198,-0.02118880137286027
-0.01002286619433198,-0.02063235275658449
-0.01002205619433198,-0.01936047020509897
-0.01002124619433198,-0.01832706563201699
-0.01002043619433198,-0.01729366105893501
-0.01001962619433198,-0.01689619776159578
-0.01001881619433198,-0.01633974914532087
-0.01001800619433198,-0.01610127116691734
-0.01001719619433198,-0.01578330052904596
-0.01001638619433198,-0.01514735925330436
-0.01001557619433198,-0.01506786659383536
-0.01001476619433198,-0.01482938861543182
-0.01001395619433198,-0.0144319253180926
-0.01001314619433198,-0.01371649138288113
-0.01001233619433198,-0.01323953542607493
-0.01001152619433198,-0.01180866755565372
-0.01001071619433198,-0.01101374096097528
-0.01000990619433198,-0.0106957703231039
-0.01000909619433198,-0.009900843728425451
-0.01000828619433198,-0.008867439155343469
-0.01000747619433198,-0.008469975858004245
-0.01000666619433198,-0.008310990539068556
-0.01000585619433199,-0.008231497879600855
-0.01000504619433198,-0.007834034582261487
-0.01000423619433198,-0.007595556603857954
-0.01000342619433198,-0.007277585965986575
-0.01000261619433198,-0.006164688733436749
-0.01000180619433198,-0.004972298841419079
-0.01000099619433198,-0.004097879587272786
-0.01000018619433198,-0.003382445652062184
-0.009999376194331984,-0.002349041078980202
-0.009998566194331985,-0.001633607143770901
-0.009997756194331985,-0.0016336071437696
-0.009996946194331984,-0.0009976658680268423
-0.009996136194331984,-0.0007591878896233081
-0.009995326194331983,-0.0007591878896234527
-0.009994516194331985,-0.0008386805490911528
-0.009993706194331984,-0.0001232466138805504
-0.009992896194331984,0.0005921873213300521
-0.009992086194331984,0.001387113916008499
-0.009991276194331985,0.002182040510686946
-0.009990466194331984,0.003374430402704617
-0.009989656194331984,0.003771893700043841
-0.009988846194331984,0.004487327635254443
-0.009988036194331985,0.004964283592060644
-0.009987226194331985,0.00544123954886858
-0.009986416194331984,0.005759210186739958
-0.009985606194331984,0.006315658803014872
-0.009984796194331983,0.006713122100354095
-0.009983986194331985,0.006554136781418406
-0.009983176194331984,0.006554136781418406
-0.009982366194331984,0.007826019332903921
-0.009981556194331984,0.009177394543857281
-0.009980746194331985,0.009654350500663482
-0.009979936194331985,0.01036978443587495
-0.009979126194331984,0.0111647110305534
-0.009978316194331984,0.01156217432789262
-0.009977506194331983,0.0120391302847007
-0.009976696194331985,0.0125955789009746
-0.009975886194331984,0.01283405687937814
-0.009975076194331984,0.01283405687937814
-0.009974266194331984,0.01315202751724952
-0.009973456194331985,0.01410593943086365
-0.009972646194331984,0.01474188070660641
-0.009971836194331984,0.01593427059862408
-0.009971026194331984,0.01664970453383469
-0.009970216194331983,0.0172856458095786
-0.009969406194331985,0.0179215870853202
-0.009968596194331984,0.01887549899893434
-0.009967786194331984,0.0193524549557414
-0.009966976194331983,0.01967042559361279
-0.009966166194331985,0.01959093293414494
-0.009965356194331984,0.01974991825308063
-0.009964546194331984,0.02014738155041985
-0.009963736194331984,0.02054484484775907
-0.009962926194331985,0.02118078612350068
-0.009962116194331985,0.02221419069658382
-0.009961306194331984,0.02356556590753717
-0.009960496194331984,0.02420150718327993
-0.009959686194331983,0.02475795579955543
-0.009958876194331985,0.02507592643742623
-0.009958066194331984,0.02579136037263683
-0.009957256194331984,0.02634780898891174
-0.009956446194331984,0.02642730164837959
-0.009955636194331985,0.02714273558359019
-0.009954826194331984,0.02777867685933294
-0.009954016194331984,0.02777867685933294
-0.009953206194331984,0.02777867685933294
-0.009952396194331983,0.02889157409188335
-0.009951586194331985,0.02920954472975415
-0.009950776194331984,0.0307199052596432
-0.009949966194331984,0.03167381717325733
-0.009949156194331983,0.03246874376793578
-0.009948346194331985,0.03270722174633932
-0.009947536194331984,0.0330251923842107
-0.009946726194331984,0.0344560602546319
-0.009945916194331984,0.03485352355197112
-0.009945106194331985,0.03580743546558353
-0.009944296194331985,0.03596642078452095
-0.009943486194331984,0.03596642078452095
-0.009942676194331984,0.03644337674132801
-0.009941866194331983,0.03715881067654166
-0.009941056194331985,0.03882815652536337
-0.009940246194331984,0.0403385170552524
-0.009939436194331984,0.04145141428780223
-0.009938626194331984,0.04168989226620577
-0.009937816194331985,0.04208735556354427
-0.009937006194331984,0.04335923811503051
-0.009936196194331984,0.04327974545556267
-0.009935386194331984,0.04296177481769128
-0.009934576194331983,0.04264380417981976
-0.009933766194331985,0.04256431152035206
-0.009932956194331984,0.04296177481769128
-0.009932146194331984,0.04343873077449835
-0.009931336194331983,0.04447213534758034
-0.009930526194331985,0.04479010598545172
-0.009929716194331984,0.04479010598545172
-0.009928906194331984,0.04574401789906585
-0.009928096194331984,0.04677742247214783
-0.009927286194331985,0.04781082704522794
-0.009926476194331985,0.04876473895884395
-0.009925666194331984,0.0495596655535224
-0.009924856194331984,0.04987763619139378
-0.009924046194331983,0.05091104076447503
-0.009923236194331985,0.05051357746713653
-0.009922426194331984,0.05107002608341145
-0.009921616194331984,0.05218292331596128
-0.009920806194331984,0.05234190863489696
-0.009919996194331985,0.05170596735915536
-0.009919186194331985,0.05218292331596128
-0.009918376194331984,0.05321632788904325
-0.009917566194331984,0.05424973246212524
-0.009916756194331983,0.054965166397337
-0.009915946194331985,0.05560110767307859
-0.009915136194331984,0.05663451224616058
-0.009914326194331984,0.05727045352190334
-0.009913516194331983,0.0577474094787104
-0.009912706194331985,0.05822436543551747
-0.009911896194331984,0.05822436543551747
-0.009911086194331984,0.05830385809498531
-0.009910276194331984,0.05798588745711394
-0.009909466194331985,0.05886030671125864
-0.009908656194331985,0.05965523330593868
-0.009907846194331984,0.06084762319795635
-0.009907036194331984,0.06196052043050618
-0.009906226194331983,0.06243747638731368
-0.009905416194331985,0.06267595436571677
-0.009904606194331984,0.06331189564145953
-0.009903796194331984,0.06410682223613798
-0.009902986194331984,0.06418631489560582
-0.009902176194331985,0.06410682223613812
-0.009901366194331985,0.06458377819294504
-0.009900556194331984,0.06474276351188074
-0.009899746194331984,0.06553769010655919
