-20250405-BKP/real-diodes-in-T10-L10-D00/100Hz5V/scope.csv

#Digilent WaveForms Oscilloscope Acquisition
#Device Name: Discovery3
#Serial Number: SN:210415BD5874
#Date Time: 2025-04-03 16:07:35.095.498.670
#Sample rate: 344828Hz
#Samples: 32768
#Trigger: Source: Channel 1 Type: Edge Condition: Rising Level: 0 V Hyst.: Auto HoldOff: 0 s
#Channel 1: Range: 200 mV/div Offset: 0 V Sample Mode: Average
#Wavegen Channel 1: Running
#Mode: Simple
#Type: Sine
#Frequency: 100 Hz
#Period: 10 ms
#Amplitude: 5 V
#Offset: 0 V
#Symmetry: 50 %
#Phase: 0 °

Time (s),Channel 1 (V)
-0.03483939415495017,0.02714273558359019
-0.03483649415495017,0.02920954472975415
-0.03483359415495017,0.02865309611347924
-0.03483069415495017,0.02571186771316898
-0.03482779415495017,0.02642730164837959
-0.03482489415495017,0.02777867685933294
-0.03482199415495017,0.02674527228625096
-0.03481909415495017,0.02682476494571881
-0.03481619415495017,0.02785816951880079
-0.03481329415495017,0.02714273558359019
-0.03481039415495017,0.02595034569157252
-0.03480749415495017,0.02674527228625096
-0.03480459415495017,0.02682476494571881
-0.03480169415495016,0.02571186771316898
-0.03479879415495016,0.02618882366997605
-0.03479589415495016,0.02658628696731527
-0.03479299415495016,0.02563237505370114
-0.03479009415495016,0.02658628696731527
-0.03478719415495016,0.02634780898891174
-0.03478429415495016,0.02579136037263683
-0.03478139415495016,0.02714273558359019
-0.03477849415495016,0.02666577962678312
-0.03477559415495016,0.02634780898891348
-0.03477269415495016,0.02730172090252458
-0.03476979415495016,0.02658628696731499
-0.03476689415495016,0.02642730164838089
-0.03476399415495016,0.02714273558358975
-0.03476109415495016,0.02690425760518492
-0.03475819415495017,0.02595034569157425
-0.03475529415495017,0.02730172090252342
-0.03475239415495017,0.02746070622146128
-0.03474949415495017,0.02602983835104296
-0.03474659415495017,0.02674527228624966
-0.03474369415495017,0.02706324292412176
-0.03474079415495017,0.02555288239423604
-0.03473789415495017,0.02634780898891174
-0.03473499415495017,0.0269837502646545
-0.03473209415495017,0.0261093310105082
-0.03472919415495017,0.02602983835104036
-0.03472629415495017,0.02666577962678312
-0.03472339415495017,0.02674527228625096
-0.03472049415495017,0.0262683163294439
-0.03471759415495017,0.0269837502646545
-0.03471469415495017,0.0276991841998651
-0.03471179415495017,0.02809664749720433
-0.03470889415495017,0.02809664749720433
-0.03470599415495017,0.0262683163294439
-0.03470309415495017,0.02618882366997605
-0.03470019415495017,0.02658628696731527
-0.03469729415495017,0.02722222824305803
-0.03469439415495017,0.02706324292412234
-0.03469149415495017,0.02555288239423329
-0.03468859415495017,0.02706324292412234
-0.03468569415495017,0.02674527228625096
-0.03468279415495017,0.02555288239423329
-0.03467989415495017,0.02634780898891174
-0.03467699415495017,0.02634780898891174
-0.03467409415495017,0.0253938970752976
-0.03467119415495017,0.02618882366997605
-0.03466829415495017,0.02658628696731527
-0.03466539415495017,0.02555288239423329
-0.03466249415495017,0.0261093310105082
-0.03465959415495017,0.02722222824305803
-0.03465669415495017,0.0262683163294439
-0.03465379415495017,0.02595034569157252
-0.03465089415495017,0.02730172090252588
-0.03464799415495017,0.02618882366997605
-0.03464509415495017,0.0262683163294439
-0.03464219415495016,0.0269837502646545
-0.03463929415495016,0.02618882366997605
-0.03463639415495016,0.02602983835104036
-0.03463349415495016,0.02690425760518665
-0.03463059415495016,0.0262683163294439
-0.03462769415495016,0.02579136037263683
-0.03462479415495016,0.02666577962678312
-0.03462189415495016,0.0261093310105082
-0.03461899415495016,0.0253938970752976
-0.03461609415495016,0.02650679430784656
-0.03461319415495016,0.02602983835103935
-0.03461029415495016,0.02547338973476791
-0.03460739415495016,0.02682476494571924
-0.03460449415495016,0.02706324292412017
-0.03460159415495016,0.02587085303210669
-0.03459869415495016,0.02698375026465493
-0.03459579415495017,0.0272222282430576
-0.03459289415495017,0.02618882366997793
-0.03458999415495017,0.02706324292412075
-0.03458709415495017,0.02976599334602415
-0.03458419415495017,0.02777867685933656
-0.03458129415495017,0.02563237505370504
-0.03457839415495017,0.02730172090252588
-0.03457549415495017,0.02658628696731527
-0.03457259415495017,0.0262683163294439
-0.03456969415495017,0.02706324292412234
-0.03456679415495017,0.02650679430784743
-0.03456389415495017,0.02595034569157252
-0.03456099415495017,0.02706324292412234
-0.03455809415495017,0.0262683163294439
-0.03455519415495017,0.0253938970752976
-0.03455229415495017,0.02642730164837959
-0.03454939415495017,0.02634780898891174
-0.03454649415495017,0.02555288239423329
-0.03454359415495017,0.02658628696731527
-0.03454069415495017,0.02690425760518665
-0.03453779415495017,0.02563237505370114
-0.03453489415495017,0.02634780898891174
-0.03453199415495017,0.02666577962678312
-0.03452909415495017,0.02555288239423329
-0.03452619415495017,0.02658628696731527
-0.03452329415495017,0.02658628696731527
-0.03452039415495017,0.02555288239423329
-0.03451749415495017,0.02618882366997605
-0.03451459415495017,0.02650679430784743
-0.03451169415495017,0.02547338973476545
-0.03450879415495017,0.02602983835104036
-0.03450589415495017,0.02666577962678312
-0.03450299415495017,0.02571186771316898
-0.03450009415495017,0.02563237505370114
-0.03449719415495017,0.02650679430784743
-0.03449429415495017,0.02587085303210467
-0.03449139415495017,0.02555288239423329
-0.03448849415495017,0.02666577962678312
-0.03448559415495017,0.02658628696731527
-0.03448269415495017,0.02579136037263683
-0.03447979415495016,0.02674527228625096
-0.03447689415495016,0.0269837502646545
-0.03447399415495016,0.02587085303210467
-0.03447109415495016,0.02642730164837959
-0.03446819415495016,0.02682476494571881
-0.03446529415495016,0.0261093310105082
-0.03446239415495016,0.02849411079454355
-0.03445949415495016,0.02825563281614001
-0.03445659415495016,0.02523491175636191
-0.03445369415495016,0.02658628696731542
-0.03445079415495016,0.02666577962678167
-0.03444789415495016,0.02587085303210626
-0.03444499415495016,0.02674527228625068
-0.03444209415495016,0.02658628696731311
-0.03443919415495016,0.02539389707529948
-0.03443629415495017,0.02642730164837771
-0.03443339415495017,0.02674527228625038
-0.03443049415495017,0.02547338973476776
-0.03442759415495017,0.02650679430784555
-0.03442469415495017,0.02714273558358903
-0.03442179415495017,0.02579136037263929
-0.03441889415495017,0.02650679430784613
-0.03441599415495017,0.02666577962678312
-0.03441309415495017,0.02555288239423329
-0.03441019415495017,0.02587085303210467
-0.03440729415495017,0.02666577962678312
-0.03440439415495017,0.02555288239423329
-0.03440149415495017,0.0253938970752976
-0.03439859415495017,0.02642730164837959
-0.03439569415495017,0.02563237505370114
-0.03439279415495017,0.02531440441582976
-0.03438989415495017,0.02642730164837959
-0.03438699415495017,0.02595034569157252
-0.03438409415495017,0.02507592643742623
-0.03438119415495017,0.0262683163294439
-0.03437829415495017,0.02618882366997605
-0.03437539415495017,0.02547338973476545
-0.03437249415495017,0.02634780898891174
-0.03436959415495017,0.0262683163294439
-0.03436669415495017,0.02587085303210467
-0.03436379415495017,0.02674527228625096
-0.03436089415495017,0.02682476494571881
-0.03435799415495017,0.02563237505370114
-0.03435509415495017,0.0261093310105082
-0.03435219415495017,0.0261093310105082
-0.03434929415495017,0.0253938970752976
-0.03434639415495017,0.02642730164837959
-0.03434349415495017,0.02634780898891174
-0.03434059415495017,0.02579136037263683
-0.03433769415495017,0.02825563281614001
-0.03433479415495017,0.02777867685933294
-0.03433189415495017,0.02507592643742623
-0.03432899415495017,0.02547338973476545
-0.03432609415495017,0.02618882366997605
-0.03432319415495017,0.02547338973476545
-0.03432029415495016,0.0262683163294439
-0.03431739415495016,0.02658628696731527
-0.03431449415495016,0.02547338973476545
-0.03431159415495016,0.02618882366997605
-0.03430869415495016,0.02666577962678312
-0.03430579415495016,0.02618882366997605
-0.03430289415495016,0.02587085303210467
-0.03429999415495016,0.02666577962678312
-0.03429709415495016,0.02618882366997605
-0.03429419415495016,0.02507592643742811
-0.03429129415495016,0.02610933101050792
-0.03428839415495016,0.02595034569157093
-0.03428549415495016,0.02507592643742781
-0.03428259415495016,0.02595034569157281
-0.03427969415495016,0.02610933101050647
-0.03427679415495016,0.02515541909689523
-0.03427389415495017,0.02579136037263567
-0.03427099415495017,0.02626831632944303
-0.03426809415495017,0.02491694111849299
-0.03426519415495017,0.02531440441582904
-0.03426229415495017,0.02602983835103906
-0.03425939415495017,0.02523491175636336
-0.03425649415495017,0.02547338973476545
-0.03425359415495017,0.02666577962678312
-0.03425069415495017,0.02579136037263683
-0.03424779415495017,0.0261093310105082
-0.03424489415495017,0.02666577962678312
-0.03424199415495017,0.02650679430784743
-0.03423909415495017,0.02555288239423329
-0.03423619415495017,0.0262683163294439
-0.03423329415495017,0.02658628696731527
-0.03423039415495017,0.02507592643742623
-0.03422749415495017,0.02602983835104036
-0.03422459415495017,0.02666577962678312
-0.03422169415495017,0.02555288239423329
-0.03421879415495017,0.02531440441582976
-0.03421589415495017,0.02650679430784743
-0.03421299415495017,0.02817614015667217
-0.03421009415495017,0.02658628696731527
-0.03420719415495017,0.02579136037263683
-0.03420429415495017,0.0261093310105082
-0.03420139415495017,0.02563237505370114
-0.03419849415495017,0.0261093310105082
-0.03419559415495017,0.02690425760518665
-0.03419269415495017,0.02571186771316898
-0.03418979415495017,0.02650679430784743
-0.03418689415495017,0.02706324292412234
-0.03418399415495017,0.0262683163294439
-0.03418109415495017,0.02547338973476545
-0.03417819415495017,0.0262683163294439
-0.03417529415495017,0.02658628696731527
-0.03417239415495017,0.02499643377795838
-0.03416949415495017,0.02571186771316898
-0.03416659415495017,0.02618882366997605
-0.03416369415495017,0.02531440441582976
-0.03416079415495017,0.02475795579955485
-0.03415789415495016,0.02579136037263683
-0.03415499415495016,0.02579136037263683
-0.03415209415495016,0.02499643377795838
-0.03414919415495016,0.02587085303210467
-0.03414629415495016,0.02587085303210467
-0.03414339415495016,0.02483744845902269
-0.03414049415495016,0.02602983835104036
-0.03413759415495016,0.02595034569157252
-0.03413469415495016,0.02531440441582976
-0.03413179415495016,0.02698375026465464
-0.03412889415495016,0.02706324292411858
-0.03412599415495016,0.02499643377796156
-0.03412309415495016,0.02674527228624981
-0.03412019415495016,0.02610933101050719
-0.03411729415495016,0.02555288239423503
-0.03411439415495017,0.02650679430784569
-0.03411149415495017,0.02547338973476733
-0.03410859415495017,0.02610933101050705
-0.03410569415495017,0.02658628696731441
-0.03410279415495017,0.02547338973476748
-0.03409989415495017,0.02547338973476545
-0.03409699415495017,0.02618882366997475
-0.03409409415495017,0.02547338973476545
-0.03409119415495017,0.0253938970752976
-0.03408829415495017,0.02785816951880079
-0.03408539415495017,0.02722222824305803
-0.03408249415495017,0.02571186771316898
-0.03407959415495017,0.02563237505370114
-0.03407669415495017,0.02579136037263683
-0.03407379415495017,0.02618882366997605
-0.03407089415495017,0.02690425760518665
-0.03406799415495017,0.02618882366997605
-0.03406509415495017,0.02587085303210467
-0.03406219415495017,0.02658628696731527
-0.03405929415495017,0.0262683163294439
-0.03405639415495017,0.02555288239423329
-0.03405349415495017,0.0262683163294439
-0.03405059415495017,0.02618882366997605
-0.03404769415495017,0.02483744845902269
-0.03404479415495017,0.02602983835104036
-0.03404189415495017,0.0261093310105082
-0.03403899415495017,0.02483744845902269
-0.03403609415495017,0.02563237505370114
-0.03403319415495017,0.0262683163294439
-0.03403029415495017,0.02491694111849053
-0.03402739415495017,0.02515541909689407
-0.03402449415495017,0.02595034569157252
-0.03402159415495017,0.02547338973476545
-0.03401869415495017,0.02563237505370114
-0.03401579415495017,0.02642730164837959
-0.03401289415495017,0.02563237505370114
-0.03400999415495017,0.02618882366997605
-0.03400709415495017,0.02658628696731527
-0.03400419415495017,0.02507592643742623
-0.03400129415495017,0.02579136037263683
-0.03399839415495017,0.0262683163294439
-0.03399549415495016,0.02515541909689407
-0.03399259415495016,0.0261093310105082
-0.03398969415495016,0.0261093310105082
-0.03398679415495016,0.02499643377795838
-0.03398389415495016,0.0261093310105082
-0.03398099415495016,0.02595034569157252
-0.03397809415495016,0.02475795579955485
-0.03397519415495016,0.02563237505370114
-0.03397229415495016,0.02547338973476386
-0.03396939415495016,0.02459897048062162
-0.03396649415495016,0.02595034569157512
-0.03396359415495016,0.02738121356199285
-0.03396069415495016,0.02690425760518607
-0.03395779415495016,0.02658628696731412
-0.03395489415495016,0.02595034569157223
-0.03395199415495017,0.02579136037263711
-0.03394909415495017,0.02602983835103993
-0.03394619415495017,0.02674527228624966
-0.03394329415495017,0.02587085303210626
-0.03394039415495017,0.02602983835104007
-0.03393749415495017,0.02682476494571736
-0.03393459415495017,0.02547338973476791
-0.03393169415495017,0.02571186771316898
-0.03392879415495017,0.02634780898891174
-0.03392589415495017,0.02531440441582976
-0.03392299415495017,0.02491694111849053
-0.03392009415495017,0.02587085303210467
-0.03391719415495017,0.02507592643742623
-0.03391429415495017,0.02499643377795838
-0.03391139415495017,0.02595034569157252
-0.03390849415495017,0.0253938970752976
-0.03390559415495017,0.02475795579955485
-0.03390269415495017,0.02602983835104036
-0.03389979415495017,0.02595034569157252
-0.03389689415495017,0.02515541909689407
-0.03389399415495017,0.0261093310105082
-0.03389109415495017,0.02634780898891174
-0.03388819415495017,0.02547338973476545
-0.03388529415495017,0.02634780898891174
-0.03388239415495017,0.02634780898891174
-0.03387949415495017,0.02507592643742623
-0.03387659415495017,0.02602983835104036
-0.03387369415495017,0.02602983835104036
-0.03387079415495017,0.02523491175636191
-0.03386789415495017,0.02595034569157252
-0.03386499415495017,0.0262683163294439
-0.03386209415495017,0.02499643377795838
-0.03385919415495017,0.0253938970752976
-0.03385629415495017,0.0262683163294439
-0.03385339415495017,0.02507592643742623
-0.03385049415495017,0.02555288239423329
-0.03384759415495017,0.0261093310105082
-0.03384469415495017,0.02507592643742623
-0.03384179415495017,0.0253938970752976
-0.03383889415495017,0.02817614015667217
-0.03383599415495016,0.0276991841998651
-0.03383309415495016,0.02650679430784743
-0.03383019415495016,0.02571186771316898
-0.03382729415495016,0.02595034569157252
-0.03382439415495016,0.02547338973476545
-0.03382149415495016,0.02650679430784743
-0.03381859415495016,0.0261093310105082
-0.03381569415495016,0.02547338973476545
-0.03381279415495016,0.02642730164837959
-0.03380989415495016,0.02618882366997403
-0.03380699415495016,0.02507592643742709
-0.03380409415495016,0.02555288239423402
-0.03380119415495016,0.0259503456915702
-0.03379829415495016,0.02467846314008772
-0.03379539415495016,0.02507592643742767
-0.03379249415495017,0.02587085303210323
-0.03378959415495017,0.02483744845902457
-0.03378669415495017,0.02515541909689349
-0.03378379415495017,0.02610933101050647
-0.03378089415495017,0.0253938970752989
-0.03377799415495017,0.0253938970752976
-0.03377509415495017,0.02626831632944231
-0.03377219415495017,0.02571186771316898
-0.03376929415495017,0.02531440441582976
-0.03376639415495017,0.0261093310105082
-0.03376349415495017,0.02579136037263683
-0.03376059415495017,0.024678463140087
-0.03375769415495017,0.02571186771316898
-0.03375479415495017,0.0261093310105082
-0.03375189415495017,0.02499643377795838
-0.03374899415495017,0.0253938970752976
-0.03374609415495017,0.0261093310105082
-0.03374319415495017,0.02499643377795838
-0.03374029415495017,0.0253938970752976
-0.03373739415495017,0.02595034569157252
-0.03373449415495017,0.02507592643742623
-0.03373159415495017,0.02555288239423329
-0.03372869415495017,0.02634780898891174
-0.03372579415495017,0.02547338973476545
-0.03372289415495017,0.02579136037263683
-0.03371999415495017,0.02706324292412234
-0.03371709415495017,0.0262683163294439
-0.03371419415495017,0.02777867685933294
-0.03371129415495017,0.02960700802709337
-0.03370839415495017,0.02817614015667217
-0.03370549415495017,0.02618882366997605
-0.03370259415495017,0.02809664749720433
-0.03369969415495017,0.02801715483773648
-0.03369679415495017,0.02785816951880079
-0.03369389415495017,0.0291300520702863
-0.03369099415495017,0.02881208143241493
-0.03368809415495017,0.02865309611347924
-0.03368519415495017,0.02952751536762553
-0.03368229415495017,0.02881208143241493
-0.03367939415495017,0.02809664749720433
-0.03367649415495017,0.02905055941081846
-0.03367359415495016,0.02936853004868984
-0.03367069415495016,0.02873258877294708
-0.03366779415495016,0.0291300520702863
-0.03366489415495016,0.02968650068656122
-0.03366199415495016,0.02897106675135062
-0.03365909415495016,0.02976599334602906
-0.03365619415495016,0.03040193462177182
-0.03365329415495016,0.02920954472975415
-0.03365039415495016,0.02984548600549763
-0.03364749415495016,0.03024294930283454
-0.03364459415495016,0.02936853004869056
-0.03364169415495016,0.02976599334603065
-0.03363879415495016,0.03064041260017348
-0.03363589415495016,0.02960700802709424
-0.03363299415495016,0.03008396398390059
-0.03363009415495017,0.03016345664336814
-0.03362719415495017,0.02976599334602979
-0.03362429415495017,0.02913005207028746
-0.03362139415495017,0.03008396398389871
-0.03361849415495017,0.02976599334602964
-0.03361559415495017,0.02928903738922286
-0.03361269415495017,0.03032244196230209
-0.03360979415495017,0.03016345664336829
-0.03360689415495017,0.02952751536762553
-0.03360399415495017,0.02992497866496475
-0.03360109415495017,0.03079939791911104
-0.03359819415495017,0.03032244196230397
-0.03359529415495017,0.02984548600549691
-0.03359239415495017,0.03056091994070751
-0.03358949415495017,0.03151483185432165
-0.03358659415495017,0.03151483185432165
-0.03358369415495017,0.03175330983272517
-0.03358079415495017,0.03056091994070751
-0.03357789415495017,0.02976599334602906
-0.03357499415495017,0.03064041260017536
-0.03357209415495017,0.03159432451378949
-0.03356919415495017,0.03016345664336829
-0.03356629415495017,0.0307199052596432
-0.03356339415495017,0.03111736855698242
-0.03356049415495017,0.03008396398390044
-0.03355759415495017,0.03008396398390044
-0.03355469415495017,0.0307199052596432
-0.03355179415495017,0.0300044713244326
-0.03354889415495017,0.0300044713244326
-0.03354599415495017,0.03056091994070751
-0.03354309415495017,0.03016345664336829
-0.03354019415495017,0.03048142728123967
-0.03353729415495017,0.03095838323804673
-0.03353439415495017,0.0300044713244326
-0.03353149415495017,0.03024294930283613
-0.03352859415495017,0.03095838323804673
-0.03352569415495017,0.03032244196230397
-0.03352279415495017,0.02952751536762553
-0.03351989415495017,0.03040193462177182
-0.03351699415495017,0.03048142728123967
-0.03351409415495017,0.02960700802709337
-0.03351119415495016,0.03048142728123967
-0.03350829415495016,0.0307199052596432
-0.03350539415495016,0.02976599334602906
-0.03350249415495016,0.02984548600549691
-0.03349959415495016,0.0307199052596432
-0.03349669415495016,0.02992497866496475
-0.03349379415495016,0.02968650068656122
-0.03349089415495016,0.03008396398390044
-0.03348799415495016,0.03024294930283469
-0.03348509415495016,0.02944802270815927
-0.03348219415495016,0.03032244196230455
-0.03347929415495016,0.0306404126001742
-0.03347639415495016,0.03000447132443303
-0.03347349415495016,0.03024294930283555
-0.03347059415495017,0.02992497866496533
-0.03346769415495017,0.03000447132443245
-0.03346479415495017,0.0308788905785773
-0.03346189415495017,0.0322302657895298
-0.03345899415495017,0.03087889057858135
