-20250405-BKP/real-diodes-in-T10-L10-D00/1kHz1V/scope.csv

#Digilent WaveForms Oscilloscope Acquisition
#Device Name: Discovery3
#Serial Number: SN:210415BD5874
#Date Time: 2025-04-03 15:54:43.905.196.790
#Sample rate: 3.33333e+06Hz
#Samples: 32768
#Trigger: Source: Channel 1 Type: Edge Condition: Rising Level: 0 V Hyst.: Auto HoldOff: 0 s
#Channel 1: Range: 200 mV/div Offset: 0 V Sample Mode: Average
#Wavegen Channel 1: Running
#Mode: Simple
#Type: Sine
#Frequency: 1 kHz
#Period: 1 ms
#Amplitude: 1 V
#Offset: 0 V
#Symmetry: 50 %
#Phase: 0 °

Time (s),Channel 1 (V)
0.002654731700972295,0.03572794280611742
0.002655031700972295,0.03564845014664957
0.002655331700972295,0.03668185471973155
0.002655631700972295,0.03636388408186017
0.002655931700972295,0.03636388408186017
0.002656231700972295,0.03660236206026371
0.002656531700972295,0.03652286940079601
0.002656831700972295,0.03612540610345737
0.002657131700972295,0.03739728865493985
0.002657431700972295,0.03739728865494216
0.002657731700972296,0.03660236206026501
0.002658031700972296,0.03731779599547316
0.002658331700972296,0.03668185471973141
0.002658631700972296,0.03660236206026371
0.002658931700972296,0.0376357666333457
0.002659231700972296,0.03676134737919939
0.002659531700972296,0.03660236206026371
0.002659831700972295,0.03699982535760293
0.002660131700972295,0.03564845014664957
0.002660431700972295,0.03580743546558526
0.002660731700972295,0.03572794280611742
0.002661031700972295,0.03469453823303544
0.002661331700972295,0.03580743546558526
0.002661631700972295,0.03644337674132801
0.002661931700972295,0.03548946482771388
0.002662231700972295,0.03580743546558469
0.002662531700972295,0.03596642078452066
0.002662831700972295,0.03501250887090855
0.002663131700972296,0.03620489876292579
0.002663431700972296,0.03692033269813408
0.002663731700972296,0.03636388408186176
0.002664031700972296,0.0372383033360059
0.002664331700972296,0.03692033269813509
0.002664631700972296,0.03548946482771388
0.002664931700972296,0.03636388408186017
0.002665231700972296,0.03668185471973155
0.002665531700972295,0.03668185471973155
0.002665831700972295,0.03787424461174922
0.002666131700972295,0.03739728865494216
0.002666431700972295,0.03699982535760293
0.002666731700972295,0.03851018588749199
0.002667031700972295,0.03827170790908845
0.002667331700972295,0.03882815652536337
0.002667631700972295,0.03954359046057265
0.002667931700972295,0.03978206843897706
0.002668231700972295,0.039384605141639
0.002668531700972295,0.03970257577950908
0.002668831700972296,0.03970257577950807
0.002669131700972296,0.03882815652536409
0.002669431700972296,0.03922561982270143
0.002669731700972296,0.03858967854695983
0.002670031700972296,0.03811272259015276
0.002670331700972296,0.03779475195228138
0.002670631700972296,0.03787424461174922
0.002670931700972295,0.03715881067653862
0.002671231700972295,0.0376357666333457
0.002671531700972295,0.03787424461174922
0.002671831700972295,0.03731779599547431
0.002672131700972295,0.03723830333600647
0.002672431700972295,0.03684084003866724
0.002672731700972295,0.03684084003866724
0.002673031700972295,0.03747678131441
0.002673331700972295,0.03684084003866839
0.002673631700972295,0.03628439142239334
0.002673931700972295,0.03652286940079543
0.002674231700972296,0.03596642078452023
0.002674531700972296,0.03556895748718346
0.002674831700972296,0.03652286940079558
0.002675131700972296,0.0363638840818593
0.002675431700972296,0.03588692812505311
0.002675731700972296,0.03699982535760293
0.002676031700972296,0.03612540610345664
0.002676331700972296,0.03628439142239233
0.002676631700972295,0.0376357666333457
0.002676931700972295,0.03692033269813509
0.002677231700972295,0.03739728865494216
0.002677531700972295,0.03827170790908845
0.002677831700972295,0.03707931801707078
0.002678131700972295,0.03644337674132801
0.002678431700972295,0.03731779599547431
0.002678731700972295,0.03707931801707121
0.002679031700972295,0.03684084003866767
0.002679331700972295,0.03684084003866724
0.002679631700972295,0.03533047950878095
0.002679931700972296,0.03620489876292405
0.002680231700972296,0.03596642078451849
0.002680531700972296,0.03461504557357005
0.002680831700972296,0.03596642078452095
0.002681131700972296,0.03684084003866724
0.002681431700972296,0.03604591344398879
0.002681731700972296,0.03660236206026371
0.002682031700972295,0.03644337674132801
0.002682331700972295,0.03596642078452095
0.002682631700972295,0.03668185471973155
0.002682931700972295,0.03707931801707078
0.002683231700972295,0.03715881067653862
0.002683531700972295,0.03755627397387784
0.002683831700972295,0.03707931801707078
0.002684131700972295,0.03620489876292449
0.002684431700972295,0.03723830333600459
0.002684731700972295,0.03699982535760337
0.002685031700972295,0.03747678131440913
0.002685331700972296,0.03771525929281209
0.002685631700972296,0.03692033269813596
0.002685931700972296,0.03739728865494144
0.002686231700972296,0.03699982535760293
0.002686531700972296,0.03620489876292449
0.002686831700972296,0.03684084003866724
0.002687131700972296,0.03787424461174922
0.002687431700972296,0.03620489876292449
0.002687731700972295,0.03628439142239233
0.002688031700972295,0.03628439142239233
0.002688331700972295,0.03548946482771388
0.002688631700972295,0.03628439142239233
0.002688931700972295,0.03644337674132801
0.002689231700972295,0.03596642078452095
0.002689531700972295,0.03580743546558526
0.002689831700972295,0.03572794280611757
0.002690131700972295,0.03588692812505281
0.002690431700972295,0.03660236206026241
0.002690731700972295,0.03580743546558671
0.002691031700972296,0.03636388408186205
0.002691331700972296,0.03739728865493985
0.002691631700972296,0.03612540610345708
0.002691931700972296,0.03636388408186017
0.002692231700972296,0.03636388408186017
0.002692531700972296,0.03707931801707078
0.002692831700972296,0.03755627397387784
0.002693131700972295,0.03747678131441
0.002693431700972295,0.03668185471973155
0.002693731700972295,0.0376357666333457
0.002694031700972295,0.03723830333600647
0.002694331700972295,0.03715881067653862
0.002694631700972295,0.03771525929281354
0.002694931700972295,0.03731779599547431
0.002695231700972295,0.03747678131441
0.002695531700972295,0.03684084003866839
0.002695831700972295,0.03596642078452254
0.002696131700972295,0.03644337674132715
0.002696431700972296,0.03660236206026241
0.002696731700972296,0.0358869281250534
0.002697031700972296,0.03604591344398908
0.002697331700972296,0.03620489876292449
0.002697631700972296,0.03525098684931034
0.002697931700972296,0.03469453823303544
0.002698231700972296,0.03525098684931034
0.002698531700972296,0.03540997216824604
0.002698831700972295,0.03596642078452095
0.002699131700972295,0.03596642078452095
0.002699431700972295,0.03620489876292449
0.002699731700972295,0.03684084003866724
0.002700031700972295,0.03652286940079587
0.002700331700972295,0.03676134737919939
0.002700631700972295,0.03707931801707078
0.002700931700972295,0.03747678131440928
0.002701231700972295,0.03747678131441
0.002701531700972295,0.0370793180170715
0.002701831700972295,0.03644337674132917
0.002702131700972296,0.03699982535760481
0.002702431700972296,0.03803322993068261
0.002702731700972296,0.03676134737919997
0.002703031700972296,0.03707931801707078
0.002703331700972296,0.03684084003866724
0.002703631700972296,0.03604591344398879
0.002703931700972296,0.03668185471973155
0.002704231700972295,0.03684084003866724
0.002704531700972295,0.03668185471973155
0.002704831700972295,0.03723830333600647
0.002705131700972295,0.03636388408186017
0.002705431700972295,0.03596642078452095
0.002705731700972295,0.03588692812505311
0.002706031700972295,0.03572794280611742
0.002706331700972295,0.03620489876292449
0.002706631700972295,0.03660236206026299
0.002706931700972295,0.03588692812505441
0.002707231700972295,0.03620489876292391
0.002707531700972296,0.03580743546558584
0.002707831700972296,0.03612540610345708
0.002708131700972296,0.0363638840818622
0.002708431700972296,0.03747678131441
0.002708731700972296,0.03620489876292449
0.002709031700972296,0.0376357666333457
0.002709331700972296,0.03707931801707078
0.002709631700972296,0.03676134737919939
0.002709931700972295,0.03676134737919939
0.002710231700972295,0.03692033269813509
0.002710531700972295,0.03755627397387784
0.002710831700972295,0.03747678131441
0.002711131700972295,0.03715881067653862
0.002711431700972295,0.03692033269813509
0.002711731700972295,0.03731779599547431
0.002712031700972295,0.03692033269813581
0.002712331700972295,0.03739728865494129
0.002712631700972295,0.03739728865494216
0.002712931700972295,0.03699982535760366
0.002713231700972296,0.03692033269813408
0.002713531700972296,0.0363638840818593
0.002713831700972296,0.03588692812505412
0.002714131700972296,0.03644337674132801
0.002714431700972296,0.03564845014664957
0.002714731700972296,0.03628439142239233
0.002715031700972296,0.03668185471973155
0.002715331700972295,0.03644337674132801
0.002715631700972295,0.03604591344398879
0.002715931700972295,0.03628439142239233
0.002716231700972295,0.03660236206026371
0.002716531700972295,0.03723830333600647
0.002716831700972295,0.03787424461174922
0.002717131700972295,0.03660236206026371
0.002717431700972295,0.03723830333600647
0.002717731700972295,0.03715881067653876
0.002718031700972295,0.03684084003866781
0.002718331700972295,0.03755627397387654
0.002718631700972296,0.03803322993068333
0.002718931700972296,0.03715881067653905
0.002719231700972296,0.03739728865494085
0.002719531700972296,0.03668185471973155
0.002719831700972296,0.03684084003866724
0.002720131700972296,0.03747678131441
0.002720431700972296,0.03699982535760293
0.002720731700972296,0.03731779599547431
0.002721031700972295,0.0381922152496206
0.002721331700972295,0.03692033269813509
0.002721631700972295,0.03723830333600647
0.002721931700972295,0.03715881067653862
0.002722231700972295,0.03699982535760293
0.002722531700972295,0.0376357666333457
0.002722831700972295,0.03668185471973155
0.002723131700972295,0.03588692812505455
0.002723431700972295,0.03612540610345621
0.002723731700972295,0.03612540610345664
0.002724031700972295,0.03564845014665043
0.002724331700972296,0.03668185471972953
0.002724631700972296,0.03556895748718216
0.002724931700972296,0.03580743546558671
0.002725231700972296,0.03660236206026371
0.002725531700972296,0.03636388408186017
0.002725831700972296,0.03604591344398879
0.002726131700972296,0.03731779599547431
0.002726431700972295,0.03699982535760293
0.002726731700972295,0.03652286940079587
0.002727031700972295,0.03684084003866724
0.002727331700972295,0.03636388408186017
0.002727631700972295,0.03628439142239233
0.002727931700972295,0.03731779599547431
0.002728231700972295,0.03692033269813509
0.002728531700972295,0.03676134737919939
0.002728831700972295,0.0371588106765379
0.002729131700972295,0.03636388408186161
0.002729431700972295,0.03715881067653717
0.002729731700972296,0.03652286940079543
0.002730031700972296,0.03628439142239363
0.002730331700972296,0.0369998253576025
0.002730631700972296,0.03676134737919939
0.002730931700972296,0.03588692812505311
0.002731231700972296,0.03604591344398879
0.002731531700972296,0.03525098684931034
0.002731831700972296,0.03525098684931034
0.002732131700972295,0.0353304795087782
0.002732431700972295,0.03469453823303544
0.002732731700972295,0.03405859695729267
0.002733031700972295,0.03413808961676053
0.002733331700972295,0.03389961163835699
0.002733631700972295,0.03405859695729267
0.002733931700972295,0.03477403089250328
0.002734231700972295,0.03421758227622938
0.002734531700972295,0.03405859695729296
0.002734831700972295,0.03437656759516348
0.002735131700972296,0.03405859695729238
0.002735431700972296,0.03389961163835728
0.002735731700972296,0.03405859695729166
0.002736031700972296,0.03350214834101907
0.002736331700972296,0.03421758227622837
0.002736631700972296,0.03382011897888915
0.002736931700972296,0.03294569972474286
0.002737231700972296,0.03278671440580716
0.002737531700972295,0.032866207065275
0.002737831700972295,0.03207128047059656
0.002738131700972295,0.03238925110846794
0.002738431700972295,0.03238925110846794
0.002738731700972295,0.03207128047059656
0.002739031700972295,0.03087889057857889
0.002739331700972295,0.03024294930283613
0.002739631700972295,0.0291300520702863
0.002739931700972295,0.0294480227081571
0.002740231700972295,0.02897106675135148
0.002740531700972295,0.02833512547560901
0.002740831700972296,0.02754019888092826
0.002741131700972296,0.02690425760518405
0.002741431700972296,0.025473389734764
0.002741731700972296,0.024678463140087
0.002742031700972296,0.02356556590753717
0.002742331700972296,0.02308860995073011
0.002742631700972296,0.02221419069658382
0.002742931700972296,0.0209423081450983
0.002743231700972295,0.01998839623148416
0.002743531700972295,0.01943194761520925
0.002743831700972295,0.01903448431787003
0.002744131700972295,0.01816006506372373
0.002744431700972295,0.0172061531501096
0.002744731700972295,0.01609325591755977
0.002745031700972295,0.01394695411192796
0.002745331700972295,0.01291354953884786
0.002745631700972295,0.01203913028470128
0.002745931700972295,0.009574857841200988
0.002746231700972296,0.008700438587047322
0.002746531700972296,0.007110585397687679
0.002746831700972296,0.004010371678444772
0.002747131700972296,0.002579503808022699
0.002747431700972296,0.0006716799807978968
0.002747731700972296,-0.002110563100576668
0.002748031700972296,-0.003859401608869252
0.002748331700972296,-0.006164688733436749
0.002748631700972295,-0.009662365750021917
0.002748931700972295,-0.0121266381935251
0.002749231700972295,-0.01546532989117458
0.002749531700972295,-0.01880402158882406
0.002749831700972295,-0.02110930871339155
0.002750131700972295,-0.02524292700571948
0.002750431700972295,-0.02874060402230465
0.002750731700972295,-0.03176132508208275
0.002751031700972295,-0.03668986996908015
0.002751331700972295,-0.04082348826140952
0.002751631700972295,-0.04511609187267285
0.002751931700972296,-0.05076007069490558
0.002752231700972296,-0.05513216696563691
0.002752531700972296,-0.05942477057690398
0.002752831700972296,-0.06562519801538461
0.002753131700972296,-0.07071272822132667
0.002753431700972296,-0.07635670704354364
0.002753731700972296,-0.08414698767139242
0.002754031700972296,-0.08947299585573802
0.002754331700972295,-0.0963888572294405
0.002754631700972295,-0.1042586305167571
0.002754931700972295,-0.1106180432741847
0.002755231700972295,-0.1175339046478872
0.002755531700972295,-0.1269935311245607
0.002755831700972295,-0.1341478704766667
0.002756131700972295,-0.1432895263154689
0.002756431700972295,-0.1523516894947867
0.002756731700972295,-0.1602214627821055
0.002757031700972295,-0.1708734791507916
0.002757331700972296,-0.1807305689248402
0.002757631700972296,-0.1897927321041787
0.002757931700972296,-0.2011601824080769
0.002758231700972296,-0.2105403162252847
0.002758531700972296,-0.2211128399344889
0.002758831700972296,-0.2334342021520048
0.002759131700972296,-0.2439272332017603
0.002759431700972296,-0.2549767128677907
0.002759731700972295,-0.2682519869989208
0.002760031700972295,-0.278904003367612
0.002760331700972295,-0.2913843509040636
0.002760631700972295,-0.304500639716258
0.002760931700972295,-0.3165835239553704
0.002761231700972295,-0.3295408274486291
0.002761531700972295,-0.3440084914717768
0.002761831700972295,-0.3564093463487605
0.002762131700972295,-0.3706385323934789
0.002762431700972295,-0.3851856890760939
0.002762731700972295,-0.3984609632072263
0.002763031700972296,-0.4142800024413785
0.002763331700972296,-0.4291451297618654
0.002763631700972296,-0.4439307644228863
0.002763931700972296,-0.4596703109974908
0.002764231700972296,-0.4752508722531884
0.002764531700972296,-0.4906724481899503
0.002764831700972296,-0.5073659066781977
0.002765131700972295,-0.5234234238907023
0.002765431700972295,-0.5386860145085285
0.002765731700972295,-0.555856428953583
0.002766031700972295,-0.5726293801012982
0.002766331700972295,-0.5882099413569958
0.002766631700972295,-0.6049828925047109
0.002766931700972295,-0.620801931738812
0.002767231700972295,-0.6352695957619598
0.002767531700972295,-0.6479884212767919
0.002767831700972295,-0.6579250037102775
0.002768131700972295,-0.6649203577434531
0.002768431700972296,-0.6696104246520744
0.002768731700972296,-0.6727106383713167
0.002769031700972296,-0.6738235356038655
0.002769331700972296,-0.6743799842201391
0.002769631700972296,-0.6742209989012037
0.002769931700972296,-0.6742209989012037
0.002770231700972296,-0.6734260723065253
0.002770531700972296,-0.6719157117766362
0.002770831700972295,-0.6711207851819578
0.002771131700972295,-0.6702463659278115
0.002771431700972295,-0.6687360053979224
0.002771731700972295,-0.6672256448680334
0.002772031700972295,-0.6660332549760157
0.002772331700972295,-0.6651588357218694
0.002772631700972295,-0.6628535485973019
0.002772931700972295,-0.6616611587052843
0.002773231700972295,-0.6604687688132688
0.002773531700972295,-0.6582429743481709
0.002773831700972295,-0.6572095697750868
0.002774131700972296,-0.6562556578614671
0.002774431700972296,-0.6542683413747739
0.002774731700972296,-0.6537913854179643
0.002775031700972296,-0.6519630542502072
0.002775331700972296,-0.6496577671256397
0.002775631700972296,-0.6502937084013825
0.002775931700972296,-0.6482268992552185
0.002776231700972295,-0.6466370460658616
0.002776531700972295,-0.6470345093632008
0.002776831700972295,-0.6452856708549083
0.002777131700972295,-0.6435368323466156
0.002777431700972295,-0.6436163250060836
0.002777731700972295,-0.6416290085193874
0.002778031700972295,-0.6401186479894984
0.002778331700972295,-0.6391647360758842
0.002778631700972295,-0.6366209709729178
0.002778931700972295,-0.63534908842143
0.002779231700972295,-0.6353490884214277
0.002779531700972296,-0.6320103967237755
0.002779831700972296,-0.6305000361938887
0.002780131700972296,-0.6302615582154812
0.002780431700972296,-0.6278767784314487
0.002780731700972296,-0.627002359177304
0.002781031700972296,-0.6262074325826256
0.002781331700972296,-0.6238226527985902
0.002781631700972296,-0.622868740884976
0.002781931700972295,-0.6219943216308298
0.002782231700972295,-0.6196095418467944
0.002782531700972295,-0.6192120785494551
0.002782831700972295,-0.6173837473816948
0.002783131700972295,-0.6153169382355308
0.002783431700972295,-0.616270850149145
0.002783731700972295,-0.6144425189813845
0.002784031700972295,-0.6126141878136241
0.002784331700972295,-0.613170636429898
0.002784631700972295,-0.6105473786674649
0.002784931700972295,-0.6090370181375738
0.002785231700972296,-0.6093549887754377
0.002785531700972296,-0.6067317310130016
0.002785831700972296,-0.6056188337804543
0.002786131700972296,-0.6059368044183251
0.002786431700972296,-0.6030750686774827
0.002786731700972296,-0.6029160833585471
0.002787031700972296,-0.6025981127206756
0.002787331700972295,-0.5997363769798333
0.002787631700972295,-0.5987029724067513
0.002787931700972295,-0.5982260164499442
0.002788231700972295,-0.5958412366659088
0.002788531700972295,-0.5945693541144234
0.002788831700972295,-0.5937744275197449
0.002789131700972295,-0.5912306624167738
0.002789431700972295,-0.5906742138004989
0.002789731700972295,-0.5901972578436927
0.002790031700972295,-0.5879714633785962
0.002790331700972295,-0.5871765367839152
0.002790631700972296,-0.5861431322108275
0.002790931700972296,-0.5837583524267946
0.002791231700972296,-0.5828044405131801
0.002791531700972296,-0.5816120506211603
0.002791831700972296,-0.5792272708371293
0.002792131700972296,-0.578352851582983
0.002792431700972296,-0.5759680717989477
0.002792731700972296,-0.5742192332906551
0.002793031700972295,-0.5736627846743801
0.002793331700972295,-0.5726293801012982
0.002793631700972295,-0.5713574975498127
0.002793931700972295,-0.5715164828687483
0.002794231700972295,-0.5700061223388593
0.002794531700972295,-0.5690522104252451
0.002794831700972295,-0.5687342397873738
0.002795131700972295,-0.5670648939385521
0.002795431700972295,-0.5664289526628075
0.002795731700972295,-0.5659519967060002
0.002796031700972295,-0.5648390994734515
0.002796331700972296,-0.5629312756462201
0.002796631700972296,-0.5623748270299425
0.002796931700972296,-0.5603080178837807
