-20250405-BKP/synth-diodes-1f-1r-in-T10-L10-D10/1kHz5V/scope.csv

#Digilent WaveForms Oscilloscope Acquisition
#Device Name: Discovery3
#Serial Number: SN:210415BD5874
#Date Time: 2025-04-03 15:38:43.197.183.000
#Sample rate: 3.33333e+06Hz
#Samples: 32768
#Trigger: Source: Channel 1 Type: Edge Condition: Rising Level: 0 V Hyst.: Auto HoldOff: 0 s
#Channel 1: Range: 200 mV/div Offset: 0 V Sample Mode: Average
#Wavegen Channel 1: Running
#Mode: Simple
#Type: Sine
#Frequency: 1 kHz
#Period: 1 ms
#Amplitude: 5 V
#Offset: 0 V
#Symmetry: 50 %
#Phase: 0 °

Time (s),Channel 1 (V)
0.002654688225697571,-0.002190055760044513
0.00265498822569757,-0.002746504376319426
0.00265528822569757,-0.002905489695255115
0.00265558822569757,-0.003938894268337097
0.00265588822569757,-0.003064475014190805
0.00265618822569757,-0.00298498235472296
0.00265648822569757,-0.003541430970996861
0.00265678822569757,-0.002428533738450072
0.00265708822569757,-0.001872085122174146
0.00265738822569757,-0.001872085122173134
0.002657688225697571,-0.0007591878896227297
0.002657988225697571,-0.0004412172517510617
0.002658288225697571,3.573870505571745e-05
0.002658588225697571,0.0003537093429265179
0.002658888225697571,0.0009101579592014309
0.002659188225697571,0.00122812859707281
0.002659488225697571,0.001625591894412033
0.002659788225697571,0.002102547851219102
0.002660088225697571,0.001705084553879878
0.002660388225697571,0.001864069872815568
0.00266068822569757,0.002420518489090481
0.00266098822569757,0.002182040510686946
0.00266128822569757,0.002658996467494015
0.00266158822569757,0.003135952424301083
0.00266188822569757,0.003453923062172462
0.00266218822569757,0.003215445083769361
0.00266248822569757,0.003294937743236628
0.00266278822569757,0.003056459764833672
0.002663088225697571,0.00353341572163915
0.002663388225697571,0.002897474445898705
0.002663688225697571,0.00353341572164074
0.002663988225697571,0.003771893700043841
0.002664288225697571,0.003771893700043841
0.002664588225697571,0.003533415721640306
0.002664888225697571,0.004487327635254443
0.002665188225697571,0.004805298273125822
0.002665488225697571,0.004725805613657977
0.002665788225697571,0.005600224867804269
0.00266608822569757,0.006156673484079183
0.00266638822569757,0.005918195505675648
0.00266668822569757,0.00679261475982194
0.00266698822569757,0.004566820294722287
0.00266728822569757,-0.002190055760044513
0.00266758822569757,-0.009185409793202124
0.00266788822569757,-0.01641924180477556
0.00266818822569757,-0.02118880137285072
0.00266848822569757,-0.02381205913529351
0.002668788225697571,-0.02675328753561055
0.002669088225697571,-0.02786618476815966
0.002669388225697571,-0.02858161870337127
0.002669688225697571,-0.02985350125485448
0.002669988225697571,-0.03001248657379016
0.002670288225697571,-0.03001248657379016
0.002670588225697571,-0.0309663984874043
0.002670888225697571,-0.03033045721166154
0.002671188225697571,-0.03033045721166154
0.002671488225697571,-0.03080741316846861
0.00267178822569757,-0.03040994987112939
0.00267208822569757,-0.02905857466017603
0.00267238822569757,-0.03009197923325801
0.00267268822569757,-0.02945603795751525
0.00267298822569757,-0.02921755997911172
0.00267328822569757,-0.02985350125485332
0.00267358822569757,-0.02905857466017748
0.00267388822569757,-0.02937654529804683
0.002674188225697571,-0.028979082000705
0.002674488225697571,-0.02723024349241589
0.002674788225697571,-0.02738922881134941
0.002675088225697571,-0.02635582423826728
0.002675388225697571,-0.02524292700571948
0.002675688225697571,-0.02571988296252655
0.002675988225697571,-0.02484546370838026
0.002676288225697571,-0.02484546370838026
0.002676588225697571,-0.02460698572997672
0.002676888225697571,-0.0234940884974269
0.00267718822569757,-0.02309662520008767
0.00267748822569757,-0.02413002977316965
0.00267778822569757,-0.02333510317849121
0.00267808822569757,-0.02293763988115198
0.00267838822569757,-0.02325561051902336
0.00267868822569757,-0.02254017658381406
0.00267898822569757,-0.02293763988115126
0.00267928822569757,-0.02285814722168428
0.00267958822569757,-0.02301713254061954
0.002679888225697571,-0.02206322062700511
0.002680188225697571,-0.0217452499891333
0.002680488225697571,-0.02118880137286056
0.002680788225697571,-0.02182474264860216
0.002681088225697571,-0.02102981605392371
0.002681388225697571,-0.02174524998913431
0.002681688225697571,-0.02659430221667284
0.002681988225697571,-0.03438458284452163
0.002682288225697571,-0.04193638549396687
0.002682588225697571,-0.04734188633778032
0.00268288822569757,-0.04948818814341212
0.00268318822569757,-0.05234992388425452
0.00268348822569757,-0.05457571834935418
0.00268378822569757,-0.05457571834935418
0.00268408822569757,-0.05552963026296832
0.00268438822569757,-0.05592709356030683
0.00268468822569757,-0.05465521100882433
0.00268498822569757,-0.05537064494403132
0.002685288225697571,-0.05425774771148193
0.002685588225697571,-0.05378079175467776
0.002685888225697571,-0.0548936889872231
0.002686188225697571,-0.05354231377627219
0.002686488225697571,-0.0528268798410616
0.002686788225697571,-0.05298586515999729
0.002687088225697571,-0.05203195324638316
0.002687388225697571,-0.05179347526797962
0.002687688225697571,-0.05338332845733651
0.002687988225697571,-0.05163448994904393
0.00268828822569757,-0.05155499728957608
0.00268858822569757,-0.05234992388425452
0.00268888822569757,-0.05044210005702626
0.00268918822569757,-0.05012412941915488
0.00268948822569757,-0.05139601197064039
0.00268978822569757,-0.05012412941915719
0.00269008822569757,-0.05076007069489647
0.00269038822569757,-0.05052159271649454
0.00269068822569757,-0.0494086954839463
0.002690988225697571,-0.04948818814341226
0.002691288225697571,-0.04956768080287779
0.002691588225697571,-0.04837529091086373
0.002691888225697571,-0.04917021750554074
0.002692188225697571,-0.04948818814341212
0.002692488225697571,-0.04829579825139445
0.002692788225697571,-0.04789833495405522
0.002693088225697571,-0.04789833495405522
0.002693388225697571,-0.04662645240256971
0.002693688225697571,-0.04662645240256971
0.00269398822569757,-0.04646746708363401
0.00269428822569757,-0.04440065793747006
0.00269458822569757,-0.04455964325640575
0.00269488822569757,-0.04432116527800221
0.00269518822569757,-0.04312877538598454
0.00269548822569757,-0.04567254048895094
0.00269578822569757,-0.05083956335435609
0.00269608822569757,-0.0618095503609081
0.002696388225697571,-0.06785099248049004
0.002696688225697571,-0.07103069885920035
0.002696988225697571,-0.07230258141068602
0.002697288225697571,-0.07365395662163692
0.002697588225697571,-0.07500533183259028
0.002697888225697571,-0.07532330247046165
0.002698188225697571,-0.07587975108673657
0.002698488225697571,-0.07651569236247932
0.002698788225697571,-0.07595924374620441
0.002699088225697571,-0.07667467768141502
0.00269938822569757,-0.07643619970301148
0.00269968822569757,-0.07548228778939735
0.00269998822569757,-0.07580025842726873
0.00270028822569757,-0.07627721438407579
0.00270058822569757,-0.07532330247046165
0.00270088822569757,-0.07556178044886476
0.00270118822569757,-0.0750053318325913
0.00270148822569757,-0.07397192725951017
0.00270178822569757,-0.07452837587578219
0.002702088225697571,-0.07397192725950541
0.002702388225697571,-0.07238207407015212
0.002702688225697571,-0.07277953736748889
0.002702988225697571,-0.07182562545387648
0.002703288225697571,-0.06991780162664822
0.002703588225697571,-0.0716666401349408
0.002703888225697571,-0.07039475758345529
0.002704188225697571,-0.069520338329309
0.002704488225697571,-0.06983830896718037
0.002704788225697571,-0.06920236769143762
0.00270508822569757,-0.06824845577782347
0.00270538822569757,-0.06920236769143762
0.00270568822569757,-0.06808947045888779
0.00270598822569757,-0.06753302184261287
0.00270628822569757,-0.06880490439409839
0.00270658822569757,-0.06753302184261518
0.00270688822569757,-0.06705606588580668
0.00270718822569757,-0.0681689631183536
0.002707488225697571,-0.0666586025884657
0.002707788225697571,-0.06618164663166111
0.002708088225697571,-0.06705606588580348
0.002708388225697571,-0.06578418333432029
0.002708688225697571,-0.06546621269644891
0.002708988225697571,-0.06649961726953089
0.002709288225697571,-0.06498925673964184
0.002709588225697571,-0.0647507787612383
0.002709888225697571,-0.06594316865325597
0.002710188225697571,-0.06530722737751322
0.00271048822569757,-0.06999729428611606
0.00271078822569757,-0.07667467768141502
0.00271108822569757,-0.08096728129267863
0.00271138822569757,-0.08510089958500655
0.00271168822569757,-0.08740618670957405
0.00271198822569757,-0.08851908394212185
0.00271228822569757,-0.09090386372615487
0.00271258822569757,-0.09098335638562692
0.00271288822569757,-0.08994995181254696
0.002713188225697571,-0.0915398050019014
0.002713488225697571,-0.09122183436402945
0.002713788225697571,-0.09058589308828914
0.002714088225697571,-0.09130132702349844
0.002714388225697571,-0.09074487840722353
0.002714688225697571,-0.09026792245041647
0.002714988225697571,-0.09130132702349844
0.002715288225697571,-0.08955248851520586
0.002715588225697571,-0.08955248851520586
0.002715888225697571,-0.08963198117467371
0.00271618822569757,-0.08955248851520586
0.00271648822569757,-0.08923451787733448
0.00271678822569757,-0.08923451787733448
0.00271708822569757,-0.08851908394212388
0.00271738822569757,-0.08867806926105956
0.00271768822569757,-0.08836009862318878
0.00271798822569757,-0.08716770873117269
0.00271828822569757,-0.08692923075276741
0.002718588225697571,-0.08637278213649048
0.002718888225697571,-0.08549836288234591
0.002719188225697571,-0.08557785554181262
0.002719488225697571,-0.08502140692553871
0.002719788225697571,-0.08454445096873164
0.002720088225697571,-0.08343155373618182
0.002720388225697571,-0.08303409043884259
0.002720688225697571,-0.08255713448203553
0.002720988225697571,-0.08192119320629276
0.002721288225697571,-0.08064931065480725
0.00272158822569757,-0.08033134001693587
0.00272188822569757,-0.08009286203853234
0.00272218822569757,-0.07905945746545036
0.00272248822569757,-0.0791389501249182
0.00272278822569757,-0.07897996480598252
0.00272308822569757,-0.07874148682757941
0.00272338822569757,-0.07818503821130508
0.00272368822569757,-0.07754909693556246
0.00272398822569757,-0.07683366300035201
0.002724288225697571,-0.07746960427609621
0.002724588225697571,-0.07897996480599119
0.002724888225697571,-0.08374952437406606
0.002725188225697571,-0.09082437106669138
0.002725488225697571,-0.09615037925103698
0.002725788225697571,-0.1001250122244292
0.002726088225697571,-0.1025097920084646
0.002726388225697571,-0.1042586305167571
0.002726688225697571,-0.1056100057277105
0.002726988225697571,-0.1060869616845176
0.00272728822569757,-0.1069613809386638
0.00272758822569757,-0.1071203662575995
0.00272788822569757,-0.1064049323223889
0.00272818822569757,-0.1064844249818568
0.00272848822569757,-0.1060869616845176
0.00272878822569757,-0.1052920350898406
0.00272908822569757,-0.1051330497709037
0.00272938822569757,-0.1048945717925003
0.002729688225697571,-0.1037021819004809
0.002729988225697571,-0.1029867479652702
0.002730288225697571,-0.1021918213705917
0.002730588225697571,-0.1013968947759147
0.002730888225697571,-0.1008404461596398
0.002731188225697571,-0.1010789241380433
0.002731488225697571,-0.09933008562975076
0.002731788225697571,-0.09988653424602567
0.002732088225697571,-0.09925059297028292
0.002732388225697571,-0.09917110031081507
0.00273268822569757,-0.09845566637560446
0.00273298822569757,-0.09774023244039387
0.00273328822569757,-0.09734276914305465
0.00273358822569757,-0.0979787104187974
0.00273388822569757,-0.09742226180252249
0.00273418822569757,-0.09670682786731319
0.00273448822569757,-0.0973427691430535
0.00273478822569757,-0.09646834988890994
0.002735088225697571,-0.09599139393210085
0.002735388225697571,-0.09575291595369544
0.002735688225697571,-0.09448103340221209
0.002735988225697571,-0.09440154074274452
0.002736288225697571,-0.09448103340221223
0.002736588225697571,-0.0933681361696624
0.002736888225697571,-0.0935271214885981
0.002737188225697571,-0.09344762882913026
0.002737488225697571,-0.09273219489391965
0.002737788225697571,-0.09312965819125887
0.002738088225697571,-0.0933681361696624
0.00273838822569757,-0.09265270223445181
0.00273868822569757,-0.09289118021285533
0.00273898822569757,-0.09392458478593732
0.00273928822569757,-0.09734276914305465
0.00273958822569757,-0.1044176158356928
0.00273988822569757,-0.1094256533821579
0.00274018822569757,-0.1137977496528906
0.00274048822569757,-0.1162620220963972
0.002740788225697571,-0.1177723826262915
0.002741088225697571,-0.1181698459236317
0.002741388225697571,-0.1191237578372444
0.002741688225697571,-0.1192827431561798
0.002741988225697571,-0.1198391917724547
0.002742288225697571,-0.1199186844319225
0.002742588225697571,-0.1192032504967119
0.002742888225697571,-0.1202366550697939
0.002743188225697571,-0.1199981770913904
0.002743488225697571,-0.1199981770913904
0.00274378822569757,-0.1195212211345833
0.00274408822569757,-0.118646801880437
0.00274438822569757,-0.1180903532641621
0.00274468822569757,-0.1180108606046943
0.00274498822569757,-0.1167389780532088
0.00274528822569757,-0.1161825294369349
0.00274558822569757,-0.1143541982691767
0.00274588822569757,-0.114195212950238
0.002746188225697571,-0.1141157202907678
0.002746488225697571,-0.1130028230582179
0.002746788225697571,-0.111810433166203
0.002747088225697571,-0.1121284038040723
0.002747388225697571,-0.1113334772093953
0.002747688225697571,-0.1109360139120561
0.002747988225697571,-0.1110155065715239
0.002748288225697571,-0.1096641313605706
0.002748588225697571,-0.1088692047658921
0.002748888225697571,-0.109425653382167
0.002749188225697571,-0.1075178295549388
0.00274948822569757,-0.1070408735981317
0.00274978822569757,-0.1075178295549388
0.00275008822569757,-0.1063254396629211
0.00275038822569757,-0.1057689910466462
0.00275068822569757,-0.1063254396629211
0.00275098822569757,-0.1049740644519702
0.00275128822569757,-0.1048945717925
0.00275158822569757,-0.1050535571114353
0.002751888225697571,-0.1030662406247408
0.002752188225697571,-0.1037816745599499
0.002752488225697571,-0.1037021819004795
0.002752788225697571,-0.1021918213705932
0.002753088225697571,-0.1037021819004822
0.002753388225697571,-0.1070408735981317
0.002753688225697571,-0.1149901395449162
0.002753988225697571,-0.1234958541079755
0.002754288225697571,-0.1269935311245607
0.002754588225697571,-0.1281859210165784
0.00275488822569757,-0.1308091787790173
0.00275518822569757,-0.1315246127142279
0.00275548822569757,-0.1316835980331635
0.00275578822569757,-0.1326375099467777
0.00275608822569757,-0.1327170026062455
0.00275638822569757,-0.132319539308907
0.00275668822569757,-0.1327964952657125
0.00275698822569757,-0.1314451200547625
0.002757288225697571,-0.1313656273952922
0.002757588225697571,-0.1313656273952896
0.002757888225697571,-0.129934759524871
0.002758188225697571,-0.12993475952487
0.002758488225697571,-0.1293783109085961
0.002758788225697571,-0.1285038916544498
0.002759088225697571,-0.1282654136760462
0.002759388225697571,-0.1275499797408356
0.002759688225697571,-0.125801141232543
0.002759988225697571,-0.1259601265514787
0.002760288225697571,-0.125801141232543
0.00276058822569757,-0.1246882439999932
0.00276088822569757,-0.1247677366594611
0.00276118822569757,-0.1244497660215897
0.00276148822569757,-0.1236548394269112
0.00276178822569757,-0.1241317953837183
0.00276208822569757,-0.1246087513405245
0.00276238822569757,-0.1230983908106391
0.00276268822569757,-0.1234958541079748
0.002762988225697571,-0.1238933174053125
0.002763288225697571,-0.1226214348538285
0.002763588225697571,-0.1222239715564897
0.002763888225697571,-0.1220649862375544
0.002764188225697571,-0.1211905669834081
0.002764488225697571,-0.1213495523023437
0.002764788225697571,-0.1204751330481975
0.002765088225697571,-0.1202366550697939
0.002765388225697571,-0.1199186844319225
0.002765688225697571,-0.119680206453519
0.00276598822569757,-0.1187262945399049
0.00276628822569757,-0.1191237578372441
0.00276658822569757,-0.1180903532641621
0.00276688822569757,-0.117136441350548
0.00276718822569757,-0.1166594853937409
0.00276748822569757,-0.1164210074153378
0.00276778822569757,-0.1157850661395958
0.00276808822569757,-0.1184083239020287
0.002768388225697571,-0.1245292586810665
0.002768688225697571,-0.1294578035680708
0.002768988225697571,-0.1332734512225253
0.002769288225697571,-0.1359762016444298
0.002769588225697571,-0.1374070695148484
0.002769888225697571,-0.1390764153636731
0.002770188225697571,-0.1395533713204802
0.002770488225697571,-0.1395533713204802
0.002770788225697571,-0.1404277905746265
0.002771088225697571,-0.1405867758935622
0.002771388225697571,-0.1399508346178194
0.00277168822569757,-0.14066626855303
0.00277198822569757,-0.1394738786610123
0.00277228822569757,-0.139155908023141
0.00277258822569757,-0.1398713419583515
0.00277288822569757,-0.139155908023141
0.00277318822569757,-0.1379635181311255
0.00277348822569757,-0.1387584447258003
0.00277378822569757,-0.1370096062175123
0.002774088225697571,-0.136214679622833
0.002774388225697571,-0.137486562174313
0.002774688225697571,-0.1357377236660241
0.002774988225697571,-0.1359762016444272
0.002775288225697571,-0.1359762016444272
0.002775588225697571,-0.1338298998387953
0.002775888225697571,-0.1336709145198597
0.002776188225697571,-0.1329554805846491
0.002776488225697571,-0.1309681640979529
0.002776788225697571,-0.1312066420763565
0.00277708822569757,-0.1312066420763565
0.00277738822569757,-0.1292988182491282
0.00277768822569757,-0.1292988182491282
0.00277798822569757,-0.1286628769733854
0.00277828822569757,-0.1273909944218999
0.00277858822569757,-0.127629472400303
0.00277888822569757,-0.1268345458056264
0.00277918822569757,-0.1255626632541418
0.002779488225697571,-0.1261191118704118
0.002779788225697571,-0.1246882439999931
0.002780088225697571,-0.124608751340527
0.002780388225697571,-0.1254831705946692
0.002780688225697571,-0.1241317953837183
0.002780988225697571,-0.1235753467674434
0.002781288225697571,-0.1248472293189289
0.002781588225697571,-0.1229394054917006
0.002781888225697571,-0.1233368687890399
0.002782188225697571,-0.1258806338920109
0.002782488225697571,-0.1304912081411459
0.00278278822569757,-0.1365326502607021
0.00278308822569757,-0.1411432245098371
0.00278338822569757,-0.1414611951477084
0.00278368822569757,-0.1440049602506795
0.00278398822569757,-0.145276842802165
0.00278428822569757,-0.1449588721642942
0.00278458822569757,-0.1460717693968414
0.00278488822569757,-0.1463897400347142
0.002785188225697571,-0.1458332914184403
0.002785488225697571,-0.1460717693968443
0.002785788225697571,-0.1465487253536469
0.002786088225697571,-0.1445614088669544
0.002786388225697571,-0.1448793795048258
0.002786688225697571,-0.1428920630181297
0.002786988225697571,-0.1412227171693049
0.002787288225697571,-0.141699673126112
0.002787588225697571,-0.1409047465314335
0.002787888225697571,-0.139632863979948
0.00278818822569757,-0.1400303272772872
0.00278848822569757,-0.1385199667473982
0.00278878822569757,-0.1380430107905911
0.00278908822569757,-0.1382814887689947
0.00278938822569757,-0.1372480841959127
0.00278968822569757,-0.1367711282391065
0.00278998822569757,-0.1372480841959118
0.00279028822569757,-0.1353402603686879
0.002790588225697571,-0.13589670898496
0.002790888225697571,-0.1362941722822953
0.002791188225697571,-0.1345453337740054
0.002791488225697571,-0.1342273631361353
0.002791788225697571,-0.1346248264334738
0.002792088225697571,-0.1337504071793275
0.002792388225697571,-0.1337504071793275
0.002792688225697571,-0.1336709145198597
0.002792988225697571,-0.1329554805846491
0.002793288225697571,-0.1332734512225204
0.002793588225697571,-0.1326375099467777
0.00279388822569757,-0.1320015686710349
0.00279418822569757,-0.1312861347358243
0.00279448822569757,-0.1311271494168886
0.00279478822569757,-0.129934759524871
0.00279508822569757,-0.1295372962275325
0.00279538822569757,-0.1285038916544516
0.00279568822569757,-0.1277884577192405
0.00279598822569757,-0.1269140384650944
0.002796288225697571,-0.1273115017624334
0.002796588225697571,-0.1280269356976547
0.002796888225697571,-0.1346248264334885
