-20250405-BKP/synth-diodes-1f-1r-out/-bkp-20250402/100Hz200mV/scope.csv

#Digilent WaveForms Oscilloscope Acquisition
#Device Name: Discovery3
#Serial Number: SN:210415BD5874
#Date Time: 2025-04-01 16:48:33.683.544.930
#Sample rate: 299401Hz
#Samples: 32768
#Trigger: Source: Channel 1 Type: Edge Condition: Rising Level: 0 V Hyst.: Auto HoldOff: 0 s
#Channel 1: Range: 50 mV/div Offset: 0 V Sample Mode: Average
#Wavegen Channel 1: Running
#Mode: Simple
#Type: Sine
#Frequency: 100 Hz
#Period: 10 ms
#Amplitude: 200 mV
#Offset: 0 V
#Symmetry: 50 %
#Phase: 0 °

Time (s),Channel 1 (V)
-0.05472024769230769,-0.006800630009179506
-0.05471690769230769,-0.00870845383640778
-0.05471356769230769,-0.008231497879600711
-0.05471022769230769,-0.01101374096097528
-0.05470688769230769,-0.009662365750021917
-0.05470354769230769,-0.007993019901197176
-0.05470020769230769,-0.009900843728425451
-0.05469686769230769,-0.01196765287458941
-0.05469352769230769,-0.01204714553405726
-0.05469018769230769,-0.01013932170682898
-0.05468684769230769,-0.008310990539068556
-0.05468350769230769,-0.008787946495875625
-0.05468016769230769,-0.01045729234469646
-0.05467682769230769,-0.008310990539068556
-0.05467348769230769,-0.008072512560665022
-0.05467014769230769,-0.009821351068957606
-0.05466680769230769,-0.007436571284922264
-0.05466346769230769,-0.007754541922793643
-0.05466012769230769,-0.007993019901197176
-0.05465678769230769,-0.008310990539068556
-0.05465344769230769,-0.01061627766363605
-0.05465010769230769,-0.008787946495875625
-0.05464676769230769,-0.008946931814811314
-0.05464342769230769,-0.009264902452682114
-0.05464008769230769,-0.008469975858004245
-0.05463674769230769,-0.009741858409489761
-0.05463340769230769,-0.007516063944391122
-0.05463006769230769,-0.008072512560665022
-0.05462672769230769,-0.008867439155343469
-0.05462338769230769,-0.006800630009179506
-0.05462004769230769,-0.008152005220132867
-0.05461670769230769,-0.008549468517472091
-0.05461336769230769,-0.007118600647050885
-0.05461002769230769,-0.009105917133747003
-0.05460668769230769,-0.007039107987583041
-0.05460334769230769,-0.007675049263325798
-0.05460000769230769,-0.009582873090554072
-0.05459666769230769,-0.00846997585800627
-0.05459332769230769,-0.009980336387893295
-0.05458998769230769,-0.01252410149086433
-0.05458664769230769,-0.008946931814813772
-0.05458330769230769,-0.01029830702576467
-0.05457996769230769,-0.009264902452682692
-0.05457662769230769,-0.009264902452682692
-0.05457328769230769,-0.01244460883139648
-0.05456994769230769,-0.01204714553405726
-0.05456660769230769,-0.01101374096097528
-0.05456326769230769,-0.009900843728425451
-0.05455992769230769,-0.009344395112150537
-0.05455658769230769,-0.01117272627991097
-0.05455324769230769,-0.0106957703231039
-0.05454990769230769,-0.009503380431088395
-0.05454656769230769,-0.01053678500416821
-0.05454322769230769,-0.008946931814811314
-0.05453988769230769,-0.009423887771618383
-0.05453654769230769,-0.0106957703231039
-0.05453320769230769,-0.01093424830150743
-0.05452986769230769,-0.0121266381935251
-0.05452652769230769,-0.009582873090554072
-0.05452318769230769,-0.01045729234470036
-0.05451984769230769,-0.01093424830150743
-0.05451650769230769,-0.009503380431086226
-0.05451316769230769,-0.009980336387892428
-0.05450982769230769,-0.009344395112150537
-0.05450648769230769,-0.008787946495875625
-0.05450314769230769,-0.01029830702576222
-0.05449980769230769,-0.008946931814811314
-0.05449646769230769,-0.007754541922793643
-0.05449312769230769,-0.009503380431086226
-0.05448978769230769,-0.01021881436629683
-0.05448644769230769,-0.01284207212873571
-0.05448310769230769,-0.01379598404234984
-0.05447976769230769,-0.01308055010713924
-0.05447642769230769,-0.01498837393436751
-0.05447308769230769,-0.01530634457223889
-0.05446974769230769,-0.01419344733968906
-0.05446640769230769,-0.01554482255063997
-0.05446306769230769,-0.01467040329649613
-0.05445972769230769,-0.01490888127489967
-0.05445638769230769,-0.01514735925329973
-0.05445304769230769,-0.01323953542607493
-0.05444970769230769,-0.01498837393436751
-0.05444636769230769,-0.01808858765361345
-0.05444302769230769,-0.01586279318851381
-0.05443968769230769,-0.01427293999915691
-0.05443634769230769,-0.01395496936128553
-0.05443300769230769,-0.01490888127489967
-0.05442966769230769,-0.01578330052904596
-0.05442632769230769,-0.01316004276660708
-0.05442298769230769,-0.0151473592533032
-0.05441964769230769,-0.0147498959559647
-0.05441630769230769,-0.01506786659383536
-0.05441296769230769,-0.01626025648585303
-0.05440962769230769,-0.01459091063702973
-0.05440628769230769,-0.01538583723170674
-0.05440294769230769,-0.01490888127489967
-0.05439960769230769,-0.01316004276660708
-0.05439626769230769,-0.01459091063702829
-0.05439292769230769,-0.01411395468022122
-0.05438958769230769,-0.01284207212873571
-0.05438624769230769,-0.01379598404234984
-0.05438290769230769,-0.01292156478820355
-0.05437956769230769,-0.01268308680980001
-0.05437622769230769,-0.01355750606394631
-0.05437288769230769,-0.01220613085299584
-0.05436954769230769,-0.01379598404234984
-0.05436620769230769,-0.01331902808554277
-0.05436286769230769,-0.01339852074501062
-0.05435952769230769,-0.01459091063702829
-0.05435618769230769,-0.01435243265862475
-0.05435284769230769,-0.01602177850744949
-0.05434950769230769,-0.01626025648585303
-0.05434616769230769,-0.01379598404234984
-0.05434282769230769,-0.01459091063702829
-0.05433948769230769,-0.01427293999915691
-0.05433614769230769,-0.01403446202075381
-0.05433280769230769,-0.01427293999915691
-0.05432946769230769,-0.01180866755565372
-0.05432612769230769,-0.01323953542608751
-0.05432278769230769,-0.02015539679977742
-0.05431944769230769,-0.0197579335024382
-0.05431610769230769,-0.0188835142482919
-0.05431276769230769,-0.01753213903733854
-0.05430942769230769,-0.01729366105893501
-0.05430608769230769,-0.01904249956722759
-0.05430274769230769,-0.01785010967520992
-0.05429940769230769,-0.01864503626988837
-0.05429606769230769,-0.02110930871339155
-0.05429272769230769,-0.02015539679977742
-0.05428938769230769,-0.01888351424829422
-0.05428604769230769,-0.02023488945924526
-0.05428270769230769,-0.01808858765361345
-0.05427936769230769,-0.01928097754563012
-0.05427602769230769,-0.01872452892935621
-0.05427268769230769,-0.0167372124426601
-0.05426934769230769,-0.01832706563201699
-0.05426600769230769,-0.01737315371840285
-0.05426266769230769,-0.01649873446425656
-0.05425932769230769,-0.01792960233467777
-0.05425598769230769,-0.01626025648585303
-0.05425264769230769,-0.01713467573999932
-0.05424930769230769,-0.01721416839946717
-0.05424596769230769,-0.01586279318851381
-0.05424262769230769,-0.01785010967520631
-0.05423928769230769,-0.01832706563201699
-0.05423594769230769,-0.01808858765361345
-0.05423260769230769,-0.02007590414030611
-0.05422926769230769,-0.0181680803130813
-0.05422592769230769,-0.01785010967520992
-0.05422258769230769,-0.02317611785955552
-0.05421924769230769,-0.02126829403232725
-0.05421590769230769,-0.02269916190274845
-0.05421256769230769,-0.0211888013728594
-0.05420922769230769,-0.02182474264860216
-0.05420588769230769,-0.02238119126487707
-0.05420254769230769,-0.02071184541605233
-0.05419920769230769,-0.02269916190274845
-0.05419586769230769,-0.02540191232465097
-0.05419252769230769,-0.02309662520008767
-0.05418918769230769,-0.02190423530807
-0.05418584769230769,-0.02214271328647354
-0.05418250769230769,-0.02317611785955552
-0.05417916769230769,-0.02444800041104103
-0.05417582769230769,-0.02397104445423397
-0.05417248769230769,-0.02500444902731595
-0.05416914769230769,-0.02460698572997672
-0.05416580769230769,-0.02309662520008767
-0.05416246769230769,-0.02381205913529828
-0.05415912769230769,-0.02357358115689517
-0.05415578769230769,-0.02198372796753785
-0.05415244769230769,-0.02277865456221629
-0.05414910769230769,-0.02174524998913301
-0.05414576769230769,-0.02102981605392371
-0.05414242769230769,-0.02261966924328061
-0.05413908769230769,-0.02063235275658449
-0.05413574769230769,-0.02087083073498802
-0.05413240769230769,-0.02293763988115198
-0.05412906769230769,-0.02079133807552018
-0.05412572769230769,-0.02150677201073078
-0.05412238769230769,-0.02254017658381276
-0.05411904769230769,-0.02190423530807
-0.05411570769230769,-0.02715075083294775
-0.05411236769230769,-0.02746872147081855
-0.05410902769230769,-0.02595836094093008
-0.05410568769230769,-0.02770719944922267
-0.05410234769230769,-0.02595836094093167
-0.05409900769230769,-0.02683278019507638
-0.05409566769230769,-0.02619683891933362
-0.05409232769230769,-0.02556089764359086
-0.05408898769230769,-0.0272302434924156
-0.05408564769230769,-0.02715075083294775
-0.05408230769230769,-0.02556089764359086
-0.05407896769230769,-0.02699176551401206
-0.05407562769230769,-0.02500444902731595
-0.05407228769230769,-0.02969451593591878
-0.05406894769230769,-0.02993299391432232
-0.05406560769230769,-0.02595836094093731
-0.05406226769230769,-0.02802517008709405
-0.05405892769230769,-0.03033045721166154
-0.05405558769230769,-0.02842263338443327
-0.05405224769230769,-0.02897908200070818
-0.05404890769230769,-0.02913806731964387
-0.05404556769230769,-0.03104589114687215
-0.05404222769230769,-0.03335117827143964
-0.05403888769230769,-0.03176132508208275
-0.05403554769230769,-0.03231777369835766
-0.05403220769230769,-0.03295371497410042
-0.05402886769230769,-0.03040994987112939
-0.05402552769230769,-0.03136386178474353
-0.05402218769230769,-0.02985350125485448
-0.05401884769230769,-0.0302509645521963
-0.05401550769230769,-0.03168183242261491
-0.05401216769230769,-0.02969451593591878
-0.05400882769230769,-0.03080741316846861
-0.05400548769230769,-0.0323972663578255
-0.05400214769230769,-0.03080741316846861
-0.05399880769230769,-0.03223828103888982
-0.05399546769230769,-0.03295371497410042
-0.05399212769230769,-0.03207929571995413
-0.05398878769230769,-0.03374864156877887
-0.05398544769230769,-0.03104589114687215
-0.05398210769230769,-0.03271523699569384
-0.05397876769230769,-0.03319219295250395
-0.05397542769230769,-0.03112538380633999
-0.05397208769230769,-0.03215878837942168
-0.05396874769230769,-0.03199980306048628
-0.05396540769230769,-0.03072792050900077
-0.05396206769230769,-0.03207929571995413
-0.05395872769230769,-0.03017147189272585
-0.05395538769230769,-0.03048944253059723
-0.05395204769230769,-0.03287422231463258
-0.05394870769230769,-0.03184081774155059
-0.05394536769230769,-0.03613342135281421
-0.05394202769230769,-0.034702553482393
-0.05393868769230769,-0.03303320763356826
-0.05393534769230769,-0.03549748007706696
-0.05393200769230769,-0.03351016359037533
-0.05392866769230769,-0.0331127002930361
-0.05392532769230769,-0.0334306709309059
-0.05392198769230769,-0.0325562516767612
-0.05391864769230769,-0.03319219295250395
-0.05391530769230769,-0.03168183242261491
-0.05391196769230769,-0.0309663984874043
-0.05390862769230769,-0.03271523699569688
-0.05390528769230769,-0.03072792050900077
-0.05390194769230769,-0.0302509645521937
-0.05389860769230769,-0.03184081774155059
-0.05389526769230769,-0.03017147189272585
-0.05389192769230769,-0.03136386178474353
-0.05388858769230769,-0.03144335444421122
-0.05388524769230769,-0.03088690582793645
-0.05388190769230769,-0.03422559752558593
-0.05387856769230769,-0.03422559752558593
-0.05387522769230769,-0.03192031040101843
-0.05387188769230769,-0.03358965624984317
-0.05386854769230769,-0.03247675901729336
-0.05386520769230769,-0.0331127002930361
-0.05386186769230769,-0.03398711954718239
-0.05385852769230769,-0.03104589114687215
-0.05385518769230769,-0.0331127002930361
-0.05385184769230769,-0.03732581124483188
-0.05384850769230769,-0.03581545071494283
-0.05384516769230769,-0.03645139199068559
-0.05384182769230769,-0.0352590020986698
-0.05383848769230769,-0.03629240667174989
-0.05383514769230769,-0.03661037730962127
-0.05383180769230769,-0.03430509018505377
-0.05382846769230769,-0.03597443603387852
-0.05382512769230769,-0.03732581124483188
-0.05382178769230769,-0.04010805432620644
-0.05381844769230769,-0.0407439956019492
-0.05381510769230769,-0.03748479656376756
-0.05381176769230769,-0.03764378188270326
-0.05380842769230769,-0.03907464975312445
-0.05380508769230769,-0.03676936262856116
-0.05380174769230769,-0.03740530390429972
-0.05379840769230769,-0.0377232745421711
-0.05379506769230769,-0.03629240667175018
-0.05379172769230769,-0.03645139199068559
-0.05378838769230769,-0.0354179874176036
-0.05378504769230769,-0.03581545071494283
-0.05378170769230769,-0.03637189933121775
-0.05377836769230769,-0.03398711954718239
-0.05377502769230769,-0.03478204614186085
-0.05377168769230769,-0.0355769727365393
-0.05376834769230769,-0.0355769727365393
-0.05376500769230769,-0.03724631858536404
-0.05376166769230769,-0.03668986996908911
-0.05375832769230769,-0.03716682592589533
-0.05375498769230769,-0.03812073783951032
-0.05375164769230769,-0.0354179874176036
-0.05374830769230769,-0.03629240667175235
-0.05374496769230769,-0.03764378188270326
-0.05374162769230769,-0.03597443603387852
-0.05373828769230769,-0.0370078406069605
-0.05373494769230769,-0.03517950943920008
-0.05373160769230769,-0.034702553482393
-0.05372826769230769,-0.03684885528802481
-0.05372492769230769,-0.03478204614186085
-0.05372158769230769,-0.03462306082292516
-0.05371824769230769,-0.03597443603387852
-0.05371490769230769,-0.03406661220665025
-0.05371156769230769,-0.03573595805547194
-0.05370822769230769,-0.03661037730962127
-0.05370488769230769,-0.03613342135281421
-0.05370154769230769,-0.03915414241259231
-0.05369820769230769,-0.03963109836939938
-0.05369486769230769,-0.04042602496407782
-0.05369152769230769,-0.0400285616667386
-0.05368818769230769,-0.03748479656376756
-0.05368484769230769,-0.03796175252057464
-0.05368150769230769,-0.03804124518004248
-0.05367816769230769,-0.03653088465015343
-0.05367482769230769,-0.03708733326642732
-0.05367148769230769,-0.03796175252057464
-0.05366814769230769,-0.03621291401228205
-0.05366480769230769,-0.03637189933121717
-0.05366146769230769,-0.03605392869334637
-0.05365812769230769,-0.03525900209866792
-0.05365478769230769,-0.03573595805547498
-0.05365144769230769,-0.0348615388013287
-0.05364810769230769,-0.03605392869334637
-0.05364476769230769,-0.03859769379631739
-0.05364142769230769,-0.03676936262855697
-0.05363808769230769,-0.0370078406069605
-0.05363474769230769,-0.03708733326642834
-0.05363140769230769,-0.03637189933121775
-0.05362806769230769,-0.03708733326642703
-0.05362472769230769,-0.03510001677973222
-0.05362138769230769,-0.03621291401228205
-0.05361804769230769,-0.03708733326642443
-0.05361470769230769,-0.03494103146079654
-0.05361136769230769,-0.03462306082292516
-0.05360802769230769,-0.03430509018505377
-0.05360468769230769,-0.03414610486611809
-0.05360134769230769,-0.03597443603387852
-0.05359800769230769,-0.03351016359037533
-0.05359466769230769,-0.03438458284452163
-0.05359132769230769,-0.03716682592589619
-0.05358798769230769,-0.03756428922323542
-0.05358464769230769,-0.0370078406069605
-0.05358130769230769,-0.0382797231584437
-0.05357796769230769,-0.03684885528802481
-0.05357462769230769,-0.03812073783951032
-0.05357128769230769,-0.04090298092088229
-0.05356794769230769,-0.03947211305046369
-0.05356460769230769,-0.0370078406069605
-0.05356126769230769,-0.03740530390429972
-0.05355792769230769,-0.03637189933121775
-0.05355458769230769,-0.0370078406069605
-0.05355124769230769,-0.0355769727365393
-0.05354790769230769,-0.03661037730962127
-0.05354456769230769,-0.03605392869334637
-0.05354122769230769,-0.03358965624984317
-0.05353788769230769,-0.03549748007707144
-0.05353454769230769,-0.03517950943920022
-0.05353120769230769,-0.03525900209866792
-0.05352786769230769,-0.03645139199068559
-0.05352452769230769,-0.03629240667174989
-0.05352118769230769,-0.03732581124483188
-0.05351784769230769,-0.03724631858536404
-0.05351450769230769,-0.03478204614186085
-0.05351116769230769,-0.03637189933121775
-0.05350782769230769,-0.03621291401228205
-0.05350448769230769,-0.03565646539600714
-0.05350114769230769,-0.0354179874176036
-0.05349780769230769,-0.0342255975255881
-0.05349446769230769,-0.03494103146079654
-0.05349112769230769,-0.03589494337441067
-0.05348778769230769,-0.03311270029303726
-0.05348444769230769,-0.03374864156877887
-0.05348110769230769,-0.03533849475813576
-0.05347776769230769,-0.03374864156877887
-0.05347442769230769,-0.03462306082292516
-0.05347108769230769,-0.03494103146079654
-0.05346774769230769,-0.03525900209866792
-0.05346440769230769,-0.03820023049897817
-0.05346106769230769,-0.03621291401228205
-0.05345772769230769,-0.03637189933121775
-0.05345438769230769,-0.03653088465015343
-0.05345104769230769,-0.03589494337441183
-0.05344770769230769,-0.03923363507206015
-0.05344436769230769,-0.03867718645578523
-0.05344102769230769,-0.03653088465015459
-0.05343768769230769,-0.03716682592589619
-0.05343434769230769,-0.03613342135281421
-0.05343100769230769,-0.03716682592589619
-0.05342766769230769,-0.03605392869334637
-0.05342432769230769,-0.03661037730962127
-0.05342098769230769,-0.03740530390429972
-0.05341764769230769,-0.03430509018505377
-0.05341430769230769,-0.03494103146079654
-0.05341096769230769,-0.03748479656376756
-0.05340762769230769,-0.03502052412026438
-0.05340428769230769,-0.04193638549395429
-0.05340094769230769,-0.04225435613183826
-0.05339760769230769,-0.03986957634780292
-0.05339426769230769,-0.04241334145076989
-0.05339092769230769,-0.04018754698567428
-0.05338758769230769,-0.0407439956019492
-0.05338424769230769,-0.0430492827265167
-0.05338090769230769,-0.04042602496407782
-0.05337756769230769,-0.04066450294248136
-0.05337422769230769,-0.04082348826141705
-0.05337088769230769,-0.03867718645578523
-0.05336754769230769,-0.04106196623982059
-0.05336420769230769,-0.03891566443418877
-0.05336086769230769,-0.03788225986110678
-0.05335752769230769,-0.03979008368833375
-0.05335418769230769,-0.03907464975312445
-0.05335084769230769,-0.04066450294248136
-0.05334750769230769,-0.04137993687769195
-0.05334416769230769,-0.04098247358035273
-0.05334082769230769,-0.04209537081290256
-0.05333748769230769,-0.04066450294248136
-0.05333414769230769,-0.03986957634780292
-0.05333080769230769,-0.04082348826141705
-0.05332746769230769,-0.03931312773152799
-0.05332412769230769,-0.04098247358035273
-0.05332078769230769,-0.04328776070491604
-0.05331744769230769,-0.04130044421822411
-0.05331410769230769,-0.03971059102886722
-0.05331076769230769,-0.04559304782948397
-0.05330742769230769,-0.04352623868332377
-0.05330408769230769,-0.0446391359158736
-0.05330074769230769,-0.04368522400225945
-0.05329740769230769,-0.04408268729959867
-0.05329406769230769,-0.0444801505969379
-0.05329072769230769,-0.04344674602385593
-0.05328738769230769,-0.04575203314842342
-0.05328404769230769,-0.04734188633778032
-0.05328070769230769,-0.04384420932119515
-0.05327736769230769,-0.04455964325640575
-0.05327402769230769,-0.04360573134279334
-0.05327068769230769,-0.04368522400225945
-0.05326734769230769,-0.04495710655374498
-0.05326400769230769,-0.04153892219663112
-0.05326066769230769,-0.04344674602385593
-0.05325732769230769,-0.04360573134279161
-0.05325398769230769,-0.04225435613183826
-0.05325064769230769,-0.04392370198066299
-0.05324730769230769,-0.04137993687769195
-0.05324396769230769,-0.04265181942917748
-0.05324062769230769,-0.04440065793747006
-0.05323728769230769,-0.04153892219662765
-0.05323394769230769,-0.04384420932119515
-0.05323060769230769,-0.04511609187268066
-0.05322726769230769,-0.04440065793747136
-0.05322392769230769,-0.04575203314842342
-0.05322058769230769,-0.04527507719161634
-0.05321724769230769,-0.04408268729959867
-0.05321390769230769,-0.04543406251055204
-0.05321056769230769,-0.04273131208864532
-0.05320722769230769,-0.04392370198066299
-0.05320388769230769,-0.0446391359158736
-0.05320054769230769,-0.04360573134279161
-0.05319720769230769,-0.04694442304044109
-0.05319386769230769,-0.04583152580789127
-0.05319052769230769,-0.04273131208864532
-0.05318718769230769,-0.04408268729959867
-0.05318384769230769,-0.04328776070492023
-0.05318050769230769,-0.04463913591587374
-0.05317716769230769,-0.04471862857534144
-0.05317382769230769,-0.04455964325640575
