synth-diodes-in-2-1-T10-L10-D10/100Hz1V/scope.csv

#Digilent WaveForms Oscilloscope Acquisition
#Device Name: Discovery3
#Serial Number: SN:210415BD5874
#Date Time: 2025-04-03 18:12:04.965.510.750
#Sample rate: 344828Hz
#Samples: 32768
#Trigger: Source: Channel 1 Type: Edge Condition: Rising Level: 0 V Hyst.: Auto HoldOff: 0 s
#Channel 1: Range: 200 mV/div Offset: 0 V Sample Mode: Average
#Wavegen Channel 1: Running
#Mode: Simple
#Type: Sine
#Frequency: 100 Hz
#Period: 10 ms
#Amplitude: 1 V
#Offset: 0 V
#Symmetry: 50 %
#Phase: 0 °

Time (s),Channel 1 (V)
-0.03483838894495549,-0.05719897611179306
-0.03483548894495549,-0.05815288802540719
-0.03483258894495549,-0.05767593206860012
-0.03482968894495549,-0.05998121919316762
-0.03482678894495549,-0.06435331546389908
-0.03482388894495549,-0.06308143291241357
-0.03482098894495549,-0.0617300577014602
-0.03481808894495549,-0.06212752099879942
-0.03481518894495549,-0.06316092557188141
-0.03481228894495549,-0.06371737418815633
-0.03480938894495549,-0.06316092557188141
-0.03480648894495549,-0.06228650631773512
-0.03480358894495549,-0.06268396961507434
-0.03480068894495549,-0.06236599897720296
-0.03479778894495549,-0.06586367599378813
-0.03479488894495548,-0.06467128610177046
-0.03479198894495548,-0.06586367599378813
-0.03478908894495548,-0.06578418333432029
-0.03478618894495548,-0.0647507787612383
-0.03478328894495548,-0.06769200716154856
-0.03478038894495548,-0.06745352918314503
-0.03477748894495548,-0.06626113929112736
-0.03477458894495548,-0.06697657322633999
-0.03477168894495548,-0.06808947045889024
-0.03476878894495548,-0.0694408456698397
-0.03476588894495548,-0.06864591907516182
-0.03476298894495548,-0.06816896311835245
-0.03476008894495548,-0.06642012461006334
-0.03475718894495549,-0.06657910992899845
-0.03475428894495549,-0.06721505120474035
-0.03475138894495549,-0.0672945438642092
-0.03474848894495549,-0.06808947045888634
-0.03474558894495549,-0.06713555854527538
-0.03474268894495549,-0.06594316865325814
-0.03473978894495549,-0.07007678694557638
-0.03473688894495549,-0.06880490439409839
-0.03473398894495549,-0.06657910992899874
-0.03473108894495549,-0.06737403652367718
-0.03472818894495549,-0.06777149982101641
-0.03472528894495549,-0.0686459190751627
-0.03472238894495549,-0.06928186035090546
-0.03471948894495549,-0.06928186035090546
-0.03471658894495549,-0.06800997779941995
-0.03471368894495549,-0.06888439705356623
-0.03471078894495549,-0.07309750800536201
-0.03470788894495549,-0.07015627960505175
-0.03470498894495549,-0.06983830896718037
-0.03470208894495549,-0.06999729428611606
-0.03469918894495549,-0.06832794843729131
-0.03469628894495549,-0.06689708056687012
-0.03469338894495549,-0.07111019151866589
-0.03469048894495549,-0.06975881630771252
-0.03468758894495549,-0.07039475758345529
-0.03468468894495549,-0.07015627960505175
-0.03468178894495549,-0.07206410343228002
-0.03467888894495549,-0.07262055204855493
-0.03467598894495549,-0.07325649332429769
-0.03467308894495549,-0.07071272822132667
-0.03467018894495549,-0.06928186035090546
-0.03466728894495549,-0.07206410343228002
-0.03466438894495549,-0.07182562545387648
-0.03466148894495549,-0.0723820740701514
-0.03465858894495549,-0.07254105938908709
-0.03465568894495549,-0.07142816215653726
-0.03465278894495549,-0.07564127310833303
-0.03464988894495549,-0.07540279512992951
-0.03464698894495549,-0.07277953736749063
-0.03464408894495549,-0.07254105938908709
-0.03464118894495549,-0.07357446396216907
-0.03463828894495549,-0.07142816215653726
-0.03463538894495548,-0.07373344928110476
-0.03463248894495548,-0.0745283758757832
-0.03462958894495548,-0.07325649332429769
-0.03462668894495548,-0.0716666401349408
-0.03462378894495548,-0.07293852268642631
-0.03462088894495548,-0.07190511811334434
-0.03461798894495548,-0.07063323556185881
-0.03461508894495548,-0.07095120619972875
-0.03461218894495548,-0.07015627960505551
-0.03460928894495548,-0.07222308875121831
-0.03460638894495548,-0.0736539566216346
-0.03460348894495548,-0.07238207407015025
-0.03460058894495548,-0.07174613279441081
-0.03459768894495548,-0.07293852268642588
-0.03459478894495549,-0.07270004470802321
-0.03459188894495549,-0.07166664013494267
-0.03458898894495549,-0.07190511811334391
-0.03458608894495549,-0.07142816215653813
-0.03458318894495549,-0.07031526492398947
-0.03458028894495549,-0.07142816215653523
-0.03457738894495549,-0.07063323556185881
-0.03457448894495549,-0.06872541173463055
-0.03457158894495549,-0.06975881630771252
-0.03456868894495549,-0.06983830896718037
-0.03456578894495549,-0.069520338329309
-0.03456288894495549,-0.0723820740701514
-0.03455998894495549,-0.07190511811334434
-0.03455708894495549,-0.0700767869455839
-0.03455418894495549,-0.07142816215653726
-0.03455128894495549,-0.07349497130270123
-0.03454838894495549,-0.07206410343228002
-0.03454548894495549,-0.06808947045888779
-0.03454258894495549,-0.07039475758345529
-0.03453968894495549,-0.07111019151866589
-0.03453678894495549,-0.07222308875121571
-0.03453388894495549,-0.07405141991897614
-0.03453098894495549,-0.07389243460004045
-0.03452808894495549,-0.0716666401349408
-0.03452518894495549,-0.0716666401349408
-0.03452228894495549,-0.06737403652367718
-0.03451938894495549,-0.07103069885919804
-0.03451648894495549,-0.07484634651365459
-0.03451358894495549,-0.07357446396216907
-0.03451068894495549,-0.07285903002695847
-0.03450778894495549,-0.07182562545387648
-0.03450488894495549,-0.07285903002695847
-0.03450198894495549,-0.07246156672961925
-0.03449908894495549,-0.07079222088079451
-0.03449618894495549,-0.0716666401349408
-0.03449328894495549,-0.0716666401349408
-0.03449038894495549,-0.07031526492398744
-0.03448748894495549,-0.07118968417813373
-0.03448458894495549,-0.07111019151866589
-0.03448168894495549,-0.07015627960505175
-0.03447878894495549,-0.07285903002695847
-0.03447588894495549,-0.07532330247046165
-0.03447298894495548,-0.07301801534589415
-0.03447008894495548,-0.07365395662163692
-0.03446718894495548,-0.07349497130270123
-0.03446428894495548,-0.07230258141068356
-0.03446138894495548,-0.07333598598376553
-0.03445848894495548,-0.07285903002695847
-0.03445558894495548,-0.07158714747547296
-0.03445268894495548,-0.07230258141068342
-0.03444978894495548,-0.07222308875121368
-0.03444688894495548,-0.07111019151866733
-0.03444398894495548,-0.07190511811334231
-0.03444108894495548,-0.07079222088079437
-0.03443818894495548,-0.07071272822132869
-0.03443528894495549,-0.07182562545387446
-0.03443238894495549,-0.07055374290239329
-0.03442948894495549,-0.07023577226452017
-0.03442658894495549,-0.0729385226864214
-0.03442368894495549,-0.07270004470802321
-0.03442078894495549,-0.06983830896718557
-0.03441788894495549,-0.07436939055683928
-0.03441498894495549,-0.07484634651365459
-0.03441208894495549,-0.07317700066482985
-0.03440918894495549,-0.0739719272595083
-0.03440628894495549,-0.07413091257844398
-0.03440338894495549,-0.07309750800536201
-0.03440048894495549,-0.07365395662163692
-0.03439758894495549,-0.07357446396216907
-0.03439468894495549,-0.0716666401349408
-0.03439178894495549,-0.07230258141068356
-0.03438888894495549,-0.07262055204855493
-0.03438598894495549,-0.07087171354026235
-0.03438308894495549,-0.07118968417813373
-0.03438018894495549,-0.07190511811334434
-0.03437728894495549,-0.07047425024292313
-0.03437438894495549,-0.07150765481600511
-0.03437148894495549,-0.07190511811334434
-0.03436858894495549,-0.06983830896718037
-0.03436568894495549,-0.07071272822132667
-0.03436278894495549,-0.07230258141068356
-0.03435988894495549,-0.07492583917312243
-0.03435698894495549,-0.07508482449205812
-0.03435408894495549,-0.07508482449205812
-0.03435118894495549,-0.07373344928110476
-0.03434828894495549,-0.07373344928110476
-0.03434538894495549,-0.07516431715152597
-0.03434248894495549,-0.07762858959502915
-0.03433958894495549,-0.09010893713148077
-0.03433668894495549,-0.1075178295549388
-0.03433378894495549,-0.1246882439999932
-0.03433088894495549,-0.1413817024882406
-0.03432798894495549,-0.1613343600146696
-0.03432508894495549,-0.1811280322221629
-0.03432218894495549,-0.1986959099645566
-0.03431928894495549,-0.2185690748315178
-0.03431638894495549,-0.2397141222499645
-0.03431348894495549,-0.2556921468030013
-0.03431058894495548,-0.2568050440355512
-0.03430768894495548,-0.2538638156352409
-0.03430478894495548,-0.249730197342913
-0.03430188894495548,-0.24098600480145
-0.03429898894495548,-0.2246900096105419
-0.03429608894495548,-0.2165022656853539
-0.03429318894495548,-0.2134020519661043
-0.03429028894495548,-0.2114147354792256
-0.03428738894495548,-0.1090281900845636
-0.03428448894495548,0.03620489876293967
-0.03428158894495548,0.04455162800704774
-0.03427868894495548,0.04431315002864147
-0.03427578894495548,0.04256431152025215
-0.03427288894495549,-0.01236511617182872
-0.03426998894495549,-0.1017148654136236
-0.03426708894495549,-0.1067229029602512
-0.03426418894495549,-0.107597322214405
-0.03426128894495549,-0.1064844249818588
-0.03425838894495549,-0.1413817024881771
-0.03425548894495549,-0.2077580731438909
-0.03425258894495549,-0.2104608235657977
-0.03424968894495549,-0.2063272052734697
-0.03424678894495549,-0.2044988741057093
-0.03424388894495549,-0.1827178854115198
-0.03424098894495549,-0.1423356144018547
-0.03423808894495549,-0.138122503450059
-0.03423518894495549,-0.1366121429201699
-0.03423228894495549,-0.1343068557956024
-0.03422938894495549,-0.09988653424602567
-0.03422648894495549,0.001943562532283412
-0.03422358894495549,0.01362898347405659
-0.03422068894495549,0.01275456421991029
-0.03421778894495549,0.01108521837108556
-0.03421488894495549,-0.01824757297254915
-0.03421198894495549,-0.1172954266694837
-0.03420908894495549,-0.1262780971893501
-0.03420618894495549,-0.1256421559136073
-0.03420328894495549,-0.1254831705946717
-0.03420038894495549,-0.1312066420763565
-0.03419748894495549,-0.1681707287289043
-0.03419458894495549,-0.1723838396807
-0.03419168894495549,-0.1700785525561326
-0.03418878894495549,-0.1678527580910329
-0.03418588894495549,-0.1573597270412774
-0.03418298894495549,-0.09726327648358679
-0.03418008894495549,-0.0867702454338313
-0.03417718894495549,-0.08836009862318819
-0.03417428894495549,-0.08796263532584897
-0.03417138894495549,-0.07365395662163692
-0.03416848894495549,-0.02023488945924526
-0.03416558894495549,-0.01403446202075338
-0.03416268894495549,-0.01308055010713924
-0.03415978894495549,-0.01419344733968906
-0.03415688894495549,-0.0272302434924156
-0.03415398894495549,-0.1153876028422554
-0.03415108894495548,-0.1298552668654031
-0.03414818894495548,-0.1292988182491282
-0.03414528894495548,-0.1269140384650929
-0.03414238894495548,-0.1287423696328533
-0.03413948894495548,-0.1474231446077968
-0.03413658894495548,-0.1484565491808788
-0.03413368894495548,-0.1475821299267325
-0.03413078894495548,-0.1469461886509815
-0.03412788894495548,-0.1424151070612312
-0.03412498894495548,-0.09217574627762
-0.03412208894495548,-0.07858250150863881
-0.03411918894495548,-0.07611822906514125
-0.03411628894495548,-0.07675417034087968
-0.03411338894495549,-0.07500533183259346
-0.03411048894495549,-0.05044210005707094
-0.03410758894495549,-0.04742137899725365
-0.03410468894495549,-0.04805732027298975
-0.03410178894495549,-0.04694442304044312
-0.03409888894495549,-0.05012412941914909
-0.03409598894495549,-0.1054510204086742
-0.03409308894495549,-0.1184083239020335
-0.03409018894495549,-0.1183288312425656
-0.03408728894495549,-0.118646801880437
-0.03408438894495549,-0.1166594853937409
-0.03408148894495549,-0.1258806338920109
-0.03407858894495549,-0.1295372962275317
-0.03407568894495549,-0.1279474430381748
-0.03407278894495549,-0.1265960678272215
-0.03406988894495549,-0.1267550531461572
-0.03406698894495549,-0.08859857660159172
-0.03406408894495549,-0.0746873611947189
-0.03406118894495549,-0.0739719272595083
-0.03405828894495549,-0.0745283758757832
-0.03405538894495549,-0.07277953736749063
-0.03405248894495549,-0.07778757491396485
-0.03404958894495549,-0.07111019151866589
-0.03404668894495549,-0.06681758790740228
-0.03404378894495549,-0.06697657322633796
-0.03404088894495549,-0.06872541173463055
-0.03403798894495549,-0.09559393063476206
-0.03403508894495549,-0.1128438377392844
-0.03403218894495549,-0.1129233303987522
-0.03402928894495549,-0.1108565212525882
-0.03402638894495549,-0.1114129698688632
-0.03402348894495549,-0.107915292852278
-0.03402058894495549,-0.1060869616845176
-0.03401768894495549,-0.1060869616845176
-0.03401478894495549,-0.105371527749307
-0.03401188894495549,-0.1047355864735642
-0.03400898894495549,-0.08756517202850975
-0.03400608894495549,-0.07460786853525106
-0.03400318894495549,-0.07317700066482985
-0.03400028894495549,-0.07349497130270123
-0.03399738894495549,-0.07301801534589415
-0.03399448894495549,-0.07667467768141502
-0.03399158894495549,-0.08152372990895354
-0.03398868894495548,-0.0814442372494857
-0.03398578894495548,-0.08001336937906449
-0.03398288894495548,-0.08120575927108216
-0.03397998894495548,-0.09670682786731188
-0.03397708894495548,-0.1052920350898391
-0.03397418894495548,-0.1054510204087748
-0.03397128894495548,-0.1055305130682396
-0.03396838894495548,-0.1038611672194053
-0.03396548894495548,-0.0969453058457134
-0.03396258894495548,-0.09583240861316299
-0.03395968894495548,-0.09440154074274337
-0.03395678894495548,-0.09384509212647266
-0.03395388894495548,-0.09559393063475526
-0.03395098894495549,-0.09185777563978016
-0.03394808894495549,-0.08184170054684314
-0.03394518894495549,-0.08112626661161562
-0.03394228894495549,-0.07913895012492181
-0.03393938894495549,-0.0798543840601275
-0.03393648894495549,-0.08335206107670762
-0.03393358894495549,-0.09249371691549949
-0.03393068894495549,-0.09320915085072672
-0.03392778894495549,-0.09559393063476206
-0.03392488894495549,-0.09432204808327654
-0.03392198894495549,-0.09925059297028292
-0.03391908894495549,-0.1016353727543183
-0.03391618894495549,-0.09996602690549351
-0.03391328894495549,-0.09956856360815429
-0.03391038894495549,-0.1002045048838971
-0.03390748894495549,-0.0933681361696624
-0.03390458894495549,-0.09002944447201293
-0.03390168894495549,-0.09034741510988431
-0.03389878894495549,-0.0890755325583988
-0.03389588894495549,-0.09026792245041647
-0.03389298894495549,-0.09090386372615922
-0.03389008894495549,-0.08947299585573802
-0.03388718894495549,-0.09002944447201293
-0.03388428894495549,-0.09034741510988431
-0.03388138894495549,-0.08867806926105956
-0.03387848894495549,-0.08979096649360939
-0.03387558894495549,-0.09996602690549351
-0.03387268894495549,-0.09917110031081507
-0.03386978894495549,-0.09956856360815429
-0.03386688894495549,-0.09996602690549351
-0.03386398894495549,-0.1002045048838971
-0.03386108894495549,-0.1017148654137861
-0.03385818894495549,-0.1018738507327218
-0.03385528894495549,-0.09972754892708999
-0.03385238894495549,-0.1001250122244292
-0.03384948894495549,-0.1006814608407041
-0.03384658894495549,-0.08955248851520586
-0.03384368894495549,-0.08796263532584897
-0.03384078894495549,-0.08828060596372034
-0.03383788894495549,-0.08772415734744543
-0.03383498894495549,-0.08684973809329914
-0.03383208894495549,-0.08669075277436344
-0.03382918894495549,-0.0860548114986207
-0.03382628894495548,-0.08597531883915285
-0.03382338894495548,-0.08645227479595992
-0.03382048894495548,-0.08708821607170267
-0.03381758894495548,-0.1000455195649614
-0.03381468894495548,-0.1033842112626108
-0.03381178894495548,-0.1021918213705932
-0.03380888894495548,-0.1014763874353829
-0.03380598894495548,-0.1016353727543159
-0.03380308894495548,-0.1003634902028311
-0.03380018894495548,-0.099489070948685
-0.03379728894495548,-0.09869414435400613
-0.03379438894495548,-0.09766073978092644
-0.03379148894495549,-0.09789921775932912
-0.03378858894495549,-0.09551443797529856
-0.03378568894495549,-0.09233473159658621
-0.03378278894495549,-0.09050640042882332
-0.03377988894495549,-0.09114234170456161
-0.03377698894495549,-0.09146031234243356
-0.03377408894495549,-0.09360661414806204
-0.03377118894495549,-0.09678632052677973
-0.03376828894495549,-0.09710429116465111
-0.03376538894495549,-0.0963888572294405
-0.03376248894495549,-0.0956734232942299
-0.03375958894495549,-0.09368610680753378
-0.03375668894495549,-0.09312965819125887
-0.03375378894495549,-0.09185777563977336
-0.03375088894495549,-0.09297067287232318
-0.03374798894495549,-0.09233473159658043
-0.03374508894495549,-0.09201676095870905
-0.03374218894495549,-0.09249371691551611
-0.03373928894495549,-0.09209625361817689
-0.03373638894495549,-0.09153980500190198
-0.03373348894495549,-0.09257320957498395
-0.03373058894495549,-0.09599139393210128
-0.03372768894495549,-0.09384509212646948
-0.03372478894495549,-0.09456052606168008
-0.03372188894495549,-0.0942425554238087
-0.03371898894495549,-0.09360661414806594
-0.03371608894495549,-0.09750175446199033
-0.03371318894495549,-0.09829668105666878
-0.03371028894495549,-0.0965478425483762
-0.03370738894495549,-0.09710429116465111
-0.03370448894495549,-0.09781972509986171
-0.03370158894495549,-0.09940957828921861
-0.03369868894495549,-0.09940957828921861
-0.03369578894495549,-0.09956856360815429
-0.03369288894495549,-0.09789921775932955
-0.03368998894495549,-0.0979787104187974
-0.03368708894495549,-0.09829668105666878
-0.03368418894495549,-0.09964805626762215
-0.03368128894495549,-0.09964805626762215
-0.03367838894495549,-0.1021918213705932
-0.03367548894495549,-0.1014763874353826
-0.03367258894495549,-0.1013968947759147
-0.03366968894495549,-0.09750175446199033
-0.03366678894495548,-0.09575291595369775
-0.03366388894495548,-0.09630936456997266
-0.03366098894495548,-0.09789921775932955
-0.03365808894495548,-0.09400407744540516
-0.03365518894495548,-0.09464001872114793
-0.03365228894495548,-0.09559393063476206
-0.03364938894495548,-0.09408357010487185
-0.03364648894495548,-0.09344762882913633
-0.03364358894495548,-0.09678632052678421
-0.03364068894495548,-0.09925059297028004
-0.03363778894495548,-0.09766073978092703
-0.03363488894495548,-0.09821718839720152
-0.03363198894495548,-0.09853515903507101
-0.03362908894495549,-0.09781972509986302
-0.03362618894495549,-0.09591190127263691
-0.03362328894495549,-0.09575291595369805
-0.03362038894495549,-0.09424255542381145
-0.03361748894495549,-0.09440154074274409
-0.03361458894495549,-0.09448103340221209
-0.03361168894495549,-0.09646834988890474
-0.03360878894495549,-0.09622987191050482
-0.03360588894495549,-0.09734276914305465
-0.03360298894495549,-0.09774023244039387
-0.03360008894495549,-0.09901211499187938
-0.03359718894495549,-0.1003634902028327
-0.03359428894495549,-0.1010789241380433
-0.03359138894495549,-0.09964805626762215
-0.03358848894495549,-0.1002839975433649
-0.03358558894495549,-0.1006019681812363
-0.03358268894495549,-0.09940957828921861
-0.03357978894495549,-0.09972754892708999
-0.03357688894495549,-0.09996602690549351
-0.03357398894495549,-0.09861465169454016
-0.03357108894495549,-0.09933008562975076
-0.03356818894495549,-0.09980704158655783
-0.03356528894495549,-0.09766073978092601
-0.03356238894495549,-0.09845566637560446
-0.03355948894495549,-0.09853515903507232
-0.03355658894495549,-0.09710429116465111
-0.03355368894495549,-0.09917110031081507
-0.03355078894495549,-0.1003634902028327
-0.03354788894495549,-0.09805820307826524
-0.03354498894495549,-0.09630936456997266
-0.03354208894495549,-0.09980704158655783
-0.03353918894495549,-0.1023508066895289
-0.03353628894495549,-0.1016353727543183
-0.03353338894495549,-0.102271314030061
-0.03353048894495549,-0.1013968947759147
-0.03352758894495549,-0.1003634902028327
-0.03352468894495549,-0.1066434103007925
-0.03352178894495549,-0.1062459470034532
-0.03351888894495549,-0.1057689910466462
-0.03351598894495549,-0.1076768148738745
-0.03351308894495549,-0.1075973222144066
-0.03351018894495549,-0.1029867479652716
-0.03350728894495549,-0.1017148654137861
-0.03350438894495548,-0.1018738507327218
-0.03350148894495548,-0.1009994314785755
-0.03349858894495548,-0.1019533433921896
-0.03349568894495548,-0.1019533433921896
-0.03349278894495548,-0.1001250122244292
-0.03348988894495548,-0.1009994314785755
-0.03348698894495548,-0.1015558800948475
-0.03348408894495548,-0.0999660269054925
