-20250405-BKP/synth-diodes-1f-1r-in-T10-L10-D00/100Hz1V/scope.csv

#Digilent WaveForms Oscilloscope Acquisition
#Device Name: Discovery3
#Serial Number: SN:210415BD5874
#Date Time: 2025-04-03 16:22:17.934.997.260
#Sample rate: 344828Hz
#Samples: 32768
#Trigger: Source: Channel 1 Type: Edge Condition: Rising Level: 0 V Hyst.: Auto HoldOff: 0 s
#Channel 1: Range: 200 mV/div Offset: 0 V Sample Mode: Average
#Wavegen Channel 1: Running
#Mode: Simple
#Type: Sine
#Frequency: 100 Hz
#Period: 10 ms
#Amplitude: 1 V
#Offset: 0 V
#Symmetry: 50 %
#Phase: 0 °

Time (s),Channel 1 (V)
-0.03484023218871382,0.01641122655543115
-0.03483733218871382,0.01664970453383469
-0.03483443218871382,0.01664970453383469
-0.03483153218871382,0.01816006506372373
-0.03482863218871382,0.01664970453383469
-0.03482573218871382,0.01450340272820288
-0.03482283218871382,0.01617274857702762
-0.03481993218871382,0.01505985134447779
-0.03481703218871382,0.01450340272820288
-0.03481413218871382,0.0134699981551209
-0.03481123218871382,0.01339050549565305
-0.03480833218871382,0.01339050549565305
-0.03480543218871382,0.01426492474979934
-0.03480253218871382,0.01537782198234917
-0.03479963218871382,0.01760361644744882
-0.03479673218871382,0.01362898347405659
-0.03479383218871382,0.01426492474979934
-0.03479093218871382,0.01370847613352443
-0.03478803218871382,0.01386746145246012
-0.03478513218871382,0.01164166698736047
-0.03478223218871382,0.007508048695032543
-0.03477933218871382,0.007826019332903921
-0.03477643218871382,0.0102902917764087
-0.03477353218871382,0.01116471103054819
-0.03477063218871382,0.008302975289712581
-0.03476773218871382,0.009177394543856269
-0.03476483218871382,0.008620945927582224
-0.03476193218871382,0.008541453268115826
-0.03475903218871382,0.009256887203323825
-0.03475613218871382,0.009574857841195928
-0.03475323218871382,0.007667034013971702
-0.03475033218871382,0.008620945927580633
-0.03474743218871382,0.008064497311308469
-0.03474453218871382,0.008620945927581357
-0.03474163218871382,0.007031092738228366
-0.03473873218871382,0.006395151462482716
-0.03473583218871382,0.007587541354500387
-0.03473293218871382,0.008700438587050214
-0.03473003218871382,0.007905511992371765
-0.03472713218871382,0.007110585397693318
-0.03472423218871382,0.007110585397693318
-0.03472133218871382,0.00679261475982194
-0.03471843218871382,0.007349063376096853
-0.03471553218871382,0.008382467949178834
-0.03471263218871382,0.005600224867804269
-0.03470973218871382,0.005918195505675648
-0.03470683218871382,0.007190078057161164
-0.03470393218871382,0.005997688165143493
-0.03470103218871382,0.005600224867804269
-0.03469813218871382,0.00981333581960004
-0.03469523218871382,0.004725805613657977
-0.03469233218871382,0.004407834975786598
-0.03468943218871382,0.006236166143547027
-0.03468653218871382,0.005679717527272114
-0.03468363218871382,0.003533415721640306
-0.03468073218871382,0.004407834975786598
-0.03467783218871382,0.005123268910997201
-0.03467493218871382,0.004566820294722287
-0.03467203218871382,0.005679717527272114
-0.03466913218871382,0.004725805613657977
-0.03466623218871382,0.002658996467494015
-0.03466333218871382,0.004169356997383064
-0.03466043218871382,0.004646312954190133
-0.03465753218871382,0.003294937743236772
-0.03465463218871382,0.003533415721640306
-0.03465173218871382,0.005043776251529356
-0.03464883218871382,0.006474644121950561
-0.03464593218871382,0.005997688165143493
-0.03464303218871382,0.006077180824611337
-0.03464013218871382,0.00273848912696186
-0.03463723218871382,0.00257950380802617
-0.03463433218871382,0.005123268910997201
-0.03463143218871382,0.004805298273125822
-0.03462853218871382,0.004884790932593667
-0.03462563218871382,0.007190078057161164
-0.03462273218871382,0.00408986433791522
-0.03461983218871382,0.003771893700043841
-0.03461693218871382,0.005441239548868001
-0.03461403218871382,0.005123268910988814
-0.03461113218871382,0.0005126946618614844
-0.03460823218871382,0.0001152313645252973
-0.03460533218871382,0.001387113916007487
-0.03460243218871382,0.0008306652997350322
-0.03459953218871382,0.001625591894408997
-0.03459663218871382,-4.375395440966924e-05
-0.03459373218871382,-0.001077158527492807
-0.03459083218871382,0.0004332020023916153
-0.03458793218871382,0.0007511726402651632
-0.03458503218871382,-0.0009181732085559611
-0.03458213218871382,0.002420518489084408
-0.03457923218871382,-0.001474621824833911
-0.03457633218871382,-0.001951577781640979
-0.03457343218871382,-0.001474621824833911
-0.03457053218871382,-0.0003617245922840845
-0.03456763218871382,-0.002825997035787271
-0.03456473218871382,-0.00298498235472296
-0.03456183218871382,-0.001077158527494687
-0.03455893218871382,-0.001872085122173134
-0.03455603218871382,-0.001554114484301755
-0.03455313218871382,-0.004654328203547699
-0.03455023218871382,-0.00584671809556537
-0.03454733218871382,-0.006085196073968904
-0.03454443218871382,-0.004336357565676321
-0.03454153218871382,-0.004097879587272786
-0.03453863218871382,-0.004097879587272786
-0.03453573218871382,-0.005051791500886923
-0.03453283218871382,-0.005449254798226146
-0.03452993218871382,-0.00719809330651873
-0.03452703218871382,-0.006244181392904594
-0.03452413218871382,-0.007595556603857954
-0.03452123218871382,-0.008390483198536402
-0.03451833218871382,-0.006641644690243817
-0.03451543218871382,-0.006323674052372438
-0.03451253218871382,-0.006721137349711662
-0.03450963218871382,-0.01085475564203959
-0.03450673218871382,-0.01101374096097528
-0.03450383218871382,-0.01029830702576467
-0.03450093218871382,-0.008787946495875625
-0.03449803218871382,-0.009105917133747003
-0.03449513218871382,-0.004892806181951233
-0.03449223218871382,-0.009185409793214848
-0.03448933218871382,-0.009344395112150537
-0.03448643218871382,-0.009185409793214848
-0.03448353218871382,-0.007834034582261487
-0.03448063218871382,-0.0114112042583145
-0.03447773218871382,-0.01101374096097528
-0.03447483218871382,-0.008867439155343469
-0.03447193218871382,-0.008787946495875625
-0.03446903218871382,-0.009821351068957606
-0.03446613218871382,-0.009105917133747003
-0.03446323218871382,-0.008390483198536402
-0.03446033218871382,-0.008867439155343469
-0.03445743218871382,-0.007834034582261487
-0.03445453218871382,-0.007118600647055801
-0.03445163218871382,-0.00982135106895775
-0.03444873218871382,-0.009900843728422416
-0.03444583218871382,-0.008231497879602012
-0.03444293218871382,-0.008946931814810447
-0.03444003218871382,-0.008469975858002077
-0.03443713218871382,-0.007277585965988743
-0.03443423218871382,-0.007277585965986575
-0.03443133218871382,-0.006641644690244974
-0.03442843218871382,-0.005608240117163716
-0.03442553218871382,-0.006164688733435736
-0.03442263218871382,-0.009423887771612453
-0.03441973218871382,-0.006959615328119679
-0.03441683218871382,-0.006959615328115196
-0.03441393218871382,-0.007834034582261487
-0.03441103218871382,-0.006562152030775972
-0.03440813218871382,-0.007675049263325798
-0.03440523218871382,-0.009423887771618383
-0.03440233218871382,-0.007834034582261487
-0.03439943218871382,-0.00600570341450106
-0.03439653218871382,-0.006800630009179506
-0.03439363218871382,-0.009264902452682692
-0.03439073218871382,-0.0106957703231039
-0.03438783218871382,-0.01093424830150743
-0.03438493218871382,-0.009105917133747003
-0.03438203218871382,-0.009264902452682692
-0.03437913218871382,-0.009662365750021917
-0.03437623218871382,-0.007834034582261487
-0.03437333218871382,-0.007277585965986575
-0.03437043218871382,-0.008072512560665022
-0.03436753218871382,-0.00719809330651873
-0.03436463218871382,-0.008549468517472091
-0.03436173218871382,-0.009582873090554072
-0.03435883218871382,-0.008628961176939936
-0.03435593218871382,-0.007913527241729333
-0.03435303218871382,-0.009741858409489761
-0.03435013218871382,-0.01196765287458941
-0.03434723218871382,-0.007118600647050885
-0.03434433218871382,-0.006880122668647352
-0.03434143218871382,-0.006562152030775972
-0.03433853218871382,-0.005687732776629681
-0.03433563218871382,-0.008946931814811314
-0.03433273218871382,-0.01252410149086433
-0.03432983218871382,-0.01228562351246079
-0.03432693218871382,-0.013716491382882
-0.03432403218871382,-0.01610127116691734
-0.03432113218871382,-0.01943996286456682
-0.03431823218871382,-0.01840655829148484
-0.03431533218871382,-0.0188835142482919
-0.03431243218871382,-0.01753213903733854
-0.03430953218871382,-0.01737315371840285
-0.03430663218871382,-0.01928097754563113
-0.03430373218871382,-0.01840655829148484
-0.03430083218871382,-0.01633974914532087
-0.03429793218871382,-0.01633974914532087
-0.03429503218871382,-0.01610127116691907
-0.03429213218871382,-0.0170551830805335
-0.03428923218871382,-0.01816808031308217
-0.03428633218871382,-0.0186450362698862
-0.03428343218871382,-0.01745264637787229
-0.03428053218871382,-0.01832706563201742
-0.03427763218871382,-0.01856554361041474
-0.03427473218871382,-0.01538583723171252
-0.03427183218871382,-0.01498837393436824
-0.03426893218871382,-0.01602177850744761
-0.03426603218871382,-0.0173731537184004
-0.03426313218871382,-0.01991691882136926
-0.03426023218871382,-0.02063235275658318
-0.03425733218871382,-0.01991691882137388
-0.03425443218871382,-0.01872452892935621
-0.03425153218871382,-0.01904249956722759
-0.03424863218871382,-0.01856554361042052
-0.03424573218871382,-0.01689619776159578
-0.03424283218871382,-0.0167372124426601
-0.03423993218871382,-0.01848605095095268
-0.03423703218871382,-0.01753213903733854
-0.03423413218871382,-0.02023488945924526
-0.03423123218871382,-0.01999641148084173
-0.03422833218871382,-0.01848605095095268
-0.03422543218871382,-0.01912199222669544
-0.03422253218871382,-0.01411395468022122
-0.03421963218871382,-0.01792960233467777
-0.03421673218871382,-0.02095032339445587
-0.03421383218871382,-0.02055286009711664
-0.03421093218871382,-0.0188835142482919
-0.03420803218871382,-0.02134778669179509
-0.03420513218871382,-0.02222220594594138
-0.03420223218871382,-0.02055286009711664
-0.03419933218871382,-0.0211888013728594
-0.03419643218871382,-0.02039387477818095
-0.03419353218871382,-0.01959894818350251
-0.03419063218871382,-0.01967844084297035
-0.03418773218871382,-0.01928097754563113
-0.03418483218871382,-0.01824757297254915
-0.03418193218871382,-0.01928097754563113
-0.03417903218871382,-0.02007590414030958
-0.03417613218871382,-0.02134778669179509
-0.03417323218871382,-0.02238119126487707
-0.03417033218871382,-0.02142727935126294
-0.03416743218871382,-0.02126829403232725
-0.03416453218871382,-0.02285814722168414
-0.03416163218871382,-0.02611734625986577
-0.03415873218871382,-0.02476597104891241
-0.03415583218871382,-0.02746872147081913
-0.03415293218871382,-0.02683278019507638
-0.03415003218871382,-0.02603785360039793
-0.03414713218871382,-0.02754821413028698
-0.03414423218871382,-0.02707125817347991
-0.03414133218871382,-0.02595836094093008
-0.03413843218871382,-0.02699176551401206
-0.03413553218871382,-0.02635582423826931
-0.03413263218871382,-0.0252429270057205
-0.03412973218871382,-0.0257993756219928
-0.03412683218871382,-0.02492495636784695
-0.03412393218871382,-0.02428901509211402
-0.03412103218871382,-0.02905857466017936
-0.03411813218871382,-0.03088690582793443
-0.03411523218871382,-0.02977400859538865
-0.03411233218871382,-0.03064842784953133
-0.03410943218871382,-0.03096639848740372
-0.03410653218871382,-0.02683278019508389
-0.03410363218871382,-0.03215878837941229
-0.03410073218871382,-0.03247675901729278
-0.03409783218871382,-0.03096639848740705
-0.03409493218871382,-0.03199980306048628
-0.03409203218871382,-0.03478204614186085
-0.03408913218871382,-0.03374864156877887
-0.03408623218871382,-0.0332716856119718
-0.03408333218871382,-0.03422559752558593
-0.03408043218871382,-0.03358965624984317
-0.03407753218871382,-0.03748479656376756
-0.03407463218871382,-0.03979008368833506
-0.03407173218871382,-0.03843870847738171
-0.03406883218871382,-0.03812073783951032
-0.03406593218871382,-0.03883617177472093
-0.03406303218871382,-0.04050551762354566
-0.03406013218871382,-0.04336725336438807
-0.03405723218871382,-0.04495710655374498
-0.03405433218871382,-0.04487761389427712
-0.03405143218871382,-0.04432116527800221
-0.03404853218871382,-0.04710340835937678
-0.03404563218871382,-0.04765985697565168
-0.03404273218871382,-0.04662645240256971
-0.03403983218871382,-0.04765985697565168
-0.03403693218871382,-0.04829579825139445
-0.03403403218871382,-0.04527507719161634
-0.03403113218871382,-0.05338332845733651
-0.03402823218871382,-0.05417825505201496
-0.03402533218871382,-0.0519524605869153
-0.03402243218871382,-0.05187296792744746
-0.03401953218871382,-0.05831187334434289
-0.03401663218871382,-0.05767593206860012
-0.03401373218871382,-0.05791441004700366
-0.03401083218871382,-0.05847085866327857
-0.03400793218871382,-0.05759643940913228
-0.03400503218871382,-0.06339940355028495
-0.03400213218871382,-0.06697657322633796
-0.03399923218871382,-0.06642012461006305
-0.03399633218871382,-0.06689708056687012
-0.03399343218871382,-0.06832794843729131
-0.03399053218871382,-0.07047425024292313
-0.03398763218871382,-0.07508482449205812
-0.03398473218871382,-0.07643619970301148
-0.03398183218871382,-0.07603873640567226
-0.03397893218871382,-0.07540279512992951
-0.03397603218871382,-0.08533937756341009
-0.03397313218871382,-0.08510089958500423
-0.03397023218871382,-0.08382901703352234
-0.03396733218871382,-0.08454445096873252
-0.03396443218871382,-0.08502140692555245
-0.03396153218871382,-0.09257320957498959
-0.03395863218871382,-0.0956734232942299
-0.03395573218871382,-0.09567342329422758
-0.03395283218871382,-0.0944015407427467
-0.03394993218871382,-0.09487849669955058
-0.03394703218871382,-0.09829668105666256
-0.03394413218871382,-0.1049740644519556
-0.03394123218871382,-0.1060869616845155
-0.03393833218871382,-0.1069613809386623
-0.03393543218871382,-0.105848483706116
-0.03393253218871382,-0.1159440514585303
-0.03392963218871382,-0.1178518752857586
-0.03392673218871382,-0.1162620220964017
-0.03392383218871382,-0.1165005000748052
-0.03392093218871382,-0.1162620220964017
-0.03391803218871382,-0.1231778834701042
-0.03391513218871382,-0.1290603402707247
-0.03391223218871382,-0.1288218622923211
-0.03390933218871382,-0.1273909944218999
-0.03390643218871382,-0.128901354951789
-0.03390353218871382,-0.1411432245098371
-0.03390063218871382,-0.1428920630181297
-0.03389773218871382,-0.1422561217423869
-0.03389483218871382,-0.1428920630181297
-0.03389193218871382,-0.143210033656001
-0.03388903218871382,-0.1540210353436279
-0.03388613218871382,-0.1542595133220314
-0.03388323218871382,-0.1537030647057565
-0.03388033218871382,-0.1521927041758675
-0.03387743218871382,-0.1532261087489495
-0.03387453218871382,-0.1681707287289043
-0.03387163218871382,-0.1700785525561326
-0.03386873218871382,-0.169840074577729
-0.03386583218871382,-0.1693631186209219
-0.03386293218871382,-0.1663423975611438
-0.03386003218871382,-0.1730992736159107
-0.03385713218871382,-0.176994413929835
-0.03385423218871382,-0.1750070974431389
-0.03385133218871382,-0.1742121708484605
-0.03384843218871382,-0.1746891268052675
-0.03384553218871382,-0.1791407157354668
-0.03384263218871382,-0.1794586863733382
-0.03383973218871382,-0.1776303552055778
-0.03383683218871382,-0.175961009356753
-0.03383393218871382,-0.1755635460594138
-0.03383103218871382,-0.174450648826864
-0.03382813218871382,-0.1723838396807
-0.03382523218871382,-0.1716684057454894
-0.03382233218871382,-0.1718273910644251
-0.03381943218871382,-0.170873479150811
-0.03381653218871382,-0.1572007417223417
-0.03381363218871382,-0.1515567629001247
-0.03381073218871382,-0.1493309684350248
-0.03380783218871382,-0.1491719831160853
-0.03380493218871382,-0.1469461886509543
-0.03380203218871382,-0.1274704870813623
-0.03379913218871382,-0.1244497660215897
-0.03379623218871382,-0.1244497660215878
-0.03379333218871382,-0.1234163614485096
-0.03379043218871382,-0.1221444788970245
-0.03378753218871382,-0.1183288312425726
-0.03378463218871382,-0.1170569486910824
-0.03378173218871382,-0.1178518752857571
-0.03377883218871382,-0.1179313679452263
-0.03377593218871382,-0.1147516615665184
-0.03377303218871382,-0.1122078964635416
-0.03377013218871382,-0.1134002863555593
-0.03376723218871382,-0.1130028230582201
-0.03376433218871382,-0.1126848524203487
-0.03376143218871382,-0.1138772423123663
-0.03375853218871382,-0.1095846387011027
-0.03375563218871382,-0.1075973222144066
-0.03375273218871382,-0.1078358001928101
-0.03374983218871382,-0.1075178295549388
-0.03374693218871382,-0.1059279763655819
-0.03374403218871382,-0.10894869742536
-0.03374113218871382,-0.1087897121064243
-0.03373823218871382,-0.1059279763655819
-0.03373533218871382,-0.1051330497709034
-0.03373243218871382,-0.1054510204087748
-0.03372953218871382,-0.1001250122244292
-0.03372663218871382,-0.09845566637560446
-0.03372373218871382,-0.09781972509986171
-0.03372083218871382,-0.09519646733742283
-0.03371793218871382,-0.09225523893711259
-0.03371503218871382,-0.08168271522788924
-0.03371213218871382,-0.07826453087077191
-0.03370923218871382,-0.07731061895715777
-0.03370633218871382,-0.07810554555183621
-0.03370343218871382,-0.0768336630003507
-0.03370053218871382,-0.08390850969298888
-0.03369763218871382,-0.08510089958500655
-0.03369473218871382,-0.08406749501192458
-0.03369183218871382,-0.08247764182256768
-0.03368893218871382,-0.08963198117467371
-0.03368603218871382,-0.09813769573773309
-0.03368313218871382,-0.09622987191050482
-0.03368023218871382,-0.09607088659156912
-0.03367733218871382,-0.09464001872114793
-0.03367443218871382,-0.09169879032083766
-0.03367153218871382,-0.08780365000691327
-0.03366863218871382,-0.08629328947702422
-0.03366573218871382,-0.08462394362819949
-0.03366283218871382,-0.08549836288234577
-0.03365993218871382,-0.08001336937906449
-0.03365703218871382,-0.07285903002695847
-0.03365413218871382,-0.07341547864323338
-0.03365123218871382,-0.07118968417813026
-0.03364833218871382,-0.0692818603509137
-0.03364543218871382,-0.07381294194057722
-0.03364253218871382,-0.07635670704354305
-0.03363963218871382,-0.07603873640567226
-0.03363673218871382,-0.07603873640566965
-0.03363383218871382,-0.07460786853525482
-0.03363093218871382,-0.07667467768141126
-0.03362803218871382,-0.08510089958499123
-0.03362513218871382,-0.08414698767139416
-0.03362223218871382,-0.08311358309831231
-0.03361933218871382,-0.08327256841724584
-0.03361643218871382,-0.08208017852523063
-0.03361353218871382,-0.08088778863321296
-0.03361063218871382,-0.08104677395214648
-0.03360773218871382,-0.07977489140066096
-0.03360483218871382,-0.07882097948704682
-0.03360193218871382,-0.07476685385418674
-0.03359903218871382,-0.06904338237250192
-0.03359613218871382,-0.06816896311835563
-0.03359323218871382,-0.06872541173463055
-0.03359033218871382,-0.06769200716154856
-0.03358743218871382,-0.06832794843729131
-0.03358453218871382,-0.069520338329309
-0.03358163218871382,-0.06785099248048425
-0.03357873218871382,-0.06793048513995209
-0.03357583218871382,-0.06904338237250192
-0.03357293218871382,-0.06975881630771252
-0.03357003218871382,-0.07786706757343269
-0.03356713218871382,-0.07921844278438604
-0.03356423218871382,-0.07786706757343269
-0.03356133218871382,-0.07707214097875424
-0.03355843218871382,-0.07794656023290053
-0.03355553218871382,-0.07707214097875424
-0.03355263218871382,-0.07564127310833303
-0.03354973218871382,-0.07635670704354364
-0.03354683218871382,-0.07548228778939735
-0.03354393218871382,-0.07500533183259028
-0.03354103218871382,-0.07055374290239097
-0.03353813218871382,-0.06824845577782347
-0.03353523218871382,-0.06697657322633796
-0.03353233218871382,-0.06944084566984114
-0.03352943218871382,-0.069520338329309
-0.03352653218871382,-0.06904338237250192
-0.03352363218871382,-0.06840744109675917
-0.03352073218871382,-0.06856642641569485
-0.03351783218871382,-0.06808947045888779
-0.03351493218871382,-0.06848693375622701
-0.03351203218871382,-0.07341547864323338
-0.03350913218871382,-0.0723820740701514
-0.03350623218871382,-0.07325649332429769
-0.03350333218871382,-0.07254105938908709
-0.03350043218871382,-0.07389243460004045
-0.03349753218871382,-0.07516431715152597
-0.03349463218871382,-0.07421040523791184
