synth-diodes-1f-1r-in-T00-L10-D00/1kHz-2V/scope.csv

#Digilent WaveForms Oscilloscope Acquisition
#Device Name: Discovery3
#Serial Number: SN:210415BD5874
#Date Time: 2025-04-06 21:16:27.346.225.820
#Sample rate: 100000Hz
#Samples: 32768
#Trigger: Source: Channel 1 Type: Edge Condition: Rising Level: 0 V Hyst.: Auto HoldOff: 0 s
#Channel 1: Range: 500 mV/div Offset: 0 V Sample Mode: Average
#Wavegen Channel 1: Running
#Mode: Simple
#Type: Sine
#Frequency: 1 kHz
#Period: 1 ms
#Amplitude: 2 V
#Offset: 0 V
#Symmetry: 50 %
#Phase: 0 °

Time (s),Channel 1 (V)
-0.19972,-0.03064842784953292
-0.19971,-0.02365307381636259
-0.1997,-0.01681670510212794
-0.19969,-0.01093424830151813
-0.19968,-0.007913527241729333
-0.19967,-0.004972298841419079
-0.19966,-0.003302952992594339
-0.19965,-0.002508026397915892
-0.19964,-0.00290548969525714
-0.19963,-0.004018386927804941
-0.19962,-0.004892806181951233
-0.19961,-0.003620923630460946
-0.1996,-0.0009976658680268423
-0.19959,0.002023055191751257
-0.19958,0.004884790932588461
-0.19957,0.008223482630243145
-0.19956,0.01211862294416754
-0.19955,0.01490086602553704
-0.19954,0.01839854304212727
-0.19953,0.02173723473978195
-0.19952,0.02459897048061916
-0.19951,0.0276991841998651
-0.1995,0.03111736855698835
-0.19949,0.03437656759516405
-0.19948,0.03779475195228138
-0.19947,0.04105395099045708
-0.19946,0.0442336573691768
-0.19945,0.04717488576948706
-0.19944,0.05083154810500125
-0.19943,0.05289835725117188
-0.19942,0.05623704894882135
-0.19941,0.05870132139232453
-0.1994,0.06156305713316695
-0.19939,0.06410682223614318
-0.19938,0.06696855797698038
-0.19937,0.06990978637729064
-0.19936,0.07316898541547734
-0.19935,0.07595122849684684
-0.19934,0.07857448625928572
-0.19933,0.08087977338384902
-0.19932,0.08239013391374227
-0.19931,0.08246962657321011
-0.1993,0.08080028072438841
-0.19929,0.0780180376430108
-0.19928,0.07507680924269361
-0.19927,0.071261161588244
-0.19926,0.06696855797698038
-0.19925,0.06235798372783629
-0.19924,0.05734994618137118
-0.19923,0.05122901140234713
-0.19922,0.04447213534759262
-0.19921,0.03723830333600647
-0.1992,0.02992497866496475
-0.19919,0.02308860995074254
-0.19918,0.01394695411192796
-0.19917,0.005441239548852385
-0.19916,-0.003461938311530029
-0.19915,-0.01276257946926786
-0.19914,-0.02198372796755433
-0.19913,-0.03104589114687215
-0.19912,-0.04010805432620644
-0.19911,-0.04948818814342715
-0.1991,-0.05775542472806797
-0.19909,-0.06395585216655986
-0.19908,-0.06832794843728336
-0.19907,-0.07198461077281218
-0.19906,-0.07524380981099381
-0.19905,-0.07890047214650803
-0.19904,-0.08208017852522846
-0.19903,-0.08502140692554261
-0.19902,-0.08716770873117052
-0.19901,-0.08851908394212388
-0.199,-0.09002944447201509
-0.19899,-0.0912218343640306
-0.19898,-0.09209625361817689
-0.19897,-0.0927321948939185
-0.19896,-0.09241422425604827
-0.19895,-0.09241422425604827
-0.19894,-0.09106284904509737
-0.19893,-0.09161929766136982
-0.19892,-0.09042690776935028
-0.19891,-0.08939350319627017
-0.1989,-0.08828060596372034
-0.19889,-0.08661126011489285
-0.19888,-0.08510089958500655
-0.19887,-0.0835905390551175
-0.19886,-0.08168271522789271
-0.19885,-0.07961590608172527
-0.19884,-0.07762858959502915
-0.19883,-0.07516431715153045
-0.19882,-0.07270004470802278
-0.19881,-0.07015627960505175
-0.1988,-0.06793048513995614
-0.19879,-0.06530722737751322
-0.19878,-0.06228650631772905
-0.19877,-0.05894781462008564
-0.19876,-0.05616557153871107
-0.19875,-0.0526678945221194
-0.19874,-0.04909072484607289
-0.19873,-0.04455964325640575
-0.19872,-0.03772327454218354
-0.19871,-0.02977400859538663
-0.1987,-0.02190423530807
-0.19869,-0.01427293999917079
-0.19868,-0.01005982904736114
-0.19867,-0.00695961532811216
-0.19866,-0.005290269479290457
-0.19865,-0.007675049263325798
-0.19864,-0.005846718095563345
-0.19863,-0.004733820863015544
-0.19862,-0.005449254798226146
-0.19861,-0.005767225436096947
-0.1986,-0.004256864906208475
-0.19859,-0.001713099803237445
-0.19858,0.00146660657547056
-0.19857,0.004884790932593667
-0.19856,0.008859423905985903
-0.19855,0.01211862294416754
-0.19854,0.01569579262022055
-0.19853,0.01887549899894012
-0.19852,0.02205520537764813
-0.19851,0.0253938970752976
-0.1985,0.02849411079455063
-0.19849,0.03238925110846794
-0.19848,0.03628439142239233
-0.19847,0.03962308312003574
-0.19846,0.04312076013662698
-0.19845,0.04661843715321214
-0.19844,0.05051357746712944
-0.19843,0.05313683522957541
-0.19842,0.05639603426776268
-0.19841,0.05949624798700298
-0.1984,0.06259646170624893
-0.19839,0.06537870478762957
-0.19838,0.06871739648527297
-0.19837,0.0719765955234546
-0.19836,0.07523579456163031
-0.19835,0.07833600828088218
-0.19834,0.08135672934066028
-0.19833,0.08413897242202978
-0.19832,0.08588781093032744
-0.19831,0.08692121550340941
-0.1983,0.08533136231405251
-0.19829,0.08350303114629208
-0.19828,0.08064129540544288
-0.19827,0.07690514041046098
-0.19826,0.07301000009653659
-0.19825,0.06879688914473185
-0.19824,0.06386834425773444
-0.19823,0.05814487277604963
-0.19822,0.05194444533756901
-0.19821,0.04534655460172662
-0.1982,0.03843069322802414
-0.19819,0.03230975844901123
-0.19818,0.02348607324806933
-0.19817,0.01529832932286556
-0.19816,0.006633629440886251
-0.19815,-0.002349041078980202
-0.19814,-0.01133171159886285
-0.19813,-0.02023488945924526
-0.19812,-0.02961502327645094
-0.19811,-0.03915414241257496
-0.1981,-0.04789833495405522
-0.19809,-0.05465521100882202
-0.19808,-0.05926578525794863
-0.19807,-0.06292244759347788
-0.19806,-0.06673809524794266
-0.19805,-0.07126917683760157
-0.19804,-0.07460786853525106
-0.19803,-0.07746960427609736
-0.19802,-0.07961590608172527
-0.19801,-0.08152372990895354
-0.198,-0.08319307575778073
-0.19799,-0.08454445096873164
-0.19798,-0.08518039224447441
-0.19797,-0.085816333520216
-0.19796,-0.08573684086074931
-0.19795,-0.08557785554181363
-0.19794,-0.08478292894713663
-0.19793,-0.08541887022287793
-0.19792,-0.08446495830926207
-0.19791,-0.08351104639564966
-0.1979,-0.08200068586576061
-0.19789,-0.08049032533586868
-0.19788,-0.07890047214651467
-0.19787,-0.07746960427609347
-0.19786,-0.07556178044886866
-0.19785,-0.07389243460004045
-0.19784,-0.0716666401349408
-0.19783,-0.06975881630771599
-0.19782,-0.0672150512047415
-0.19781,-0.06451230078283131
-0.1978,-0.0626044769556065
-0.19779,-0.05974274121476408
-0.19778,-0.0570399907928523
-0.19777,-0.0542577477114828
-0.19776,-0.05123702665170471
-0.19775,-0.0482163055919321
-0.19774,-0.04471862857534144
-0.19773,-0.03994906900727076
-0.19772,-0.03382813422825785
-0.19771,-0.02659430221667284
-0.1977,-0.01928097754563113
-0.19769,-0.01244460883140892
-0.19768,-0.008946931814811314
-0.19767,-0.00568773277662621
-0.19766,-0.003779908949401408
-0.19765,-0.003064475014190805
-0.19764,-0.003302952992596508
-0.19763,-0.00449534288461201
-0.19762,-0.004574835544079854
-0.19761,-0.002984982354725852
-0.1976,-0.0002027392733483951
-0.19759,0.002897474445897549
-0.19758,0.005997688165137854
-0.19757,0.009336379862792971
-0.19756,0.01291354953885206
-0.19755,0.01625224123649546
-0.19754,0.01927296229627356
-0.19753,0.02237317601552457
-0.19752,0.02515541909689407
-0.19751,0.02833512547560786
-0.1975,0.03159432451378356
-0.19749,0.0353304795087782
-0.19748,0.03866917120642767
-0.19747,0.04224634088247417
-0.19746,0.04534655460172662
-0.19745,0.04860575363990827
-0.19744,0.05281886459169637
-0.19743,0.05528313703520722
-0.19742,0.05862182873286175
-0.19741,0.06140407181423126
-0.1974,0.06434530021454152
-0.19739,0.06728652861485812
-0.19738,0.07078420563143693
-0.19737,0.07420238998855426
-0.19736,0.07730260370779457
-0.19735,0.08056180274598183
-0.19734,0.08318506050842071
-0.19733,0.08588781093032252
-0.19732,0.08771614209808785
-0.19731,0.08859056135223096
-0.1973,0.08684172284394157
-0.19729,0.08493389901671329
-0.19728,0.08191317795692825
-0.19727,0.07809753030247865
-0.19726,0.07420238998855426
-0.19725,0.06943283042049225
-0.19724,0.06402732957667014
-0.19723,0.05782690213817825
-0.19722,0.05146748938076224
-0.19721,0.04455162800704818
-0.1972,0.03739728865494216
-0.19719,0.0307199052596432
-0.19718,0.02141926410190537
-0.19717,0.01323152017670102
-0.19716,0.004248849656850909
-0.19715,-0.004813313522483389
-0.19714,-0.01379598404236661
-0.19713,-0.02301713254061983
-0.19712,-0.0325562516767612
-0.19711,-0.04161841485607901
-0.1971,-0.0505215927164941
-0.19709,-0.05664252749551814
-0.19708,-0.06061716046890316
-0.19707,-0.06467128610177046
-0.19706,-0.06832794843729884
-0.19705,-0.07246156672961925
-0.19704,-0.07564127310833303
-0.19703,-0.0784235161897115
-0.19702,-0.08056981799533941
-0.19701,-0.08279561246043905
-0.197,-0.08438546564979307
-0.19699,-0.08557785554181363
-0.19698,-0.08629328947702422
-0.19697,-0.08629328947702422
-0.19696,-0.08621379681755638
-0.19695,-0.08621379681755638
-0.19694,-0.08502140692553871
-0.19693,-0.08557785554181363
-0.19692,-0.08454445096872948
-0.19691,-0.08335206107671397
-0.1969,-0.08208017852522846
-0.19689,-0.08072880331427221
-0.19688,-0.0791389501249182
-0.19687,-0.07739011161662562
-0.19686,-0.07580025842727162
-0.19685,-0.07341547864323338
-0.19684,-0.07095120619973019
-0.19683,-0.0687254117346346
-0.19682,-0.06642012461006305
-0.19681,-0.06355838886921658
-0.1968,-0.06133259440412098
-0.19679,-0.05839136600381073
-0.19678,-0.05584760090083492
-0.19677,-0.05322434313840083
-0.19676,-0.05028311473809056
-0.19675,-0.04718290101885026
-0.19674,-0.04352623868332377
-0.19673,-0.03859769379631739
-0.19672,-0.03319219295251378
-0.19671,-0.02603785360039793
-0.1967,-0.01888351424828019
-0.19669,-0.01244460883139648
-0.19668,-0.008867439155343469
-0.19667,-0.005449254798222965
-0.19666,-0.003700416289933563
-0.19665,-0.003302952992594339
-0.19664,-0.003700416289936021
-0.19663,-0.005051791500886923
-0.19662,-0.005290269479290457
-0.19661,-0.003620923630468754
-0.1966,-0.001236143846430376
-0.19659,0.001546099234944189
-0.19658,0.004566820294716793
-0.19657,0.007746526673436076
-0.19656,0.01180065230630136
-0.19655,0.01466238804713857
-0.19654,0.01776260176638451
-0.19653,0.02102180080457164
-0.19652,0.02404252186434424
-0.19651,0.02714273558359019
-0.1965,0.0309583832380398
-0.19649,0.03429707493569621
-0.19648,0.03771525929281354
-0.19647,0.04113344364992463
-0.19646,0.04447213534758034
-0.19645,0.04765184172630237
-0.19644,0.05218292331596128
-0.19643,0.05456770309999662
-0.19642,0.05766791681924791
-0.19641,0.06060914521955281
-0.1964,0.06370935893879875
-0.19639,0.06680957265803907
-0.19638,0.07030724967462987
-0.19637,0.07348695605334365
-0.19636,0.07650767711311626
-0.19635,0.07936941285396416
-0.19634,0.08239013391374227
-0.19633,0.08501339167617636
-0.19632,0.08731867880074863
-0.19631,0.08795462007648835
-0.1963,0.08628527422766666
-0.19629,0.08413897242203484
-0.19628,0.08127723668118636
-0.19627,0.07793854498354295
-0.19626,0.07420238998855426
-0.19625,0.06959181573942765
-0.19624,0.06426580755507366
-0.19623,0.05854233607338885
-0.19622,0.05202393799703744
-0.19621,0.04566452523959801
-0.1962,0.03843069322801156
-0.19619,0.03151483185432165
-0.19618,0.0223731760155195
-0.19617,0.01434441740925128
-0.19616,0.005600224867804269
-0.19615,-0.00314396767365865
-0.19614,-0.01220613085297647
-0.19613,-0.02182474264860216
-0.19612,-0.03104589114687215
-0.19611,-0.04034653230459306
-0.1961,-0.04909072484607289
-0.19609,-0.05529115228456478
-0.19608,-0.05966324855529624
-0.19607,-0.06387635950709201
-0.19606,-0.06737403652368455
-0.19605,-0.07142816215653726
-0.19604,-0.07444888321631536
-0.19603,-0.07675417034088734
-0.19602,-0.07921844278438604
-0.19601,-0.08104677395214648
-0.196,-0.08287510511990358
-0.19599,-0.08406749501192458
-0.19598,-0.08470343628766733
-0.19597,-0.08454445096873194
-0.19596,-0.08470343628766733
-0.19595,-0.08478292894713287
-0.19594,-0.08351104639564966
-0.19593,-0.08406749501192458
-0.19592,-0.08247764182256508
-0.19591,-0.08104677395214648
-0.1959,-0.07977489140066096
-0.19589,-0.07834402353024236
-0.19588,-0.07707214097875424
-0.19587,-0.07540279512992951
-0.19586,-0.0731770006648339
-0.19585,-0.07071272822132667
-0.19584,-0.06848693375622701
-0.19583,-0.06626113929112736
-0.19582,-0.06379686684762417
-0.19581,-0.06077614578784144
-0.1958,-0.05823238068487503
-0.19579,-0.05552963026296832
-0.19578,-0.05274738718158869
-0.19577,-0.04996514410021918
-0.19576,-0.04686493038097324
-0.19575,-0.04328776070492674
-0.19574,-0.03915414241259231
-0.19573,-0.03462306082292516
-0.19572,-0.02874060402231535
-0.19571,-0.02214271328647354
-0.1957,-0.01562431521009971
-0.19569,-0.009821351068957606
-0.19568,-0.006403166711840283
-0.19567,-0.003541430970994547
-0.19566,-0.001713099803237445
-0.19565,-0.0006002025706876187
-0.19564,0.0001152313645216824
-0.19563,0.0005126946618622074
-0.19562,0.002023055191751257
-0.19561,0.004566820294717661
-0.1956,0.00798500465183961
-0.19559,0.01092623305215637
-0.19558,0.01450340272820288
-0.19557,0.01808057240425589
-0.19556,0.02229368335605701
-0.19555,0.02523491175636191
-0.19554,0.02849411079454355
-0.19553,0.0317533098327311
-0.19552,0.03501250887090682
-0.19551,0.03858967854695983
-0.1955,0.04232583354194174
-0.19549,0.04574401789906585
-0.19548,0.04900321693724749
-0.19547,0.05202393799702008
-0.19546,0.05512415171627152
-0.19545,0.05870132139233278
-0.19544,0.06323240298199169
-0.19543,0.06529921212815565
-0.19542,0.06839942584740709
-0.19541,0.0714201469071797
-0.1954,0.07420238998855426
-0.19539,0.07762057434566536
-0.19538,0.08087977338385322
-0.19537,0.0839004944436313
-0.19536,0.08700070816287162
-0.19535,0.08986244390371967
-0.19534,0.09296265762297082
-0.19533,0.09582439336380802
-0.19532,0.09733475389369707
-0.19531,0.09757323187209727
-0.1953,0.09574490070434018
-0.19529,0.09375758421764406
-0.19528,0.09097534113626371
-0.19527,0.0877956347575557
-0.19526,0.0833440458273564
-0.19525,0.0788129642376975
-0.19524,0.07324847807494012
-0.19523,0.06720703595538392
-0.19522,0.06100660851690331
-0.19521,0.05448821044052878
-0.1952,0.04733387108841002
-0.19519,0.0403385170552524
-0.19518,0.03111736855698242
-0.19517,0.02269114665337541
-0.19516,0.0141854320903315
-0.19515,0.005123268910997201
-0.19514,-0.004177372246723714
-0.19513,-0.01347801340447846
-0.19512,-0.02301713254061983
-0.19511,-0.03247675901727615
-0.1951,-0.04114145889928843
-0.19509,-0.04750087165672511
-0.19508,-0.05250890920319022
-0.19507,-0.05680151281445384
-0.19506,-0.06053766780945077
-0.19505,-0.06506874939910968
-0.19504,-0.06800997779941995
-0.19503,-0.07126917683759565
-0.19502,-0.0739719272595083
-0.19501,-0.07627721438407579
-0.195,-0.0778670675734298
-0.19499,-0.0791389501249182
-0.19498,-0.07993387671959665
-0.19497,-0.08064931065480595
-0.19496,-0.08064931065480725
-0.19495,-0.08080829597374106
-0.19494,-0.07977489140066096
-0.19493,-0.08049032533587157
-0.19492,-0.07882097948704522
-0.19491,-0.07794656023290053
-0.1949,-0.0769926483192864
-0.19489,-0.07572076576780319
-0.19488,-0.07436939055684752
-0.19487,-0.07246156672961925
-0.19486,-0.07039475758345905
-0.19485,-0.06856642641569485
-0.19484,-0.06657910992899484
-0.19483,-0.06443280812336694
-0.19482,-0.06196853567986374
-0.19481,-0.05902730727954914
-0.1948,-0.05664252749551814
-0.19479,-0.05409876239254711
-0.19478,-0.0515549972895807
-0.19477,-0.04901123218660505
-0.19476,-0.04630848176469833
-0.19475,-0.04296979006705492
-0.19474,-0.03907464975312445
-0.19473,-0.03510001677973222
-0.19472,-0.02937654529804741
-0.19471,-0.02277865456221629
-0.1947,-0.01641924180477773
-0.19469,-0.01037779968523252
-0.19468,-0.006880122668647352
-0.19467,-0.004018386927802049
-0.19466,-0.002428533738448047
-0.19465,-0.0016336071437696
-0.19464,-0.001315636505898799
-0.19463,-0.0009976658680268423
-0.19462,-0.000520709911219774
-0.19461,0.001307621256537329
-0.1946,0.00393087901897953
-0.19459,0.006872107419295568
-0.19458,0.01005181379800357
-0.19457,0.01378796879299228
-0.19456,0.01744463112851877
-0.19455,0.02054484484775907
-0.19454,0.02364505856700502
-0.19453,0.02674527228624533
-0.19452,0.02992497866496475
-0.19451,0.03358164100048561
-0.1945,0.03699982535759672
-0.19449,0.04017953173631672
-0.19448,0.04359771609343405
-0.19447,0.04685691513161568
-0.19446,0.050275099488733
-0.19445,0.05377277650532569
-0.19444,0.05790639479764609
-0.19443,0.0600526966032779
-0.19442,0.06323240298199689
-0.19441,0.06609413872283409
-0.1944,0.0691148597826122
-0.19439,0.07245355148025559
-0.19438,0.07555376519950761
-0.19437,0.0787334715782214
-0.19436,0.0819131779569294
-0.19435,0.08501339167618113
-0.19434,0.0881136053954317
-0.19433,0.09065737049839812
-0.19432,0.09224722368775501
-0.19431,0.09288316496349472
-0.1943,0.09121381911467302
-0.19429,0.08922650262797691
-0.19428,0.08676223018447821
-0.19427,0.08350303114629208
-0.19426,0.07928992019449632
-0.19425,0.07452036062643431
-0.19424,0.06935333776101572
-0.19423,0.06362986627931992
-0.19422,0.05758842415977472
-0.19421,0.05067256278607223
-0.1942,0.04351822343395392
-0.19419,0.03676134737919939
-0.19418,0.0276991841998651
-0.19417,0.01974991825306559
-0.19416,0.01148268166842478
-0.19415,0.002420518489090481
-0.19414,-0.006959615328098133
-0.19413,-0.01610127116691734
-0.19412,-0.02564039030305871
-0.19411,-0.03478204614184423
-0.1941,-0.04352623868332377
-0.19409,-0.05028311473809895
-0.19408,-0.05489368898722556
-0.19407,-0.05934527791742486
-0.19406,-0.06324041823135648
-0.19405,-0.0672150512047415
-0.19404,-0.07031526492398744
-0.19403,-0.07341547864322774
-0.19402,-0.07564127310833303
-0.19401,-0.07818503821130407
-0.194,-0.07977489140065808
-0.19399,-0.08088778863321079
-0.19398,-0.08160322256842253
-0.19397,-0.08223916384416415
-0.19396,-0.08231865650363199
-0.19395,-0.08271611980096846
-0.19394,-0.08120575927108216
-0.19393,-0.08160322256842138
-0.19392,-0.08033134001693819
-0.19391,-0.0792979354438539
-0.1939,-0.07834402353023975
-0.19389,-0.07699264831928886
-0.19388,-0.07572076576780087
-0.19387,-0.07373344928110476
-0.19386,-0.07190511811334767
-0.19385,-0.06999729428611606
-0.19384,-0.06800997779941648
-0.19383,-0.06610215397219167
-0.19382,-0.06371737418815633
-0.19381,-0.06037868249050294
-0.1938,-0.05823238068487503
-0.19379,-0.05584760090083969
-0.19378,-0.05306535781947019
-0.19377,-0.05028311473809056
-0.19376,-0.04718290101884462
-0.19375,-0.04392370198066892
-0.19374,-0.04034653230460998
-0.19373,-0.0359744360338684
-0.19372,-0.03040994987112939
-0.19371,-0.02373256647583043
-0.1937,-0.01681670510211825
-0.19369,-0.01149069691778234
-0.19368,-0.01029830702576467
-0.19367,-0.004256864906219465
-0.19366,-0.0006796952301554634
-0.19365,0.0004332020023943626
-0.19364,-0.0005207099112180388
-0.19363,-0.0009181732085589975
-0.19362,-0.0003617245922840845
-0.19361,0.002102547851219102
-0.1936,0.005520732208336425
-0.19359,0.008938916565460255
-0.19358,0.01251608624150676
-0.19357,0.01641122655543115
-0.19356,0.0203063668693606
-0.19355,0.02308860995073011
-0.19354,0.02650679430784743
-0.19353,0.03008396398389394
-0.19352,0.03358164100048561
-0.19351,0.03731779599547431
-0.1935,0.04081547301205312
-0.19349,0.04455162800704818
-0.19348,0.04789031970470373
-0.19347,0.05122901140234713
-0.19346,0.05496516639733584
-0.19345,0.0585423360733968
-0.19344,0.06291443234412031
-0.19343,0.06529921212815565
-0.19342,0.06887638180420215
-0.19341,0.07205608818292245
-0.1934,0.07563325785897546
-0.19339,0.07873347157821577
-0.19338,0.08199267061640304
-0.19337,0.08541085497352036
-0.19336,0.08859056135223414
-0.19335,0.09192925304988363
-0.19334,0.09542693006647371
-0.19333,0.09812968048837552
-0.19332,0.09971953367773241
-0.19331,0.10043496761294
-0.1933,0.09876562176411827
-0.19329,0.09685779793689001
-0.19328,0.0945525108123267
-0.19327,0.09121381911467302
-0.19326,0.08723918614128079
-0.19325,0.08278759721108958
-0.19324,0.07746158902673589
-0.19323,0.07189710286397592
-0.19322,0.06593515340389841
-0.19321,0.05925777000859946
-0.1932,0.05210343065648171
-0.19319,0.04566452523959801
-0.19318,0.03628439142239233
-0.19317,0.02833512547562232
-0.19316,0.01959093293414494
-0.19315,0.01013130645747142
-0.19314,0.0009101579592182048
-0.19313,-0.008549468517472091
-0.19312,-0.01785010967522713
