synth-diodes-out/1kHz2V/scope.csv

#Digilent WaveForms Oscilloscope Acquisition
#Device Name: Discovery3
#Serial Number: SN:210415BD5874
#Date Time: 2025-04-03 12:18:14.107.612.940
#Sample rate: 2.5641e+06Hz
#Samples: 32768
#Trigger: Source: Channel 1 Type: Edge Condition: Rising Level: 0 V Hyst.: Auto HoldOff: 0 s
#Channel 1: Range: 200 mV/div Offset: 0 V Sample Mode: Average
#Wavegen Channel 1: Running
#Mode: Simple
#Type: Sine
#Frequency: 1 kHz
#Period: 1 ms
#Amplitude: 2 V
#Offset: 0 V
#Symmetry: 50 %
#Phase: 0 °

Time (s),Channel 1 (V)
-0.002636037032590165,0.2391496583843321
-0.002635647032590165,0.2408984968926246
-0.002635257032590164,0.2382752391301882
-0.002634867032590165,0.2396266143411391
-0.002634477032590165,0.236128937324554
-0.002634087032590164,0.2383547317896517
-0.002633697032590165,0.2373213272165716
-0.002633307032590165,0.2364469079624253
-0.002632917032590164,0.2349365474325358
-0.002632527032590165,0.2346980694541327
-0.002632137032590165,0.2335851722215829
-0.002631747032590164,0.2324722749890356
-0.002631357032590165,0.2338236501999865
-0.002630967032590165,0.2315978557348868
-0.002630577032590164,0.2327902456269039
-0.002630187032590165,0.2324722749890331
-0.002629797032590165,0.2333466942431794
-0.002629407032590164,0.2332672015837136
-0.002629017032590165,0.2343800988162614
-0.002628627032590165,0.2348570547730685
-0.002628237032590164,0.2349365474325363
-0.002627847032590165,0.2358109666866826
-0.002627457032590165,0.2342211134973257
-0.002627067032590164,0.2354929960488112
-0.002626677032590165,0.2333466942431794
-0.002626287032590165,0.2348570547730685
-0.002625897032590164,0.2327902456269045
-0.002625507032590165,0.251947976558655
-0.002625117032590165,0.2349365474325363
-0.002624727032590164,0.2189585228794995
-0.002624337032590165,0.221263810004067
-0.002623947032590165,0.2198329421336458
-0.002623557032590164,0.2201509127715172
-0.002623167032590165,0.2184020742632246
-0.002622777032590165,0.218720044901096
-0.002622387032590164,0.2175276550090783
-0.002621997032590165,0.2205483760688564
-0.002621607032590165,0.2193559861768387
-0.002621217032590164,0.218720044901096
-0.002620827032590165,0.2183225816037567
-0.002620437032590165,0.2180046109658854
-0.002620047032590164,0.219197000857903
-0.002619657032590165,0.2184815669226924
-0.002619267032590165,0.220230405430985
-0.002618877032590164,0.2198329421336458
-0.002618487032590165,0.2217407659608741
-0.002618097032590165,0.2207868540472599
-0.002617707032590164,0.2210253320256635
-0.002617317032590165,0.2205483760688564
-0.002616927032590165,0.220230405430985
-0.002616537032590164,0.2200714201120493
-0.002616147032590165,0.2182430889442889
-0.002615757032590165,0.2176071476685461
-0.002615367032590164,0.2169712063928034
-0.002614977032590165,0.2167327284143998
-0.002614587032590165,0.2144274412898323
-0.002614197032590164,0.2156993238413179
-0.002613807032590165,0.213553022035686
-0.002613417032590165,0.2137915000140896
-0.002613027032590164,0.2114862128895221
-0.002612637032590165,0.2119631688463283
-0.002612247032590165,0.2123606321436684
-0.002611857032590164,0.2113272275705864
-0.002611467032590165,0.2113272275705864
-0.002611077032590165,0.1893077608979934
-0.002610687032590164,0.1932029012119178
-0.002610297032590165,0.2033779616237834
-0.002609907032590165,0.2030599909859306
-0.002609517032590165,0.2015496304560415
-0.002609127032590165,0.2049678148131526
-0.002608737032590165,0.2030599909859306
-0.002608347032590165,0.2047293368347553
-0.002607957032590165,0.203218976304869
-0.002607567032590165,0.2034574542832698
-0.002607177032590165,0.2040139028995447
-0.002606787032590165,0.2029804983264646
-0.002606397032590165,0.203854917580609
-0.002606007032590165,0.2018676010939129
-0.002605617032590165,0.2013906451371067
-0.002605227032590165,0.2004367332234917
-0.002604837032590165,0.201311152477638
-0.002604447032590165,0.1991648506720101
-0.002604057032590165,0.1994828213098775
-0.002603667032590165,0.1981314460989242
-0.002603277032590164,0.197892968120522
-0.002602887032590165,0.1986084020557312
-0.002602497032590165,0.1969390562069065
-0.002602107032590164,0.1972570268447779
-0.002601717032590165,0.1972570268447779
-0.002601327032590165,0.1989263726936026
-0.002600937032590164,0.1987673873746713
-0.002600547032590165,0.2011521671587023
-0.002600157032590165,0.1998802846072168
-0.002599767032590164,0.2005957185424251
-0.002599377032590165,0.1993238359909419
-0.002598987032590165,0.2003572405640238
-0.002598597032590164,0.1993238359909424
-0.002598207032590165,0.1996418066288132
-0.002597817032590165,0.1983699240773277
-0.002597427032590164,0.1967800708879714
-0.002597037032590165,0.1970980415258422
-0.002596647032590165,0.1908181214278825
-0.002596257032590164,0.1805635683565298
-0.002595867032590165,0.1801661050591913
-0.002595477032590165,0.180802046334934
-0.002595087032590164,0.1800071197402576
-0.002594697032590165,0.1811200169728054
-0.002594307032590165,0.1788942225077058
-0.002593917032590164,0.1796891491023841
-0.002593527032590165,0.1796096564429164
-0.002593137032590165,0.1788942225077058
-0.002592747032590164,0.1800071197402556
-0.002592357032590165,0.1800071197402556
-0.002591967032590165,0.1810405243133376
-0.002591577032590164,0.1802455977186591
-0.002591187032590165,0.1824713921837588
-0.002590797032590165,0.1826303775026945
-0.002590407032590164,0.1835842894163086
-0.002590017032590165,0.1823918995242909
-0.002589627032590165,0.1819149435674839
-0.002589237032590164,0.1836637820757764
-0.002588847032590165,0.1815174802701446
-0.002588457032590165,0.1816764655890803
-0.002588067032590164,0.1795301637834485
-0.002587677032590165,0.1808815389944019
-0.002587287032590165,0.1778608179346238
-0.002586897032590164,0.1783377738914309
-0.002586507032590165,0.1768274133615418
-0.002586117032590165,0.1770658913399453
-0.002585727032590164,0.1779403105940916
-0.002585337032590165,0.1761914720857991
-0.002584947032590165,0.1764299500642026
-0.002584557032590164,0.1752375601721849
-0.002584167032590165,0.1764299500642026
-0.002583777032590165,0.1757940087884598
-0.002583387032590164,0.1787352371887701
-0.002582997032590165,0.1764299500642026
-0.002582607032590165,0.1784172665508987
-0.002582217032590164,0.201311152477638
-0.002581827032590165,0.1739656776206994
-0.002581437032590165,0.162916197954669
-0.002581047032590164,0.1648240217818973
-0.002580657032590165,0.1651419924197686
-0.002580267032590165,0.1637906172088153
-0.002579877032590164,0.1640290951872188
-0.002579487032590165,0.1629956906141368
-0.002579097032590165,0.1633136612520082
-0.002578707032590164,0.1613263447653121
-0.002578317032590165,0.1609288814679729
-0.002577927032590165,0.1597364915759552
-0.002577537032590164,0.161882793381587
-0.002577147032590165,0.1606904034895715
-0.002576757032590165,0.1587825796623411
-0.002576367032590164,0.1597364915759552
-0.002575977032590165,0.1582261310460689
-0.002575587032590165,0.1598954768948909
-0.002575197032590164,0.1577491750892591
-0.002574807032590165,0.1592595356191454
-0.002574417032590165,0.1584646090244697
-0.002574027032590165,0.1602929401922301
-0.002573637032590165,0.1605314181706332
-0.002573247032590165,0.1613263447653121
-0.002572857032590165,0.1624392419978619
-0.002572467032590165,0.1624392419978619
-0.002572077032590165,0.1625982273167976
-0.002571687032590165,0.1606109108301015
-0.002571297032590165,0.1629956906141325
-0.002570907032590165,0.1606904034895693
-0.002570517032590165,0.1604519255111658
-0.002570127032590165,0.1586235943434087
-0.002569737032590165,0.1583851163650018
-0.002569347032590165,0.1591800429596803
-0.002568957032590165,0.1573517117919232
-0.002568567032590165,0.1564772925377735
-0.002568177032590165,0.1559208439214986
-0.002567787032590164,0.130006236934982
-0.002567397032590165,0.1304037002323205
-0.002567007032590165,0.1381144882007014
-0.002566617032590164,0.1358886937356039
-0.002566227032590165,0.1370810836276194
-0.002565837032590165,0.1360476790545375
-0.002565447032590164,0.1355707230977331
-0.002565057032590165,0.1370810836276194
-0.002564667032590165,0.1359681863950696
-0.002564277032590164,0.1380349955412326
-0.002563887032590165,0.1374785469249587
-0.002563497032590165,0.1405787606442046
-0.002563107032590164,0.1389889074548509
-0.002562717032590165,0.1407377459631403
-0.002562327032590165,0.1387504294764442
-0.002561937032590164,0.1397838340495234
-0.002561547032590165,0.1382734735196371
-0.002561157032590165,0.1383529661791049
-0.002560767032590164,0.1381939808601664
-0.002560377032590165,0.1366041276708124
-0.002559987032590165,0.136286157032941
-0.002559597032590164,0.1346963038435828
-0.002559207032590165,0.1339808699083735
-0.002558817032590165,0.1335834066110343
-0.002558427032590164,0.1346168111841113
-0.002558037032590165,0.1319140607622095
-0.002557647032590165,0.1334244212920986
-0.002557257032590164,0.1315165974648703
-0.002556867032590165,0.1308011635296597
-0.002556477032590165,0.1278599351293495
-0.002556087032590164,0.12857536906456
-0.002555697032590165,0.127065008534671
-0.002555307032590165,0.1250776920479749
-0.002554917032590164,0.127065008534671
-0.002554527032590165,0.1259521113021212
-0.002554137032590165,0.1267470378967996
-0.002553747032590164,0.1257136333237177
-0.002553357032590165,0.1244417507722321
-0.002552967032590165,0.1073508289866455
-0.002552577032590164,0.1069533656893063
-0.002552187032590165,0.1073508289866455
-0.002551797032590165,0.1065559023919671
-0.002551407032590164,0.1040916299484639
-0.002551017032590165,0.1044890932458031
-0.002550627032590165,0.1046480785647388
-0.002550237032590164,0.1056814831378208
-0.002549847032590165,0.1067148877109027
-0.002549457032590165,0.1063174244135635
-0.002549067032590164,0.1097356087706809
-0.002548677032590165,0.1079867702623883
-0.002548287032590165,0.1104510427058914
-0.002547897032590164,0.1110074913221664
-0.002547507032590165,0.1102125647274879
-0.002547117032590165,0.1082252482407918
-0.002546727032590164,0.1081457555813239
-0.002546337032590165,0.1097356087706809
-0.002545947032590165,0.1078277849434526
-0.002545557032590164,0.1084637262191953
-0.002545167032590165,0.1079072776029204
-0.002544777032590165,0.1107690133437628
-0.002544387032590164,0.1089406821760024
-0.002543997032590165,0.1107690133437628
-0.002543607032590165,0.1091791601544059
-0.002543217032590164,0.1098945940896165
-0.002542827032590165,0.1102920573869558
-0.002542437032590165,0.1080662629218561
-0.002542047032590164,0.1089406821760024
-0.002541657032590165,0.1059994537756975
-0.002541267032590165,0.1073508289866455
-0.002540877032590164,0.1061584390946278
-0.002540487032590165,0.1071918436677079
-0.002540097032590165,0.1040916299484639
-0.002539707032590164,0.1052840198404815
-0.002539317032590165,0.1039326446295306
-0.002538927032590165,0.07412289732908642
-0.002538537032590165,0.08008484678917477
-0.002538147032590165,0.08549034763297839
-0.002537757032590165,0.08469542103830976
-0.002537367032590165,0.08294658253001717
-0.002536977032590165,0.08397998710309729
-0.002536587032590165,0.08310556784895286
-0.002536197032590165,0.08525186965458467
-0.002535807032590165,0.08453643571937537
-0.002535417032590165,0.08628527422766666
-0.002535027032590165,0.08588781093032744
-0.002534637032590165,0.08843157603329384
-0.002534247032590165,0.08684172284394157
-0.002533857032590165,0.08819309805489492
-0.002533467032590165,0.08874954667116883
-0.002533077032590165,0.08763664943862001
-0.002532687032590165,0.08811360539542708
-0.002532297032590164,0.08588781093032975
-0.002531907032590165,0.08715969348181295
-0.002531517032590165,0.08437745040043838
-0.002531127032590164,0.0862057815681949
-0.002530737032590165,0.084059479762567
-0.002530347032590165,0.08453643571937407
-0.002529957032590164,0.0831055678489559
-0.002529567032590165,0.08477491369777761
-0.002529177032590165,0.08286708987054933
-0.002528787032590164,0.08191317795693649
-0.002528397032590165,0.08262861189214579
-0.002528007032590165,0.08151571465959596
-0.002527617032590164,0.08350303114629136
-0.002527227032590165,0.08310556784895286
-0.002526837032590165,0.08429795774097054
-0.002526447032590164,0.08366201646523226
-0.002526057032590165,0.08612628890873096
-0.002525667032590165,0.08517237699511683
-0.002525277032590164,0.08572882561139043
-0.002524887032590165,0.08501339167618113
-0.002524497032590165,0.1204671177988399
-0.002524107032590164,0.06951232307993957
-0.002523717032590165,0.06299392500358815
-0.002523327032590165,0.06569667542549487
-0.002522937032590164,0.06450428553347778
-0.002522547032590165,0.06482225617134858
-0.002522157032590165,0.06339138830092737
-0.002521767032590164,0.06442479287400936
-0.002521377032590165,0.06275544702518461
-0.002520987032590165,0.06362986627933091
-0.002520597032590164,0.06251696904678108
-0.002520207032590165,0.06172204245210264
-0.002519817032590165,0.06243747638731324
-0.002519427032590164,0.06251696904678108
-0.002519037032590165,0.06275544702518461
-0.002518647032590165,0.06267595436571677
-0.002518257032590164,0.06418631489560582
-0.002517867032590165,0.06315291032252383
-0.002517477032590165,0.06553769010655919
-0.002517087032590164,0.06545819744709133
-0.002516697032590165,0.06657109467964116
-0.002516307032590165,0.06625312404176978
-0.002515917032590164,0.06553769010655919
-0.002515527032590165,0.06506073414975211
-0.002515137032590165,0.06347088096039522
-0.002514747032590164,0.06490174883081642
-0.002514357032590165,0.06386834425773444
-0.002513967032590165,0.06370935893879875
-0.002513577032590164,0.06204001308997402
-0.002513187032590165,0.06362986627933091
-0.002512797032590165,0.06188102777103832
-0.002512407032590164,0.0623579837278454
-0.002512017032590165,0.06100660851689203
-0.002511627032590165,0.06029117458168143
-0.002511237032590164,0.06037066724114928
-0.002510847032590165,0.05925777000859946
-0.002510457032590165,0.06029117458168143
-0.002510067032590164,0.02030636686935554
-0.002509677032590165,0.03421758227622837
-0.002509287032590165,0.03882815652536337
-0.002508897032590164,0.03898714184429905
-0.002508507032590165,0.03954359046057396
-0.002508117032590165,0.03986156109844534
-0.002507727032590164,0.0419283702446093
-0.002507337032590165,0.0404975023741881
-0.002506947032590165,0.04025902439578456
-0.002506557032590164,0.04041800971472026
-0.002506167032590165,0.04280278949875126
-0.002505777032590165,0.03994105375791318
-0.002505387032590164,0.04105395099046301
-0.002504997032590165,0.03787424461175501
-0.002504607032590165,0.03938460514163827
-0.002504217032590164,0.03811272259015276
-0.002503827032590165,0.03731779599547576
-0.002503437032590165,0.03684084003866724
-0.002503047032590165,0.0353304795087782
-0.002502657032590165,0.03588692812505209
-0.002502267032590165,0.03501250887090682
-0.002501877032590165,0.03572794280611742
-0.002501487032590165,0.03389961163836031
-0.002501097032590165,0.03485352355197112
-0.002500707032590165,0.03485352355197112
-0.002500317032590165,0.03469453823303573
-0.002499927032590165,0.03588692812505311
-0.002499537032590165,0.03699982535760293
-0.002499147032590165,0.03787424461174763
-0.002498757032590165,0.03660236206026371
-0.002498367032590165,0.03851018588749199
-0.002497977032590165,0.03787424461175038
-0.002497587032590165,0.03803322993068492
-0.002497197032590165,0.03604591344398879
-0.002496807032590164,0.0355689574871797
-0.002496417032590165,0.0344560602546319
-0.002496027032590165,0.03382011897888915
-0.002495637032590164,0.006077180824612349
-0.002495247032590165,0.006633629440886251
-0.002494857032590165,0.01052876975481064
-0.002494467032590164,0.007985004651839177
-0.002494077032590165,0.007746526673436076
-0.002493687032590165,0.007905511992371765
-0.002493297032590164,0.007905511992370464
-0.002492907032590165,0.007190078057161164
-0.002492517032590165,0.007587541354500387
-0.002492127032590164,0.006951600078757341
-0.002491737032590165,0.00679261475982194
-0.002491347032590165,0.008700438587050214
-0.002490957032590164,0.007746526673438534
-0.002490567032590165,0.009097901884389437
-0.002490177032590165,0.008541453268114525
-0.002489787032590164,0.01164166698735772
-0.002489397032590165,0.01013130645747142
-0.002489007032590165,0.0104492770953428
-0.002488617032590164,0.01140318900895433
-0.002488227032590165,0.009972321138535729
-0.002487837032590165,0.0104492770953428
-0.002487447032590164,0.008382467949181292
-0.002487057032590165,0.009733843160132195
-0.002486667032590165,0.007905511992371765
-0.002486277032590164,0.008064497311307456
-0.002485887032590165,0.006156673484079183
-0.002485497032590165,0.006554136781418406
-0.002485107032590164,0.005043776251529356
-0.002484717032590165,0.005759210186739958
-0.002484327032590165,0.005520732208336425
-0.002483937032590164,0.003533415721640306
-0.002483547032590165,0.005759210186739958
-0.002483157032590165,0.005123268910997201
-0.002482767032590164,0.005679717527272114
-0.002482377032590165,0.004248849656850909
-0.002481987032590165,0.005361746889400735
-0.002481597032590164,0.004407834975786598
-0.002481207032590165,-0.02532241966518732
-0.002480817032590165,-0.01260359415033217
-0.002480427032590164,-0.008549468517472091
-0.002480037032590165,-0.009503380431086226
-0.002479647032590165,-0.009423887771618383
-0.002479257032590164,-0.008549468517472091
-0.002478867032590165,-0.01093424830150743
-0.002478477032590165,-0.009503380431086226
-0.002478087032590164,-0.01093424830150743
-0.002477697032590165,-0.009662365750021917
-0.002477307032590165,-0.01204714553405726
-0.002476917032590164,-0.01029830702576467
-0.002476527032590165,-0.01204714553405726
-0.002476137032590165,-0.01268308680980001
-0.002475747032590164,-0.01316004276660708
-0.002475357032590165,-0.01331902808554277
-0.002474967032590165,-0.01260359415033217
-0.002474577032590164,-0.01403446202075338
-0.002474187032590165,-0.01308055010713924
-0.002473797032590165,-0.01459091063702829
-0.002473407032590164,-0.01347801340447846
-0.002473017032590165,-0.01538583723170674
-0.002472627032590165,-0.013716491382882
-0.002472237032590164,-0.01355750606394631
-0.002471847032590165,-0.01284207212873571
-0.002471457032590165,-0.01085475564203959
-0.002471067032590164,-0.01117272627991097
-0.002470677032590165,-0.009423887771621564
-0.002470287032590165,-0.01117272627991097
-0.002469897032590164,-0.009980336387893295
-0.002469507032590165,-0.0122856235124566
-0.002469117032590165,-0.01085475564203959
-0.002468727032590164,-0.01292156478820355
-0.002468337032590165,-0.01117272627991415
-0.002467947032590165,-0.01300105744767139
-0.002467557032590165,-0.01355750606394631
-0.002467167032590165,-0.01228562351246311
-0.002466777032590165,0.02443998516168347
-0.002466387032590165,-0.03788225986110678
-0.002465997032590165,-0.04098247358034709
-0.002465607032590165,-0.0370078406069605
-0.002465217032590165,-0.03788225986110678
-0.002464827032590165,-0.03692834794749439
-0.002464437032590165,-0.03764378188270326
-0.002464047032590165,-0.03661037730962127
-0.002463657032590165,-0.03494103146079958
-0.002463267032590165,-0.03438458284452163
-0.002462877032590165,-0.03358965624984317
-0.002462487032590165,-0.03517950943919718
-0.002462097032590165,-0.0325562516767612
-0.002461707032590165,-0.03406661220665025
-0.002461317032590164,-0.0331127002930403
-0.002460927032590165,-0.0354179874176036
-0.002460537032590165,-0.03462306082292516
-0.002460147032590164,-0.03573595805547643
-0.002459757032590165,-0.03653088465015343
-0.002459367032590165,-0.03581545071494283
-0.002458977032590164,-0.03645139199068616
-0.002458587032590165,-0.03676936262855697
-0.002458197032590165,-0.03764378188270326
-0.002457807032590164,-0.0366898699690936
-0.002457417032590165,-0.03915414241259231
-0.002457027032590165,-0.03867718645578523
-0.002456637032590164,-0.04002856166673556
-0.002456247032590165,-0.03835921581791386
-0.002455857032590165,-0.0377232745421711
-0.002455467032590164,-0.03708733326642603
-0.002455077032590165,-0.03581545071494283
-0.002454687032590165,-0.03653088465015343
-0.002454297032590164,-0.03486153880132956
-0.002453907032590165,-0.03533849475813576
