-20250406-BKP/synth-diodes-1f-1r-in-T10-L10-D00/1kHz-2V/scope.csv

#Digilent WaveForms Oscilloscope Acquisition
#Device Name: Discovery3
#Serial Number: SN:210415BD5874
#Date Time: 2025-04-06 20:16:47.206.592.870
#Sample rate: 1.23457e+06Hz
#Samples: 32768
#Trigger: Source: Channel 1 Type: Edge Condition: Rising Level: 0 V Hyst.: Auto HoldOff: 0 s
#Channel 1: Range: 200 mV/div Offset: 0 V Sample Mode: Average
#Wavegen Channel 1: Running
#Mode: Simple
#Type: Sine
#Frequency: 1 kHz
#Period: 1 ms
#Amplitude: 2 V
#Offset: 0 V
#Symmetry: 50 %
#Phase: 0 °

Time (s),Channel 1 (V)
-0.01027716499085804,-0.09018842979094949
-0.01027635499085804,-0.09066538574775569
-0.01027554499085804,-0.09050640042881999
-0.01027473499085804,-0.08979096649360939
-0.01027392499085804,-0.08955248851520586
-0.01027311499085804,-0.0890755325583988
-0.01027230499085804,-0.08748567936904189
-0.01027149499085804,-0.08533937756341009
-0.01027068499085804,-0.0844649583092638
-0.01026987499085804,-0.08390850969298989
-0.01026906499085804,-0.08319307575777828
-0.01026825499085804,-0.08271611980097121
-0.01026744499085804,-0.08192119320629276
-0.01026663499085804,-0.0816032225684208
-0.01026582499085804,-0.08128525193055001
-0.01026501499085804,-0.08064931065480725
-0.01026420499085804,-0.08088778863321079
-0.01026339499085804,-0.08963198117467371
-0.01026258499085804,-0.1057689910466168
-0.01026177499085804,-0.1109360139120561
-0.01026096499085804,-0.1129233303987522
-0.01026015499085804,-0.1130028230582201
-0.01025934499085804,-0.1130028230582193
-0.01025853499085804,-0.1126053597608808
-0.01025772499085804,-0.1126848524203487
-0.01025691499085804,-0.1115719551877988
-0.01025610499085804,-0.1115719551877988
-0.01025529499085804,-0.1112539845499275
-0.01025448499085804,-0.109982101998442
-0.01025367499085804,-0.1091871754037635
-0.01025286499085804,-0.1075178295549388
-0.01025205499085804,-0.1060869616845202
-0.01025124499085804,-0.1045766011546285
-0.01025043499085804,-0.1034637039220787
-0.01024962499085804,-0.1110949992309918
-0.01024881499085804,-0.1372480841959127
-0.01024800499085804,-0.1467077106725862
-0.01024719499085804,-0.1498874170513
-0.01024638499085804,-0.150920821624382
-0.01024557499085804,-0.1503643730081071
-0.01024476499085804,-0.1498874170513008
-0.01024395499085804,-0.1489335051376859
-0.01024314499085804,-0.1480590858835396
-0.01024233499085804,-0.146787203332054
-0.01024152499085804,-0.1459922767373723
-0.01024071499085804,-0.1441639455696152
-0.01023990499085804,-0.142733077699194
-0.01023909499085804,-0.1418586584450477
-0.01023828499085804,-0.1413817024882406
-0.01023747499085804,-0.1412227171693049
-0.01023666499085804,-0.1409047465314335
-0.01023585499085804,-0.1401893125962229
-0.01023504499085804,-0.151954226197464
-0.01023423499085804,-0.1712709424481151
-0.01023342499085804,-0.1774713698866421
-0.01023261499085804,-0.1795381790328061
-0.01023180499085804,-0.1786637597786598
-0.01023099499085804,-0.1775508625461099
-0.01023018499085804,-0.1765969506324958
-0.01022937499085804,-0.1761199946756887
-0.01022856499085804,-0.1751660827620746
-0.01022775499085804,-0.1747686194647354
-0.01022694499085804,-0.1741326781889938
-0.01022613499085804,-0.1732582589348463
-0.01022532499085804,-0.1719863763833608
-0.01022451499085804,-0.170873479150811
-0.01022370499085804,-0.169601596599322
-0.01022289499085804,-0.1676937727720972
-0.01022208499085804,-0.1661039195827403
-0.01022127499085804,-0.1674552947936937
-0.01022046499085804,-0.1864540404065086
-0.01021965499085804,-0.1973445347536033
-0.01021884499085804,-0.2008422117701885
-0.01021803499085804,-0.2014781530459312
-0.01021722499085804,-0.2012396750675277
-0.01021641499085804,-0.2004447484728481
-0.01021560499085804,-0.1998088071971065
-0.01021479499085804,-0.1987754026240245
-0.01021398499085804,-0.1972650420941354
-0.01021317499085804,-0.1968675787967962
-0.01021236499085804,-0.1951187402885036
-0.01021155499085804,-0.1925749751855326
-0.01021074499085804,-0.1905876586988365
-0.01020993499085804,-0.1886003422121404
-0.01020912499085804,-0.1879644009363988
-0.01020831499085804,-0.1873284596606548
-0.01020750499085804,-0.1866130257254442
-0.01020669499085804,-0.1967085934778605
-0.01020588499085804,-0.2150713978149434
-0.01020507499085804,-0.2209538546155532
-0.01020426499085804,-0.2232591417401207
-0.01020345499085804,-0.223100156421185
-0.01020264499085804,-0.2211128399344889
-0.01020183499085804,-0.2192050161072606
-0.01020102499085804,-0.2180126262152429
-0.01020021499085804,-0.2165817583448217
-0.01019940499085804,-0.2159458170690789
-0.01019859499085804,-0.2148329198365265
-0.01019778499085804,-0.2134020519661079
-0.01019697499085804,-0.2129250960093008
-0.01019616499085804,-0.2114942281388796
-0.01019535499085804,-0.2103813309063298
-0.01019454499085804,-0.2091889410143122
-0.01019373499085804,-0.2078375658033588
-0.01019292499085804,-0.2093479263332478
-0.01019211499085804,-0.2290621058812733
-0.01019130499085804,-0.2369318791685756
-0.01019049499085804,-0.239475644271561
-0.01018968499085804,-0.2402705708662394
-0.01018887499085804,-0.2409065121419822
-0.01018806499085804,-0.2418604240555949
-0.01018725499085804,-0.2410654974609179
-0.01018644499085804,-0.2397141222499645
-0.01018563499085804,-0.2382832543795433
-0.01018482499085804,-0.2381242690606076
-0.01018401499085804,-0.2361369525739115
-0.01018320499085804,-0.2335136948114726
-0.01018239499085804,-0.2297775398164839
-0.01018158499085804,-0.2269952967351093
-0.01018077499085804,-0.2250079802484125
-0.01017996499085804,-0.224610516951074
-0.01017915499085804,-0.2242130536537348
-0.01017834499085804,-0.22771073067032
-0.01017753499085804,-0.246629983623667
-0.01017672499085804,-0.2545792495704515
-0.01017591499085804,-0.2581564192465045
-0.01017510499085804,-0.2587923605222472
-0.01017429499085804,-0.2576794632896974
-0.01017348499085804,-0.2558511321219403
-0.01017267499085804,-0.2530688890405624
-0.01017186499085804,-0.2517175138296091
-0.01017105499085804,-0.2507636019159949
-0.01017024499085804,-0.2498891826618455
-0.01016943499085804,-0.248140344153556
-0.01016862499085804,-0.2467889689426027
-0.01016781499085804,-0.2449606377748423
-0.01016700499085804,-0.2439272332017603
-0.01016619499085804,-0.2422578873529386
-0.01016538499085804,-0.240509048844643
-0.01016457499085804,-0.2407475268230465
-0.01016376499085804,-0.2543407715920479
-0.01016295499085804,-0.2630054714740459
-0.01016214499085804,-0.2645953246633999
-0.01016133499085804,-0.2634824274308501
-0.01016052499085804,-0.2630849641335108
-0.01015971499085804,-0.2623695301983003
-0.01015890499085804,-0.2614156182846861
-0.01015809499085804,-0.2602232283926684
-0.01015728499085804,-0.2595077944574579
-0.01015647499085804,-0.2585538825438437
-0.01015566499085804,-0.2571230146734251
-0.01015485499085804,-0.2551356981867264
-0.01015404499085804,-0.2535458449973695
-0.01015323499085804,-0.2516380211701412
-0.01015242499085804,-0.2494122267050371
-0.01015161499085804,-0.2469479542615384
-0.01015080499085804,-0.2455170863911172
-0.01014999499085804,-0.2455170863911172
-0.01014918499085804,-0.2610181549873469
-0.01014837499085804,-0.2693648842314554
-0.01014756499085804,-0.2715906786965702
-0.01014675499085804,-0.2723061126317808
-0.01014594499085804,-0.2714316933776346
-0.01014513499085804,-0.2697623475288081
-0.01014432499085804,-0.2688084356151957
-0.01014351499085804,-0.2672980750853066
-0.01014270499085804,-0.2648338026418035
-0.01014189499085804,-0.2632439494524466
-0.01014108499085804,-0.2610181549873469
-0.01014027499085804,-0.25942830179799
-0.01013946499085804,-0.2581564192465045
-0.01013865499085804,-0.2571230146734225
-0.01013784499085804,-0.2555331614840685
-0.01013703499085804,-0.2546587422299193
-0.01013622499085804,-0.2543407715920479
-0.01013541499085804,-0.2699213328477455
-0.01013460499085804,-0.2793014666649512
-0.01013379499085804,-0.280414363897501
-0.01013298499085804,-0.2796194373028226
-0.01013217499085804,-0.2781090767729335
-0.01013136499085804,-0.2762012529457052
-0.01013055499085804,-0.2745319070968836
-0.01012974499085804,-0.2727830685885879
-0.01012893499085804,-0.2717496640155059
-0.01012812499085804,-0.2712727080586989
-0.01012731499085804,-0.2700803181666786
-0.01012650499085804,-0.26864945029626
-0.01012569499085804,-0.2672185824258388
-0.01012488499085804,-0.2661851778527568
-0.01012407499085804,-0.2645158320039321
-0.01012326499085804,-0.2623695301983003
-0.01012245499085804,-0.2599052577547971
-0.01012164499085804,-0.2587923605222472
-0.01012083499085804,-0.2706367667829561
-0.01012002499085804,-0.2795399446433385
-0.01011921499085804,-0.282481173043665
-0.01011840499085804,-0.2832760996383434
-0.01011759499085804,-0.2832760996383434
-0.01011678499085804,-0.282481173043665
-0.01011597499085804,-0.2809708125137759
-0.01011516499085804,-0.2800169006001618
-0.01011435499085804,-0.2786655253892084
-0.01011354499085804,-0.2777911061350621
-0.01011273499085804,-0.2754858190104988
-0.01011192499085804,-0.2737369805022021
-0.01011111499085804,-0.2708752447613597
-0.01011030499085804,-0.26864945029626
-0.01010949499085804,-0.2670595971069007
-0.01010868499085804,-0.2657877145554176
-0.01010787499085804,-0.2646748173228677
-0.01010706499085804,-0.2705572741234883
-0.01010625499085804,-0.2812092904921795
-0.01010544499085804,-0.2841505188924897
-0.01010463499085804,-0.2838325482546183
-0.01010382499085804,-0.2831171143194077
-0.01010301499085804,-0.2820042170868579
-0.01010220499085804,-0.2804143638975039
-0.01010139499085804,-0.2780295841134657
-0.01010058499085804,-0.2759627749673017
-0.01009977499085804,-0.2741344437995413
-0.01009896499085804,-0.2726240832696522
-0.01009815499085804,-0.2712727080586989
-0.01009734499085804,-0.2702393034856169
-0.01009653499085804,-0.2692058989125349
-0.01009572499085804,-0.2679340163610494
-0.01009491499085804,-0.2668211191285015
-0.01009410499085804,-0.2651517732796748
-0.01009329499085804,-0.2660261925338211
-0.01009248499085804,-0.2754063263510268
-0.01009167499085804,-0.2746113997563445
-0.01009086499085804,-0.2724650979507166
-0.01009005499085804,-0.2707957521018918
-0.01008924499085804,-0.2687289429557279
-0.01008843499085804,-0.2674570604042423
-0.01008762499085804,-0.2664236558311603
-0.01008681499085804,-0.2649132953012713
-0.01008600499085804,-0.2641978613660607
-0.01008519499085804,-0.2632439494524466
-0.01008438499085804,-0.2615746036036197
-0.01008357499085804,-0.2603822137116041
-0.01008276499085804,-0.2587923605222472
-0.01008195499085804,-0.2573614926518261
-0.01008114499085804,-0.255851132121937
-0.01008033499085804,-0.2535458449973695
-0.01007952499085804,-0.2509225872349306
-0.01007871499085804,-0.2452786084127137
-0.01007790499085804,-0.2398731075689002
-0.01007709499085804,-0.2371703571469984
-0.01007628499085804,-0.2350240553413617
-0.01007547499085804,-0.2333547094925369
-0.01007466499085804,-0.2322418122599871
-0.01007385499085804,-0.2305724664111621
-0.01007304499085804,-0.2304134810922267
-0.01007223499085804,-0.2296980471570161
-0.01007142499085804,-0.2283466719460627
-0.01007061499085804,-0.2261208774809631
-0.01006980499085804,-0.2239745756753313
-0.01006899499085804,-0.2217487812102316
-0.01006818499085804,-0.2208743619560853
-0.01006737499085804,-0.2198409573830033
-0.01006656499085804,-0.2184895821720481
-0.01006575499085804,-0.217456177598968
-0.01006494499085804,-0.2178536408963072
-0.01006413499085804,-0.217456177598968
-0.01006332499085804,-0.2069631465492125
-0.01006251499085804,-0.2005242411323171
-0.01006170499085804,-0.195436710926375
-0.01006089499085804,-0.1892362834878831
-0.01006008499085804,-0.1827973780709877
-0.01005927499085804,-0.17476861946475
-0.01005846499085804,-0.1653089929880619
-0.01005765499085804,-0.1552929178951134
-0.01005684499085804,-0.1466282180131183
-0.01005603499085804,-0.138122503450045
-0.01005522499085804,-0.130411715481678
-0.01005441499085804,-0.1239728100647826
-0.01005360499085804,-0.1178518752857586
-0.01005279499085804,-0.1105385506147169
-0.01005198499085804,-0.1027482699868822
-0.01005117499085804,-0.09527595999689067
-0.01005036499085804,-0.08899603989893094
-0.01004955499085804,-0.08613430415808854
-0.01004874499085804,-0.08025184735745733
-0.01004793499085804,-0.07436939055684752
-0.01004712499085804,-0.06824845577782347
-0.01004631499085804,-0.06220701365826728
-0.01004550499085804,-0.05568861558190401
-0.01004469499085804,-0.04988565144075134
-0.01004388499085804,-0.04352623868332377
-0.01004307499085804,-0.03820023049897817
-0.01004226499085804,-0.03335117827143964
-0.01004145499085804,-0.02961502327645774
-0.01004064499085804,-0.02786618476815836
-0.01003983499085804,-0.02699176551401206
-0.01003902499085804,-0.02699176551401206
-0.01003821499085804,-0.02683278019507782
-0.01003740499085804,-0.02762770678975482
-0.01003659499085804,-0.0279456774276262
-0.01003578499085804,-0.03517950943920008
-0.01003497499085804,-0.04710340835937678
-0.01003416499085804,-0.05083956335435869
-0.01003335499085804,-0.05155499728957608
-0.01003254499085804,-0.05179347526797962
-0.01003173499085804,-0.05091905601383333
-0.01003092499085804,-0.05115753399223656
-0.01003011499085804,-0.05099854867330117
-0.01002930499085804,-0.05115753399223685
-0.01002849499085804,-0.0526678945221259
-0.01002768499085804,-0.05171398260851177
-0.01002687499085804,-0.05171398260851177
-0.01002606499085804,-0.05163448994904393
-0.01002525499085804,-0.05227043122478668
-0.01002444499085804,-0.05155499728957608
-0.01002363499085804,-0.05052159271649598
-0.01002282499085804,-0.05020362207862272
-0.01002201499085804,-0.05171398260851177
-0.01002120499085804,-0.04646746708363401
-0.01002039499085804,-0.03661037730962127
-0.01001958499085804,-0.03152284710367921
-0.01001877499085804,-0.03056893519006508
-0.01001796499085804,-0.02945603795751525
-0.01001715499085804,-0.02897908200070818
-0.01001634499085804,-0.02921755997911128
-0.01001553499085804,-0.02850212604390111
-0.01001472499085804,-0.02977400859538663
-0.01001391499085804,-0.02937654529804741
-0.01001310499085804,-0.0281841554060293
-0.01001229499085804,-0.0279456774276262
-0.01001148499085804,-0.02707125817347991
-0.01001067499085804,-0.02802517008709405
-0.01000986499085804,-0.0279456774276262
-0.01000905499085804,-0.02778669210869051
-0.01000824499085804,-0.02842263338443327
-0.01000743499085804,-0.02134778669179509
-0.01000662499085804,-0.013716491382882
-0.01000581499085804,-0.009026424474287691
-0.01000500499085804,-0.007675049263325798
-0.01000419499085804,-0.007277585965986575
-0.01000338499085804,-0.006403166711840283
-0.01000257499085804,-0.005608240117161836
-0.01000176499085804,-0.005290269479290457
-0.01000095499085804,-0.005528747457693991
-0.01000014499085804,-0.006482659371308127
-0.009999334990858038,-0.006880122668647352
-0.00999852499085804,-0.007436571284921252
-0.009997714990858039,-0.007436571284922264
-0.009996904990858039,-0.008549468517472091
-0.009996094990858038,-0.008628961176939936
-0.009995284990858038,-0.00839048319853857
-0.009994474990858039,-0.009582873090554072
-0.009993664990858039,-0.003700416289933563
-0.009992854990858039,0.009177394543857281
-0.009992044990858038,0.01108521837108556
-0.00999123499085804,0.01235710092257107
-0.009990424990858039,0.01172115964682831
-0.009989614990858039,0.01195963762523185
-0.009988804990858038,0.011880144965764
-0.00998799499085804,0.0112442036900224
-0.009987184990858039,0.01124420369002124
-0.009986374990858039,0.009892828479067884
-0.009985564990858039,0.009654350500664349
-0.009984754990858038,0.009177394543857281
-0.00998394499085804,0.009654350500664349
-0.009983134990858039,0.01052876975481064
-0.009982324990858039,0.01052876975481064
-0.009981514990858038,0.01172115964682831
-0.00998070499085804,0.01084674039268361
-0.009979894990858039,0.01013130645747142
-0.009979084990858039,0.009892828479067884
-0.009978274990858038,0.01728564580957744
-0.009977464990858038,0.02467846314009076
-0.009976654990858039,0.02674527228625096
-0.009975844990858039,0.0269837502646545
-0.009975034990858039,0.02777867685933294
-0.009974224990858038,0.02777867685933294
-0.00997341499085804,0.029289037389222
-0.009972604990858039,0.02897106675135062
-0.009971794990858039,0.02817614015667217
-0.009970984990858038,0.02809664749720433
-0.009970174990858038,0.02730172090252602
-0.009969364990858039,0.02738121356199372
-0.009968554990858039,0.02650679430784743
-0.009967744990858039,0.02618882366997605
-0.009966934990858038,0.02555288239423329
-0.00996612499085804,0.02459897048061916
-0.009965314990858039,0.02666577962678312
-0.009964504990858039,0.03389961163835699
-0.009963694990858038,0.04105395099046301
-0.00996288499085804,0.04399517939076792
-0.009962074990858039,0.04479010598545172
-0.009961264990858039,0.04566452523959801
-0.009960454990858039,0.04479010598545172
-0.009959644990858038,0.04439264268811105
-0.009958834990858039,0.04359771609343405
-0.009958024990858039,0.04240532620141638
-0.009957214990858039,0.04184887758514146
-0.009956404990858038,0.04113344364993085
-0.00995559499085804,0.04176938492567361
-0.009954784990858039,0.04200786290407715
-0.009953974990858039,0.0419283702446093
-0.009953164990858038,0.0428027894987556
-0.009952354990858038,0.04208735556354427
-0.009951544990858039,0.04168989226620577
-0.009950734990858039,0.04089496567152733
-0.009949924990858039,0.04661843715321214
-0.009949114990858038,0.0524214012943648
-0.00994830499085804,0.05409074714318955
-0.009947494990858039,0.05464719575946446
-0.009946684990858039,0.05512415171627152
-0.009945874990858038,0.05440871778106092
-0.00994506499085804,0.05424973246212553
-0.009944254990858039,0.0540112544837217
-0.009943444990858039,0.0540112544837217
-0.009942634990858039,0.05385226916478601
-0.009941824990858038,0.05337531320797967
-0.009941014990858039,0.05377277650531817
-0.009940204990858039,0.0524214012943648
-0.009939394990858039,0.05122901140234713
-0.009938584990858038,0.04852626098044041
-0.00993777499085804,0.04701590045055411
-0.009936964990858039,0.04709539311001922
-0.009936154990858039,0.04971865087245808
-0.009935344990858038,0.05695248288403196
-0.009934534990858038,0.06037066724115203
-0.009933724990858039,0.06188102777103832
-0.009932914990858039,0.06386834425773444
-0.009932104990858039,0.06585566074443056
-0.009931294990858038,0.06696855797698038
-0.00993048499085804,0.06657109467964116
-0.009929674990858039,0.06569667542549487
-0.009928864990858039,0.06394783691720229
-0.009928054990858038,0.06259646170624893
-0.00992724499085804,0.06235798372784584
-0.009926434990858039,0.06108610117635987
-0.009925624990858039,0.05981421862487436
-0.009924814990858039,0.05957574064647084
-0.009924004990858038,0.05886030671126095
-0.009923194990858039,0.05925777000859946
-0.009922384990858039,0.06490174883081642
-0.009921574990858039,0.07340746339387581
-0.009920764990858038,0.07507680924270055
-0.00991995499085804,0.07539477988057135
-0.009919144990858039,0.07531528722110409
-0.009918334990858039,0.07420238998855426
-0.009917524990858038,0.07420238998855426
-0.009916714990858038,0.07404340466961624
-0.009915904990858039,0.07277152211813305
-0.009915094990858039,0.07269202945866521
-0.009914284990858039,0.07118166892877616
-0.009913474990858038,0.07149963956664754
-0.00991266499085804,0.07157913222611538
-0.009911854990858039,0.07181761020451892
-0.009911044990858039,0.07213558084239029
-0.009910234990858038,0.071261161588244
-0.00990942499085804,0.07006877169622849
-0.009908614990858039,0.0691148597826122
-0.009907804990858039,0.06712754329591608
-0.009906994990858039,0.07531528722110409
-0.009906184990858038,0.07968738349183989
-0.009905374990858039,0.08207216327587089
-0.009904564990858039,0.08231064125427441
-0.009903754990858039,0.08207216327587089
-0.009902944990858038,0.08246962657321011
-0.00990213499085804,0.0829465825300163
-0.009901324990858039,0.08342353848682424
-0.009900514990858039,0.08207216327587089
-0.009899704990858038,0.0811977440217246
-0.009898894990858038,0.08095926604331817
-0.009898084990858039,0.07936941285396416
-0.009897274990858039,0.07913093487556062
-0.009896464990858039,0.07793854498354295
