-20250405-BKP/synth-diodes-1f-1r-in-T00-L10-D10/1kHz200mV/scope.csv

#Digilent WaveForms Oscilloscope Acquisition
#Device Name: Discovery3
#Serial Number: SN:210415BD5874
#Date Time: 2025-04-03 15:25:26.515.389.420
#Sample rate: 3.33333e+06Hz
#Samples: 32768
#Trigger: Source: Channel 1 Type: Edge Condition: Rising Level: 0 V Hyst.: Auto HoldOff: 0 s
#Channel 1: Range: 200 mV/div Offset: 0 V Sample Mode: Average
#Wavegen Channel 1: Running
#Mode: Simple
#Type: Sine
#Frequency: 1 kHz
#Period: 1 ms
#Amplitude: 200 mV
#Offset: 0 V
#Symmetry: 50 %
#Phase: 0 °

Time (s),Channel 1 (V)
0.002654749832840427,-0.1069613809386638
0.002655049832840427,-0.1073588442360031
0.002655349832840427,-0.1077563075333423
0.002655649832840427,-0.1071998589170674
0.002655949832840427,-0.1072793515765352
0.002656249832840427,-0.1071998589170674
0.002656549832840427,-0.1069613809386643
0.002656849832840427,-0.1070408735981316
0.002657149832840427,-0.1066434103007932
0.002657449832840427,-0.1064844249818571
0.002657749832840428,-0.107597322214407
0.002658049832840428,-0.1078358001928087
0.002658349832840428,-0.1070408735981331
0.002658649832840428,-0.1078358001928101
0.002658949832840428,-0.1071998589170674
0.002659249832840428,-0.1070408735981317
0.002659549832840427,-0.1071203662575995
0.002659849832840427,-0.1075973222144066
0.002660149832840427,-0.1074383368954709
0.002660449832840427,-0.1079947855117458
0.002660749832840427,-0.1075178295549388
0.002661049832840427,-0.1076768148738745
0.002661349832840427,-0.1084717414685529
0.002661649832840427,-0.1076768148738745
0.002661949832840427,-0.1091076827442957
0.002662249832840427,-0.1094256533821665
0.002662549832840427,-0.1089486974253608
0.002662849832840427,-0.1094256533821662
0.002663149832840428,-0.1091871754037621
0.002663449832840428,-0.1083922488090874
0.002663749832840428,-0.1096641313605697
0.002664049832840428,-0.1091871754037621
0.002664349832840428,-0.1083922488090851
0.002664649832840428,-0.1093461607226992
0.002664949832840427,-0.1085512341280207
0.002665249832840427,-0.1083922488090851
0.002665549832840427,-0.1098231166795063
0.002665849832840427,-0.1083922488090851
0.002666149832840427,-0.1080742781712137
0.002666449832840427,-0.1092666680632313
0.002666749832840427,-0.1082332634901494
0.002667049832840427,-0.1085512341280207
0.002667349832840427,-0.1095846387011027
0.002667649832840427,-0.108710219446958
0.002667949832840427,-0.1090281900848272
0.002668249832840427,-0.1098231166795048
0.002668549832840427,-0.1089486974253616
0.002668849832840428,-0.1094256533821682
0.002669149832840428,-0.1100615946579076
0.002669449832840428,-0.1088692047658942
0.002669749832840428,-0.109982101998442
0.002670049832840428,-0.1097436240200384
0.002670349832840428,-0.1098231166795063
0.002670649832840427,-0.1107770285931204
0.002670949832840427,-0.1106975359336526
0.002671249832840427,-0.1097436240200384
0.002671549832840427,-0.1109360139120561
0.002671849832840427,-0.1106180432741847
0.002672149832840427,-0.1105385506147169
0.002672449832840427,-0.1116514478472667
0.002672749832840427,-0.1109360139120561
0.002673049832840427,-0.1110949992309918
0.002673349832840427,-0.1116514478472657
0.002673649832840427,-0.1100615946579127
0.002673949832840427,-0.1103795652957806
0.002674249832840428,-0.1112539845499253
0.002674549832840428,-0.1100615946579108
0.002674849832840428,-0.1106180432741847
0.002675149832840428,-0.1106180432741846
0.002675449832840428,-0.1105385506147169
0.002675749832840428,-0.1112539845499275
0.002676049832840427,-0.1106975359336526
0.002676349832840427,-0.1102205799768455
0.002676649832840427,-0.1105385506147169
0.002676949832840427,-0.1113334772093953
0.002677249832840427,-0.1106975359336526
0.002677549832840427,-0.1110949992309918
0.002677849832840427,-0.1108565212525882
0.002678149832840427,-0.1105385506147169
0.002678449832840427,-0.1113334772093953
0.002678749832840427,-0.1115719551877984
0.002679049832840427,-0.1113334772093957
0.002679349832840427,-0.1119694184851369
0.002679649832840427,-0.1116514478472673
0.002679949832840428,-0.1118104331662038
0.002680249832840428,-0.1126053597608797
0.002680549832840428,-0.1119694184851381
0.002680849832840428,-0.1119694184851381
0.002681149832840428,-0.1122873891230095
0.002681449832840428,-0.1120489111446059
0.002681749832840427,-0.1116514478472667
0.002682049832840427,-0.1120489111446059
0.002682349832840427,-0.1113334772093953
0.002682649832840427,-0.1117309405067345
0.002682949832840427,-0.1118104331662024
0.002683249832840427,-0.1114129698688632
0.002683549832840427,-0.1113334772093953
0.002683849832840427,-0.1119694184851381
0.002684149832840427,-0.1117309405067345
0.002684449832840427,-0.1111744918904606
0.002684749832840427,-0.1118899258256689
0.002685049832840427,-0.1110155065715255
0.002685349832840428,-0.1111744918904605
0.002685649832840428,-0.1116514478472661
0.002685949832840428,-0.1113334772093947
0.002686249832840428,-0.1110155065715239
0.002686549832840428,-0.1116514478472667
0.002686849832840428,-0.1114129698688632
0.002687149832840427,-0.1117309405067345
0.002687449832840427,-0.1118104331662024
0.002687749832840427,-0.1118899258256702
0.002688049832840427,-0.1126848524203487
0.002688349832840427,-0.1126848524203487
0.002688649832840427,-0.1119694184851381
0.002688949832840427,-0.1128438377392844
0.002689249832840427,-0.1130028230582201
0.002689549832840427,-0.1126848524203487
0.002689849832840427,-0.1130028230582195
0.002690149832840427,-0.1132413010366232
0.002690449832840427,-0.1120489111446081
0.002690749832840427,-0.1132413010366214
0.002691049832840428,-0.1129233303987505
0.002691349832840428,-0.1119694184851391
0.002691649832840428,-0.1125258671014128
0.002691949832840428,-0.1124463744419451
0.002692249832840428,-0.1117309405067345
0.002692549832840428,-0.1126053597608808
0.002692849832840427,-0.1117309405067345
0.002693149832840427,-0.111492462528331
0.002693449832840427,-0.1122873891230095
0.002693749832840427,-0.1112539845499275
0.002694049832840427,-0.1116514478472667
0.002694349832840427,-0.1118104331662024
0.002694649832840427,-0.1106975359336526
0.002694949832840427,-0.111492462528331
0.002695249832840427,-0.1118104331662024
0.002695549832840427,-0.1110155065715254
0.002695849832840427,-0.1114129698688624
0.002696149832840427,-0.1119694184851371
0.002696449832840428,-0.1114129698688648
0.002696749832840428,-0.1122873891230097
0.002697049832840428,-0.1124463744419446
0.002697349832840428,-0.1121284038040738
0.002697649832840428,-0.1126053597608808
0.002697949832840428,-0.1130823157176879
0.002698249832840427,-0.1122873891230095
0.002698549832840427,-0.1138772423123663
0.002698849832840427,-0.1137977496528985
0.002699149832840427,-0.1136387643339628
0.002699449832840427,-0.1137977496528985
0.002699749832840427,-0.1126053597608808
0.002700049832840427,-0.1129233303987522
0.002700349832840427,-0.1132413010366236
0.002700649832840427,-0.1128438377392844
0.002700949832840427,-0.1127643450798167
0.002701249832840427,-0.1130823157176873
0.002701549832840427,-0.1122873891230109
0.002701849832840427,-0.1117309405067355
0.002702149832840428,-0.1131618083771534
0.002702449832840428,-0.1118899258256712
0.002702749832840428,-0.1124463744419459
0.002703049832840428,-0.1128438377392844
0.002703349832840428,-0.1122873891230095
0.002703649832840428,-0.1122873891230095
0.002703949832840427,-0.1124463744419451
0.002704249832840427,-0.1121284038040738
0.002704549832840427,-0.1127643450798165
0.002704849832840427,-0.1126053597608808
0.002705149832840427,-0.1117309405067345
0.002705449832840427,-0.1124463744419451
0.002705749832840427,-0.1126053597608808
0.002706049832840427,-0.1123668817824773
0.002706349832840427,-0.1131618083771557
0.002706649832840427,-0.1131618083771557
0.002706949832840427,-0.1132413010366234
0.002707249832840427,-0.114195212950236
0.002707549832840428,-0.1134002863555609
0.002707849832840428,-0.1142747056097056
0.002708149832840428,-0.1142747056097054
0.002708449832840428,-0.1141952129502377
0.002708749832840428,-0.113559271674495
0.002709049832840428,-0.1137182569934306
0.002709349832840427,-0.1128438377392844
0.002709649832840427,-0.1129233303987522
0.002709949832840427,-0.1130028230582201
0.002710249832840427,-0.1126848524203487
0.002710549832840427,-0.1131618083771557
0.002710849832840427,-0.1124463744419451
0.002711149832840427,-0.1118899258256702
0.002711449832840427,-0.1129233303987522
0.002711749832840427,-0.1126848524203487
0.002712049832840427,-0.1122873891230102
0.002712349832840427,-0.1120489111446063
0.002712649832840427,-0.1120489111446059
0.002712949832840427,-0.1125258671014121
0.002713249832840428,-0.1126848524203478
0.002713549832840428,-0.1122078964635412
0.002713849832840428,-0.1119694184851385
0.002714149832840428,-0.1122078964635416
0.002714449832840428,-0.112525867101413
0.002714749832840428,-0.1130823157176879
0.002715049832840427,-0.1132413010366236
0.002715349832840427,-0.1136387643339628
0.002715649832840427,-0.1134797790150271
0.002715949832840427,-0.1128438377392844
0.002716249832840427,-0.1137182569934306
0.002716549832840427,-0.1139567349718342
0.002716849832840427,-0.1137977496528985
0.002717149832840427,-0.1137182569934306
0.002717449832840427,-0.1134797790150271
0.002717749832840427,-0.113241301036624
0.002718049832840427,-0.1134797790150267
0.002718349832840427,-0.1135592716744948
0.002718649832840428,-0.1131618083771565
0.002718949832840428,-0.1135592716744931
0.002719249832840428,-0.1125258671014127
0.002719549832840428,-0.1123668817824773
0.002719849832840428,-0.1133207936960914
0.002720149832840428,-0.1124463744419451
0.002720449832840427,-0.1130823157176879
0.002720749832840427,-0.1129233303987522
0.002721049832840427,-0.1120489111446059
0.002721349832840427,-0.1130028230582201
0.002721649832840427,-0.1124463744419451
0.002721949832840427,-0.1120489111446059
0.002722249832840427,-0.1128438377392844
0.002722549832840427,-0.1122873891230095
0.002722849832840427,-0.1123668817824773
0.002723149832840427,-0.1133207936960897
0.002723449832840427,-0.1124463744419467
0.002723749832840427,-0.1118104331662035
0.002724049832840427,-0.1134797790150241
0.002724349832840428,-0.1126053597608811
0.002724649832840428,-0.1127643450798185
0.002724949832840428,-0.1138772423123646
0.002725249832840428,-0.1129233303987522
0.002725549832840428,-0.1133207936960914
0.002725849832840428,-0.1137182569934306
0.002726149832840427,-0.1122873891230095
0.002726449832840427,-0.1130823157176879
0.002726749832840427,-0.1138772423123663
0.002727049832840427,-0.112525867101413
0.002727349832840427,-0.1132413010366236
0.002727649832840427,-0.1134002863555593
0.002727949832840427,-0.1123668817824773
0.002728249832840427,-0.1128438377392844
0.002728549832840427,-0.1133207936960914
0.002728849832840427,-0.111571955187802
0.002729149832840427,-0.1123668817824758
0.002729449832840427,-0.1114129698688649
0.002729749832840428,-0.1114924625283326
0.002730049832840428,-0.1123668817824769
0.002730349832840428,-0.1121284038040722
0.002730649832840428,-0.1112539845499275
0.002730949832840428,-0.1122078964635416
0.002731249832840428,-0.1115719551877988
0.002731549832840427,-0.1109360139120561
0.002731849832840427,-0.1122078964635416
0.002732149832840427,-0.1118104331662024
0.002732449832840427,-0.1119694184851381
0.002732749832840427,-0.1130823157176879
0.002733049832840427,-0.1118899258256702
0.002733349832840427,-0.1116514478472667
0.002733649832840427,-0.1116514478472667
0.002733949832840427,-0.1118899258256702
0.002734249832840427,-0.1124463744419441
0.002734549832840427,-0.1130823157176867
0.002734849832840427,-0.1119694184851401
0.002735149832840428,-0.1127643450798167
0.002735449832840428,-0.1128438377392823
0.002735749832840428,-0.1117309405067351
0.002736049832840428,-0.1120489111446052
0.002736349832840428,-0.1116514478472667
0.002736649832840428,-0.1110949992309918
0.002736949832840428,-0.1122873891230095
0.002737249832840427,-0.1117309405067345
0.002737549832840427,-0.1108565212525882
0.002737849832840427,-0.1119694184851381
0.002738149832840427,-0.1111744918904596
0.002738449832840427,-0.1110155065715239
0.002738749832840427,-0.1113334772093953
0.002739049832840427,-0.1101410873173776
0.002739349832840427,-0.1110155065715239
0.002739649832840427,-0.111492462528331
0.002739949832840427,-0.1109360139120571
0.002740249832840427,-0.1112539845499269
0.002740549832840427,-0.1107770285931213
0.002740849832840428,-0.1106975359336528
0.002741149832840428,-0.1108565212525901
0.002741449832840428,-0.1118899258256679
0.002741749832840428,-0.1106180432741847
0.002742049832840428,-0.1115719551877988
0.002742349832840428,-0.1113334772093953
0.002742649832840427,-0.110459057955249
0.002742949832840427,-0.1116514478472667
0.002743249832840427,-0.111492462528331
0.002743549832840427,-0.1110949992309918
0.002743849832840427,-0.1118104331662024
0.002744149832840427,-0.1110949992309918
0.002744449832840427,-0.1110949992309918
0.002744749832840427,-0.1103000726363133
0.002745049832840427,-0.1100615946579098
0.002745349832840427,-0.109743624020039
0.002745649832840427,-0.1093461607226999
0.002745949832840427,-0.1081537708306837
0.002746249832840428,-0.1082332634901494
0.002746549832840428,-0.1082332634901478
0.002746849832840428,-0.1073588442360048
0.002747149832840428,-0.1083127561496165
0.002747449832840428,-0.107915292852278
0.002747749832840428,-0.1078358001928101
0.002748049832840428,-0.1080742781712137
0.002748349832840427,-0.1080742781712137
0.002748649832840427,-0.1073588442360031
0.002748949832840427,-0.1085512341280207
0.002749249832840427,-0.1083922488090851
0.002749549832840427,-0.1076768148738745
0.002749849832840427,-0.1088692047658921
0.002750149832840427,-0.1079947855117458
0.002750449832840427,-0.1077563075333423
0.002750749832840427,-0.10894869742536
0.002751049832840427,-0.1084717414685538
0.002751349832840427,-0.1087897121064237
0.002751649832840427,-0.1085512341280212
0.002751949832840428,-0.1091076827442968
0.002752249832840428,-0.1097436240200387
0.002752549832840428,-0.1099026093389734
0.002752849832840428,-0.1095051460416349
0.002753149832840428,-0.1101410873173776
0.002753449832840428,-0.1101410873173776
0.002753749832840427,-0.1099026093389741
0.002754049832840427,-0.1100615946579098
0.002754349832840427,-0.1099026093389741
0.002754649832840427,-0.1093461607226992
0.002754949832840427,-0.1092666680632313
0.002755249832840427,-0.1084717414685529
0.002755549832840427,-0.1084717414685529
0.002755849832840427,-0.1083922488090851
0.002756149832840427,-0.1077563075333423
0.002756449832840427,-0.1077563075333423
0.002756749832840427,-0.1073588442360038
0.002757049832840427,-0.1067229029602615
0.002757349832840428,-0.1075178295549383
0.002757649832840428,-0.1072793515765348
0.002757949832840428,-0.1070408735981327
0.002758249832840428,-0.1075973222144053
0.002758549832840428,-0.106881888279196
0.002758849832840428,-0.1068023956197282
0.002759149832840428,-0.1071203662575995
0.002759449832840427,-0.1069613809386638
0.002759749832840427,-0.1077563075333423
0.002760049832840427,-0.1076768148738745
0.002760349832840427,-0.1075973222144066
0.002760649832840427,-0.1084717414685529
0.002760949832840427,-0.1075178295549388
0.002761249832840427,-0.1070408735981317
0.002761549832840427,-0.10894869742536
0.002761849832840427,-0.1075973222144066
0.002762149832840427,-0.1075178295549389
0.002762449832840427,-0.1078358001928096
0.002762749832840427,-0.1076768148738747
0.002763049832840428,-0.1074383368954721
0.002763349832840428,-0.1080742781712111
0.002763649832840428,-0.1066434103007931
0.002763949832840428,-0.1069613809386638
0.002764249832840428,-0.1071998589170674
0.002764549832840428,-0.1059279763655819
0.002764849832840427,-0.1064049323223889
0.002765149832840427,-0.1064049323223889
0.002765449832840427,-0.1055305130682427
0.002765749832840427,-0.1060074690250497
0.002766049832840427,-0.1060869616845176
0.002766349832840427,-0.1052125424303713
0.002766649832840427,-0.1060869616845176
0.002766949832840427,-0.1052920350898391
0.002767249832840427,-0.105371527749307
0.002767549832840427,-0.1058484837061131
0.002767849832840427,-0.1056894983871786
0.002768149832840427,-0.1048945717925013
0.002768449832840428,-0.1063254396629192
0.002768749832840428,-0.1052920350898385
0.002769049832840428,-0.1049740644519701
0.002769349832840428,-0.1062459470034516
0.002769649832840428,-0.105371527749307
0.002769949832840428,-0.1054510204087748
0.002770249832840428,-0.1065639176413246
0.002770549832840427,-0.105848483706114
0.002770849832840427,-0.1061664543439854
0.002771149832840427,-0.1071998589170674
0.002771449832840427,-0.1052920350898391
0.002771749832840427,-0.1055305130682427
0.002772049832840427,-0.106881888279196
0.002772349832840427,-0.1056894983871783
0.002772649832840427,-0.1052920350898391
0.002772949832840427,-0.1060869616845176
0.002773249832840427,-0.1050535571114374
0.002773549832840427,-0.1053715277493064
0.002773849832840427,-0.1051330497709039
0.002774149832840428,-0.1040201525383542
0.002774449832840428,-0.1043381231762257
0.002774749832840428,-0.1047355864735625
0.002775049832840428,-0.1037816745599501
0.002775349832840428,-0.1044971084951607
0.002775649832840428,-0.1045766011546285
0.002775949832840427,-0.1037816745599501
0.002776249832840427,-0.104338123176225
0.002776549832840427,-0.1037816745599501
0.002776849832840427,-0.104338123176225
0.002777149832840427,-0.1035431965815465
0.002777449832840427,-0.1034637039220787
0.002777749832840427,-0.1028277626463359
0.002778049832840427,-0.1039406598788857
0.002778349832840427,-0.1033842112626108
0.002778649832840427,-0.1036226892410139
0.002778949832840427,-0.1037816745599498
0.002779249832840427,-0.1046560938140948
0.002779549832840428,-0.1043381231762248
0.002779849832840428,-0.1042586305167563
0.002780149832840428,-0.1037816745599511
0.002780449832840428,-0.1043381231762251
0.002780749832840428,-0.1044176158356928
0.002781049832840428,-0.1040996451978214
0.002781349832840427,-0.1035431965815465
0.002781649832840427,-0.1036226892410144
0.002781949832840427,-0.1037021819004822
0.002782249832840427,-0.1031457332842073
0.002782549832840427,-0.1026687773274002
0.002782849832840427,-0.1029867479652716
0.002783149832840427,-0.1023508066895289
0.002783449832840427,-0.1024302993489967
0.002783749832840427,-0.1025892846679324
0.002784049832840427,-0.1021918213705932
0.002784349832840427,-0.1021918213705932
0.002784649832840427,-0.102509792008464
0.002784949832840427,-0.1020328360516584
0.002785249832840428,-0.1014763874353836
0.002785549832840428,-0.1020328360516565
0.002785849832840428,-0.1014763874353827
0.002786149832840428,-0.1015558800948504
0.002786449832840428,-0.1014763874353826
0.002786749832840428,-0.1016353727543183
0.002787049832840427,-0.1021123287111253
0.002787349832840427,-0.1017148654137861
0.002787649832840427,-0.1015558800948504
0.002787949832840427,-0.1016353727543183
0.002788249832840427,-0.1020328360516575
0.002788549832840427,-0.101237909456979
0.002788849832840427,-0.1021123287111253
0.002789149832840427,-0.1020328360516575
0.002789449832840427,-0.1018738507327218
0.002789749832840427,-0.1025097920084634
0.002790049832840427,-0.1017943580732553
0.002790349832840427,-0.1019533433921893
0.002790649832840428,-0.1017943580732531
0.002790949832840428,-0.1013174021164449
0.002791249832840428,-0.1002045048838991
0.002791549832840428,-0.101317402116447
0.002791849832840428,-0.1013968947759147
0.002792149832840428,-0.1010789241380433
0.002792449832840427,-0.1005224755217684
0.002792749832840427,-0.1005224755217684
0.002793049832840427,-0.100760953500172
0.002793349832840427,-0.1000455195649614
0.002793649832840427,-0.09933008562975076
0.002793949832840427,-0.1005224755217684
0.002794249832840427,-0.09917110031081507
0.002794549832840427,-0.09917110031081507
0.002794849832840427,-0.1004429828623006
0.002795149832840427,-0.09925059297028509
0.002795449832840427,-0.09940957828921831
0.002795749832840427,-0.1000455195649602
0.002796049832840427,-0.09909160765134896
0.002796349832840428,-0.09940957828921919
0.002796649832840428,-0.09972754892708753
0.002796949832840428,-0.09837617371613777
