-20250405-BKP/synth-diodes-1f-1r-in-T00-L10-D10/1kHz5V/scope.csv

#Digilent WaveForms Oscilloscope Acquisition
#Device Name: Discovery3
#Serial Number: SN:210415BD5874
#Date Time: 2025-04-03 15:28:24.352.555.320
#Sample rate: 3.33333e+06Hz
#Samples: 32768
#Trigger: Source: Channel 1 Type: Edge Condition: Rising Level: 0 V Hyst.: Auto HoldOff: 0 s
#Channel 1: Range: 200 mV/div Offset: 0 V Sample Mode: Average
#Wavegen Channel 1: Running
#Mode: Simple
#Type: Sine
#Frequency: 1 kHz
#Period: 1 ms
#Amplitude: 5 V
#Offset: 0 V
#Symmetry: 50 %
#Phase: 0 °

Time (s),Channel 1 (V)
0.002654611521152116,-0.04622898910523049
0.002654911521152116,-0.04511609187268066
0.002655211521152116,-0.04336725336438807
0.002655511521152116,-0.0444801505969379
0.002655811521152115,-0.04257232676970962
0.002656111521152115,-0.04098247358035273
0.002656411521152115,-0.04066450294248194
0.002656711521152115,-0.03907464975312735
0.002657011521152115,-0.03827972315844745
0.002657311521152115,-0.03867718645578451
0.002657611521152116,-0.03700784060695948
0.002657911521152116,-0.03645139199068501
0.002658211521152116,-0.03613342135281161
0.002658511521152116,-0.034702553482393
0.002658811521152116,-0.03454356816345731
0.002659111521152116,-0.03366914890931103
0.002659411521152116,-0.03231777369835766
0.002659711521152116,-0.03215878837942197
0.002660011521152116,-0.03199980306048628
0.002660311521152116,-0.03056893519006508
0.002660611521152116,-0.03017147189272585
0.002660911521152116,-0.02905857466017603
0.002661211521152116,-0.02818415540602974
0.002661511521152115,-0.0279456774276262
0.002661811521152115,-0.02699176551401206
0.002662111521152115,-0.02532241966519036
0.002662411521152115,-0.02500444902731653
0.002662711521152115,-0.02436850775157435
0.002663011521152116,-0.0234145958379579
0.002663311521152116,-0.02277865456221528
0.002663611521152116,-0.02222220594593979
0.002663911521152116,-0.02134778669179394
0.002664211521152116,-0.02071184541605233
0.002664511521152116,-0.02015539679977742
0.002664811521152116,-0.01967844084297035
0.002665111521152116,-0.01943996286456682
0.002665411521152116,-0.01872452892935621
0.002665711521152116,-0.01785010967520992
0.002666011521152116,-0.01840655829148484
0.002666311521152116,-0.01753213903733854
0.002666611521152116,-0.01800909499414561
0.002666911521152115,-0.01769112435627423
0.002667211521152115,-0.01761163169680639
0.002667511521152115,-0.01641924180479088
0.002667811521152115,-0.01673721244265952
0.002668111521152115,-0.01681670510212779
0.002668411521152115,-0.01586279318851554
0.002668711521152116,-0.01602177850745007
0.002669011521152116,-0.01633974914531841
0.002669311521152116,-0.01498837393436852
0.002669611521152116,-0.01554482255064243
0.002669911521152116,-0.01435243265862475
0.002670211521152116,-0.01379598404234984
0.002670511521152116,-0.01451141797756044
0.002670811521152116,-0.01427293999915691
0.002671111521152116,-0.01331902808554277
0.002671411521152116,-0.01323953542607493
0.002671711521152116,-0.01260359415033217
0.002672011521152116,-0.01228562351246079
0.002672311521152116,-0.01316004276660708
0.002672611521152115,-0.01228562351246079
0.002672911521152115,-0.01157018957725019
0.002673211521152115,-0.01260359415033029
0.002673511521152115,-0.01157018957725207
0.002673811521152115,-0.01117272627991169
0.002674111521152116,-0.01196765287458696
0.002674411521152116,-0.01061627766363663
0.002674711521152116,-0.01093424830150902
0.002675011521152116,-0.0118086675556517
0.002675311521152116,-0.0106957703231039
0.002675611521152116,-0.01164968223671803
0.002675911521152116,-0.01133171159884666
0.002676211521152116,-0.01149069691778234
0.002676511521152116,-0.01188816021512157
0.002676811521152116,-0.01164968223671803
0.002677111521152116,-0.0114112042583145
0.002677411521152116,-0.01220613085299295
0.002677711521152116,-0.01149069691778234
0.002678011521152115,-0.01085475564203959
0.002678311521152115,-0.01101374096097528
0.002678611521152115,-0.01021881436629828
0.002678911521152115,-0.01045729234469993
0.002679211521152115,-0.01077526298257116
0.002679511521152115,-0.01021881436629784
0.002679811521152116,-0.01045729234469935
0.002680111521152116,-0.009900843728424728
0.002680411521152116,-0.009503380431087238
0.002680711521152116,-0.01005982904736114
0.002681011521152116,-0.009582873090554072
0.002681311521152116,-0.009503380431086226
0.002681611521152116,-0.009900843728425451
0.002681911521152116,-0.009344395112150537
0.002682211521152116,-0.009185409793214848
0.002682511521152116,-0.009741858409489761
0.002682811521152116,-0.00870845383640778
0.002683111521152116,-0.008628961176939936
0.002683411521152116,-0.009821351068957606
0.002683711521152115,-0.009423887771618383
0.002684011521152115,-0.008867439155343469
0.002684311521152115,-0.01005982904735897
0.002684611521152115,-0.00942388777161954
0.002684911521152115,-0.009821351068956883
0.002685211521152116,-0.01101374096097224
0.002685511521152116,-0.009344395112150827
0.002685811521152116,-0.009503380431087673
0.002686111521152116,-0.01029830702576467
0.002686411521152116,-0.009503380431086226
0.002686711521152116,-0.009662365750021917
0.002687011521152116,-0.009821351068957606
0.002687311521152116,-0.008469975858004245
0.002687611521152116,-0.009105917133747003
0.002687911521152116,-0.009503380431086226
0.002688211521152116,-0.008072512560665022
0.002688511521152116,-0.008867439155343469
0.002688811521152116,-0.009105917133747003
0.002689111521152115,-0.008072512560665022
0.002689411521152115,-0.008469975858004245
0.002689711521152115,-0.007993019901198044
0.002690011521152115,-0.007357078625455577
0.002690311521152115,-0.00823149787959912
0.002690611521152115,-0.008310990539068412
0.002690911521152116,-0.007118600647052042
0.002691211521152116,-0.007754541922793788
0.002691511521152116,-0.00783403458226062
0.002691811521152116,-0.00735707862545442
0.002692111521152116,-0.008152005220132867
0.002692411521152116,-0.008549468517472091
0.002692711521152116,-0.007993019901197176
0.002693011521152116,-0.008231497879600711
0.002693311521152116,-0.008310990539068556
0.002693611521152116,-0.008152005220132867
0.002693911521152116,-0.008867439155343469
0.002694211521152116,-0.00870845383640778
0.002694511521152116,-0.008628961176939936
0.002694811521152115,-0.009344395112150537
0.002695111521152115,-0.008787946495875625
0.002695411521152115,-0.008946931814811024
0.002695711521152115,-0.009423887771617515
0.002696011521152115,-0.00846997585800598
0.002696311521152116,-0.008469975858003522
0.002696611521152116,-0.008072512560665599
0.002696911521152116,-0.008390483198535534
0.002697211521152116,-0.007913527241729333
0.002697511521152116,-0.008231497879600711
0.002697811521152116,-0.007993019901197176
0.002698111521152116,-0.007834034582261487
0.002698411521152116,-0.008310990539068556
0.002698711521152116,-0.00719809330651873
0.002699011521152116,-0.006880122668647352
0.002699311521152116,-0.00735707862545442
0.002699611521152116,-0.008231497879600711
0.002699911521152116,-0.006800630009179506
0.002700211521152115,-0.007277585965986575
0.002700511521152115,-0.007754541922793643
0.002700811521152115,-0.007277585965987442
0.002701111521152115,-0.008152005220131276
0.002701411521152115,-0.008549468517471367
0.002701711521152115,-0.007516063944391989
0.002702011521152116,-0.008152005220133011
0.002702311521152116,-0.008231497879601144
0.002702611521152116,-0.008469975858004823
0.002702911521152116,-0.008787946495875625
0.002703211521152116,-0.008867439155343469
0.002703511521152116,-0.008469975858004245
0.002703811521152116,-0.009344395112150537
0.002704111521152116,-0.009105917133747003
0.002704411521152116,-0.008549468517472091
0.002704711521152116,-0.009185409793214848
0.002705011521152116,-0.008628961176939936
0.002705311521152116,-0.008152005220132867
0.002705611521152116,-0.008072512560665022
0.002705911521152115,-0.008072512560665022
0.002706211521152115,-0.007834034582261487
0.002706511521152115,-0.008310990539067689
0.002706811521152115,-0.007595556603859255
0.002707111521152115,-0.007595556603857954
0.002707411521152116,-0.00783403458226033
0.002707711521152116,-0.007198093306519453
0.002708011521152116,-0.007595556603857231
0.002708311521152116,-0.00719809330651873
0.002708611521152116,-0.00719809330651873
0.002708911521152116,-0.007436571284922264
0.002709211521152116,-0.007277585965986575
0.002709511521152116,-0.007595556603857954
0.002709811521152116,-0.007277585965986575
0.002710111521152116,-0.007039107987583041
0.002710411521152116,-0.007675049263325798
0.002710711521152116,-0.008628961176939936
0.002711011521152116,-0.007913527241729333
0.002711311521152115,-0.008549468517472091
0.002711611521152115,-0.008469975858004245
0.002711911521152115,-0.008072512560665745
0.002712211521152115,-0.009423887771615925
0.002712511521152115,-0.008152005220135181
0.002712811521152115,-0.007675049263326666
0.002713111521152116,-0.00910591713374628
0.002713411521152116,-0.008708453836406622
0.002713711521152116,-0.008072512560666179
0.002714011521152116,-0.00870845383640778
0.002714311521152116,-0.007675049263325798
0.002714611521152116,-0.007118600647050885
0.002714911521152116,-0.008152005220132867
0.002715211521152116,-0.006800630009179506
0.002715511521152116,-0.006880122668647352
0.002715811521152116,-0.008152005220132867
0.002716111521152116,-0.006562152030775972
0.002716411521152116,-0.006959615328115196
0.002716711521152116,-0.008152005220132867
0.002717011521152115,-0.006403166711840283
0.002717311521152115,-0.007516063944390109
0.002717611521152115,-0.00815200522013171
0.002717911521152115,-0.006641644690246565
0.002718211521152115,-0.007595556603856218
0.002718511521152116,-0.007595556603857087
0.002718811521152116,-0.007118600647052476
0.002719111521152116,-0.007993019901197754
0.002719411521152116,-0.008310990539068556
0.002719711521152116,-0.007277585965986575
0.002720011521152116,-0.008469975858004245
0.002720311521152116,-0.008469975858004245
0.002720611521152116,-0.008152005220132867
0.002720911521152116,-0.009105917133747003
0.002721211521152116,-0.00870845383640778
0.002721511521152116,-0.007754541922793643
0.002721811521152116,-0.008946931814811314
0.002722111521152116,-0.008072512560665022
0.002722411521152115,-0.007834034582261487
0.002722711521152115,-0.008390483198536402
0.002723011521152115,-0.0077545419227948
0.002723311521152115,-0.007595556603858243
0.002723611521152115,-0.008390483198534955
0.002723911521152115,-0.0075160639443917
0.002724211521152116,-0.007436571284922553
0.002724511521152116,-0.007595556603858388
0.002724811521152116,-0.007834034582260764
0.002725111521152116,-0.007436571284922264
0.002725411521152116,-0.00719809330651873
0.002725711521152116,-0.007595556603857954
0.002726011521152116,-0.007595556603857954
0.002726311521152116,-0.007436571284922264
0.002726611521152116,-0.006800630009179506
0.002726911521152116,-0.00735707862545442
0.002727211521152116,-0.007595556603857954
0.002727511521152116,-0.007039107987583041
0.002727811521152116,-0.007039107987583041
0.002728111521152115,-0.007754541922793643
0.002728411521152115,-0.008072512560665022
0.002728711521152115,-0.008310990539068122
0.002729011521152115,-0.008390483198536258
0.002729311521152115,-0.008708453836407202
0.002729611521152116,-0.00831099053906928
0.002729911521152116,-0.008708453836407636
0.002730211521152116,-0.008628961176939069
0.002730511521152116,-0.008152005220132867
0.002730811521152116,-0.007913527241729333
0.002731111521152116,-0.008152005220132867
0.002731411521152116,-0.007277585965986575
0.002731711521152116,-0.007436571284922264
0.002732011521152116,-0.00719809330651873
0.002732311521152116,-0.006721137349711662
0.002732611521152116,-0.007039107987583041
0.002732911521152116,-0.00584671809556537
0.002733211521152116,-0.006085196073968904
0.002733511521152115,-0.006641644690243817
0.002733811521152115,-0.006880122668647352
0.002734111521152115,-0.006721137349711951
0.002734411521152115,-0.007118600647050162
0.002734711521152115,-0.007516063944389386
0.002735011521152116,-0.007834034582262211
0.002735311521152116,-0.008231497879600421
0.002735611521152116,-0.008072512560665745
0.002735911521152116,-0.008469975858004245
0.002736211521152116,-0.008469975858004245
0.002736511521152116,-0.008072512560665022
0.002736811521152116,-0.007516063944390109
0.002737111521152116,-0.008152005220132867
0.002737411521152116,-0.007754541922793643
0.002737711521152116,-0.007913527241729333
0.002738011521152116,-0.008072512560665022
0.002738311521152116,-0.008310990539068556
0.002738611521152116,-0.008390483198536402
0.002738911521152116,-0.008072512560665022
0.002739211521152115,-0.007993019901197176
0.002739511521152115,-0.008787946495875625
0.002739811521152115,-0.008152005220134024
0.002740111521152115,-0.008072512560665166
0.002740411521152115,-0.008549468517471223
0.002740711521152116,-0.008072512560666323
0.002741011521152116,-0.008787946495876348
0.002741311521152116,-0.009185409793210943
0.002741611521152116,-0.007039107987583041
0.002741911521152116,-0.007913527241729333
0.002742211521152116,-0.007834034582261487
0.002742511521152116,-0.006721137349711662
0.002742811521152116,-0.007675049263325798
0.002743111521152116,-0.00719809330651873
0.002743411521152116,-0.007118600647050885
0.002743711521152116,-0.008072512560665022
0.002744011521152116,-0.006959615328115196
0.002744311521152116,-0.006721137349711662
0.002744611521152115,-0.007993019901197176
0.002744911521152115,-0.006403166711840283
0.002745211521152115,-0.006800630009178783
0.002745511521152115,-0.007993019901195008
0.002745811521152115,-0.006244181392907775
0.002746111521152116,-0.006641644690246131
0.002746411521152116,-0.007913527241727742
0.002746711521152116,-0.007039107987582317
0.002747011521152116,-0.00664164469024642
0.002747311521152116,-0.008072512560665022
0.002747611521152116,-0.006880122668647352
0.002747911521152116,-0.00735707862545442
0.002748211521152116,-0.009026424474279159
0.002748511521152116,-0.00735707862545442
0.002748811521152116,-0.007913527241729333
0.002749111521152116,-0.008231497879600711
0.002749411521152116,-0.007436571284922264
0.002749711521152116,-0.008072512560665022
0.002750011521152116,-0.00870845383640778
0.002750311521152115,-0.007436571284922264
0.002750611521152115,-0.007834034582261487
0.002750911521152115,-0.007993019901196887
0.002751211521152115,-0.006721137349713975
0.002751511521152115,-0.008152005220130265
0.002751811521152116,-0.007436571284921107
0.002752111521152116,-0.006800630009180807
0.002752411521152116,-0.007516063944389386
0.002752711521152116,-0.007118600647050885
0.002753011521152116,-0.00719809330651873
0.002753311521152116,-0.007118600647050885
0.002753611521152116,-0.006721137349711662
0.002753911521152116,-0.006641644690243817
0.002754211521152116,-0.006800630009179506
0.002754511521152116,-0.006403166711840283
0.002754811521152116,-0.006085196073968904
0.002755111521152116,-0.007039107987583041
0.002755411521152116,-0.006641644690243817
0.002755711521152115,-0.006721137349711662
0.002756011521152115,-0.006800630009179506
0.002756311521152115,-0.006721137349711807
0.002756611521152115,-0.006800630009179361
0.002756911521152115,-0.007277585965985708
0.002757211521152116,-0.007675049263326666
0.002757511521152116,-0.00815200522013142
0.002757811521152116,-0.007357078625455287
0.002758111521152116,-0.007834034582261631
0.002758411521152116,-0.007913527241729333
0.002758711521152116,-0.007039107987583041
0.002759011521152116,-0.00735707862545442
0.002759311521152116,-0.006880122668647352
0.002759611521152116,-0.006721137349711662
0.002759911521152116,-0.006323674052372438
0.002760211521152116,-0.00584671809556537
0.002760511521152116,-0.005290269479290457
0.002760811521152116,-0.006164688733436749
0.002761111521152116,-0.005290269479290457
0.002761411521152115,-0.004733820863015544
0.002761711521152115,-0.005767225436097525
0.002762011521152115,-0.005210776819823624
0.002762311521152115,-0.005131284160354912
0.002762611521152115,-0.006005703414499469
0.002762911521152116,-0.005528747457693846
0.002763211521152116,-0.005449254798225858
0.002763511521152116,-0.005290269479291035
0.002763811521152116,-0.005608240117161836
0.002764111521152116,-0.005767225436097525
0.002764411521152116,-0.005608240117161836
0.002764711521152116,-0.005767225436097525
0.002765011521152116,-0.006085196073968904
0.002765311521152116,-0.00600570341450106
0.002765611521152116,-0.006562152030775972
0.002765911521152116,-0.007118600647050885
0.002766211521152116,-0.00719809330651873
0.002766511521152116,-0.007039107987583041
0.002766811521152115,-0.008152005220132867
0.002767111521152115,-0.008152005220132867
0.002767411521152115,-0.007913527241729766
0.002767711521152115,-0.008946931814809433
0.002768011521152115,-0.009026424474279015
0.002768311521152116,-0.008152005220133735
0.002768611521152116,-0.008628961176939646
0.002768911521152116,-0.008469975858003234
0.002769211521152116,-0.007913527241728755
0.002769511521152116,-0.007595556603857954
0.002769811521152116,-0.007277585965986575
0.002770111521152116,-0.00735707862545442
0.002770411521152116,-0.006880122668647352
0.002770711521152116,-0.006800630009179506
0.002771011521152116,-0.006959615328115196
0.002771311521152116,-0.007436571284922264
0.002771611521152116,-0.007118600647050885
0.002771911521152116,-0.006721137349711662
0.002772211521152116,-0.006085196073968904
0.002772511521152115,-0.006959615328115196
0.002772811521152115,-0.006880122668647352
0.002773111521152115,-0.00600570341450265
0.002773411521152115,-0.007277585965984262
0.002773711521152115,-0.006641644690244974
0.002774011521152116,-0.006164688733438339
0.002774311521152116,-0.007039107987581595
0.002774611521152116,-0.006244181392904449
0.002774911521152116,-0.006164688733436749
0.002775211521152116,-0.00735707862545442
0.002775511521152116,-0.006800630009179506
0.002775811521152116,-0.006880122668647352
0.002776111521152116,-0.008152005220132867
0.002776411521152116,-0.007436571284922264
0.002776711521152116,-0.007754541922793643
0.002777011521152116,-0.008469975858004245
0.002777311521152116,-0.007595556603857954
0.002777611521152116,-0.00735707862545442
0.002777911521152115,-0.008549468517472091
0.002778211521152115,-0.00719809330651873
0.002778511521152115,-0.008072512560663431
0.002778811521152115,-0.008310990539068122
0.002779111521152115,-0.006800630009182254
0.002779411521152116,-0.007198093306518875
0.002779711521152116,-0.007277585965985563
0.002780011521152116,-0.00672113734971224
0.002780311521152116,-0.007039107987583186
0.002780611521152116,-0.007118600647050885
0.002780911521152116,-0.006164688733436749
0.002781211521152116,-0.007516063944390109
0.002781511521152116,-0.007516063944390109
0.002781811521152116,-0.006880122668647352
0.002782111521152116,-0.007277585965986575
0.002782411521152116,-0.006482659371308127
0.002782711521152116,-0.005926210755033214
0.002783011521152116,-0.007277585965986575
0.002783311521152116,-0.006641644690243817
0.002783611521152115,-0.006800630009179506
0.002783911521152115,-0.007993019901197176
0.002784211521152115,-0.007277585965987876
0.002784511521152115,-0.006721137349712674
0.002784811521152115,-0.007834034582259463
0.002785111521152116,-0.006880122668646773
0.002785411521152116,-0.006562152030778719
0.002785711521152116,-0.008072512560663721
0.002786011521152116,-0.00735707862545442
0.002786311521152116,-0.007595556603857954
0.002786611521152116,-0.00870845383640778
0.002786911521152116,-0.007834034582261487
0.002787211521152116,-0.007754541922793643
0.002787511521152116,-0.008072512560665022
0.002787811521152116,-0.00735707862545442
0.002788111521152116,-0.007516063944390109
0.002788411521152116,-0.007834034582261487
0.002788711521152116,-0.007516063944390109
0.002789011521152115,-0.007595556603857954
0.002789311521152115,-0.007436571284922264
0.002789611521152115,-0.006800630009180663
0.002789911521152115,-0.007198093306518006
0.002790211521152115,-0.00711860064705103
0.002790511521152116,-0.007039107987584198
0.002790811521152116,-0.007675049263326232
0.002791111521152116,-0.007913527241728032
