-20250405-BKP/synth-diodes-1f-1r-in-T10-L10-D00/1kHz1V/scope.csv

#Digilent WaveForms Oscilloscope Acquisition
#Device Name: Discovery3
#Serial Number: SN:210415BD5874
#Date Time: 2025-04-03 15:32:42.267.082.200
#Sample rate: 3.33333e+06Hz
#Samples: 32768
#Trigger: Source: Channel 1 Type: Edge Condition: Rising Level: 0 V Hyst.: Auto HoldOff: 0 s
#Channel 1: Range: 200 mV/div Offset: 0 V Sample Mode: Average
#Wavegen Channel 1: Running
#Mode: Simple
#Type: Sine
#Frequency: 1 kHz
#Period: 1 ms
#Amplitude: 1 V
#Offset: 0 V
#Symmetry: 50 %
#Phase: 0 °

Time (s),Channel 1 (V)
0.002654829702970297,0.06641210936070548
0.002655129702970297,0.06633261670123763
0.002655429702970297,0.06649160202017332
0.002655729702970297,0.06569667542549487
0.002656029702970297,0.06514022680921996
0.002656329702970297,0.06529921212815565
0.002656629702970297,0.06339138830093084
0.002656929702970297,0.06410682223613667
0.002657229702970297,0.06418631489560568
0.002657529702970297,0.06315291032252571
0.002657829702970298,0.06362986627933004
0.002658129702970298,0.06315291032252066
0.002658429702970298,0.0614040718142314
0.002658729702970298,0.0614835644736991
0.002659029702970298,0.0614835644736991
0.002659329702970298,0.06084762319795635
0.002659629702970298,0.06156305713316695
0.002659929702970298,0.06084762319795635
0.002660229702970297,0.0593372626680673
0.002660529702970297,0.05949624798700298
0.002660829702970297,0.05838335075445317
0.002661129702970297,0.0577474094787104
0.002661429702970297,0.05925777000859946
0.002661729702970297,0.05750893150030686
0.002662029702970297,0.05734994618137118
0.002662329702970297,0.05774740947870968
0.002662629702970297,0.05655501958669491
0.002662929702970297,0.05655501958669273
0.002663229702970298,0.05679349756509482
0.002663529702970298,0.05599857097041724
0.002663829702970298,0.05568060033254601
0.002664129702970298,0.05544212235414103
0.002664429702970298,0.05440871778106092
0.002664729702970298,0.05329582054851111
0.002665029702970298,0.05337531320797895
0.002665329702970298,0.05234190863489696
0.002665629702970298,0.05178546001862205
0.002665929702970297,0.05067256278607223
0.002666229702970297,0.04932118757511886
0.002666529702970297,0.04884423161831179
0.002666829702970297,0.04860575363990827
0.002667129702970297,0.04789031970469766
0.002667429702970297,0.04653894449374429
0.002667729702970297,0.04582351055853499
0.002668029702970297,0.0451875692827921
0.002668329702970297,0.04351822343396924
0.002668629702970297,0.0392256198227104
0.002668929702970298,0.03207128047059453
0.002669229702970298,0.03095838323805353
0.002669529702970298,0.03469453823304021
0.002669829702970298,0.03731779599547431
0.002670129702970298,0.03795373727121706
0.002670429702970298,0.03858967854695983
0.002670729702970298,0.0397820684389775
0.002671029702970298,0.03970257577950966
0.002671329702970297,0.04041800971472026
0.002671629702970297,0.03914612716323473
0.002671929702970297,0.03882815652536337
0.002672229702970297,0.03843069322802414
0.002672529702970297,0.03699982535760293
0.002672829702970297,0.03596642078452095
0.002673129702970297,0.03493301621143897
0.002673429702970297,0.03366113365995576
0.002673729702970297,0.03302519238421186
0.002674029702970297,0.03167381717325979
0.002674329702970298,0.02944802270815696
0.002674629702970298,0.02905055941081499
0.002674929702970298,0.02714273558358715
0.002675229702970298,0.02547338973476371
0.002675529702970298,0.02451947782115131
0.002675829702970298,0.02292962463179442
0.002676129702970298,0.02062433750722692
0.002676429702970298,0.02030636686935554
0.002676729702970298,0.01816006506372373
0.002677029702970297,0.0156162999607527
0.002677329702970297,0.01521883666341348
0.002677629702970297,0.01283405687937814
0.002677929702970297,0.01148268166842478
0.002678229702970297,0.01076724773321418
0.002678529702970297,0.008143989970775299
0.002678829702970297,0.006315658803018197
0.002679129702970297,0.00512326891099937
0.002679429702970297,0.002817981786433897
0.002679729702970297,0.001864069872817303
0.002680029702970298,0.001387113916004306
0.002680329702970298,-0.0009181732085617449
0.002680629702970298,-0.002428533738449493
0.002680929702970298,-0.003223460333126494
0.002681229702970298,-0.006085196073968904
0.002681529702970298,-0.006800630009179506
0.002681829702970298,-0.008072512560665022
0.002682129702970298,-0.0106957703231039
0.002682429702970297,-0.01164968223671803
0.002682729702970297,-0.01459091063702829
0.002683029702970297,-0.01999641148084173
0.002683329702970297,-0.02214271328647354
0.002683629702970297,-0.02436850775157319
0.002683929702970297,-0.02643531689773715
0.002684229702970297,-0.02699176551401206
0.002684529702970297,-0.02937654529804307
0.002684829702970297,-0.03263574433622311
0.002685129702970297,-0.03239726635782594
0.002685429702970298,-0.03502052412027089
0.002685729702970298,-0.03859769379631855
0.002686029702970298,-0.03923363507206565
0.002686329702970298,-0.04225435613183826
0.002686629702970298,-0.04400319464013083
0.002686929702970298,-0.04479812123480928
0.002687229702970298,-0.04773934963511954
0.002687529702970298,-0.05004463675968704
0.002687829702970298,-0.05036260739755841
0.002688129702970297,-0.05330383579786867
0.002688429702970297,-0.05473470366828988
0.002688729702970297,-0.05592709356030755
0.002689029702970297,-0.05886832196061779
0.002689329702970297,-0.06149157972305667
0.002689629702970297,-0.06339940355028495
0.002689929702970297,-0.06642012461005756
0.002690229702970297,-0.06785099248048164
0.002690529702970297,-0.06944084566983826
0.002690829702970297,-0.07230258141067836
0.002691129702970298,-0.0734949713027034
0.002691429702970298,-0.07468736119472194
0.002691729702970298,-0.07635670704354436
0.002692029702970298,-0.07675417034088286
0.002692329702970298,-0.07762858959502915
0.002692629702970298,-0.07897996480598252
0.002692929702970298,-0.07810554555183621
0.002693229702970298,-0.07850300884917544
0.002693529702970297,-0.07961590608172527
0.002693829702970297,-0.07945692076278958
0.002694129702970297,-0.07993387671959665
0.002694429702970297,-0.08033134001693587
0.002694729702970297,-0.0792979354438539
0.002695029702970297,-0.07937742810332174
0.002695329702970297,-0.07961590608172527
0.002695629702970297,-0.07866199416811287
0.002695929702970297,-0.07858250150864343
0.002696229702970297,-0.07834402353024018
0.002696529702970298,-0.07675417034088286
0.002696829702970298,-0.07675417034088113
0.002697129702970298,-0.0758002584272654
0.002697429702970298,-0.0739719272595083
0.002697729702970298,-0.0723820740701514
0.002698029702970298,-0.07627721438407579
0.002698329702970298,-0.08072880331427509
0.002698629702970298,-0.08494191426607087
0.002698929702970298,-0.08692923075276698
0.002699229702970297,-0.08796263532584897
0.002699529702970297,-0.08875756192052742
0.002699829702970297,-0.08994995181254509
0.002700129702970297,-0.09018842979094861
0.002700429702970297,-0.09034741510988431
0.002700729702970297,-0.09034741510988431
0.002701029702970297,-0.09034741510988431
0.002701329702970297,-0.09098335638562591
0.002701629702970297,-0.09026792245041777
0.002701929702970297,-0.08963198117467486
0.002702229702970298,-0.09034741510988316
0.002702529702970298,-0.08971147383414096
0.002702829702970298,-0.08939350319627161
0.002703129702970298,-0.09018842979094861
0.002703429702970298,-0.09010893713148077
0.002703729702970298,-0.08899603989893094
0.002704029702970298,-0.08947299585573802
0.002704329702970298,-0.08931401053680232
0.002704629702970297,-0.08899603989893094
0.002704929702970297,-0.08947299585573802
0.002705229702970297,-0.08867806926105956
0.002705529702970297,-0.08788314266638111
0.002705829702970297,-0.0889165472394631
0.002706129702970297,-0.0882011133042525
0.002706429702970297,-0.08796263532584897
0.002706729702970297,-0.08875756192052597
0.002707029702970297,-0.0877241573474473
0.002707329702970297,-0.08764466468797773
0.002707629702970298,-0.08756517202850628
0.002707929702970298,-0.08565734820128219
0.002708229702970298,-0.0860548114986204
0.002708529702970298,-0.085895826179685
0.002708829702970298,-0.08478292894713518
0.002709129702970298,-0.08502140692553871
0.002709429702970298,-0.08486242160660303
0.002709729702970298,-0.08367003171458536
0.002710029702970298,-0.0837495243740532
0.002710329702970297,-0.08343155373618182
0.002710629702970297,-0.08160322256842138
0.002710929702970297,-0.08295459777937475
0.002711229702970297,-0.08255713448203553
0.002711529702970297,-0.08152372990895354
0.002711829702970297,-0.08295459777937475
0.002712129702970297,-0.08390850969298715
0.002712429702970297,-0.0867702454338261
0.002712729702970297,-0.0952759599968752
0.002713029702970297,-0.09948907094867879
0.002713329702970298,-0.1024302993490039
0.002713629702970298,-0.10640493232239
0.002713929702970298,-0.1069613809386656
0.002714229702970298,-0.107915292852278
0.002714529702970298,-0.1103000726363133
0.002714829702970298,-0.1098231166795063
0.002715129702970298,-0.1103795652957812
0.002715429702970298,-0.1122078964635416
0.002715729702970297,-0.1108565212525882
0.002716029702970297,-0.1106180432741847
0.002716329702970297,-0.1113334772093953
0.002716629702970297,-0.109982101998442
0.002716929702970297,-0.110459057955249
0.002717229702970297,-0.1107770285931204
0.002717529702970297,-0.10894869742536
0.002717829702970297,-0.1088692047658923
0.002718129702970297,-0.1085512341280213
0.002718429702970297,-0.1072793515765375
0.002718729702970298,-0.1079152928522773
0.002719029702970298,-0.1075178295549362
0.002719329702970298,-0.1060869616845193
0.002719629702970298,-0.1070408735981317
0.002719929702970298,-0.1056894983871783
0.002720229702970298,-0.1048945717924999
0.002720529702970298,-0.1063254396629211
0.002720829702970298,-0.1056894983871783
0.002721129702970298,-0.104338123176225
0.002721429702970297,-0.1056894983871783
0.002721729702970297,-0.1044971084951607
0.002722029702970297,-0.1042586305167571
0.002722329702970297,-0.1052125424303713
0.002722629702970297,-0.1037021819004822
0.002722929702970297,-0.1039406598788857
0.002723229702970297,-0.1050535571114335
0.002723529702970297,-0.1033842112626139
0.002723829702970297,-0.1037021819004816
0.002724129702970297,-0.1038611672194176
0.002724429702970298,-0.1027482699868698
0.002724729702970298,-0.1037021819004819
0.002725029702970298,-0.1035431965815441
0.002725329702970298,-0.1021918213705932
0.002725629702970298,-0.1027482699868681
0.002725929702970298,-0.1027482699868681
0.002726229702970298,-0.1027482699868681
0.002726529702970298,-0.1067229029602603
0.002726829702970297,-0.1126053597608808
0.002727129702970297,-0.1172954266694837
0.002727429702970297,-0.1218265082591508
0.002727729702970297,-0.1234958541079755
0.002728029702970297,-0.1245292586810575
0.002728329702970297,-0.1261986045298823
0.002728629702970297,-0.1261191118704144
0.002728929702970297,-0.1265960678272206
0.002729229702970297,-0.1273115017624308
0.002729529702970297,-0.1266755604866905
0.002729829702970298,-0.1271525164434967
0.002730129702970298,-0.1273115017624306
0.002730429702970298,-0.1265165751677544
0.002730729702970298,-0.1269140384650929
0.002731029702970298,-0.1273909944218999
0.002731329702970298,-0.1265960678272215
0.002731629702970298,-0.1269140384650929
0.002731929702970298,-0.1264370825082858
0.002732229702970298,-0.1257216485730752
0.002732529702970297,-0.1260396192109466
0.002732829702970297,-0.1254036779352038
0.002733129702970297,-0.1249267219783968
0.002733429702970297,-0.1250062146378646
0.002733729702970297,-0.125324185275736
0.002734029702970297,-0.1249267219783968
0.002734329702970297,-0.1246882439999936
0.002734629702970297,-0.1245292586810578
0.002734929702970297,-0.1239728100647836
0.002735229702970298,-0.1233368687890399
0.002735529702970298,-0.1233368687890371
0.002735829702970298,-0.1218265082591492
0.002736129702970298,-0.1209520890050048
0.002736429702970298,-0.1211110743239402
0.002736729702970298,-0.1203161477292618
0.002737029702970298,-0.1199186844319225
0.002737329702970298,-0.1191237578372441
0.002737629702970298,-0.1184878165615013
0.002737929702970297,-0.118646801880437
0.002738229702970297,-0.1180903532641621
0.002738529702970297,-0.1179313679452264
0.002738829702970297,-0.117613397307355
0.002739129702970297,-0.1176928899668229
0.002739429702970297,-0.1173749193289515
0.002739729702970297,-0.1172159340100158
0.002740029702970297,-0.1172159340100158
0.002740329702970297,-0.1164210074153388
0.002740629702970297,-0.1171364413505467
0.002740929702970298,-0.1167389780532148
0.002741229702970298,-0.1200776697508715
0.002741529702970298,-0.1273909944219112
0.002741829702970298,-0.1335914218603918
0.002742129702970298,-0.1382814887689947
0.002742429702970298,-0.1416201804666441
0.002742729702970298,-0.143766482272276
0.002743029702970298,-0.1444024235480187
0.002743329702970298,-0.1458332914184399
0.002743629702970297,-0.1459127840779078
0.002743929702970297,-0.1461512620563113
0.002744229702970297,-0.1467077106725862
0.002744529702970297,-0.145276842802165
0.002744829702970297,-0.1450383648237615
0.002745129702970297,-0.1453563354616328
0.002745429702970297,-0.1436074969533434
0.002745729702970297,-0.1431305409965341
0.002746029702970297,-0.1440049602506779
0.002746329702970298,-0.1421766290829189
0.002746629702970298,-0.1420971364234521
0.002746929702970298,-0.1425740923802555
0.002747229702970298,-0.1410637318503697
0.002747529702970298,-0.1413022098287728
0.002747829702970298,-0.1413817024882406
0.002748129702970298,-0.1403482979151586
0.002748429702970298,-0.1411432245098371
0.002748729702970298,-0.1413817024882406
0.002749029702970297,-0.1403482979151586
0.002749329702970297,-0.1414611951477084
0.002749629702970297,-0.1398713419583515
0.002749929702970297,-0.1397918492988837
0.002750229702970297,-0.1403482979151586
0.002750529702970297,-0.1397123566394159
0.002750829702970297,-0.1393148933420766
0.002751129702970297,-0.1398713419583505
0.002751429702970297,-0.1385994594068684
0.002751729702970297,-0.1380430107905921
0.002752029702970298,-0.1394738786610093
0.002752329702970298,-0.1378045328121863
0.002752629702970298,-0.1370890988769784
0.002752929702970298,-0.1378840254716554
0.002753229702970298,-0.1362146796228307
0.002753529702970298,-0.1356582310065558
0.002753829702970298,-0.1358967089849593
0.002754129702970298,-0.1342273631361346
0.002754429702970298,-0.1340683778171989
0.002754729702970297,-0.1340683778171989
0.002755029702970297,-0.133511929200924
0.002755329702970297,-0.1368506208985734
0.002755629702970297,-0.1438459749317438
0.002755929702970297,-0.1493309684350251
0.002756229702970297,-0.1547364692788385
0.002756529702970297,-0.1571212490628695
0.002756829702970297,-0.158949580230631
0.002757129702970297,-0.1613343600146653
0.002757429702970298,-0.161731823312009
0.002757729702970298,-0.1618113159714802
0.002758029702970298,-0.1637191397987037
0.002758329702970298,-0.1630037058634941
0.002758629702970298,-0.1628447205445587
0.002758929702970298,-0.1637986324581728
0.002759229702970298,-0.1632421838418979
0.002759529702970298,-0.1637986324581728
0.002759829702970298,-0.1634806618203014
0.002760129702970297,-0.1620497939498802
0.002760429702970297,-0.161652330652541
0.002760729702970297,-0.1618113159714767
0.002761029702970297,-0.1595060288469092
0.002761329702970297,-0.1597445068253127
0.002761629702970297,-0.1587111022522308
0.002761929702970297,-0.1581546536359558
0.002762229702970297,-0.157836682998085
0.002762529702970297,-0.1578366829980845
0.002762829702970297,-0.1569622637439397
0.002763129702970298,-0.1562468298087276
0.002763429702970298,-0.1562468298087257
0.002763729702970298,-0.1552134252356457
0.002764029702970298,-0.1552929178951134
0.002764329702970298,-0.155531395873517
0.002764629702970298,-0.1548159619383064
0.002764929702970298,-0.1548159619383064
0.002765229702970298,-0.1550544399167099
0.002765529702970298,-0.1543390059814993
0.002765829702970297,-0.1541800206625636
0.002766129702970297,-0.1539415426841601
0.002766429702970297,-0.1537825573652244
0.002766729702970297,-0.1533056014084173
0.002767029702970297,-0.1537030647057565
0.002767329702970297,-0.1530671234300138
0.002767629702970297,-0.1531466160894815
0.002767929702970297,-0.1529081381110785
0.002768229702970297,-0.1517952408785303
0.002768529702970298,-0.1513977775811879
0.002768829702970298,-0.1507618363054441
0.002769129702970298,-0.1495694464134299
0.002769429702970298,-0.1502848803486427
0.002769729702970298,-0.1521927041758675
0.002770029702970298,-0.1573597270412774
0.002770329702970298,-0.163719139798705
0.002770629702970298,-0.1693631186209219
0.002770929702970298,-0.1718273910644251
0.002771229702970297,-0.1747686194647354
0.002771529702970297,-0.175961009356753
0.002771829702970297,-0.1758020240378174
0.002772129702970297,-0.1785047744597241
0.002772429702970297,-0.1784252818002562
0.002772729702970297,-0.1778688331839813
0.002773029702970297,-0.1791407157354668
0.002773329702970297,-0.1795381790328053
0.002773629702970297,-0.178504774459726
0.002773929702970297,-0.1792202083949334
0.002774229702970298,-0.1788227450975936
0.002774529702970298,-0.1777893405245149
0.002774829702970298,-0.1785842671191896
0.002775129702970298,-0.1773123845677064
0.002775429702970298,-0.1766764432919637
0.002775729702970298,-0.1784252818002562
0.002776029702970298,-0.1772328919082386
0.002776329702970298,-0.1758020240378174
0.002776629702970298,-0.1768354286108993
0.002776929702970297,-0.1747686194647354
0.002777229702970297,-0.1738942002105891
0.002777529702970297,-0.1748481121242032
0.002777829702970297,-0.1738147075511212
0.002778129702970297,-0.1730197809564428
0.002778429702970297,-0.1733377515943142
0.002778729702970297,-0.1711914497886863
0.002779029702970297,-0.1712709424481501
0.002779329702970297,-0.1711914497886825
0.002779629702970298,-0.1699990598966648
0.002779929702970298,-0.1700785525561337
0.002780229702970298,-0.1707144938318723
0.002780529702970298,-0.169045147983051
0.002780829702970298,-0.1692836259614541
0.002781129702970298,-0.1690451479830506
0.002781429702970298,-0.1684886993667757
0.002781729702970298,-0.1695221039398576
0.002782029702970298,-0.1687271773451792
0.002782329702970297,-0.1681707287289043
0.002782629702970297,-0.1681707287289043
0.002782929702970297,-0.1676142801126294
0.002783229702970297,-0.1667398608584831
0.002783529702970297,-0.1676937727720972
0.002783829702970297,-0.1681707287289043
0.002784129702970297,-0.171906883723893
0.002784429702970297,-0.1805715836058723
0.002784729702970297,-0.186136069768627
0.002785029702970297,-0.1873284596606527
0.002785329702970298,-0.1888388201905452
0.002785629702970298,-0.1895542541257544
0.002785929702970298,-0.1894747614662888
0.002786229702970298,-0.1906671513583043
0.002786529702970298,-0.1896337467852224
0.002786829702970298,-0.1895542541257545
0.002787129702970298,-0.1897132394446902
0.002787429702970298,-0.1888388201905439
0.002787729702970297,-0.1886798348716082
0.002788029702970297,-0.1883618642337368
0.002788329702970297,-0.1874874449795905
0.002788629702970297,-0.1876464302985262
0.002788929702970297,-0.1869309963633156
0.002789229702970297,-0.1866925183849121
0.002789529702970297,-0.186215562428105
0.002789829702970297,-0.1861360697686373
0.002790129702970297,-0.1855796211523633
0.002790429702970297,-0.1851821578550238
0.002790729702970298,-0.1851026651955559
0.002791029702970298,-0.1855001284928934
0.002791329702970298,-0.1849436798766173
0.002791629702970298,-0.1837512899846014
0.002791929702970298,-0.1835128120061983
0.002792229702970298,-0.1829563633899234
0.002792529702970298,-0.182638392752052
0.002792829702970298,-0.1822409294547128
0.002793129702970298,-0.1820819441357771
0.002793429702970297,-0.1820819441357771
0.002793729702970297,-0.1813665102005665
0.002794029702970297,-0.1811280322221629
0.002794329702970297,-0.1804920909464202
0.002794629702970297,-0.1799356423301453
0.002794929702970297,-0.1796176716922739
0.002795229702970297,-0.1787432524381292
0.002795529702970297,-0.1784252818002568
0.002795829702970297,-0.1773123845677084
0.002796129702970297,-0.1773918772271741
0.002796429702970298,-0.1763584726540921
