-20250405-BKP/real-diodes-in-T00-L10-D00/1kHz5V/scope.csv

#Digilent WaveForms Oscilloscope Acquisition
#Device Name: Discovery3
#Serial Number: SN:210415BD5874
#Date Time: 2025-04-03 15:48:03.121.728.530
#Sample rate: 3.33333e+06Hz
#Samples: 32768
#Trigger: Source: Channel 1 Type: Edge Condition: Rising Level: 0 V Hyst.: Auto HoldOff: 0 s
#Channel 1: Range: 200 mV/div Offset: 0 V Sample Mode: Average
#Wavegen Channel 1: Running
#Mode: Simple
#Type: Sine
#Frequency: 1 kHz
#Period: 1 ms
#Amplitude: 5 V
#Offset: 0 V
#Symmetry: 50 %
#Phase: 0 °

Time (s),Channel 1 (V)
0.002654720612061207,-0.0544167330304185
0.002655020612061207,-0.05386028441414357
0.002655320612061206,-0.052111445905851
0.002655620612061206,-0.05163448994904393
0.002655920612061206,-0.05036260739755841
0.002656220612061206,-0.04853427622979799
0.002656520612061206,-0.04885224686766878
0.002656820612061206,-0.04726239367831536
0.002657120612061206,-0.04654695974310318
0.002657420612061206,-0.04535456985108637
0.002657720612061207,-0.0444801505969353
0.002658020612061207,-0.04304928272651699
0.002658320612061207,-0.04320826804544978
0.002658620612061207,-0.04177740017503118
0.002658920612061207,-0.04106196623982059
0.002659220612061207,-0.04050551762354566
0.002659520612061207,-0.03923363507206015
0.002659820612061207,-0.03891566443418877
0.002660120612061207,-0.03756428922323542
0.002660420612061207,-0.03692834794749265
0.002660720612061207,-0.03684885528802481
0.002661020612061206,-0.03637189933121775
0.002661320612061206,-0.03597443603387852
0.002661620612061206,-0.0354179874176036
0.002661920612061206,-0.03446407550398947
0.002662220612061206,-0.03366914890931247
0.002662520612061206,-0.03422559752558492
0.002662820612061206,-0.03295371497410273
0.002663120612061207,-0.0317613250820826
0.002663420612061207,-0.03168183242261187
0.002663720612061207,-0.03001248657379002
0.002664020612061207,-0.02993299391432203
0.002664320612061207,-0.02977400859538663
0.002664620612061207,-0.02826364806549758
0.002664920612061207,-0.02929705263857956
0.002665220612061207,-0.02810466274656189
0.002665520612061207,-0.02715075083294775
0.002665820612061207,-0.02754821413028698
0.002666120612061207,-0.02635582423826931
0.002666420612061206,-0.02587886828146224
0.002666720612061206,-0.02627633157880146
0.002667020612061206,-0.02428901509210534
0.002667320612061206,-0.02436850775157319
0.002667620612061206,-0.02476597104891169
0.002667920612061206,-0.02349408849742921
0.002668220612061206,-0.0233351031784915
0.002668520612061206,-0.02357358115689431
0.002668820612061207,-0.0223811912648775
0.002669120612061207,-0.02261966924328191
0.002669420612061207,-0.02333510317848947
0.002669720612061207,-0.02238119126487707
0.002670020612061207,-0.02269916190274845
0.002670320612061207,-0.02317611785955552
0.002670620612061207,-0.02182474264860216
0.002670920612061207,-0.02269916190274845
0.002671220612061207,-0.02238119126487707
0.002671520612061207,-0.0211888013728594
0.002671820612061207,-0.02150677201073078
0.002672120612061206,-0.02214271328647354
0.002672420612061206,-0.02039387477818095
0.002672720612061206,-0.02142727935126294
0.002673020612061206,-0.02102981605392371
0.002673320612061206,-0.01975793350244051
0.002673620612061206,-0.02023488945924439
0.002673920612061206,-0.02031438211871296
0.002674220612061207,-0.01920148488616372
0.002674520612061207,-0.01943996286456739
0.002674820612061207,-0.01975793350243632
0.002675120612061207,-0.01872452892935723
0.002675420612061207,-0.01928097754563113
0.002675720612061207,-0.01896300690775975
0.002676020612061207,-0.01848605095095268
0.002676320612061207,-0.01896300690775975
0.002676620612061207,-0.01920148488616328
0.002676920612061207,-0.01848605095095268
0.002677220612061207,-0.01896300690775975
0.002677520612061206,-0.01856554361042052
0.002677820612061206,-0.01832706563201699
0.002678120612061206,-0.01864503626988837
0.002678420612061206,-0.01904249956722759
0.002678720612061206,-0.01872452892935679
0.002679020612061206,-0.01848605095095311
0.002679320612061206,-0.01880402158882348
0.002679620612061206,-0.01848605095095326
0.002679920612061207,-0.01864503626988851
0.002680220612061207,-0.01872452892935448
0.002680520612061207,-0.01777061701574251
0.002680820612061207,-0.01800909499414561
0.002681120612061207,-0.01800909499414561
0.002681420612061207,-0.01769112435627423
0.002681720612061207,-0.01808858765361345
0.002682020612061207,-0.0181680803130813
0.002682320612061207,-0.01665771978319225
0.002682620612061207,-0.01737315371840285
0.002682920612061207,-0.01753213903733854
0.002683220612061206,-0.01618076382638518
0.002683520612061206,-0.01713467573999932
0.002683820612061206,-0.01737315371840285
0.002684120612061206,-0.01641924180478872
0.002684420612061206,-0.01697569042106262
0.002684720612061206,-0.01633974914532203
0.002685020612061206,-0.01610127116691777
0.002685320612061207,-0.01737315371840112
0.002685620612061207,-0.01641924180478756
0.002685920612061207,-0.01578330052904784
0.002686220612061207,-0.01681670510212794
0.002686520612061207,-0.01665771978319225
0.002686820612061207,-0.01641924180478872
0.002687120612061207,-0.01761163169680639
0.002687420612061207,-0.01713467573999932
0.002687720612061207,-0.01665771978319225
0.002688020612061207,-0.01753213903733854
0.002688320612061207,-0.01769112435627423
0.002688620612061206,-0.01681670510212794
0.002688920612061206,-0.01761163169680639
0.002689220612061206,-0.01633974914532087
0.002689520612061206,-0.01713467573999932
0.002689820612061206,-0.01705518308053162
0.002690120612061206,-0.01657822712372527
0.002690420612061206,-0.01657822712372441
0.002690720612061206,-0.01673721244265981
0.002691020612061207,-0.01610127116691864
0.002691320612061207,-0.01681670510212606
0.002691620612061207,-0.01578330052904611
0.002691920612061207,-0.01586279318851381
0.002692220612061207,-0.01610127116691734
0.002692520612061207,-0.01538583723170674
0.002692820612061207,-0.01554482255064243
0.002693120612061207,-0.01546532989117458
0.002693420612061207,-0.01570380786957811
0.002693720612061207,-0.01578330052904596
0.002694020612061207,-0.01610127116691734
0.002694320612061206,-0.01538583723170674
0.002694620612061206,-0.01618076382638518
0.002694920612061206,-0.01665771978319225
0.002695220612061206,-0.01610127116691734
0.002695520612061206,-0.01633974914532044
0.002695820612061206,-0.01649873446425627
0.002696120612061206,-0.01633974914532116
0.002696420612061207,-0.01641924180478872
0.002696720612061207,-0.016419241804789
0.002697020612061207,-0.016578227123726
0.002697320612061207,-0.0174526463778707
0.002697620612061207,-0.01649873446425656
0.002697920612061207,-0.0167372124426601
0.002698220612061207,-0.01729366105893501
0.002698520612061207,-0.01618076382638518
0.002698820612061207,-0.01633974914532087
0.002699120612061207,-0.01729366105893501
0.002699420612061207,-0.01633974914532087
0.002699720612061206,-0.01538583723170674
0.002700020612061206,-0.01633974914532087
0.002700320612061206,-0.01586279318851381
0.002700620612061206,-0.01570380786957811
0.002700920612061206,-0.01610127116691662
0.002701220612061206,-0.01498837393436954
0.002701520612061206,-0.01578330052904451
0.002701820612061206,-0.01633974914531986
0.002702120612061207,-0.01522685191277191
0.002702420612061207,-0.01570380786957768
0.002702720612061207,-0.01546532989117313
0.002703020612061207,-0.01467040329649613
0.002703320612061207,-0.01570380786957811
0.002703620612061207,-0.01570380786957811
0.002703920612061207,-0.01554482255064243
0.002704220612061207,-0.01641924180478872
0.002704520612061207,-0.01665771978319225
0.002704820612061207,-0.01586279318851381
0.002705120612061206,-0.01681670510212794
0.002705420612061206,-0.01681670510212794
0.002705720612061206,-0.01562431521011027
0.002706020612061206,-0.01649873446425656
0.002706320612061206,-0.01633974914532087
0.002706620612061206,-0.01618076382638547
0.002706920612061206,-0.01673721244265908
0.002707220612061206,-0.01681670510212779
0.002707520612061207,-0.01562431521011186
0.002707820612061207,-0.01649873446425541
0.002708120612061207,-0.01586279318851352
0.002708420612061207,-0.01570380786957811
0.002708720612061207,-0.01602177850744949
0.002709020612061207,-0.01522685191277105
0.002709320612061207,-0.01506786659383536
0.002709620612061207,-0.01602177850744949
0.002709920612061207,-0.01530634457223889
0.002710220612061207,-0.01522685191277105
0.002710520612061207,-0.01562431521011027
0.002710820612061206,-0.01474989595596398
0.002711120612061206,-0.01467040329649613
0.002711420612061206,-0.01570380786957811
0.002711720612061206,-0.01554482255064243
0.002712020612061206,-0.01522685191277162
0.002712320612061206,-0.01554482255064185
0.002712620612061206,-0.01522685191277162
0.002712920612061206,-0.01482938861543255
0.002713220612061207,-0.01538583723170847
0.002713520612061207,-0.01633974914531914
0.002713820612061207,-0.01538583723170804
0.002714120612061207,-0.01610127116691734
0.002714420612061207,-0.01618076382638518
0.002714720612061207,-0.01554482255064243
0.002715020612061207,-0.01626025648585303
0.002715320612061207,-0.01594228584798165
0.002715620612061207,-0.01602177850744949
0.002715920612061207,-0.01649873446425656
0.002716220612061206,-0.01578330052904596
0.002716520612061206,-0.01554482255064243
0.002716820612061206,-0.01665771978319225
0.002717120612061206,-0.01546532989117458
0.002717420612061206,-0.01546532989117458
0.002717720612061206,-0.01641924180478698
0.002718020612061206,-0.01514735925330552
0.002718320612061206,-0.0151473592533032
0.002718620612061207,-0.01578330052904379
0.002718920612061207,-0.01459091063702945
0.002719220612061207,-0.0152268519127722
0.002719520612061207,-0.01586279318851381
0.002719820612061207,-0.0151473592533032
0.002720120612061207,-0.01482938861543182
0.002720420612061207,-0.01538583723170674
0.002720720612061207,-0.01474989595596398
0.002721020612061207,-0.01467040329649613
0.002721320612061207,-0.01506786659383536
0.002721620612061207,-0.0144319253180926
0.002721920612061206,-0.01578330052904596
0.002722220612061206,-0.01578330052904596
0.002722520612061206,-0.01562431521011027
0.002722820612061206,-0.01594228584798165
0.002723120612061206,-0.01578330052904625
0.002723420612061206,-0.01530634457223976
0.002723720612061206,-0.01681670510212519
0.002724020612061206,-0.01649873446425714
0.002724320612061207,-0.01586279318851539
0.002724620612061207,-0.01673721244265822
0.002724920612061207,-0.0157038078695784
0.002725220612061207,-0.01586279318851381
0.002725520612061207,-0.01586279318851381
0.002725820612061207,-0.01570380786957811
0.002726120612061207,-0.01562431521011027
0.002726420612061207,-0.01570380786957811
0.002726720612061207,-0.01538583723170674
0.002727020612061207,-0.01522685191277105
0.002727320612061206,-0.01546532989117458
0.002727620612061206,-0.01490888127489967
0.002727920612061206,-0.0151473592533032
0.002728220612061206,-0.01570380786957811
0.002728520612061206,-0.01554482255064243
0.002728820612061206,-0.01554482255064243
0.002729120612061206,-0.01490888127490082
0.002729420612061206,-0.01490888127489967
0.002729720612061207,-0.01554482255064141
0.002730020612061207,-0.01498837393436766
0.002730320612061207,-0.0150678665938355
0.002730620612061207,-0.0151473592533032
0.002730920612061207,-0.01490888127489967
0.002731220612061207,-0.01522685191277105
0.002731520612061207,-0.01594228584798165
0.002731820612061207,-0.01530634457223889
0.002732120612061207,-0.01570380786957811
0.002732420612061207,-0.01594228584798165
0.002732720612061207,-0.01506786659383536
0.002733020612061206,-0.01594228584798165
0.002733320612061206,-0.01554482255064243
0.002733620612061206,-0.01578330052904596
0.002733920612061206,-0.01665771978319225
0.002734220612061206,-0.01554482255064445
0.002734520612061206,-0.01522685191277162
0.002734820612061206,-0.01610127116691575
0.002735120612061207,-0.01467040329649657
0.002735420612061207,-0.01490888127490184
0.002735720612061207,-0.01610127116691502
0.002736020612061207,-0.01482938861543255
0.002736320612061207,-0.01522685191277105
0.002736620612061207,-0.01546532989117458
0.002736920612061207,-0.01482938861543182
0.002737220612061207,-0.01490888127489967
0.002737520612061207,-0.01530634457223889
0.002737820612061207,-0.01355750606394631
0.002738120612061207,-0.01474989595596398
0.002738420612061206,-0.01538583723170674
0.002738720612061206,-0.01467040329649613
0.002739020612061206,-0.01554482255064243
0.002739320612061206,-0.01506786659383536
0.002739620612061206,-0.0144319253180926
0.002739920612061206,-0.0149088812748988
0.002740220612061206,-0.01546532989117357
0.002740520612061206,-0.01506786659383608
0.002740820612061207,-0.01554482255064257
0.002741120612061207,-0.01562431521010998
0.002741420612061207,-0.01546532989117472
0.002741720612061207,-0.01554482255064243
0.002742020612061207,-0.01586279318851381
0.002742320612061207,-0.01570380786957811
0.002742620612061207,-0.01618076382638518
0.002742920612061207,-0.01578330052904596
0.002743220612061207,-0.01538583723170674
0.002743520612061207,-0.01594228584798165
0.002743820612061207,-0.01562431521011027
0.002744120612061206,-0.01490888127489967
0.002744420612061206,-0.01435243265862475
0.002744720612061206,-0.01474989595596398
0.002745020612061206,-0.0144319253180926
0.002745320612061206,-0.014590910637028
0.002745620612061206,-0.01459091063702829
0.002745920612061206,-0.01443192531809289
0.002746220612061207,-0.0147498959559634
0.002746520612061207,-0.01443192531809144
0.002746820612061207,-0.01379598404235042
0.002747120612061207,-0.01411395468022093
0.002747420612061207,-0.01395496936128553
0.002747720612061207,-0.01316004276660708
0.002748020612061207,-0.01292156478820355
0.002748320612061207,-0.01276257946926786
0.002748620612061207,-0.01204714553405726
0.002748920612061207,-0.01228562351246079
0.002749220612061207,-0.01331902808554277
0.002749520612061206,-0.01268308680980001
0.002749820612061206,-0.01347801340447846
0.002750120612061206,-0.01379598404234984
0.002750420612061206,-0.01284207212873571
0.002750720612061206,-0.01411395468022122
0.002751020612061206,-0.01379598404235042
0.002751320612061206,-0.01316004276660824
0.002751620612061206,-0.01387547670181639
0.002751920612061207,-0.01379598404234854
0.002752220612061207,-0.01308055010714112
0.002752520612061207,-0.01411395468021934
0.002752820612061207,-0.01308055010713924
0.002753120612061207,-0.01323953542607493
0.002753420612061207,-0.01451141797756044
0.002753720612061207,-0.01363699872341415
0.002754020612061207,-0.01379598404234984
0.002754320612061207,-0.01451141797756044
0.002754620612061207,-0.01435243265862475
0.002754920612061207,-0.01427293999915691
0.002755220612061206,-0.01538583723170674
0.002755520612061206,-0.0144319253180926
0.002755820612061206,-0.01419344733968906
0.002756120612061206,-0.01522685191277105
0.002756420612061206,-0.01435243265862634
0.002756720612061206,-0.01459091063702785
0.002757020612061206,-0.01506786659383449
0.002757320612061207,-0.01419344733968964
0.002757620612061207,-0.01451141797756044
0.002757920612061207,-0.01451141797755885
0.002758220612061207,-0.01363699872341502
0.002758520612061207,-0.01411395468022122
0.002758820612061207,-0.01498837393436751
0.002759120612061207,-0.0144319253180926
0.002759420612061207,-0.01546532989117458
0.002759720612061207,-0.01522685191277105
0.002760020612061207,-0.01522685191277105
0.002760320612061207,-0.01602177850744949
0.002760620612061206,-0.01538583723170674
0.002760920612061206,-0.01474989595596398
0.002761220612061206,-0.01498837393436751
0.002761520612061206,-0.0144319253180926
0.002761820612061206,-0.01435243265862475
0.002762120612061206,-0.01498837393436636
0.002762420612061206,-0.01419344733969051
0.002762720612061206,-0.01379598404235056
0.002763020612061207,-0.01419344733968878
0.002763320612061207,-0.01403446202075164
0.002763620612061207,-0.01308055010714069
0.002763920612061207,-0.01387547670181769
0.002764220612061207,-0.01387547670181769
0.002764520612061207,-0.01387547670181769
0.002764820612061207,-0.01387547670181769
0.002765120612061207,-0.01363699872341415
0.002765420612061207,-0.01379598404234984
0.002765720612061207,-0.01379598404234984
0.002766020612061207,-0.01403446202075338
0.002766320612061206,-0.01395496936128553
0.002766620612061206,-0.01419344733968906
0.002766920612061206,-0.01419344733968906
0.002767220612061206,-0.01379598404234984
0.002767520612061206,-0.01403446202075294
0.002767820612061206,-0.01411395468022108
0.002768120612061206,-0.01419344733968892
0.002768420612061207,-0.01451141797756204
0.002768720612061207,-0.01538583723170616
0.002769020612061207,-0.01506786659383478
0.002769320612061207,-0.01474989595596441
0.002769620612061207,-0.01498837393436751
0.002769920612061207,-0.01482938861543182
0.002770220612061207,-0.01379598404234984
0.002770520612061207,-0.01482938861543182
0.002770820612061207,-0.0144319253180926
0.002771120612061207,-0.01427293999915691
0.002771420612061207,-0.0144319253180926
0.002771720612061206,-0.01387547670181769
0.002772020612061206,-0.01403446202075338
0.002772320612061206,-0.01403446202075338
0.002772620612061206,-0.01403446202075338
0.002772920612061206,-0.01395496936128553
0.002773220612061206,-0.01451141797755943
0.002773520612061206,-0.01363699872341574
0.002773820612061206,-0.01371649138288185
0.002774120612061207,-0.01419344733968849
0.002774420612061207,-0.01387547670181812
0.002774720612061207,-0.01411395468022122
0.002775020612061207,-0.01411395468022122
0.002775320612061207,-0.01339852074501062
0.002775620612061207,-0.01435243265862475
0.002775920612061207,-0.01411395468022122
0.002776220612061207,-0.01411395468022122
0.002776520612061207,-0.01474989595596398
0.002776820612061207,-0.01451141797756044
0.002777120612061207,-0.01427293999915691
0.002777420612061206,-0.01498837393436751
0.002777720612061206,-0.0144319253180926
0.002778020612061206,-0.01467040329649613
0.002778320612061206,-0.01467040329649613
0.002778620612061206,-0.01427293999915763
0.002778920612061206,-0.01467040329649541
0.002779220612061206,-0.01459091063702843
0.002779520612061207,-0.01459091063702814
0.002779820612061207,-0.01451141797756059
0.002780120612061207,-0.01459091063702756
0.002780420612061207,-0.01419344733969008
0.002780720612061207,-0.01474989595596398
0.002781020612061207,-0.01419344733968906
0.002781320612061207,-0.01411395468022122
0.002781620612061207,-0.01363699872341415
0.002781920612061207,-0.01379598404234984
0.002782220612061207,-0.01347801340447846
0.002782520612061207,-0.01308055010713924
0.002782820612061206,-0.01379598404234984
0.002783120612061206,-0.01411395468022122
0.002783420612061206,-0.01387547670181769
0.002783720612061206,-0.01387547670181769
0.002784020612061206,-0.013716491382882
0.002784320612061206,-0.0134780134044789
0.002784620612061206,-0.01419344733968776
0.002784920612061206,-0.01419344733968906
0.002785220612061207,-0.01427293999915778
0.002785520612061207,-0.01474989595596441
0.002785820612061207,-0.01498837393436722
0.002786120612061207,-0.01482938861543182
0.002786420612061207,-0.01538583723170674
0.002786720612061207,-0.01570380786957811
0.002787020612061207,-0.01474989595596398
0.002787320612061207,-0.01459091063702829
0.002787620612061207,-0.01474989595596398
0.002787920612061207,-0.01435243265862475
0.002788220612061207,-0.01522685191277105
0.002788520612061206,-0.01435243265862475
0.002788820612061206,-0.01427293999915691
0.002789120612061206,-0.01506786659383536
0.002789420612061206,-0.01459091063702829
0.002789720612061206,-0.01411395468022209
0.002790020612061206,-0.01514735925330132
0.002790320612061206,-0.0132395354260784
0.002790620612061207,-0.01339852074501264
0.002790920612061207,-0.01451141797755914
0.002791220612061207,-0.01379598404235042
0.002791520612061207,-0.01411395468022296
0.002791820612061207,-0.01506786659383536
0.002792120612061207,-0.01331902808554277
0.002792420612061207,-0.01395496936128553
0.002792720612061207,-0.01498837393436751
0.002793020612061207,-0.01339852074501062
0.002793320612061207,-0.01395496936128553
0.002793620612061207,-0.01459091063702829
