real-diodes-in-T00-L10-D00/1kHz-1V/scope.csv

#Digilent WaveForms Oscilloscope Acquisition
#Device Name: Discovery3
#Serial Number: SN:210415BD5874
#Date Time: 2025-04-06 21:08:30.675.774.590
#Sample rate: 100000Hz
#Samples: 32768
#Trigger: Source: Channel 1 Type: Edge Condition: Rising Level: 0 V Hyst.: Auto HoldOff: 0 s
#Average: 1
#Channel 1: Range: 500 mV/div Offset: 0 V Sample Mode: Average
#Wavegen Channel 1: Running
#Mode: Simple
#Type: Sine
#Frequency: 1 kHz
#Period: 1 ms
#Amplitude: 1 V
#Offset: 0 V
#Symmetry: 50 %
#Phase: 0 °

Time (s),Channel 1 (V)
-0.19972,0.09328062826083698
-0.19971,0.09365785706303817
-0.1997,0.09591111262868136
-0.19969,0.09784639755644967
-0.19968,0.09968484597178191
-0.19967,0.1021274385990671
-0.19966,0.1033964305083898
-0.19965,0.1054112080956295
-0.19964,0.1071470387141941
-0.19963,0.1088163845630158
-0.19962,0.1104727225221094
-0.19961,0.1119975362628132
-0.1996,0.1132289498240218
-0.19959,0.1147248571430984
-0.19958,0.1164751409724692
-0.19957,0.1178395240731568
-0.19956,0.1192573840538469
-0.19955,0.120647782933991
-0.19954,0.1216782968649142
-0.19953,0.1188223424083812
-0.19952,0.1091661522646807
-0.19951,0.0914812035147073
-0.1995,0.07335398651384452
-0.19949,0.05608962619854115
-0.19948,0.03923573707027667
-0.19947,0.02296286701669748
-0.19946,0.007646799518836
-0.19945,-0.007484266880598039
-0.19944,-0.0222583389729406
-0.19943,-0.03638490722094447
-0.19942,-0.04971076758991745
-0.19941,-0.06348034153082983
-0.1994,-0.07613268227594822
-0.19939,-0.08878646834217031
-0.19938,-0.1010557990007396
-0.19937,-0.1129941511317288
-0.19936,-0.1245480478551301
-0.19935,-0.1356799108227709
-0.19934,-0.146065988112515
-0.19933,-0.1566789808119936
-0.19932,-0.1670665034228384
-0.19931,-0.1771389460379554
-0.1993,-0.1857472783977678
-0.19929,-0.1911874669475474
-0.19928,-0.1932615026991114
-0.19927,-0.1887217491829671
-0.19926,-0.1790800122500585
-0.19925,-0.1685335043202785
-0.19924,-0.1581850053786651
-0.19923,-0.1482079539549098
-0.19922,-0.1385604357376932
-0.19921,-0.1295777652178093
-0.1992,-0.1206861499260604
-0.19919,-0.1122729359122152
-0.19918,-0.1038481593296897
-0.19917,-0.09537568715148556
-0.19916,-0.08852920118969507
-0.19915,-0.0809484921186249
-0.19914,-0.07408466230383477
-0.19913,-0.06752579523720881
-0.19912,-0.06102329569273941
-0.19911,-0.05395856624765825
-0.1991,-0.0477711466989087
-0.19909,-0.04167622769934682
-0.19908,-0.03584435713657982
-0.19907,-0.03061229482250393
-0.19906,-0.02502179288029265
-0.19905,-0.01927230561915613
-0.19904,-0.01362399083368453
-0.19903,-0.009133378234283607
-0.19902,-0.004521358664075611
-0.19901,-0.000243208263624464
-0.199,0.004341350206056358
-0.19899,0.008727899687592307
-0.19898,0.01279503321018346
-0.19897,0.01692865150250387
-0.19896,0.02099723034618393
-0.19895,0.02473338534117264
-0.19894,0.02856059556427191
-0.19893,0.03285319917554248
-0.19892,0.03692466866138332
-0.19891,0.03995695228980559
-0.1989,0.04341560563719754
-0.19889,0.04664878889592274
-0.19888,0.04980103417408727
-0.19887,0.05311515541335599
-0.19886,0.05591040638445653
-0.19885,0.05877214212530403
-0.19884,0.0616078620866843
-0.19883,0.0643626440675103
-0.19882,0.06733133356836911
-0.19881,0.07002107610054475
-0.1988,0.07274839698082729
-0.19879,0.07576044611412343
-0.19878,0.07758733196080662
-0.19877,0.0798781658745575
-0.19876,0.08243638418834101
-0.19875,0.08466217865344465
-0.19874,0.08686195733907814
-0.19873,0.08894177437497318
-0.19872,0.09108807618060109
-0.19871,0.09326039376569895
-0.1987,0.09551364933134215
-0.19869,0.09744893425911044
-0.19868,0.09928738267444269
-0.19867,0.101716967411999
-0.19866,0.1029064666618517
-0.19865,0.1048807752588167
-0.19864,0.1067365675271236
-0.19863,0.1083264207164776
-0.19862,0.1099032660161034
-0.19861,0.1113876107665276
-0.1986,0.1127519938672148
-0.19859,0.1142218854068292
-0.19858,0.115904239145382
-0.19857,0.1175880382050222
-0.19856,0.1188873818570513
-0.19855,0.1200378574377129
-0.19854,0.121175325128645
-0.19853,0.1182384326915632
-0.19852,0.1088351737370782
-0.19851,0.09108374021736806
-0.1985,0.0729695311062365
-0.19849,0.05577165556066977
-0.19848,0.03898280588106069
-0.19847,0.02300333600697156
-0.19846,0.00748781419990031
-0.19845,-0.007617236420071578
-0.19844,-0.02225833897294084
-0.19843,-0.03635889144148231
-0.19842,-0.0495127586018133
-0.19841,-0.06313490979241491
-0.1984,-0.07606619750621145
-0.19839,-0.0887604525627079
-0.19838,-0.1008838057920729
-0.19837,-0.1127816889327874
-0.19836,-0.1244555473058897
-0.19835,-0.1355599491730284
-0.19834,-0.1461064571027896
-0.19833,-0.1565590191622515
-0.19832,-0.1671329881925752
-0.19831,-0.1771259381482243
-0.1983,-0.1856677857383155
-0.19829,-0.1911339900675417
-0.19828,-0.1932759559099234
-0.19827,-0.18845581010402
-0.19826,-0.1790930201397896
-0.19825,-0.1686129969797463
-0.19824,-0.1581994585894775
-0.19823,-0.1479550227656939
-0.19822,-0.1386009047279674
-0.19821,-0.1294317877886046
-0.1982,-0.1206196651563236
-0.19819,-0.1123119595814082
-0.19818,-0.104034605749169
-0.19817,-0.095244162933093
-0.19816,-0.08817076156154907
-0.19815,-0.08081552257915134
-0.19814,-0.07409767019356583
-0.19813,-0.06752724055829021
-0.19812,-0.06067786395432449
-0.19811,-0.05389208147794509
-0.1981,-0.0477711466989087
-0.19809,-0.04170224347880897
-0.19808,-0.03596431878632211
-0.19807,-0.03050678638357393
-0.19806,-0.02483534646080339
-0.19805,-0.01932578249915137
-0.19804,-0.01357051395367883
-0.19803,-0.009225878783482602
-0.19802,-0.00465432820354915
-0.19801,-0.0002302003738933885
-0.198,0.004394827086061857
-0.19799,0.008674422807586612
-0.19798,0.01287452586965131
-0.19797,0.01699513627224066
-0.19796,0.02099723034618393
-0.19795,0.02481143267955909
-0.19794,0.02893348840322984
-0.19793,0.03272022963606894
-0.19792,0.03685962921272739
-0.19791,0.03958550477192852
-0.1979,0.04315111187933185
-0.19789,0.04632937293697056
-0.19788,0.04980247949516865
-0.19787,0.05275671578520999
-0.19786,0.05571239739632734
-0.19785,0.05841370249715803
-0.19784,0.06146188465747968
-0.19783,0.06428315140804233
-0.19782,0.06723883301917019
-0.19781,0.06984908289188284
-0.1978,0.0725099190024287
-0.19779,0.07550896024598883
-0.19778,0.07736041655105363
-0.19777,0.08011664385296104
-0.19776,0.08266185427701345
-0.19775,0.08478214030317927
-0.19774,0.08679547256934138
-0.19773,0.0889287664852421
-0.19772,0.09103459930059547
-0.19771,0.09335289431489788
-0.1977,0.09563361098108461
-0.19769,0.09739545737910506
-0.19768,0.09937988322364161
-0.19767,0.1018369290617411
-0.19766,0.1028659976715771
-0.19765,0.1050397605777524
-0.19764,0.1068955528460592
-0.19763,0.1084463823662201
-0.19762,0.1095636155620141
-0.19761,0.109640217579319
-0.1976,0.1111780392097503
-0.19759,0.1157943947432108
-0.19758,0.1184378870007829
-0.19757,0.1190492578181497
-0.19756,0.1191807820365429
-0.19755,0.1197473479003851
-0.19754,0.1207359475199497
-0.19753,0.118332378561843
-0.19752,0.1086357194278679
-0.19751,0.09112276388656129
-0.1975,0.07311695385658652
-0.19749,0.05546669281252947
-0.19748,0.0387703436821193
-0.19747,0.02288481967831032
-0.19746,0.007195859341491082
-0.19745,-0.007776221739007268
-0.19744,-0.02243033218160758
-0.19743,-0.03655834575069263
-0.19742,-0.0495387743812757
-0.19741,-0.0632938951113506
-0.1974,-0.07622518282514713
-0.19739,-0.08894545366110602
-0.19738,-0.1012277922094064
-0.19737,-0.1131936054409391
-0.19736,-0.1244830084064339
-0.19735,-0.1353995185330113
-0.19734,-0.1463839587503863
-0.19733,-0.156996951449865
-0.19732,-0.1673844740607098
-0.19731,-0.1774048851169177
-0.1973,-0.1857863020669766
-0.19729,-0.1914649685951441
-0.19728,-0.1936864270969938
-0.19727,-0.188906750281365
-0.19726,-0.1793979828879299
-0.19725,-0.1688124512889947
-0.19724,-0.1582644980381329
-0.19723,-0.1483004545041088
-0.19722,-0.1386803973874357
-0.19721,-0.1295633120069968
-0.1972,-0.1209911126742007
-0.19719,-0.1124593823316791
-0.19718,-0.1037686666702219
-0.19717,-0.09528318660228662
-0.19716,-0.08842224742968369
-0.19715,-0.08110747743756057
-0.19714,-0.07425665551250149
-0.19713,-0.06767321798749483
-0.19712,-0.06075735661379233
-0.19711,-0.05395856624768187
-0.1971,-0.04781017036810193
-0.19709,-0.04191470567775035
-0.19708,-0.03599177988686599
-0.19707,-0.0302683084051704
-0.19706,-0.02459686848239993
-0.19705,-0.01912632818994106
-0.19704,-0.01359652973314098
-0.19703,-0.009345840433224749
-0.19702,-0.004600851323543455
-0.19701,-0.0003096930333612331
-0.197,0.004289318647115711
-0.19699,0.008474968498376303
-0.19698,0.01287452586965131
-0.19697,0.01698212838250961
-0.19696,0.02094375346617824
-0.19695,0.02486490955956478
-0.19694,0.02886700363350056
-0.19693,0.03265519018741356
-0.19692,0.03650118958458173
-0.19691,0.03941351156326176
-0.1969,0.04295165757012154
-0.19689,0.04629034926777695
-0.19688,0.04955099362703404
-0.19687,0.05243874514733861
-0.19686,0.05545946620711122
-0.19685,0.05845417148743266
-0.19684,0.0613549308974683
-0.19683,0.06444213672697754
-0.19682,0.06737180255864372
-0.19681,0.06983607500215167
-0.1968,0.07244343423269192
-0.19679,0.07553497602545096
-0.19678,0.07751940186998928
-0.19677,0.08024961339243457
-0.19676,0.08266185427701345
-0.19675,0.08478214030317927
-0.19674,0.08676945678987923
-0.19673,0.08880880483549965
-0.19672,0.09114010773952505
-0.19671,0.09351332495491495
-0.1967,0.09540814089241544
-0.19669,0.09721045628071043
-0.19668,0.09903589680630807
-0.19667,0.1014510283330525
-0.19666,0.1029715061105071
-0.19665,0.1052131991075006
-0.19664,0.10669754385793
-0.19663,0.1081009506278052
-0.19662,0.1097572885868988
-0.19661,0.1113341338865218
-0.1966,0.112896525975338
-0.19659,0.1146858334739052
-0.19658,0.116223655104335
-0.19657,0.1174955376558233
-0.19656,0.1187674202073113
-0.19655,0.1201303579869119
-0.19654,0.121386342006505
-0.19653,0.1186373413099832
-0.19652,0.1088481816268093
-0.19651,0.09115022498710484
-0.1965,0.07291749954737664
-0.19649,0.05549270859199162
-0.19648,0.03890331322159283
-0.19647,0.02289782756804161
-0.19646,0.007275352000958928
-0.19645,-0.007696729079566029
-0.19644,-0.02232482374270424
-0.19643,-0.03633287566202016
-0.19642,-0.04940580484180231
-0.19641,-0.06324186355242629
-0.1964,-0.07592022007700683
-0.19639,-0.08873299146211899
-0.19638,-0.1010962679910142
-0.19637,-0.1127961421435999
-0.19636,-0.1241245687782878
-0.19635,-0.1352145174346135
-0.19634,-0.1460920038919771
-0.19633,-0.1568509740206601
-0.19632,-0.1672789656217798
-0.19631,-0.177153399248783
-0.1963,-0.1854683314291053
-0.19629,-0.1911469979572727
-0.19628,-0.1933944722385848
-0.19627,-0.1887347570726982
-0.19626,-0.1791725127992575
-0.19625,-0.1686014344111347
-0.19624,-0.1578265657505191
-0.19623,-0.1481010001948985
-0.19622,-0.1386803973874353
-0.19621,-0.1294982725583414
-0.1962,-0.1205806414871148
-0.19619,-0.1120344579337963
-0.19618,-0.1036747207999416
-0.19617,-0.09548264091149647
-0.19616,-0.08837021587075938
-0.19615,-0.08080251468942026
-0.19614,-0.07400516964439122
-0.19613,-0.06739427101881668
-0.19612,-0.06071688762351772
-0.19611,-0.05411755156661721
-0.1961,-0.04794313990757548
-0.19609,-0.04188868989828819
-0.19608,-0.03583279456791953
-0.19607,-0.03014834675542794
-0.19606,-0.02466335325213658
-0.19605,-0.01912632818994106
-0.19604,-0.01353149028448561
-0.19603,-0.009026424474272515
-0.19602,-0.004576280865162697
-0.19601,0.0001947240239893778
-0.196,0.004553812404981832
-0.19599,0.008846416016253376
-0.19598,0.01309999595832376
-0.19597,0.01716712948090753
-0.19596,0.02128773988351177
-0.19595,0.02528983395745435
-0.19594,0.02902598895243625
-0.19593,0.03282718339608033
-0.19592,0.03672665967325414
-0.19591,0.03961152055139068
-0.1959,0.04337513664692293
-0.19589,0.04679476632511542
-0.19588,0.04981548738489973
-0.19587,0.05283620844467783
-0.19586,0.05580489794552623
-0.19585,0.05857268781609373
-0.19584,0.06167290153533968
-0.19583,0.06470807580593023
-0.19582,0.06735879466891265
-0.19581,0.06979560601187727
-0.1958,0.07253738010297224
-0.19579,0.07533552171624067
-0.19578,0.07750639398025801
-0.19577,0.0801310970637735
-0.19576,0.08238290730833531
-0.19575,0.08472866342317316
-0.19574,0.08684894944934707
-0.19573,0.08890130538469856
-0.19572,0.09122104572007431
-0.19571,0.09326039376569895
-0.1957,0.09546161777242089
-0.19569,0.09713096362124259
-0.19568,0.09898241992630238
-0.19567,0.101504505213058
-0.19566,0.1028920134510392
-0.19565,0.1051337064480328
-0.19564,0.1066570748676501
-0.19563,0.1082469280570098
-0.19562,0.1098107654669045
-0.19561,0.1112936648962473
-0.1956,0.1130164876250805
-0.19559,0.1145673171452466
-0.19558,0.1159447081356596
-0.19557,0.1174290528860865
-0.19556,0.1187283965381178
-0.19555,0.1199309036777016
-0.19554,0.1214123577859671
-0.19553,0.1187703108494564
-0.19552,0.1088351737370782
-0.19551,0.09105772443790591
-0.1955,0.07282355367709632
-0.19549,0.05571817868066408
-0.19548,0.03903628276106638
-0.19547,0.02287181178857975
-0.19546,0.007116366682023238
-0.19545,-0.007868722288232939
-0.19544,-0.02257630961083885
-0.19543,-0.03659881474096724
-0.19542,-0.0493927969520712
-0.19541,-0.06321440245188276
-0.1954,-0.07615869805541037
-0.19539,-0.08895846155079147
-0.19538,-0.1012422454202189
-0.19537,-0.1128496190236056
-0.19536,-0.1241231234572065
-0.19535,-0.1356119807319527
-0.19534,-0.1464634514098735
-0.19533,-0.1570894519990832
-0.19532,-0.1674914278207212
-0.19531,-0.1772589076877131
-0.1953,-0.1856807936280466
-0.19529,-0.191291530065396
-0.19528,-0.1938454124159295
-0.19527,-0.1890657356003007
-0.19526,-0.1795049366479413
-0.19525,-0.1686664738597906
-0.19524,-0.1582110211581272
-0.19523,-0.1484059629430388
-0.19522,-0.13893188325557
-0.19521,-0.129855266865406
-0.1952,-0.121085058544465
-0.19519,-0.112285943801931
-0.19518,-0.1039666756583508
-0.19517,-0.09565463412016342
-0.19516,-0.08864771751835615
-0.19515,-0.08125345486676519
-0.19514,-0.07424509294387655
-0.19513,-0.06724829358961205
-0.19512,-0.06065040285378094
-0.19511,-0.05411755156661709
-0.1951,-0.0479301320178444
-0.19509,-0.04182220512854048
-0.19508,-0.03580677878845738
-0.19507,-0.0300153772159544
-0.19506,-0.02472839270079249
-0.19505,-0.01948476781808706
-0.19504,-0.01370348349315237
-0.19503,-0.009199863004036957
-0.19502,-0.004456319215420234
-0.19501,8.921558505938215e-05
-0.195,0.004341350206040645
-0.19499,0.008779931246516607
-0.19498,0.01308698806859269
-0.19497,0.01707462893170875
-0.19496,0.02115477034403823
-0.19495,0.02527682606772308
-0.19494,0.02890747262377518
-0.19493,0.03257425220686433
-0.19492,0.03678013655325959
-0.19491,0.03953202789192284
-0.1949,0.04326962820799293
-0.19489,0.04655628834671212
-0.19488,0.04959001729622727
-0.19487,0.05266421523601107
-0.19486,0.05557942785685387
-0.19485,0.05846573405608233
-0.19484,0.06177985529535607
-0.19483,0.06453608259726347
-0.19482,0.06714633246997127
-0.19481,0.0696770896832159
-0.1948,0.07224542524456301
-0.19479,0.07517653639730498
-0.19478,0.07736041655104466
-0.19477,0.08005160440430566
-0.19476,0.08227739886940531
-0.19475,0.08443815388584565
-0.19474,0.08634453239199646
-0.19473,0.08866282740629504
-0.19472,0.09099557563140608
-0.19471,0.09307539266730111
-0.1947,0.09514364713454956
-0.19469,0.09683900876283336
-0.19468,0.09882343460736669
-0.19467,0.1013975514530469
-0.19466,0.1029599435418574
-0.19465,0.1047622589301557
-0.19464,0.1064055889995153
-0.19463,0.1079029416396762
-0.19462,0.1094118568484839
-0.19461,0.1112546412270534
-0.1946,0.1127259780877526
-0.19459,0.1140759079776276
-0.19458,0.1157597070372618
-0.19457,0.117085066468753
-0.19456,0.1183555036991602
-0.19455,0.1200378574377129
-0.19454,0.1212013409081071
-0.19453,0.1183063627824038
-0.19452,0.108437710439739
-0.19451,0.09071229269949099
-0.1945,0.072744061017628
-0.19449,0.05566470180065839
-0.19448,0.03910276753080314
-0.19447,0.0228457960090882
-0.19446,0.006944373473356473
-0.19445,-0.008068176597442838
-0.19444,-0.0225502938313767
-0.19443,-0.03647885309122478
-0.19442,-0.049537329060195
-0.19441,-0.06367835051895875
-0.1944,-0.07651713768355636
-0.19439,-0.08910443897999647
-0.19438,-0.1013087301899556
-0.19437,-0.1128886426927988
-0.19436,-0.1243225777664166
-0.19435,-0.1356249886216838
-0.19434,-0.1465299361796102
-0.19433,-0.1570894519990832
-0.19432,-0.1674784199309901
-0.19431,-0.1772184386974389
-0.1943,-0.1858657947264445
-0.19429,-0.191557469144343
-0.19428,-0.1938584203056651
-0.19427,-0.1891192124803064
-0.19426,-0.1794124360987424
-0.19425,-0.1685855358792414
-0.19424,-0.1584769602370743
-0.19423,-0.1484319787224839
-0.19422,-0.1390648527950263
-0.19421,-0.1298422589756749
-0.1942,-0.120992557995266
-0.19419,-0.1121659821521885
-0.19418,-0.1040461683178186
-0.19417,-0.0957731504488248
-0.19416,-0.08893967237676537
-0.19415,-0.08138642440623872
-0.19414,-0.07427110872333889
-0.19413,-0.0674332946880099
-0.19412,-0.06096837349165232
-0.19411,-0.05443552220448847
-0.1941,-0.04823509476598469
-0.19409,-0.04203466732748166
-0.19408,-0.0358992793376563
-0.19407,-0.03020037831435224
-0.19406,-0.02502034755920145
-0.19405,-0.01963074524729167
-0.19404,-0.01379598404235129
-0.19403,-0.009319824653779368
-0.19402,-0.00440284233541454
-0.19401,2.273081532261291e-05
-0.194,0.004289318647116316
-0.19399,0.008448952718914153
-0.19398,0.01272854844045433
-0.19397,0.01692865150251139
-0.19396,0.02103625401537716
-0.19395,0.0249718633195829
-0.19394,0.02866899464537164
-0.19393,0.03229675055926757
-0.19392,0.03635521215536443
-0.19391,0.03938605046271821
-0.1939,0.04321615132798723
-0.19389,0.04662277311644867
-0.19388,0.04953798573730298
-0.19387,0.05235925248787077
-0.19386,0.05539298143737443
-0.19385,0.05850620304635696
-0.19384,0.06159485419695802
-0.19383,0.06423111984912316
-0.19382,0.06694687816076096
-0.19381,0.06969009757294709
-0.1938,0.07232491790403087
-0.19379,0.07530806061569713
-0.19378,0.07767983250999708
-0.19377,0.07999812752429997
-0.19376,0.08233087574941102
-0.19375,0.0843716691161091
-0.19374,0.08642257973038292
-0.19373,0.08912677547337512
-0.19372,0.09138003103901422
-0.19371,0.09335433963597926
-0.1937,0.09523614768374858
-0.19369,0.09698498619203796
-0.19368,0.09891593515656562
-0.19367,0.1015435288822439
-0.19366,0.1030134204218631
-0.19365,0.1046957741604189
-0.19364,0.1063795732200531
-0.19363,0.1078089957693959
-0.19362,0.1096243190474253
-0.19361,0.1113341338865246
-0.1936,0.1128054707472205
-0.19359,0.1141293848576332
-0.19358,0.1157192380469872
-0.19357,0.1172700675671508
-0.19356,0.118634450667838
-0.19355,0.1201043422074497
-0.19354,0.1212013409081071
-0.19353,0.1182933548926727
-0.19352,0.1083972414494644
-0.19351,0.09085827012869561
-0.1935,0.07283656156682701
-0.19349,0.05578466345040085
-0.19348,0.03898425120211223
-0.19347,0.02257985693014113
-0.19346,0.006970389252818624
-0.19345,-0.007935207057969493
-0.19344,-0.02252427805191455
-0.19343,-0.03635889144148231
-0.19342,-0.04960381382988197
-0.19341,-0.06367835051895875
-0.1934,-0.07654315346301852
-0.19339,-0.08923740851946982
-0.19338,-0.1013477538591488
-0.19337,-0.1131661443403956
-0.19336,-0.1247865258335134
-0.19335,-0.1359834282498298
-0.19334,-0.146701929388277
-0.19333,-0.1573019141980246
-0.19332,-0.167557912590458
-0.19331,-0.1772849234671755
-0.1933,-0.1858267710572513
-0.19329,-0.1913450069454016
-0.19328,-0.1938179513153901
-0.19327,-0.1892391741300488
-0.19326,-0.1793849749981988
-0.19325,-0.1687979980781823
-0.19324,-0.1585694607862732
-0.19323,-0.1485909640414196
-0.19322,-0.1392368460036931
-0.19321,-0.1300287053951542
-0.1932,-0.120978104784454
-0.19319,-0.1124319212311356
-0.19318,-0.1040591762075497
-0.19317,-0.09583963521858896
-0.19316,-0.08895268026649644
-0.19315,-0.08138786972732012
-0.19314,-0.07395169276438669
-0.19313,-0.06752579523720881
-0.19312,-0.06110134303111376
-0.19311,-0.05444853009420766
-0.1931,-0.04830157953572147
-0.19309,-0.0420086515480194
-0.19308,-0.03581834135710706
-0.19307,-0.03047932528303039
-0.19306,-0.02508683232893815
-0.19305,-0.01965676102675383
-0.19304,-0.01395496936128698
-0.19303,-0.009478809972715063
-0.19302,-0.004574835544081305
-0.19301,-0.0002287550528119967
-0.193,0.003997363788707162
