real-diodes-in-T00-L10-D00/1kHz200mV/scope.csv

#Digilent WaveForms Oscilloscope Acquisition
#Device Name: Discovery3
#Serial Number: SN:210415BD5874
#Date Time: 2025-04-03 15:43:02.023.348.370
#Sample rate: 3.33333e+06Hz
#Samples: 32768
#Trigger: Source: Channel 1 Type: Edge Condition: Rising Level: 0 V Hyst.: Auto HoldOff: 0 s
#Channel 1: Range: 200 mV/div Offset: 0 V Sample Mode: Average
#Wavegen Channel 1: Running
#Mode: Simple
#Type: Sine
#Frequency: 1 kHz
#Period: 1 ms
#Amplitude: 200 mV
#Offset: 0 V
#Symmetry: 50 %
#Phase: 0 °

Time (s),Channel 1 (V)
0.00265470697569757,-0.1184878165615013
0.00265500697569757,-0.1177723826262907
0.00265530697569757,-0.1190442651777762
0.00265560697569757,-0.1192827431561798
0.00265590697569757,-0.1180903532641621
0.00265620697569757,-0.1195212211345833
0.00265650697569757,-0.1200776697508572
0.00265680697569757,-0.1192032504967135
0.00265710697569757,-0.1199981770913889
0.00265740697569757,-0.1199981770913904
0.002657706975697571,-0.1191237578372463
0.002658006975697571,-0.1203161477292615
0.002658306975697571,-0.1201571624103251
0.00265860697569757,-0.1196007137940512
0.00265890697569757,-0.1207931036860688
0.00265920697569757,-0.1213495523023437
0.00265950697569757,-0.1211905669834081
0.00265980697569757,-0.1218265082591508
0.00266010697569757,-0.1221444788970222
0.00266040697569757,-0.1219060009186187
0.00266070697569757,-0.1226214348538293
0.00266100697569757,-0.1226214348538293
0.00266130697569757,-0.1230983908106363
0.00266160697569757,-0.1234958541079755
0.00266190697569757,-0.1228599128322328
0.00266220697569757,-0.1236548394269098
0.00266250697569757,-0.124767736659459
0.00266280697569757,-0.1246882439999934
0.002663106975697571,-0.1257216485730761
0.002663406975697571,-0.1261986045298813
0.002663706975697571,-0.1256421559136083
0.00266400697569757,-0.1261986045298833
0.00266430697569757,-0.1267550531461572
0.00266460697569757,-0.1267550531461572
0.00266490697569757,-0.1271525164434964
0.00266520697569757,-0.1275499797408356
0.00266550697569757,-0.1274704870813678
0.00266580697569757,-0.1282654136760462
0.00266610697569757,-0.1282654136760462
0.00266640697569757,-0.1275499797408356
0.00266670697569757,-0.1275499797408356
0.00266700697569757,-0.1288218622923211
0.00266730697569757,-0.127867950378707
0.00266760697569757,-0.128662876973384
0.00266790697569757,-0.1287423696328532
0.00266820697569757,-0.128821862292321
0.00266850697569757,-0.1291398329301919
0.002668806975697571,-0.1295372962275315
0.002669106975697571,-0.1293783109085975
0.002669406975697571,-0.1301732375032755
0.00266970697569757,-0.1307296861195494
0.00267000697569757,-0.1307296861195494
0.00267030697569757,-0.1313656273952922
0.00267060697569757,-0.13144512005476
0.00267090697569757,-0.1316835980331635
0.00267120697569757,-0.1321605539899706
0.00267150697569757,-0.1326375099467777
0.00267180697569757,-0.1320810613305028
0.00267210697569757,-0.1329554805846491
0.00267240697569757,-0.1333529438819883
0.00267270697569757,-0.1331939585630526
0.00267300697569757,-0.1337504071793275
0.00267330697569757,-0.1340683778171983
0.00267360697569757,-0.1336709145198604
0.00267390697569757,-0.135181275049746
0.002674206975697571,-0.134863304411876
0.002674506975697571,-0.1341478704766686
0.002674806975697571,-0.1351812750497471
0.00267510697569757,-0.1343068557956024
0.00267540697569757,-0.1343068557956024
0.00267570697569757,-0.1358172163254915
0.00267600697569757,-0.1348633044118773
0.00267630697569757,-0.1355787383470879
0.00267660697569757,-0.1365326502607021
0.00267690697569757,-0.135022289730813
0.00267720697569757,-0.1351812750497487
0.00267750697569757,-0.1372480841959127
0.00267780697569757,-0.1361351869633629
0.00267810697569757,-0.1366916355796378
0.00267840697569757,-0.138122503450059
0.00267870697569757,-0.1367711282391081
0.00267900697569757,-0.1374070695148472
0.00267930697569757,-0.1389174300447347
0.00267960697569757,-0.1372480841959157
0.002679906975697571,-0.1388379373852713
0.002680206975697571,-0.1397918492988818
0.002680506975697571,-0.1387584447258042
0.00268080697569757,-0.1401098199367551
0.00268110697569757,-0.1405867758935622
0.00268140697569757,-0.1402688052556908
0.00268170697569757,-0.1413817024882406
0.00268200697569757,-0.1413022098287728
0.00268230697569757,-0.1409842391909014
0.00268260697569757,-0.1418586584450477
0.00268290697569757,-0.1418586584450477
0.00268320697569757,-0.1409842391909014
0.00268350697569757,-0.1421766290829191
0.00268380697569757,-0.141699673126112
0.00268410697569757,-0.1413022098287728
0.00268440697569757,-0.1426535850397236
0.00268470697569757,-0.1420971364234522
0.00268500697569757,-0.1419381511045158
0.002685306975697571,-0.1431305409965322
0.002685606975697571,-0.1425740923802581
0.002685906975697571,-0.142494599720793
0.00268620697569757,-0.1439254675912116
0.00268650697569757,-0.1426535850397261
0.00268680697569757,-0.1432895263154689
0.00268710697569757,-0.1435280042938724
0.00268740697569757,-0.1438459749317438
0.00268770697569757,-0.1444024235480187
0.00268800697569757,-0.1456743060995042
0.00268830697569757,-0.1450383648237615
0.00268860697569757,-0.1459922767373756
0.00268890697569757,-0.1461512620563113
0.00268920697569757,-0.146310247375247
0.00268950697569757,-0.1472641592888611
0.00268980697569757,-0.1474231446077965
0.00269010697569757,-0.1466282180131198
0.00269040697569757,-0.1477411152456662
0.00269070697569757,-0.1475026372672651
0.002691006975697571,-0.148138578543007
0.002691306975697571,-0.1479001005646045
0.002691606975697571,-0.1482180712024738
0.00269190697569757,-0.1474231446077968
0.00269220697569757,-0.1479795932240717
0.00269250697569757,-0.1481385785430074
0.00269280697569757,-0.1482975638619431
0.00269310697569757,-0.1480590858835396
0.00269340697569757,-0.1482180712024752
0.00269370697569757,-0.1482180712024752
0.00269400697569757,-0.1489335051376859
0.00269430697569757,-0.1490129977971537
0.00269460697569757,-0.1490924904566215
0.00269490697569757,-0.1493309684350251
0.00269520697569757,-0.1494899537539608
0.00269550697569757,-0.1493309684350254
0.00269580697569757,-0.1498079243918313
0.00269610697569757,-0.1495694464134291
0.002696406975697571,-0.1502053876891728
0.002696706975697571,-0.1510003142838507
0.002697006975697571,-0.1514772702406566
0.00269730697569757,-0.1513182849217212
0.00269760697569757,-0.1525901674732067
0.00269790697569757,-0.1529876307705459
0.00269820697569757,-0.152431182154271
0.00269850697569757,-0.1533850940678851
0.00269880697569757,-0.1537030647057565
0.00269910697569757,-0.1537825573652244
0.00269940697569757,-0.1547364692788385
0.00269970697569757,-0.1545774839599028
0.00270000697569757,-0.1540210353436279
0.00270030697569757,-0.1552929178951134
0.00270060697569757,-0.1551339325761777
0.00270090697569757,-0.1552929178951132
0.00270120697569757,-0.1556108885329842
0.00270150697569757,-0.1551339325761786
0.00270180697569757,-0.1552134252356454
0.002702106975697571,-0.1564058151276618
0.002702406975697571,-0.1556108885329841
0.002702706975697571,-0.1552134252356472
0.00270300697569757,-0.1560878444897919
0.00270330697569757,-0.1553724105545813
0.00270360697569757,-0.1564853077871311
0.00270390697569757,-0.1567237857655346
0.00270420697569757,-0.1563263224681954
0.00270450697569757,-0.1575187123602131
0.00270480697569757,-0.1579161756575523
0.00270510697569757,-0.1565648004465989
0.00270540697569757,-0.1576776976791488
0.00270570697569757,-0.1583931316143594
0.00270600697569757,-0.1581546536359558
0.00270630697569757,-0.1596650141658449
0.00270660697569757,-0.1599829848037157
0.00270690697569757,-0.1591880582090393
0.00270720697569757,-0.1601419701226502
0.002707506975697571,-0.159982984803717
0.002707806975697571,-0.1603804481010571
0.002708106975697571,-0.1612548673552006
0.00270840697569757,-0.160618926079459
0.00270870697569757,-0.1609368967173304
0.00270900697569757,-0.1621292866093481
0.00270930697569757,-0.1609368967173304
0.00270960697569757,-0.1609368967173304
0.00270990697569757,-0.1625267499066873
0.00271020697569757,-0.1614138526741375
0.00271050697569757,-0.1621292866093481
0.00271080697569757,-0.162685735225623
0.00271110697569757,-0.1625267499066873
0.00271140697569757,-0.1622087792688159
0.00271170697569757,-0.1624472572472195
0.00271200697569757,-0.1622087792688164
0.00271230697569757,-0.1633216765013637
0.00271260697569757,-0.1633216765013658
0.00271290697569757,-0.1628447205445595
0.002713206975697571,-0.1637986324581742
0.002713506975697571,-0.1645935590528497
0.002713806975697571,-0.1637191397987066
0.00271410697569757,-0.1645935590528513
0.00271440697569757,-0.1644345737339156
0.00271470697569757,-0.1644345737339156
0.00271500697569757,-0.1657064562854011
0.00271530697569757,-0.1653089929880619
0.00271560697569757,-0.166262904901676
0.00271590697569757,-0.1665013828800795
0.00271620697569757,-0.1666603681990152
0.00271650697569757,-0.1668193535179509
0.00271680697569757,-0.167773265431565
0.00271710697569757,-0.1673758021342258
0.00271740697569757,-0.1680117434099686
0.00271770697569757,-0.1687271773451779
0.00271800697569757,-0.1683297140478407
0.00271830697569757,-0.1692836259614524
0.002718606975697571,-0.168886162664115
0.002718906975697571,-0.1689656553235837
0.002719206975697571,-0.1695221039398569
0.00271950697569757,-0.1691246406425184
0.00271980697569757,-0.1696015965993255
0.00272010697569757,-0.1703170305345361
0.00272040697569757,-0.1696015965993255
0.00272070697569757,-0.1699990598966647
0.00272100697569757,-0.1696015965993255
0.00272130697569757,-0.1693631186209219
0.00272160697569757,-0.1701580452156004
0.00272190697569757,-0.1703170305345361
0.00272220697569757,-0.1701580452156004
0.00272250697569757,-0.1707939864913431
0.00272280697569757,-0.1703965231940039
0.00272310697569757,-0.1710324644697455
0.00272340697569757,-0.1715094204265529
0.00272370697569757,-0.1715094204265538
0.00272400697569757,-0.1715094204265538
0.002724306975697571,-0.1724633323401674
0.002724606975697571,-0.1722248543617648
0.002724906975697571,-0.1724633323401691
0.00272520697569757,-0.1730992736159107
0.00272550697569757,-0.173417244253782
0.00272580697569757,-0.1739736928700569
0.00272610697569757,-0.1749276047836711
0.00272640697569757,-0.1747686194647354
0.00272670697569757,-0.1746891268052675
0.00272700697569757,-0.1749276047836711
0.00272730697569757,-0.1748481121242032
0.00272760697569757,-0.1749276047836711
0.00272790697569757,-0.1749276047836711
0.00272820697569757,-0.1747686194647354
0.00272850697569757,-0.1756430387188817
0.00272880697569757,-0.1754045607404786
0.00272910697569757,-0.1747686194647365
0.00272940697569757,-0.1758815166972832
0.002729706975697571,-0.1750070974431401
0.002730006975697571,-0.175643038718883
0.002730306975697571,-0.1763584726540921
0.00273060697569757,-0.1762789799946244
0.00273090697569757,-0.176994413929835
0.00273120697569757,-0.1783457891407884
0.00273150697569757,-0.1785842671191919
0.00273180697569757,-0.1796176716922739
0.00273210697569757,-0.1802536129680167
0.00273240697569757,-0.1804125982869524
0.00273270697569757,-0.1813665102005665
0.00273300697569757,-0.1821614367952449
0.00273330697569757,-0.1827178854115198
0.00273360697569757,-0.1837512899846018
0.00273390697569757,-0.1835128120061983
0.00273420697569757,-0.1839897679630045
0.00273450697569757,-0.1849436798766178
0.00273480697569757,-0.1848641872171518
0.002735106975697571,-0.1849436798766205
0.002735406975697571,-0.1855001284928927
0.002735706975697571,-0.1845462165792814
0.002736006975697571,-0.1851821578550213
0.00273630697569757,-0.1842282459414089
0.00273660697569757,-0.1841487532819411
0.00273690697569757,-0.1845462165792803
0.00273720697569757,-0.1828768707304556
0.00273750697569757,-0.1828768707304556
0.00273780697569757,-0.1842282459414089
0.00273810697569757,-0.1828768707304556
0.00273840697569757,-0.1825589000925842
0.00273870697569757,-0.183671797325134
0.00273900697569757,-0.1835128120061983
0.00273930697569757,-0.1829563633899234
0.00273960697569757,-0.1846257092387481
0.00273990697569757,-0.1835128120062003
0.00274020697569757,-0.183592304665666
0.00274050697569757,-0.1847846945576817
0.002740806975697571,-0.1835923046656654
0.002741106975697571,-0.1831948413683299
0.002741406975697571,-0.1848641872171514
0.00274170697569757,-0.184705201898216
0.00274200697569757,-0.1849436798766195
0.00274230697569757,-0.1858975917902336
0.00274260697569757,-0.1857386064712979
0.00274290697569757,-0.1863745477470407
0.00274320697569757,-0.1868515037038478
0.00274350697569757,-0.1875669376390584
0.00274380697569757,-0.1878849082769297
0.00274410697569757,-0.1880438935958655
0.00274440697569757,-0.1883618642337368
0.00274470697569757,-0.1889978055094796
0.00274500697569757,-0.1882028789148011
0.00274530697569757,-0.1882028789148011
0.00274560697569757,-0.1886798348716074
0.00274590697569757,-0.1873284596606573
0.002746206975697571,-0.1876464302985261
0.002746506975697571,-0.1875669376390568
0.002746806975697571,-0.1866925183849129
0.002747106975697571,-0.1871694743417202
0.00274740697569757,-0.1877259229579941
0.00274770697569757,-0.1866925183849121
0.00274800697569757,-0.187248967001187
0.00274830697569757,-0.1874079523201227
0.00274860697569757,-0.1866925183849121
0.00274890697569757,-0.1876464302985262
0.00274920697569757,-0.1874874449795905
0.00274950697569757,-0.1870104890227835
0.00274980697569757,-0.1879644009363976
0.00275010697569757,-0.1874874449795905
0.00275040697569757,-0.1867720110443799
0.00275070697569757,-0.1874874449795905
0.00275100697569757,-0.1879644009363967
0.00275130697569757,-0.1874079523201237
0.00275160697569757,-0.1886003422121382
0.002751906975697571,-0.1877259229579941
0.002752206975697571,-0.1877259229579973
0.002752506975697571,-0.1894747614662851
0.00275280697569757,-0.1886003422121404
0.00275310697569757,-0.1889978055094796
0.00275340697569757,-0.1893952688068188
0.00275370697569757,-0.1884413568932047
0.00275400697569757,-0.1892362834878831
0.00275430697569757,-0.1899517174230937
0.00275460697569757,-0.188759327531076
0.00275490697569757,-0.1898722247636259
0.00275520697569757,-0.1894747614662867
0.00275550697569757,-0.1888388201905439
0.00275580697569757,-0.1899517174230937
0.00275610697569757,-0.1898722247636259
0.00275640697569757,-0.1889978055094812
0.00275670697569757,-0.1897132394446889
0.00275700697569757,-0.1895542541257548
0.002757306975697571,-0.1889978055094809
0.002757606975697571,-0.1897132394446895
0.002757906975697571,-0.1893157761473508
0.002758206975697571,-0.1892362834878844
0.00275850697569757,-0.1899517174230937
0.00275880697569757,-0.1893952688068188
0.00275910697569757,-0.1903491807204329
0.00275940697569757,-0.1901901954014973
0.00275970697569757,-0.1901107027420294
0.00276000697569757,-0.1905876586988365
0.00276030697569757,-0.1903491807204329
0.00276060697569757,-0.1907466440177722
0.00276090697569757,-0.1919390339097898
0.00276120697569757,-0.1915415706124506
0.00276150697569757,-0.1917800485908542
0.00276180697569757,-0.1925749751855326
0.00276210697569757,-0.191939033909791
0.00276240697569757,-0.1925749751855314
0.00276270697569757,-0.1924954825260649
0.002763006975697571,-0.1927339605044703
0.002763306975697571,-0.1938468577370178
0.002763606975697571,-0.1936878724180821
0.00276390697569757,-0.1935288870991467
0.00276420697569757,-0.1937673650775503
0.00276450697569757,-0.1930519311423397
0.00276480697569757,-0.1936083797586146
0.00276510697569757,-0.1940853357154216
0.00276540697569757,-0.1931314238018075
0.00276570697569757,-0.1941648283748895
0.00276600697569757,-0.1945622916722287
0.00276630697569757,-0.1941648283748895
0.00276660697569757,-0.1947212769911644
0.00276690697569757,-0.1944827990127609
0.00276720697569757,-0.1945622916722287
0.00276750697569757,-0.1950392476290349
0.00276780697569757,-0.194721276991165
0.00276810697569757,-0.1948007696506321
0.002768406975697571,-0.1957546815642449
0.002768706975697571,-0.1949597549695679
0.002769006975697571,-0.1949597549695695
0.002769306975697571,-0.1958341742237135
0.00276960697569757,-0.195436710926375
0.00276990697569757,-0.1963111301805213
0.00277020697569757,-0.1963111301805213
0.00277050697569757,-0.1966291008183927
0.00277080697569757,-0.1974240274130711
0.00277110697569757,-0.1976625053914746
0.00277140697569757,-0.197503520072539
0.00277170697569757,-0.1982984466672174
0.00277200697569757,-0.199013880602428
0.00277230697569757,-0.1988548952834923
0.00277260697569757,-0.1991728659213637
0.00277290697569757,-0.1997293145376386
0.00277320697569757,-0.1986164173050908
0.00277350697569757,-0.1989343879429596
0.00277380697569757,-0.1990138806024279
0.002774106975697571,-0.1984574319861547
0.002774406975697571,-0.1993318512403004
0.002774706975697571,-0.1998882998565718
0.00277500697569757,-0.1985369246456209
0.00277530697569757,-0.1994908365592351
0.00277560697569757,-0.1989343879429602
0.00277590697569757,-0.1979009833698782
0.00277620697569757,-0.1998882998565743
0.00277650697569757,-0.1988548952834923
0.00277680697569757,-0.1992523585808316
0.00277710697569757,-0.2006832264512527
0.00277740697569757,-0.1991728659213637
0.00277770697569757,-0.1999677925160422
0.00277800697569757,-0.2009217044296563
0.00277830697569757,-0.1995703292187029
0.00277860697569757,-0.2002857631539122
0.00277890697569757,-0.2009217044296551
0.00277920697569757,-0.2006832264512532
0.002779506975697571,-0.2014781530459316
0.002779806975697571,-0.2017166310243339
0.002780106975697571,-0.2012396750675297
0.002780406975697571,-0.2023525723000769
0.00278070697569757,-0.2020346016622061
0.00278100697569757,-0.2020346016622061
0.00278130697569757,-0.2033859768731595
0.00278160697569757,-0.2027500355974167
0.00278190697569757,-0.2023525723000775
0.00278220697569757,-0.2031474988947559
0.00278250697569757,-0.2034654695326273
0.00278280697569757,-0.2037039475110309
0.00278310697569757,-0.2037834401704987
0.00278340697569757,-0.2033064842136916
0.00278370697569757,-0.2028295282568846
0.00278400697569757,-0.2028295282568846
0.00278430697569757,-0.2022730796406106
0.00278460697569757,-0.2025115576190127
0.00278490697569757,-0.2029090209163517
0.002785206975697571,-0.2025910502784815
0.002785506975697571,-0.2028295282568857
0.002785806975697571,-0.2034654695326269
0.00278610697569757,-0.2032269915542238
0.00278640697569757,-0.203624454851563
0.00278670697569757,-0.2035449621920952
0.00278700697569757,-0.2033064842136916
0.00278730697569757,-0.2033859768731595
0.00278760697569757,-0.2039424254894344
0.00278790697569757,-0.2037834401704987
0.00278820697569757,-0.2039424254894344
0.00278850697569757,-0.2043398887867736
0.00278880697569757,-0.2042603961273058
0.00278910697569757,-0.2044193814462415
0.00278940697569757,-0.2041809034678379
0.00278970697569757,-0.2043398887867733
0.00279000697569757,-0.2047373520841121
0.00279030697569757,-0.2053732933598544
0.002790606975697571,-0.2054527860193236
0.002790906975697571,-0.2055322786787919
0.002791206975697571,-0.2058502493166627
0.002791506975697571,-0.2058502493166618
0.00279180697569757,-0.2053732933598556
0.00279210697569757,-0.2051348153814521
0.00279240697569757,-0.2048963374030485
0.00279270697569757,-0.2052143080409199
0.00279300697569757,-0.2051348153814521
0.00279330697569757,-0.2050553227219842
0.00279360697569757,-0.204657859424645
0.00279390697569757,-0.2044988741057093
0.00279420697569757,-0.2037834401704987
0.00279450697569757,-0.205691263997727
0.00279480697569757,-0.2049758300625164
0.00279510697569757,-0.2044988741057102
0.00279540697569757,-0.204578366765177
0.00279570697569757,-0.2045783667651772
0.00279600697569757,-0.2035449621920971
0.002796306975697571,-0.2040219181489021
0.002796606975697571,-0.2039424254894334
0.002796906975697571,-0.2033859768731612
0.00279720697569757,-0.2043398887867736
0.00279750697569757,-0.2038629328299665
0.00279780697569757,-0.2035449621920952
0.00279810697569757,-0.2049758300625164
0.00279840697569757,-0.2043398887867736
0.00279870697569757,-0.2044988741057093
0.00279900697569757,-0.2052143080409199
0.00279930697569757,-0.2042603961273058
0.00279960697569757,-0.2049758300625164
0.00279990697569757,-0.2052938007003877
