synth-diodes-4f-1r-in-T00-L10-D00/1kHz-1V/scope.csv

#Digilent WaveForms Oscilloscope Acquisition
#Device Name: Discovery3
#Serial Number: SN:210415BD5874
#Date Time: 2025-04-06 20:22:17.613.047.610
#Sample rate: 1.23457e+06Hz
#Samples: 32768
#Trigger: Source: Channel 1 Type: Edge Condition: Rising Level: 0 V Hyst.: Auto HoldOff: 0 s
#Channel 1: Range: 200 mV/div Offset: 0 V Sample Mode: Average
#Wavegen Channel 1: Running
#Mode: Simple
#Type: Sine
#Frequency: 1 kHz
#Period: 1 ms
#Amplitude: 1 V
#Offset: 0 V
#Symmetry: 50 %
#Phase: 0 °

Time (s),Channel 1 (V)
-0.01027746373279352,-0.07890047214651179
-0.01027665373279352,-0.07810554555183621
-0.01027584373279352,-0.07802605289236837
-0.01027503373279352,-0.07858250150864329
-0.01027422373279352,-0.07905945746545036
-0.01027341373279352,-0.07913895012491777
-0.01027260373279352,-0.07890047214651395
-0.01027179373279352,-0.0785030088491753
-0.01027098373279352,-0.07842351618970528
-0.01027017373279352,-0.077787574913966
-0.01026936373279352,-0.07770808225449699
-0.01026855373279352,-0.07762858959502915
-0.01026774373279352,-0.07723112629768993
-0.01026693373279352,-0.0769131556598197
-0.01026612373279352,-0.07754909693556203
-0.01026531373279352,-0.07794656023290111
-0.01026450373279352,-0.07826453087077205
-0.01026369373279352,-0.07834402353023773
-0.01026288373279352,-0.07778757491396586
-0.01026207373279352,-0.07739011161662562
-0.01026126373279352,-0.07707214097875424
-0.01026045373279352,-0.07691315565981854
-0.01025964373279352,-0.0764361997030106
-0.01025883373279352,-0.07595924374620369
-0.01025802373279352,-0.07556178044886591
-0.01025721373279352,-0.07595924374620398
-0.01025640373279352,-0.07572076576780175
-0.01025559373279352,-0.07595924374620441
-0.01025478373279352,-0.07619772172460795
-0.01025397373279352,-0.07627721438407579
-0.01025316373279352,-0.0761182290651401
-0.01025235373279352,-0.07643619970300961
-0.01025154373279352,-0.07540279512992806
-0.01025073373279352,-0.07460786853524845
-0.01024992373279352,-0.07317700066482768
-0.01024911373279352,-0.07198461077280871
-0.01024830373279352,-0.07103069885919804
-0.01024749373279352,-0.07174613279440864
-0.01024668373279352,-0.07206410343228002
-0.01024587373279352,-0.07230258141068356
-0.01024506373279352,-0.07254105938908868
-0.01024425373279352,-0.07341547864323583
-0.01024344373279352,-0.07476685385418703
-0.01024263373279352,-0.07492583917312141
-0.01024182373279352,-0.07436939055684549
-0.01024101373279352,-0.0738129419405726
-0.01024020373279352,-0.07277953736749063
-0.01023939373279352,-0.07182562545387648
-0.01023858373279352,-0.07158714747547296
-0.01023777373279352,-0.07134866949706942
-0.01023696373279352,-0.07134866949707
-0.01023615373279352,-0.07166664013494123
-0.01023534373279352,-0.07190511811334346
-0.01023453373279352,-0.07166664013494123
-0.01023372373279352,-0.07262055204855493
-0.01023291373279352,-0.07190511811334434
-0.01023210373279352,-0.07134866949706942
-0.01023129373279352,-0.07111019151866589
-0.01023048373279352,-0.07047425024292241
-0.01022967373279352,-0.0700767869455839
-0.01022886373279352,-0.07007678694558332
-0.01022805373279352,-0.06975881630771252
-0.01022724373279352,-0.06975881630771252
-0.01022643373279352,-0.06967932364824468
-0.01022562373279352,-0.06975881630771252
-0.01022481373279352,-0.07015627960505175
-0.01022400373279352,-0.07023577226451988
-0.01022319373279352,-0.07039475758345398
-0.01022238373279352,-0.06967932364824338
-0.01022157373279352,-0.0689638897130332
-0.01022076373279352,-0.06848693375622643
-0.01021995373279352,-0.06832794843729131
-0.01021914373279352,-0.06785099248048425
-0.01021833373279352,-0.06785099248048425
-0.01021752373279352,-0.06777149982101641
-0.01021671373279352,-0.06777149982101655
-0.01021590373279352,-0.06785099248048483
-0.01021509373279352,-0.06816896311835621
-0.01021428373279352,-0.06848693375622571
-0.01021347373279352,-0.06777149982101496
-0.01021266373279352,-0.06737403652367718
-0.01021185373279352,-0.06681758790740228
-0.01021104373279352,-0.06657910992899874
-0.01021023373279352,-0.06618164663165951
-0.01020942373279352,-0.06594316865325611
-0.01020861373279352,-0.06602266131272441
-0.01020780373279352,-0.06634063195059621
-0.01020699373279352,-0.06689708056687012
-0.01020618373279352,-0.06689708056686838
-0.01020537373279352,-0.06642012461006305
-0.01020456373279352,-0.06594316865325597
-0.01020375373279352,-0.06522773471804538
-0.01020294373279352,-0.06483027142070616
-0.01020213373279352,-0.06435331546389836
-0.01020132373279352,-0.06395585216656015
-0.01020051373279352,-0.06411483748549569
-0.01019970373279352,-0.06419433014496252
-0.01019889373279352,-0.06371737418815691
-0.01019808373279352,-0.06387635950709201
-0.01019727373279352,-0.06459179344230262
-0.01019646373279352,-0.06411483748549555
-0.01019565373279352,-0.06427382280443124
-0.01019484373279352,-0.06355838886921962
-0.01019403373279352,-0.0630019402529453
-0.01019322373279352,-0.06276346227454088
-0.01019241373279352,-0.06204802833932985
-0.01019160373279352,-0.06157107238252538
-0.01019079373279352,-0.06133259440412098
-0.01018998373279352,-0.06101462376624961
-0.01018917373279352,-0.06109411642571745
-0.01018836373279352,-0.06077614578784737
-0.01018755373279352,-0.06149157972305638
-0.01018674373279352,-0.06133259440412069
-0.01018593373279352,-0.06117360908518413
-0.01018512373279352,-0.06053766780944137
-0.01018431373279352,-0.06021969717157116
-0.01018350373279352,-0.0594247705768927
-0.01018269373279352,-0.05934527791742486
-0.01018188373279352,-0.05878882930114995
-0.01018107373279352,-0.05847085866327756
-0.01018026373279352,-0.0579144100470041
-0.01017945373279352,-0.0581528880254069
-0.01017864373279352,-0.05799390270647252
-0.01017783373279352,-0.05855035132274728
-0.01017702373279352,-0.05878882930114995
-0.01017621373279352,-0.05862984398221426
-0.01017540373279352,-0.05791441004700366
-0.01017459373279352,-0.05759643940913228
-0.01017378373279352,-0.0574374540901947
-0.01017297373279352,-0.05640404951711389
-0.01017216373279352,-0.05600658621977524
-0.01017135373279352,-0.05592709356030697
-0.01017054373279352,-0.0556091229224353
-0.01016973373279352,-0.05537064494403263
-0.01016892373279352,-0.05529115228456478
-0.01016811373279352,-0.05545013760350047
-0.01016730373279352,-0.05568861558190401
-0.01016649373279352,-0.05584760090083897
-0.01016568373279352,-0.05545013760350018
-0.01016487373279352,-0.05529115228456348
-0.01016406373279352,-0.05457571834935317
-0.01016325373279352,-0.05401926973307811
-0.01016244373279352,-0.05370129909520789
-0.01016163373279352,-0.05322434313840083
-0.01016082373279352,-0.05242941654372238
-0.01016001373279352,-0.05250890920319022
-0.01015920373279352,-0.05250890920319008
-0.01015839373279352,-0.0524294165437231
-0.01015758373279352,-0.05282687984106247
-0.01015677373279352,-0.05330383579786693
-0.01015596373279352,-0.05282687984106247
-0.01015515373279352,-0.05203195324638316
-0.01015434373279352,-0.05179347526797962
-0.01015353373279352,-0.05107804133276901
-0.01015272373279352,-0.05083956335436519
-0.01015191373279352,-0.0506805780354282
-0.01015110373279352,-0.04980615878128365
-0.01015029373279352,-0.04988565144075018
-0.01014948373279352,-0.04924971016500945
-0.01014867373279352,-0.04948818814341168
-0.01014786373279352,-0.04988565144075134
-0.01014705373279352,-0.0505215927164941
-0.01014624373279352,-0.05020362207862272
-0.01014543373279352,-0.05028311473808868
-0.01014462373279352,-0.04924971016500742
-0.01014381373279352,-0.04861376888926452
-0.01014300373279352,-0.0478983349540545
-0.01014219373279352,-0.04750087165671427
-0.01014138373279352,-0.04702391569990894
-0.01014057373279352,-0.04686493038097324
-0.01013976373279352,-0.04670594506203755
-0.01013895373279352,-0.04654695974310187
-0.01013814373279352,-0.04638797442416632
-0.01013733373279352,-0.04646746708363546
-0.01013652373279352,-0.0472623936783113
-0.01013571373279352,-0.0466264524025687
-0.01013490373279352,-0.04607000378629248
-0.01013409373279352,-0.04543406251055204
-0.01013328373279352,-0.04503659921321282
-0.01013247373279352,-0.04408268729959867
-0.01013166373279352,-0.04432116527800221
-0.01013085373279352,-0.04368522400225916
-0.01013004373279352,-0.04352623868332377
-0.01012923373279352,-0.04352623868332377
-0.01012842373279352,-0.04352623868332449
-0.01012761373279352,-0.04392370198066183
-0.01012680373279352,-0.04360573134279161
-0.01012599373279352,-0.042890297407581
-0.01012518373279352,-0.04153892219662765
-0.01012437373279352,-0.04018754698567428
-0.01012356373279352,-0.03915414241259289
-0.01012275373279352,-0.03947211305046398
-0.01012194373279352,-0.03963109836939908
-0.01012113373279352,-0.03947211305046398
-0.01012032373279352,-0.03955160570993139
-0.01011951373279352,-0.03971059102886722
-0.01011870373279352,-0.04018754698567428
-0.01011789373279352,-0.04066450294248136
-0.01011708373279352,-0.0407439956019492
-0.01011627373279352,-0.04042602496407638
-0.01011546373279352,-0.03963109836939981
-0.01011465373279352,-0.0398695763478019
-0.01011384373279352,-0.03931312773152742
-0.01011303373279352,-0.0391541424125926
-0.01011222373279352,-0.03851820113684955
-0.01011141373279352,-0.03812073783951032
-0.01011060373279352,-0.03740530390429972
-0.01010979373279352,-0.03661037730962142
-0.01010898373279352,-0.03668986996908868
-0.01010817373279352,-0.03645139199068573
-0.01010736373279352,-0.03653088465015358
-0.01010655373279352,-0.0366103773096207
-0.01010574373279352,-0.03645139199068559
-0.01010493373279352,-0.03653088465015343
-0.01010412373279352,-0.03605392869334637
-0.01010331373279352,-0.03621291401228205
-0.01010250373279352,-0.03589494337441009
-0.01010169373279352,-0.03557697273653786
-0.01010088373279352,-0.03478204614185941
-0.01010007373279352,-0.03398711954718225
-0.01009926373279352,-0.03390762688771397
-0.01009845373279352,-0.03374864156877887
-0.01009764373279352,-0.03343067093090749
-0.01009683373279352,-0.03303320763356826
-0.01009602373279352,-0.0332716856119718
-0.01009521373279352,-0.03343067093090835
-0.01009440373279352,-0.03390762688771339
-0.01009359373279352,-0.03327168561197151
-0.01009278373279352,-0.0331127002930348
-0.01009197373279352,-0.03239726635782319
-0.01009116373279352,-0.03176132508208275
-0.01009035373279352,-0.0309663984874043
-0.01008954373279352,-0.03072792050900077
-0.01008873373279352,-0.03072792050900077
-0.01008792373279352,-0.03088690582793602
-0.01008711373279352,-0.03064842784953234
-0.01008630373279352,-0.03033045721166068
-0.01008549373279352,-0.02985350125485476
-0.01008468373279352,-0.03001248657378785
-0.01008387373279352,-0.02937654529804741
-0.01008306373279352,-0.02889958934124034
-0.01008225373279352,-0.02858161870336896
-0.01008144373279352,-0.02858161870336896
-0.01008063373279352,-0.02882009668177293
-0.01007982373279352,-0.02905857466017559
-0.01007901373279352,-0.02882009668177119
-0.01007820373279352,-0.02810466274655929
-0.01007739373279352,-0.02738922881135259
-0.01007658373279352,-0.02730973615188344
-0.01007577373279352,-0.02683278019507638
-0.01007496373279352,-0.02556089764359086
-0.01007415373279352,-0.02587886828146152
-0.01007334373279352,-0.02548140498412215
-0.01007253373279352,-0.0250044490273158
-0.01007172373279352,-0.02492495636784897
-0.01007091373279352,-0.02540191232465575
-0.01007010373279352,-0.02556089764359086
-0.01006929373279352,-0.02508394168678379
-0.01006848373279352,-0.02444800041104103
-0.01006767373279352,-0.02381205913529828
-0.01006686373279352,-0.02365307381636157
-0.01006605373279352,-0.02309662520008724
-0.01006524373279352,-0.02285814722168414
-0.01006443373279352,-0.02285814722168298
-0.01006362373279352,-0.02222220594594167
-0.01006281373279352,-0.02230169860540923
-0.01006200373279352,-0.02174524998913431
-0.01006119373279352,-0.02222220594594138
-0.01006038373279352,-0.02206322062700569
-0.01005957373279352,-0.02230169860540865
-0.01005876373279352,-0.02198372796753611
-0.01005795373279352,-0.0210298160539227
-0.01005714373279352,-0.02047336743764793
-0.01005633373279352,-0.01999641148083855
-0.01005552373279352,-0.01912199222669544
-0.01005471373279352,-0.01904249956722759
-0.01005390373279352,-0.0188835142482919
-0.01005309373279352,-0.0188835142482919
-0.01005228373279352,-0.01824757297254886
-0.01005147373279352,-0.01808858765361418
-0.01005066373279352,-0.01848605095095297
-0.01004985373279352,-0.0186450362698888
-0.01004904373279352,-0.01888351424828988
-0.01004823373279352,-0.01832706563201699
-0.01004742373279352,-0.01777061701574208
-0.01004661373279352,-0.01641924180478872
-0.01004580373279352,-0.01610127116691734
-0.01004499373279352,-0.01586279318851337
-0.01004418373279352,-0.01562431521010984
-0.01004337373279352,-0.01538583723170587
-0.01004256373279352,-0.01490888127490025
-0.01004175373279352,-0.01506786659383507
-0.01004094373279352,-0.01538583723170674
-0.01004013373279352,-0.01506786659383536
-0.01003932373279352,-0.01506786659383536
-0.01003851373279352,-0.01506786659383319
-0.01003770373279352,-0.01387547670181725
-0.01003689373279352,-0.01363699872341271
-0.01003608373279352,-0.01284207212873498
-0.01003527373279352,-0.01244460883139619
-0.01003446373279352,-0.01236511617192878
-0.01003365373279352,-0.01220613085299295
-0.01003284373279352,-0.01204714553405726
-0.01003203373279352,-0.01188816021512157
-0.01003122373279352,-0.0121266381935251
-0.01003041373279352,-0.01212663819352496
-0.01002960373279352,-0.01204714553405668
-0.01002879373279352,-0.011729174896184
-0.01002798373279352,-0.01069577032310332
-0.01002717373279352,-0.01053678500416821
-0.01002636373279352,-0.009741858409489761
-0.01002555373279352,-0.009185409793214848
-0.01002474373279352,-0.009185409793214848
-0.01002393373279352,-0.008469975858003811
-0.01002312373279352,-0.008231497879601722
-0.01002231373279352,-0.008787946495875191
-0.01002150373279352,-0.008549468517472235
-0.01002069373279352,-0.008628961176939358
-0.01001988373279352,-0.008469975858004245
-0.01001907373279352,-0.008390483198536402
-0.01001826373279352,-0.008072512560665022
-0.01001745373279352,-0.006880122668647352
-0.01001664373279352,-0.006005703414500192
-0.01001583373279352,-0.005528747457692979
-0.01001502373279352,-0.004972298841418934
-0.01001421373279352,-0.004892806181950799
-0.01001340373279352,-0.004654328203549145
-0.01001259373279352,-0.005051791500886923
-0.01001178373279352,-0.004574835544079854
-0.01001097373279352,-0.004733820863015544
-0.01001016373279352,-0.005210776819822612
-0.01000935373279352,-0.004892806181949787
-0.01000854373279352,-0.004097879587271774
-0.01000773373279352,-0.003541430970997295
-0.01000692373279352,-0.003223460333123603
-0.01000611373279352,-0.002428533738449493
-0.01000530373279352,-0.002349041078980202
-0.01000449373279352,-0.001872085122173134
-0.01000368373279352,-0.001395129165366066
-0.01000287373279352,-0.0009976658680268423
-0.01000206373279352,-0.001236143846430521
-0.01000125373279352,-0.001315636505897643
-0.01000044373279352,-0.0009976658680245288
-0.009999633732793521,0.0002742166834618543
-0.009998823732793524,0.001148635937603375
-0.009998013732793524,0.001943562532283412
-0.009997203732793523,0.001784577213347723
-0.009996393732793523,0.001864069872815568
-0.009995583732793523,0.002341025829621913
-0.009994773732793522,0.001943562532283123
-0.009993963732793522,0.001784577213346132
-0.009993153732793521,0.0009101579592020094
-0.009992343732793521,0.001228128597073388
-0.009991533732793524,0.001387113916008499
-0.009990723732793524,0.001148635937604965
-0.009989913732793523,0.001943562532283412
-0.009989103732793523,0.00257950380802617
-0.009988293732793523,0.00281798178643115
-0.009987483732793522,0.003612908381109019
-0.009986673732793522,0.004089864337915943
-0.009985863732793521,0.004487327635255744
-0.009985053732793521,0.005202761570465334
-0.009984243732793524,0.005282254229932891
-0.009983433732793524,0.005600224867804269
-0.009982623732793523,0.005679717527272114
-0.009981813732793523,0.005997688165143493
-0.009981003732793522,0.005918195505675648
-0.009980193732793522,0.005918195505674636
-0.009979383732793522,0.005361746889401169
-0.009978573732793521,0.005600224867804848
-0.009977763732793521,0.005918195505678251
-0.009976953732793524,0.006633629440886251
-0.009976143732793524,0.007667034013968232
-0.009975333732793523,0.007587541354500387
-0.009974523732793523,0.008382467949178834
-0.009973713732793522,0.008620945927582946
-0.009972903732793522,0.008938916565453748
-0.009972093732793522,0.008938916565454615
-0.009971283732793521,0.009415872522261249
-0.009970473732793521,0.009654350500662325
-0.009969663732793524,0.009097901884389437
-0.009968853732793524,0.009018409224921592
-0.009968043732793523,0.009097901884389437
-0.009967233732793523,0.00981333581960004
-0.009966423732793522,0.01029029177640783
-0.009965613732793522,0.0106877550737472
-0.009964803732793522,0.01116471103055441
-0.009963993732793521,0.01172115964682889
-0.009963183732793524,0.01188014496576371
-0.009962373732793524,0.01267507156044245
-0.009961563732793523,0.01291354953884598
-0.009960753732793523,0.01251608624150676
-0.009959943732793523,0.01283405687937785
-0.009959133732793522,0.0126750715604423
-0.009958323732793522,0.01259557890097547
-0.009957513732793521,0.01307253485778254
-0.009956703732793521,0.01354949081459163
-0.009955893732793524,0.01434441740926719
-0.009955083732793524,0.01505985134447779
-0.009954273732793523,0.01537782198234917
-0.009953463732793523,0.01601376325809193
-0.009952653732793523,0.01625224123649532
-0.009951843732793522,0.01617274857702834
-0.009951033732793522,0.01657021187436699
-0.009950223732793521,0.0166497045338344
-0.009949413732793521,0.01649071921489813
-0.009948603732793524,0.01625224123649546
-0.009947793732793524,0.01625224123649546
-0.009946983732793523,0.0163317338959633
-0.009946173732793523,0.01744463112851313
-0.009945363732793523,0.01800107974478891
-0.009944553732793522,0.01847803570159598
-0.009943743732793522,0.01895499165840218
-0.009942933732793521,0.01895499165840319
-0.009942123732793521,0.01951144027467767
-0.009941313732793524,0.01967042559361279
-0.009940503732793524,0.01959093293414494
-0.009939693732793523,0.01959093293414494
-0.009938883732793523,0.02014738155041985
-0.009938073732793522,0.0189549916584029
-0.009937263732793522,0.01935245495574357
-0.009936453732793522,0.02054484484776023
-0.009935643732793521,0.02118078612350212
-0.009934833732793521,0.02133977144243926
-0.009934023732793524,0.02181672739924459
-0.009933213732793524,0.02300911729126226
-0.009932403732793523,0.02277063931285873
-0.009931593732793523,0.02340658058860149
-0.009930783732793522,0.02308860995072996
-0.009929973732793522,0.02300911729126183
-0.009929163732793522,0.02277063931285829
-0.009928353732793521,0.02253216133445722
-0.009927543732793524,0.02308860995072909
-0.009926733732793524,0.02380404388594071
-0.009925923732793523,0.024678463140087
-0.009925113732793523,0.02475795579955485
-0.009924303732793523,0.02499643377795968
-0.009923493732793522,0.02571186771316913
-0.009922683732793522,0.02579136037263711
-0.009921873732793521,0.02595034569157281
-0.009921063732793521,0.02610933101050705
-0.009920253732793524,0.02579136037263741
-0.009919443732793524,0.02547338973476545
-0.009918633732793523,0.02602983835104036
-0.009917823732793523,0.0262683163294439
-0.009917013732793523,0.0268247649457204
-0.009916203732793522,0.02769918419986554
-0.009915393732793522,0.02793766217826979
-0.009914583732793521,0.02857360345401197
-0.009913773732793521,0.02889157409188364
-0.009912963732793524,0.0291300520702863
-0.009912153732793524,0.02936853004868984
-0.009911343732793523,0.02905055941081846
-0.009910533732793523,0.02849411079454355
-0.009909723732793523,0.02873258877294766
-0.009908913732793522,0.02905055941082077
-0.009908103732793522,0.03032244196230484
-0.009907293732793521,0.03079939791911148
-0.009906483732793521,0.03103787589751689
-0.009905673732793524,0.03167381717325733
-0.009904863732793524,0.03175330983272517
-0.009904053732793523,0.03175330983272517
-0.009903243732793523,0.03191229515166087
