-20250405-BKP/synth-diodes-2f-1r-in-T10-L10-D10/100Hz2V/scope.csv

#Digilent WaveForms Oscilloscope Acquisition
#Device Name: Discovery3
#Serial Number: SN:210415BD5874
#Date Time: 2025-04-03 18:13:14.002.109.460
#Sample rate: 344828Hz
#Samples: 32768
#Trigger: Source: Channel 1 Type: Edge Condition: Rising Level: 0 V Hyst.: Auto HoldOff: 0 s
#Channel 1: Range: 200 mV/div Offset: 0 V Sample Mode: Average
#Wavegen Channel 1: Running
#Mode: Simple
#Type: Sine
#Frequency: 100 Hz
#Period: 10 ms
#Amplitude: 2 V
#Offset: 0 V
#Symmetry: 50 %
#Phase: 0 °

Time (s),Channel 1 (V)
-0.03483959928401487,0.1624392419978619
-0.03483669928401487,0.1614853300842478
-0.03483379928401487,0.1661753969928506
-0.03483089928401487,0.1659369190144471
-0.03482799928401487,0.1642675731656223
-0.03482509928401487,0.1653009777387043
-0.03482219928401487,0.1656984410360435
-0.03481929928401487,0.1646650364629615
-0.03481639928401487,0.1658574263549792
-0.03481349928401486,0.1653804703981722
-0.03481059928401486,0.1622007640194584
-0.03480769928401486,0.1642675731656223
-0.03480479928401486,0.1653009777387043
-0.03480189928401486,0.1648240217818973
-0.03479899928401486,0.1656984410360435
-0.03479609928401486,0.1666523529496577
-0.03479319928401486,0.1660164116739149
-0.03479029928401486,0.1669703235875291
-0.03478739928401486,0.1676062648632718
-0.03478449928401486,0.1660959043333828
-0.03478159928401486,0.1643470658250902
-0.03477869928401486,0.1656984410360435
-0.03477579928401486,0.1647445291224301
-0.03477289928401486,0.1651419924197692
-0.03476999928401486,0.1654599630576328
-0.03476709928401486,0.1614853300842495
-0.03476419928401486,0.1624392419978648
-0.03476129928401486,0.1640290951872178
-0.03475839928401487,0.1634726465709449
-0.03475549928401487,0.1636316318898793
-0.03475259928401487,0.1654599630576367
-0.03474969928401487,0.1647445291224307
-0.03474679928401487,0.1655394557171064
-0.03474389928401487,0.1666523529496556
-0.03474099928401487,0.1656189483765776
-0.03473809928401487,0.1659369190144471
-0.03473519928401487,0.1676062648632718
-0.03473229928401487,0.1672088015659326
-0.03472939928401487,0.1673677868848683
-0.03472649928401487,0.1694345960310323
-0.03472359928401487,0.1720578537934711
-0.03472069928401487,0.16545996305764
-0.03471779928401487,0.1669703235875291
-0.03471489928401487,0.1642675731656223
-0.03471199928401487,0.1635521392304117
-0.03470909928401487,0.1668113382685934
-0.03470619928401487,0.1672088015659326
-0.03470329928401487,0.1656984410360435
-0.03470039928401487,0.1670498162469969
-0.03469749928401487,0.1670498162469969
-0.03469459928401487,0.1634726465709439
-0.03469169928401487,0.1659369190144471
-0.03468879928401487,0.1656984410360435
-0.03468589928401487,0.1655394557171078
-0.03468299928401487,0.1668908309280612
-0.03468009928401487,0.167526772203804
-0.03467719928401487,0.1669703235875291
-0.03467429928401487,0.1681627134795467
-0.03467139928401487,0.1691166253931609
-0.03466849928401487,0.1680832208200789
-0.03466559928401487,0.1663343823117863
-0.03466269928401487,0.1674472795443361
-0.03465979928401487,0.1673677868848683
-0.03465689928401487,0.1678447428416753
-0.03465399928401487,0.1683216987984824
-0.03465109928401486,0.1672088015659326
-0.03464819928401486,0.1670498162469969
-0.03464529928401486,0.168560176776886
-0.03464239928401486,0.1676062648632718
-0.03463949928401486,0.167526772203804
-0.03463659928401486,0.1664138749712541
-0.03463369928401486,0.1660959043333828
-0.03463079928401486,0.1666523529496577
-0.03462789928401486,0.1679242355011432
-0.03462499928401486,0.1672882942254004
-0.03462209928401486,0.1676062648632718
-0.03461919928401486,0.1692756107120965
-0.03461629928401486,0.1687191620958225
-0.03461339928401486,0.1691961180526312
-0.03461049928401486,0.1705474932635805
-0.03460759928401486,0.169673074009436
-0.03460469928401486,0.1698320593283755
-0.03460179928401486,0.1720578537934705
-0.03459889928401486,0.1717398831555984
-0.03459599928401487,0.1710244492203905
-0.03459309928401487,0.1734887216638878
-0.03459019928401487,0.1672882942254117
-0.03458729928401487,0.1660164116739172
-0.03458439928401487,0.1685601767768813
-0.03458149928401487,0.1706269859230462
-0.03457859928401487,0.1687191620958216
-0.03457569928401487,0.1695935813499679
-0.03457279928401487,0.1714219125177284
-0.03456989928401487,0.1704680006041142
-0.03456699928401487,0.1709449565609213
-0.03456409928401487,0.1724553170908103
-0.03456119928401487,0.1718193758150676
-0.03455829928401487,0.1722168391124068
-0.03455539928401487,0.173647706982828
-0.03455249928401487,0.1742041555991029
-0.03454959928401487,0.171103941879857
-0.03454669928401487,0.1713424198582605
-0.03454379928401487,0.1723758244313425
-0.03454089928401487,0.1718193758150676
-0.03453799928401487,0.1729322730476174
-0.03453509928401487,0.1730117657070853
-0.03453219928401487,0.1717398831555997
-0.03452929928401487,0.172614302409746
-0.03452639928401487,0.1729322730476174
-0.03452349928401487,0.1723758244313425
-0.03452059928401487,0.1719783611340033
-0.03451769928401487,0.1711834345393248
-0.03451479928401487,0.1707064785825178
-0.03451189928401487,0.1723758244313425
-0.03450899928401487,0.1726937950692139
-0.03450609928401487,0.1717398831555997
-0.03450319928401487,0.1728527803881496
-0.03450029928401487,0.1735682143233602
-0.03449739928401487,0.1727732877286817
-0.03449449928401487,0.1742041555991029
-0.03449159928401486,0.1779403105940916
-0.03448869928401486,0.1796891491023842
-0.03448579928401486,0.180802046334934
-0.03448289928401486,0.1801661050591913
-0.03447999928401486,0.1774633546372845
-0.03447709928401486,0.1748400968748457
-0.03447419928401486,0.1718193758150676
-0.03447129928401486,0.170070537306775
-0.03446839928401486,0.1698320593283715
-0.03446549928401486,0.1689576400742252
-0.03446259928401486,0.1668908309280612
-0.03445969928401486,0.168560176776886
-0.03445679928401486,0.1718193758150676
-0.03445389928401486,0.1706269859230535
-0.03445099928401486,0.1726143024097481
-0.03444809928401486,0.1737271996422944
-0.03444519928401486,0.1729322730476202
-0.03444229928401486,0.1744426335775102
-0.03443939928401486,0.1765094427236685
-0.03443649928401487,0.1754760381505903
-0.03443359928401487,0.1775428472967487
-0.03443069928401487,0.1777813252751555
-0.03442779928401487,0.1745221262369802
-0.03442489928401487,0.1750785748532482
-0.03442199928401487,0.1763504574047324
-0.03441909928401487,0.1753965454911224
-0.03441619928401487,0.1749195895343135
-0.03441329928401487,0.1763504574047347
-0.03441039928401487,0.1753170528316527
-0.03440749928401487,0.1749195895343135
-0.03440459928401487,0.1765889353831383
-0.03440169928401487,0.1765094427236704
-0.03439879928401487,0.1757940087884598
-0.03439589928401487,0.176747920702074
-0.03439299928401487,0.1777018326156881
-0.03439009928401487,0.1764299500642026
-0.03438719928401487,0.1735682143233602
-0.03438429928401487,0.1753965454911206
-0.03438139928401487,0.1749195895343135
-0.03437849928401487,0.175714516128992
-0.03437559928401487,0.1769863986804775
-0.03437269928401487,0.1758735014479277
-0.03436979928401487,0.1765889353831383
-0.03436689928401487,0.1780992959130273
-0.03436399928401487,0.1773043693183489
-0.03436109928401487,0.1771453839994132
-0.03435819928401487,0.1760324867668633
-0.03435529928401487,0.1740451702801672
-0.03435239928401487,0.1740451702801672
-0.03434949928401487,0.1752375601721849
-0.03434659928401487,0.1748400968748457
-0.03434369928401487,0.1744426335775064
-0.03434079928401487,0.1754760381505884
-0.03433789928401487,0.1741246629396351
-0.03433499928401487,0.1740451702801672
-0.03433209928401487,0.1768274133615418
-0.03432919928401486,0.1742041555991029
-0.03432629928401486,0.1735682143233602
-0.03432339928401486,0.1739656776206994
-0.03432049928401486,0.1747606042153778
-0.03431759928401486,0.1740451702801672
-0.03431469928401486,0.1752375601721849
-0.03431179928401486,0.1735682143233602
-0.03430889928401486,0.172614302409746
-0.03430599928401486,0.1735682143233602
-0.03430309928401486,0.1742836482585708
-0.03430019928401486,0.1730117657070853
-0.03429729928401486,0.1739656776206994
-0.03429439928401486,0.1741246629396339
-0.03429149928401486,0.1734887216638935
-0.03428859928401486,0.1741246629396319
-0.03428569928401486,0.1723758244313413
-0.03428279928401486,0.1717398831556009
-0.03427989928401486,0.1723758244313461
-0.03427699928401486,0.1743631409180372
-0.03427409928401487,0.1735682143233616
-0.03427119928401487,0.1711039418798614
-0.03426829928401487,0.1718193758150663
-0.03426539928401487,0.1722168391124061
-0.03426249928401487,0.1717398831556006
-0.03425959928401487,0.1734887216638891
-0.03425669928401487,0.1706269859230499
-0.03425379928401487,0.1693551033715644
-0.03425089928401487,0.1711834345393248
-0.03424799928401487,0.1715014051771962
-0.03424509928401487,0.1703885079446464
-0.03424219928401487,0.1768274133615418
-0.03423929928401487,0.170070537306775
-0.03423639928401487,0.1676062648632718
-0.03423349928401487,0.1681627134795467
-0.03423059928401487,0.1694345960310323
-0.03422769928401487,0.1686396694363538
-0.03422479928401487,0.1688781474147573
-0.03422189928401487,0.171103941879857
-0.03421899928401487,0.1710244492203891
-0.03421609928401487,0.1696730740094358
-0.03421319928401487,0.1679242355011432
-0.03421029928401487,0.1676857575227396
-0.03420739928401487,0.1694345960310323
-0.03420449928401487,0.1708654639014534
-0.03420159928401487,0.1708654639014534
-0.03419869928401487,0.1691961180526287
-0.03419579928401487,0.1677652501822075
-0.03419289928401487,0.1695140886905001
-0.03418999928401487,0.1683216987984824
-0.03418709928401487,0.1683216987984824
-0.03418419928401487,0.1693551033715644
-0.03418129928401487,0.1667318456091255
-0.03417839928401487,0.1670498162469969
-0.03417549928401487,0.1681627134795467
-0.03417259928401487,0.1672882942254004
-0.03416969928401487,0.1679242355011432
-0.03416679928401486,0.1695935813499679
-0.03416389928401486,0.1692756107120965
-0.03416099928401486,0.1689576400742252
-0.03415809928401486,0.1706269859230499
-0.03415519928401486,0.1704680006041142
-0.03415229928401486,0.1697525666689036
-0.03414939928401486,0.1717398831555997
-0.03414649928401486,0.1722168391124068
-0.03414359928401486,0.171103941879857
-0.03414069928401486,0.1731707510260209
-0.03413779928401486,0.1718193758150676
-0.03413489928401486,0.1695140886905001
-0.03413199928401486,0.1707064785825189
-0.03412909928401486,0.1713424198582583
-0.03412619928401486,0.170150029966245
-0.03412329928401486,0.1713424198582604
-0.03412039928401486,0.1712629271987904
-0.03411749928401486,0.1699910446473093
-0.03411459928401487,0.1711834345393227
-0.03411169928401487,0.1715808978366633
-0.03410879928401487,0.1678447428416821
-0.03410589928401487,0.1689576400742231
-0.03410299928401487,0.1703090152851761
-0.03410009928401487,0.1696730740094369
-0.03409719928401487,0.1702295226257097
-0.03409429928401487,0.1686396694363538
-0.03409139928401487,0.1674472795443361
-0.03408849928401487,0.1669703235875291
-0.03408559928401487,0.1676062648632718
-0.03408269928401487,0.169037132733693
-0.03407979928401487,0.1658574263549792
-0.03407689928401487,0.1674472795443361
-0.03407399928401487,0.1668908309280612
-0.03407109928401487,0.1681627134795467
-0.03406819928401487,0.1684806841174181
-0.03406529928401487,0.1676062648632718
-0.03406239928401487,0.168003728160611
-0.03405949928401487,0.1688781474147573
-0.03405659928401487,0.1676857575227396
-0.03405369928401487,0.1691166253931609
-0.03405079928401487,0.1723758244313425
-0.03404789928401487,0.1669703235875291
-0.03404499928401487,0.1668113382685934
-0.03404209928401487,0.1686396694363538
-0.03403919928401487,0.1684011914579503
-0.03403629928401487,0.1676062648632718
-0.03403339928401487,0.1695140886905001
-0.03403049928401487,0.1691961180526287
-0.03402759928401487,0.1670498162469969
-0.03402469928401487,0.1703885079446464
-0.03402179928401487,0.1667318456091255
-0.03401889928401487,0.1672882942254004
-0.03401599928401487,0.1684806841174181
-0.03401309928401487,0.1684011914579503
-0.03401019928401487,0.168003728160611
-0.03400729928401486,0.1672882942254004
-0.03400439928401486,0.1658574263549792
-0.03400149928401486,0.1652214850792365
-0.03399859928401486,0.166493367630722
-0.03399569928401486,0.1657779336955114
-0.03399279928401486,0.1625982273167976
-0.03398989928401486,0.1645060511440259
-0.03398699928401486,0.1646650364629615
-0.03398409928401486,0.1640290951872188
-0.03398119928401486,0.1657779336955114
-0.03397829928401486,0.1666523529496577
-0.03397539928401486,0.163393153911476
-0.03397249928401486,0.1651419924197675
-0.03396959928401486,0.1645060511440256
-0.03396669928401486,0.1643470658250886
-0.03396379928401486,0.163472646570943
-0.03396089928401486,0.1629956906141422
-0.03395799928401486,0.1659369190144497
-0.03395509928401486,0.1673677868848667
-0.03395219928401487,0.1664933676307236
-0.03394929928401487,0.16172380806266
-0.03394639928401487,0.161008374127442
-0.03394349928401487,0.1610083741274407
-0.03394059928401487,0.160133954873296
-0.03393769928401487,0.1617238080626484
-0.03393479928401487,0.1623597493383929
-0.03393189928401487,0.161882793381587
-0.03392899928401487,0.1636316318898796
-0.03392609928401487,0.1645060511440259
-0.03392319928401487,0.1637111245493474
-0.03392029928401487,0.1631546759330725
-0.03391739928401487,0.1627572126357333
-0.03391449928401487,0.1620417787005227
-0.03391159928401487,0.1641085878466866
-0.03390869928401487,0.1637906172088153
-0.03390579928401487,0.1652214850792365
-0.03390289928401487,0.1609288814679729
-0.03389999928401487,0.1595775062570195
-0.03389709928401487,0.1589415649812767
-0.03389419928401487,0.160849388808505
-0.03389129928401487,0.1600544622138266
-0.03388839928401487,0.1571132338135163
-0.03388549928401487,0.1582261310460661
-0.03388259928401487,0.1579081604081947
-0.03387969928401487,0.1571132338135163
-0.03387679928401487,0.1567952631756449
-0.03387389928401487,0.1564772925377735
-0.03387099928401487,0.1564772925377735
-0.03386809928401487,0.1578286677487269
-0.03386519928401487,0.1583851163650018
-0.03386229928401487,0.1585441016839375
-0.03385939928401487,0.1571132338135163
-0.03385649928401487,0.1571927264729842
-0.03385359928401487,0.1564772925377735
-0.03385069928401487,0.1577491750892591
-0.03384779928401487,0.1567157705161771
-0.03384489928401486,0.1541720054132061
-0.03384199928401486,0.1564772925377735
-0.03383909928401486,0.1548079466889488
-0.03383619928401486,0.1537745421158668
-0.03383329928401486,0.158305623705534
-0.03383039928401486,0.1578286677487269
-0.03382749928401486,0.1565567851972414
-0.03382459928401486,0.1577491750892591
-0.03382169928401486,0.158305623705534
-0.03381879928401486,0.1566362778567092
-0.03381589928401486,0.1549669320078845
-0.03381299928401486,0.1567157705161771
-0.03381009928401486,0.1565567851972418
-0.03380719928401486,0.1567952631756457
-0.03380429928401486,0.1571927264729791
-0.03380139928401486,0.15441048339161
-0.03379849928401486,0.1546489613700179
-0.03379559928401486,0.1572722191324517
-0.03379269928401487,0.1571132338135166
-0.03378979928401487,0.1578286677487256
-0.03378689928401487,0.1579876530676623
-0.03378399928401487,0.1558413512620347
-0.03378109928401487,0.1552054099862892
-0.03377819928401487,0.1565567851972389
-0.03377529928401487,0.1560798292404352
-0.03377239928401487,0.1524231669049135
-0.03376949928401487,0.154728454029481
-0.03376659928401487,0.1543309907321417
-0.03376369928401487,0.1532180934995919
-0.03376079928401487,0.1544899760510774
-0.03375789928401487,0.1517872256291707
-0.03375499928401487,0.1513102696723636
-0.03375209928401487,0.1532180934995919
-0.03374919928401487,0.1531386008401241
-0.03374629928401487,0.1518667182886386
-0.03374339928401487,0.1507538210560887
-0.03374049928401487,0.1514692549912993
-0.03373759928401487,0.1513102696723636
-0.03373469928401487,0.1525026595643813
-0.03373179928401487,0.1525026595643813
-0.03372889928401487,0.1487665045693926
-0.03372599928401487,0.1488459972288605
-0.03372309928401487,0.1488459972288605
-0.03372019928401487,0.1489254898883283
-0.03371729928401487,0.1508333137155566
-0.03371439928401487,0.1456662908501467
-0.03371149928401487,0.1443149156391933
-0.03370859928401487,0.1477330999963106
-0.03370569928401487,0.1478125926557785
-0.03370279928401487,0.1464612174448251
-0.03369989928401487,0.1446328862770647
-0.03369699928401487,0.145984261488018
-0.03369409928401487,0.1462227394664216
-0.03369119928401487,0.1471766513800357
-0.03368829928401487,0.1487665045693926
-0.03368539928401486,0.1536155567969311
-0.03368249928401486,0.1462227394664216
-0.03367959928401486,0.1477330999963106
-0.03367669928401486,0.1470176660611
-0.03367379928401486,0.1469381734016322
-0.03367089928401486,0.1454278128717431
-0.03366799928401486,0.145984261488018
-0.03366509928401486,0.1463817247853573
-0.03366219928401486,0.1477330999963106
-0.03365929928401486,0.1474151293584393
-0.03365639928401486,0.1474946220179071
-0.03365349928401486,0.1487665045693926
-0.03365059928401486,0.1481305632936506
-0.03364769928401486,0.1485280265909902
-0.03364479928401486,0.1491639678667274
-0.03364189928401486,0.1466996954232282
-0.03363899928401486,0.1464612174448277
-0.03363609928401486,0.1478920853152463
-0.03363319928401486,0.1478920853152465
-0.03363029928401487,0.147971577974714
-0.03362739928401487,0.1471766513800372
-0.03362449928401487,0.1432020184066507
-0.03362159928401487,0.1445533936175944
-0.03361869928401487,0.1455073055312092
-0.03361579928401487,0.1449508569149371
-0.03361289928401487,0.1424070918119697
-0.03360999928401487,0.1440764376607898
-0.03360709928401487,0.1439969450013219
-0.03360419928401487,0.1441559303202576
-0.03360129928401487,0.1463022321258894
-0.03359839928401487,0.1447123789365325
-0.03359549928401487,0.1421686138335615
-0.03359259928401487,0.1441559303202576
-0.03358969928401487,0.1415326725578187
-0.03358679928401487,0.139863326708994
-0.03358389928401487,0.1412941945794152
-0.03358099928401487,0.141930135855158
-0.03357809928401487,0.1412147019199474
-0.03357519928401487,0.1430430330877078
-0.03357229928401487,0.1433610037255792
-0.03356939928401487,0.1451098422338717
-0.03356649928401487,0.1423275991524972
-0.03356359928401487,0.142407091811965
-0.03356069928401487,0.1417711505362223
-0.03355779928401487,0.1428840477687721
-0.03355489928401487,0.1407377459631403
-0.03355199928401487,0.1372400689465551
-0.03354909928401487,0.1385119514980407
-0.03354619928401487,0.1403402826658011
-0.03354329928401487,0.1396248487305905
-0.03354039928401487,0.1386709368169763
-0.03353749928401487,0.1385119514980407
-0.03353459928401487,0.1383529661791049
-0.03353169928401487,0.1375580395844265
-0.03352879928401487,0.1389889074548477
-0.03352589928401487,0.1396248487305905
-0.03352299928401486,0.1361271717140053
-0.03352009928401486,0.1371605762870873
-0.03351719928401486,0.1385914441575085
-0.03351429928401486,0.1381144882007014
-0.03351139928401486,0.1382734735196371
-0.03350849928401486,0.1401018046873976
-0.03350559928401486,0.1402607900063332
-0.03350269928401486,0.1403402826658011
-0.03349979928401486,0.1418506431956901
-0.03349689928401486,0.1394658634116548
-0.03349399928401486,0.1357297084166661
-0.03349109928401486,0.1377170249033622
-0.03348819928401486,0.1377170249033621
-0.03348529928401486,0.1376375322438944
-0.03348239928401486,0.1376375322438906
-0.03347949928401486,0.1355707230977301
-0.03347659928401486,0.1354117377787973
-0.03347369928401486,0.1368426056492142
-0.03347079928401487,0.1358886937356035
-0.03346789928401487,0.135570723097731
-0.03346499928401487,0.1349347818219888
-0.03346209928401487,0.1357297084166646
-0.03345919928401487,0.1367631129897462
-0.03345629928401487,0.1390684001143114
-0.03345339928401487,0.1404992679847342
-0.03345049928401487,0.1361271717140053
-0.03344759928401487,0.1329474653352915
-0.03344469928401487,0.1350937671409233
-0.03344179928401487,0.1347757965030519
-0.03343889928401487,0.1343783332057127
-0.03343599928401487,0.13374239192997
-0.03343309928401487,0.1339013772489057
-0.03343019928401487,0.1336628992705021
-0.03342729928401487,0.1354117377787947
