synth-diodes-out/-bkp-20250402/1kHz1V/scope.csv

#Digilent WaveForms Oscilloscope Acquisition
#Device Name: Discovery3
#Serial Number: SN:210415BD5874
#Date Time: 2025-04-01 17:48:09.616.933.240
#Sample rate: 2.94118e+06Hz
#Samples: 32768
#Trigger: Source: Channel 1 Type: Edge Condition: Rising Level: 0 V Hyst.: Auto HoldOff: 0 s
#Channel 1: Range: 100 mV/div Offset: 0 V Sample Mode: Average
#Wavegen Channel 1: Running
#Mode: Simple
#Type: Sine
#Frequency: 1 kHz
#Period: 1 ms
#Amplitude: 1 V
#Offset: 0 V
#Symmetry: 50 %
#Phase: 0 °

Time (s),Channel 1 (V)
-0.009592928725121568,0.003771893700038346
-0.009592588725121566,0.005282254229928263
-0.009592248725121566,0.00273848912696186
-0.009591908725121567,0.002817981786429704
-0.009591568725121565,0.004169356997374678
-0.009591228725121567,0.001864069872819761
-0.009590888725121566,0.003135952424300939
-0.009590548725121566,0.003056459764832516
-0.009590208725121566,0.002658996467494015
-0.009589868725121567,0.005282254229932891
-0.009589528725121567,0.003056459764837287
-0.009589188725121565,0.0037718937000476
-0.009588848725121567,0.004805298273122063
-0.009588508725121566,0.004646312954193603
-0.009588168725121566,0.006554136781418406
-0.009587828725121567,0.004010371678447375
-0.009587488725121565,0.004646312954193892
-0.009587148725121567,0.005679717527270234
-0.009586808725121566,0.002023055191755595
-0.009586468725121566,0.004407834975782839
-0.009586128725121566,0.002341025829622636
-0.009585788725121567,0.001864069872815568
-0.009585448725121567,0.00337443040270187
-0.009585108725121565,0.0007511726402648739
-0.009584768725121567,0.0005126946618630749
-0.009584428725121566,0.001228128597070641
-0.009584088725121566,3.573870505513906e-05
-0.009583748725121567,0.001387113916008499
-0.009583408725121567,-0.0009976658680225046
-0.009583068725121567,-4.375395441444082e-05
-0.009582728725121566,0.001307621256533569
-0.009582388725121568,-0.002587519057369566
-0.009582048725121566,0.0005126946618622074
-0.009581708725121567,-0.0003617245922840845
-0.009581368725121567,-0.0003617245922840845
-0.009581028725121565,0.0007511726402608252
-0.009580688725121567,-0.0006002025706827025
-0.009580348725121566,0.002182040510686368
-0.009580008725121566,0.001864069872815568
-0.009579668725121566,0.0009896506186692757
-0.009579328725121567,0.002182040510684778
-0.009578988725121567,0.001864069872816146
-0.009578648725121566,0.00154609923494737
-0.009578308725121568,0.00329493774323041
-0.009577968725121566,0.0007511726402657415
-0.009577628725121566,0.003374430402704617
-0.009577288725121567,0.001864069872818315
-0.009576948725121565,0.0003537093429337478
-0.009576608725121567,0.002341025829619021
-0.009576268725121566,-0.0007591878896214283
-0.009575928725121566,0.0002742166834586732
-0.009575588725121566,3.573870505513906e-05
-0.009575248725121567,-0.0002027392733483951
-0.009574908725121567,0.0009101579591994065
-0.009574568725121566,-0.001077158527495555
-0.009574228725121568,-0.00155411448430002
-0.009573888725121566,0.0004332020023897355
-0.009573548725121566,-0.002110563100576668
-0.009573208725121567,-0.0006796952301554634
-0.009572868725121565,-0.000918173208562757
-0.009572528725121567,-0.001951577781639099
-0.009572188725121566,0.0005126946618588817
-0.009571848725121566,-0.001315636505895185
-0.009571508725121566,0.0003537093429265179
-0.009571168725121567,0.002102547851219102
-0.009570828725121567,-4.375395440880166e-05
-0.009570488725121565,0.002341025829621768
-0.009570148725121568,0.002102547851219969
-0.009569808725121566,0.0005921873213323657
-0.009569468725121566,0.001864069872815568
-0.009569128725121567,-0.0002822319328162398
-0.009568788725121565,-0.0002027392733489735
-0.009568448725121567,-0.0003617245922837954
-0.009568108725121566,-0.001395129165363463
-0.009567768725121566,3.573870505137955e-05
-0.009567428725121566,-0.002031070441108823
-0.009567088725121567,-0.0016336071437696
-0.009566748725121567,-0.0005207099112217984
-0.009566408725121565,-0.003541430970993246
-0.009566068725121567,-0.002269548419516985
-0.009565728725121566,-0.003143967673659662
-0.009565388725121566,-0.003700416289933563
-0.009565048725121567,-0.0016336071437696
-0.009564708725121567,-0.003620923630462103
-0.009564368725121567,-0.002905489695256417
-0.009564028725121566,-0.003382445652063485
-0.009563688725121568,-0.004097879587270183
-0.009563348725121566,-0.002031070441108823
-0.009563008725121567,-0.001951577781640979
-0.009562668725121567,-0.002031070441108679
-0.009562328725121565,-0.001395129165368379
-0.009561988725121567,-0.00203107044110651
-0.009561648725121566,0.000115231364520381
-0.009561308725121566,-0.001315636505898221
-0.009560968725121567,-0.0004412172517519292
-0.009560628725121567,0.001069143278134373
-0.009560288725121567,-0.0006796952301522823
-0.009559948725121566,-0.0005207099112165928
-0.009559608725121568,0.001228128597066447
-0.009559268725121566,-0.001713099803237445
-0.009558928725121566,-0.002031070441108823
-0.009558588725121567,-0.001872085122173423
-0.009558248725121565,-0.002984982354717176
-0.009557908725121567,-0.001395129165368958
-0.009557568725121566,-0.002905489695257863
-0.009557228725121566,-0.004415850225144165
-0.009556888725121566,-0.002110563100576668
-0.009556548725121567,-0.003779908949398371
-0.009556208725121567,-0.003461938311530607
-0.009555868725121566,-0.004336357565678779
-0.009555528725121568,-0.005687732776624765
-0.009555188725121566,-0.002667011716851581
-0.009554848725121566,-0.004415850225144165
-0.009554508725121567,-0.005210776819822612
-0.009554168725121565,-0.004574835544085638
-0.009553828725121567,-0.006164688733433857
-0.009553488725121566,-0.003461938311531041
-0.009553148725121566,-0.004018386927804941
-0.009552808725121566,-0.002667011716851581
-0.009552468725121567,-0.00298498235472296
-0.009552128725121567,-0.003620923630464561
-0.009551788725121566,-0.003938894268334783
-0.009551448725121568,-0.002667011716856208
-0.009551108725121566,-0.003461938311529161
-0.009550768725121566,-0.00298498235472296
-0.009550428725121567,-0.004813313522483389
-0.009550088725121565,-0.003541430970997006
-0.009549748725121567,-0.003302952992594772
-0.009549408725121566,-0.005767225436095501
-0.009549068725121566,-0.004654328203549
-0.009548728725121566,-0.005369762138758302
-0.009548388725121567,-0.005687732776629681
-0.009548048725121567,-0.003700416289937177
-0.009547708725121565,-0.006403166711838259
-0.009547368725121567,-0.005846718095567394
-0.009547028725121566,-0.004972298841421537
-0.009546688725121566,-0.006323674052372438
-0.009546348725121567,-0.005210776819822612
-0.009546008725121565,-0.005608240117169066
-0.009545668725121567,-0.00759555660385434
-0.009545328725121566,-0.004495342884615191
-0.009544988725121566,-0.006244181392903582
-0.009544648725121566,-0.005687732776629681
-0.009544308725121567,-0.004177372246740631
-0.009543968725121567,-0.006244181392900835
-0.009543628725121565,-0.003620923630470055
-0.009543288725121567,-0.004813313522479051
-0.009542948725121566,-0.00505179150088432
-0.009542608725121566,-0.003620923630465718
-0.009542268725121567,-0.006244181392904594
-0.009541928725121567,-0.004892806181953691
-0.009541588725121567,-0.004256864906209632
-0.009541248725121566,-0.006482659371305814
-0.009540908725121568,-0.005210776819827239
-0.009540568725121566,-0.008152005220132867
-0.009540228725121567,-0.007675049263325798
-0.009539888725121567,-0.006482659371310297
-0.009539548725121565,-0.009344395112146488
-0.009539208725121567,-0.00823149787960476
-0.009538868725121566,-0.007993019901200068
-0.009538528725121566,-0.009582873090554072
-0.009538188725121566,-0.007675049263325798
-0.009537848725121567,-0.008708453836405899
-0.009537508725121567,-0.0217452499891106
-0.009537168725121566,-0.02635582423824863
-0.009536828725121568,-0.01498837393440887
-0.009536488725121566,-0.01188816021512157
-0.009536148725121566,-0.01308055010713924
-0.009535808725121567,-0.01419344733968704
-0.009535468725121565,-0.0122061308529941
-0.009535128725121567,-0.01252410149086375
-0.009534788725121566,-0.01236511617192734
-0.009534448725121566,-0.01164968223671803
-0.009534108725121566,-0.01474989595596398
-0.009533768725121567,-0.0121266381935251
-0.009533428725121567,-0.0130010574476698
-0.009533088725121566,-0.01387547670181595
-0.009532748725121568,-0.01292156478820702
-0.009532408725121566,-0.01387547670181769
-0.009532068725121566,-0.01204714553405726
-0.009531728725121567,-0.01363699872341415
-0.009531388725121565,-0.01554482255063953
-0.009531048725121567,-0.01474989595596543
-0.009530708725121566,-0.01490888127490285
-0.009530368725121566,-0.01665771978319413
-0.009530028725121566,-0.01769112435627423
-0.009529688725121567,-0.0181680803130813
-0.009529348725121567,-0.0168961977615981
-0.009529008725121565,-0.01602177850745499
-0.009528668725121568,-0.0190424995672166
-0.009528328725121566,-0.01785010967520848
-0.009527988725121566,-0.01705518308053148
-0.009527648725121567,-0.01824757297254915
-0.009527308725121565,-0.01649873446425858
-0.009526968725121567,-0.01705518308053046
-0.009526628725121566,-0.01633974914531943
-0.009526288725121566,-0.01554482255064387
-0.009525948725121566,-0.01633974914532087
-0.009525608725121567,-0.0151473592533032
-0.009525268725121567,-0.0172936610589311
-0.009524928725121565,-0.01713467573999296
-0.009524588725121567,-0.0153858372317131
-0.009524248725121566,-0.01872452892935144
-0.009523908725121566,-0.01610127116691734
-0.009523568725121567,-0.01689619776159578
-0.009523228725121565,-0.01975793350243097
-0.009522888725121567,-0.01777061701574569
-0.009522548725121566,-0.01769112435627481
-0.009522208725121568,-0.01800909499414446
-0.009521868725121566,-0.01856554361042052
-0.009521528725121567,-0.02055286009711664
-0.009521188725121567,-0.01864503626989184
-0.009520848725121565,-0.01856554361042197
-0.009520508725121567,-0.0189630069077583
-0.009520168725121566,-0.01896300690776206
-0.009519828725121566,-0.02023488945924526
-0.009519488725121567,-0.01872452892935621
-0.009519148725121567,-0.01800909499414691
-0.009518808725121567,-0.01920148488616111
-0.009518468725121566,-0.0167372124426614
-0.009518128725121568,-0.0174526463778681
-0.009517788725121566,-0.01721416839946717
-0.009517448725121566,-0.01522685191277105
-0.009517108725121567,-0.01697569042106045
-0.009516768725121565,-0.01633974914532116
-0.009516428725121567,-0.01641924180478857
-0.009516088725121566,-0.01697569042106146
-0.009515748725121566,-0.01578330052904596
-0.009515408725121566,-0.0188835142482919
-0.009515068725121567,-0.0181680803130826
-0.009514728725121567,-0.0176911243562751
-0.009514388725121566,-0.01880402158882305
-0.009514048725121568,-0.01824757297255117
-0.009513708725121566,-0.01943996286456682
-0.009513368725121566,-0.02063235275658449
-0.009513028725121567,-0.01880402158882406
-0.009512688725121565,-0.01983742616190893
-0.009512348725121567,-0.02063235275658304
-0.009512008725121566,-0.02118880137286229
-0.009511668725121566,-0.02277865456221629
-0.009511328725121566,-0.02039387477818095
-0.009510988725121567,-0.02063235275658449
-0.009510648725121567,-0.02071184541605219
-0.009510308725121566,-0.01904249956723049
-0.009509968725121568,-0.0206323527565787
-0.009509628725121566,-0.02715075083294096
-0.009509288725121566,-0.02341459583795905
-0.009508948725121567,-0.02444800041104103
-0.009508608725121565,-0.02301713254061925
-0.009508268725121567,-0.02285814722168443
-0.009507928725121566,-0.02428901509210318
-0.009507588725121566,-0.023096625200091
-0.009507248725121566,-0.0249249563678481
-0.009506908725121567,-0.02389155179476612
-0.009506568725121567,-0.02452749307050772
-0.009506228725121565,-0.02556089764358536
-0.009505888725121567,-0.0240505371137073
-0.009505548725121566,-0.0265943022166711
-0.009505208725121566,-0.02564039030305871
-0.009504868725121567,-0.02381205913529828
-0.009504528725121565,-0.02683278019507175
-0.009504188725121567,-0.02556089764359317
-0.009503848725121566,-0.02683278019507464
-0.009503508725121566,-0.02587886828146108
-0.009503168725121566,-0.02524292700571948
-0.009502828725121567,-0.02818415540602974
-0.009502488725121567,-0.02587886828146643
-0.009502148725121565,-0.02564039030306738
-0.009501808725121567,-0.02802517008708537
-0.009501468725121566,-0.02452749307051119
-0.009501128725121566,-0.02579937562199439
-0.009500788725121567,-0.02508394168678379
-0.009500448725121567,-0.02333510317849439
-0.009500108725121567,-0.02619683891932841
-0.009499768725121566,-0.02428901509210679
-0.009499428725121568,-0.0250839416867809
-0.009499088725121566,-0.02611734625986577
-0.009498748725121567,-0.02309662520008767
-0.009498408725121567,-0.02619683891932798
-0.009498068725121565,-0.02428901509211228
-0.009497728725121567,-0.02619683891932668
-0.009497388725121566,-0.02675328753560564
-0.009497048725121566,-0.02516343434625164
-0.009496708725121566,-0.02770719944922267
-0.009496368725121567,-0.02762770678975497
-0.009496028725121567,-0.02532241966519152
-0.009495688725121566,-0.02810466274655842
-0.009495348725121568,-0.02619683891934056
-0.009495008725121566,-0.0279456774276262
-0.009494668725121566,-0.02969451593591878
-0.009494328725121567,-0.02579937562200148
-0.009493988725121565,-0.02770719944921688
-0.009493648725121567,-0.02611734625986866
-0.009493308725121566,-0.02619683891933535
-0.009492968725121566,-0.02715075083294775
-0.009492628725121566,-0.02428901509210534
-0.009492288725121567,-0.02476597104891241
-0.009491948725121567,-0.02651480955720182
-0.009491608725121566,-0.0241300297731711
-0.009491268725121568,-0.02492495636784521
-0.009490928725121566,-0.02381205913529828
-0.009490588725121566,-0.02516343434625164
-0.009490248725121567,-0.02691227285454422
-0.009489908725121565,-0.02587886828146253
-0.009489568725121567,-0.02595836094092994
-0.009489228725121566,-0.02730973615188041
-0.009488888725121566,-0.02564039030306362
-0.009488548725121566,-0.02834314072496542
-0.009488208725121567,-0.0279456774276262
-0.009487868725121567,-0.0273892288113523
-0.009487528725121566,-0.02786618476815546
-0.009487188725121568,-0.02627633157880725
-0.009486848725121566,-0.02810466274656377
-0.009486508725121566,-0.02913806731964387
-0.009486168725121567,-0.02659430221667284
-0.009485828725121565,-0.03104589114687099
-0.009485488725121567,-0.03072792050900135
-0.009485148725121566,-0.03136386178474902
-0.009484808725121566,-0.03438458284451643
-0.009484468725121566,-0.03152284710367921
-0.009484128725121567,-0.03438458284452163
-0.009483788725121567,-0.03414610486611853
-0.009483448725121565,-0.0327152369956963
-0.009483108725121567,-0.03255625167676177
-0.009482768725121566,-0.03136386178474382
-0.009482428725121566,-0.03152284710367921
-0.009482088725121567,-0.05060108537596195
-0.009481748725121565,-0.04376471666169433
-0.009481408725121567,-0.03470255348240948
-0.009481068725121566,-0.03676936262855581
-0.009480728725121566,-0.03613342135281696
-0.009480388725121566,-0.03764378188270326
-0.009480048725121567,-0.03645139199068559
-0.009479708725121567,-0.03581545071494398
-0.009479368725121565,-0.03668986996908449
-0.009479028725121567,-0.03541798741760823
-0.009478688725121566,-0.03748479656376091
-0.009478348725121566,-0.03382813422824671
-0.009478008725121567,-0.03382813422824671
-0.009477668725121567,-0.03549748007706841
-0.009477328725121567,-0.03343067093091125
-0.009476988725121566,-0.03446407550399078
-0.009476648725121568,-0.03517950943919747
-0.009476308725121566,-0.0332716856119718
-0.009475968725121567,-0.03613342135281421
-0.009475628725121567,-0.03486153880133101
-0.009475288725121565,-0.03382813422825567
-0.009474948725121567,-0.03629240667174093
-0.009474608725121566,-0.03374864156878161
-0.009474268725121566,-0.03525900209866792
-0.009473928725121566,-0.03510001677973222
-0.009473588725121567,-0.03351016359037822
-0.009473248725121567,-0.03541798741760013
-0.009472908725121566,-0.03382813422824468
-0.009472568725121568,-0.03271523699570093
-0.009472228725121566,-0.03605392869334637
-0.009471888725121566,-0.03406661220665025
-0.009471548725121567,-0.03557697273653655
-0.009471208725121565,-0.03613342135280987
-0.009470868725121567,-0.03494103146079871
-0.009470528725121566,-0.03764378188270008
-0.009470188725121566,-0.03589494337441067
-0.009469848725121566,-0.03931312773152799
-0.009469508725121567,-0.03875667911525309
-0.009469168725121567,-0.03764378188270529
-0.009468828725121566,-0.03899515709365951
-0.009468488725121568,-0.04058501028300772
-0.009468148725121566,-0.03939262039099888
-0.009467808725121566,-0.04106196623982059
-0.009467468725121567,-0.03843870847738171
-0.009467128725121565,-0.04098247358035129
-0.009466788725121567,-0.04058501028301423
-0.009466448725121566,-0.03899515709365878
-0.009466108725121566,-0.04018754698567067
-0.009465768725121566,-0.03820023049897817
-0.009465428725121567,-0.04034653230460998
-0.009465088725121567,-0.04018754698567457
-0.009464748725121565,-0.03621291401229217
-0.009464408725121568,-0.03899515709364649
-0.009464068725121566,-0.0371668259258946
-0.009463728725121566,-0.03629240667174989
-0.009463388725121567,-0.0370078406069605
-0.009463048725121565,-0.03549748007707897
-0.009462708725121567,-0.03756428922323166
-0.009462368725121566,-0.03788225986110563
-0.009462028725121566,-0.0372463185853675
-0.009461688725121566,-0.03915414241259231
-0.009461348725121567,-0.03613342135281421
-0.009461008725121567,-0.0390746497531191
-0.009460668725121565,-0.03883617177472122
-0.009460328725121567,-0.03891566443418848
-0.009459988725121566,-0.04018754698567096
-0.009459648725121566,-0.03835921581791386
-0.009459308725121567,-0.04050551762354566
-0.009458968725121567,-0.04145942953715807
-0.009458628725121567,-0.04066450294248281
-0.009458288725121566,-0.04161841485609347
-0.009457948725121568,-0.04050551762354971
-0.009457608725121566,-0.04034653230460998
-0.009457268725121567,-0.04161841485609549
-0.009456928725121567,-0.03899515709366139
-0.009456588725121565,-0.04098247358034753
-0.009456248725121567,-0.03955160570993674
-0.009455908725121566,-0.03827972315844803
-0.009455568725121566,-0.03939262039099584
-0.009455228725121567,-0.0370078406069605
-0.009454888725121567,-0.0385976937963145
-0.009454548725121567,-0.02452749307053447
-0.009454208725121566,0.01569579262010661
-0.009453868725121568,-0.0469444230402132
-0.009453528725121566,-0.04527507719161634
-0.009453188725121566,-0.04273131208864532
-0.009452848725121567,-0.04463913591587013
-0.009452508725121565,-0.04185689283450916
-0.009452168725121567,-0.04463913591586854
-0.009451828725121566,-0.04416217995906695
-0.009451488725121566,-0.04440065793747006
-0.009451148725121566,-0.04455964325640575
-0.009450808725121567,-0.04416217995906724
-0.009450468725121567,-0.04424167261853423
-0.009450128725121566,-0.04607000378629161
-0.009449788725121568,-0.04432116527800858
-0.009449448725121566,-0.04495710655374498
-0.009449108725121566,-0.04384420932119515
-0.009448768725121567,-0.04416217995906652
-0.009448428725121565,-0.04535456985107177
-0.009448088725121567,-0.04193638549397309
-0.009447748725121566,-0.04360573134278987
-0.009447408725121566,-0.04265181942917748
-0.009447068725121566,-0.0407439956019492
-0.009446728725121567,-0.04336725336438807
-0.009446388725121567,-0.04145942953716328
-0.009446048725121566,-0.04225435613183956
-0.009445708725121568,-0.04296979006704624
-0.009445368725121566,-0.04161841485609665
-0.009445028725121566,-0.04225435613183826
-0.009444688725121567,-0.04384420932119515
-0.009444348725121565,-0.04296979006705116
-0.009444008725121567,-0.04360573134279045
-0.009443668725121566,-0.04360573134279248
-0.009443328725121566,-0.04408268729959911
-0.009442988725121566,-0.04432116527800221
-0.009442648725121567,-0.04296979006704885
-0.009442308725121567,-0.04622898910522456
-0.009441968725121565,-0.04599051112682521
-0.009441628725121567,-0.04551355517002162
-0.009441288725121566,-0.04638797442416328
-0.009440948725121566,-0.04479812123480928
-0.009440608725121567,-0.04646746708363401
-0.009440268725121565,-0.04686493038096283
-0.009439928725121567,-0.04400319464013604
