real-diodes-out/100Hz200mV/scope.csv

#Digilent WaveForms Oscilloscope Acquisition
#Device Name: Discovery3
#Serial Number: SN:210415BD5874
#Date Time: 2025-04-03 19:52:19.739.435.050
#Sample rate: 323625Hz
#Samples: 32768
#Trigger: Source: Channel 1 Type: Edge Condition: Rising Level: 0 V Hyst.: Auto HoldOff: 0 s
#Channel 1: Range: 200 mV/div Offset: 0 V Sample Mode: Average
#Wavegen Channel 1: Running
#Mode: Simple
#Type: Sine
#Frequency: 100 Hz
#Period: 10 ms
#Amplitude: 200 mV
#Offset: 0 V
#Symmetry: 50 %
#Phase: 0 °

Time (s),Channel 1 (V)
-0.004916865134028579,-0.007993019901197176
-0.004913775134028582,-0.00870845383640778
-0.004910685134028585,-0.00854946851747238
-0.004907595134028581,-0.009264902452682692
-0.004904505134028583,-0.009741858409489761
-0.004901415134028579,-0.01029830702576467
-0.004898325134028582,-0.01053678500416821
-0.004895235134028585,-0.01133171159884666
-0.00489214513402858,-0.0114112042583145
-0.004889055134028583,-0.01180866755565372
-0.004885965134028579,-0.01220613085299251
-0.004882875134028582,-0.01196765287458941
-0.004879785134028584,-0.01308055010713924
-0.00487669513402858,-0.01316004276660708
-0.004873605134028583,-0.01347801340447846
-0.004870515134028579,-0.01395496936128625
-0.004867425134028582,-0.01435243265862475
-0.004864335134028584,-0.01451141797756044
-0.00486124513402858,-0.01482938861543182
-0.004858155134028583,-0.01530634457223889
-0.004855065134028579,-0.01594228584798208
-0.004851975134028581,-0.01618076382638518
-0.004848885134028584,-0.0167372124426601
-0.00484579513402858,-0.01697569042106363
-0.004842705134028583,-0.01721416839946717
-0.004839615134028585,-0.01761163169680567
-0.004836525134028581,-0.01832706563201699
-0.004833435134028584,-0.01872452892935621
-0.00483034513402858,-0.01920148488616328
-0.004827255134028582,-0.01928097754563113
-0.004824165134028585,-0.01951945552403423
-0.004821075134028581,-0.02071184541605233
-0.004817985134028584,-0.02055286009711664
-0.004814895134028579,-0.02126829403232725
-0.004811805134028582,-0.02150677201073078
-0.004808715134028585,-0.02166575732966618
-0.004805625134028581,-0.02230169860540923
-0.004802535134028584,-0.02285814722168414
-0.004799445134028579,-0.02309662520008767
-0.004796355134028582,-0.02341459583795905
-0.004793265134028585,-0.02405053711370065
-0.004790175134028581,-0.02397104445423397
-0.004787085134028583,-0.02460698572997672
-0.004783995134028579,-0.02500444902731595
-0.004780905134028582,-0.0249249563678481
-0.004777815134028585,-0.02571988296252655
-0.00477472513402858,-0.02571988296252655
-0.004771635134028583,-0.02643531689773715
-0.004768545134028579,-0.0267532875356094
-0.004765455134028582,-0.0272302434924156
-0.004762365134028584,-0.02746872147081913
-0.00475927513402858,-0.0279456774276262
-0.004756185134028583,-0.02826364806549758
-0.004753095134028579,-0.02882009668177307
-0.004750005134028581,-0.02913806731964387
-0.004746915134028584,-0.02961502327645094
-0.00474382513402858,-0.02985350125485448
-0.004740735134028583,-0.03040994987112939
-0.004737645134028579,-0.03064842784953394
-0.004734555134028581,-0.03120487646580783
-0.004731465134028584,-0.03136386178474353
-0.00472837513402858,-0.03215878837942197
-0.004725285134028583,-0.03192031040101843
-0.004722195134028585,-0.03239726635782463
-0.004719105134028581,-0.0331127002930361
-0.004716015134028584,-0.03295371497410042
-0.00471292513402858,-0.03398711954718239
-0.004709835134028582,-0.03390762688771455
-0.004706745134028585,-0.03470255348239155
-0.004703655134028581,-0.03478204614186085
-0.004700565134028584,-0.03533849475813576
-0.004697475134028579,-0.0355769727365393
-0.004694385134028582,-0.03637189933121775
-0.004691295134028585,-0.03629240667175004
-0.004688205134028581,-0.03692834794749265
-0.004685115134028583,-0.03708733326642834
-0.004682025134028579,-0.03732581124483188
-0.004678935134028582,-0.03812073783951032
-0.004675845134028585,-0.03788225986110722
-0.004672755134028581,-0.03891566443418877
-0.004669665134028583,-0.03899515709365661
-0.004666575134028579,-0.03947211305046369
-0.004663485134028582,-0.03979008368833506
-0.004660395134028585,-0.04042602496407782
-0.00465730513402858,-0.04034653230460998
-0.004654215134028583,-0.04130044421822411
-0.004651125134028579,-0.04137993687769239
-0.004648035134028582,-0.04161841485609549
-0.004644945134028584,-0.04241334145077394
-0.00464185513402858,-0.04265181942917748
-0.004638765134028583,-0.042890297407581
-0.004635675134028579,-0.04328776070492067
-0.004632585134028581,-0.04352623868332377
-0.004629495134028584,-0.04400319464013083
-0.00462640513402858,-0.04440065793747006
-0.004623315134028583,-0.0451955845321485
-0.004620225134028579,-0.04543406251055219
-0.004617135134028581,-0.04551355517001988
-0.004614045134028584,-0.04614949644576265
-0.00461095513402858,-0.04654695974310187
-0.004607865134028583,-0.0467854377215054
-0.004604775134028585,-0.0473418863377793
-0.004601685134028581,-0.04789833495405522
-0.004598595134028584,-0.04773934963511954
-0.00459550513402858,-0.04861376888926583
-0.004592415134028582,-0.04853427622979799
-0.004589325134028585,-0.04893173952713649
-0.004586235134028581,-0.04964717346234782
-0.004583145134028584,-0.04964717346234782
-0.004580055134028579,-0.05036260739755841
-0.004576965134028582,-0.05044210005702626
-0.004573875134028585,-0.05068057803542935
-0.004570785134028581,-0.05099854867330117
-0.004567695134028583,-0.05171398260851177
-0.004564605134028579,-0.05155499728957608
-0.004561515134028582,-0.05234992388425452
-0.004558425134028585,-0.05234992388425452
-0.004555335134028581,-0.05306535781946513
-0.004552245134028583,-0.05370129909520789
-0.004549155134028579,-0.05362180643574005
-0.004546065134028582,-0.0544167330304185
-0.004542975134028585,-0.05433724037095064
-0.00453988513402858,-0.0549731816466934
-0.004536795134028583,-0.05489368898722556
-0.004533705134028579,-0.0557681082413717
-0.004530615134028582,-0.05568861558190401
-0.004527525134028584,-0.05688100547392168
-0.00452443513402858,-0.05640404951711461
-0.004521345134028583,-0.05751694674966444
-0.004518255134028579,-0.0576759320686007
-0.004515165134028581,-0.05799390270647151
-0.004512075134028584,-0.05862984398221426
-0.00450898513402858,-0.05855035132274641
-0.004505895134028583,-0.05918629259848918
-0.004502805134028579,-0.05934527791742573
-0.004499715134028581,-0.05982223387423194
-0.004496625134028584,-0.06021969717157116
-0.00449353513402858,-0.06085563844731391
-0.004490445134028583,-0.06061716046891039
-0.004487355134028585,-0.06149157972305509
-0.004484265134028581,-0.0617300577014602
-0.004481175134028584,-0.06204802833933158
-0.00447808513402858,-0.06268396961507434
-0.004474995134028582,-0.06252498429613865
-0.004471905134028585,-0.06316092557188026
-0.004468815134028581,-0.06363788152868848
-0.004465725134028584,-0.06403534482602771
-0.004462635134028579,-0.06443280812336694
-0.004459545134028582,-0.06498925673964184
-0.004456455134028585,-0.06490976408017414
-0.004453365134028581,-0.06586367599378813
-0.004450275134028583,-0.06554570535591675
-0.004447185134028579,-0.0663406319505952
-0.004444095134028582,-0.06689708056687012
-0.004441005134028585,-0.06681758790740241
-0.004437915134028581,-0.06729454386420934
-0.004434825134028583,-0.06769200716154856
-0.004431735134028579,-0.06808947045888779
-0.004428645134028582,-0.06848693375622701
-0.004425555134028585,-0.06880490439409839
-0.00442246513402858,-0.06880490439409839
-0.004419375134028583,-0.06967932364824468
-0.004416285134028579,-0.06967932364824556
-0.004413195134028582,-0.07015627960505175
-0.004410105134028584,-0.07079222088079451
-0.00440701513402858,-0.07111019151866589
-0.004403925134028583,-0.07142816215653726
-0.004400835134028579,-0.07150765481600584
-0.004397745134028581,-0.07190511811334434
-0.004394655134028584,-0.07254105938908709
-0.00439156513402858,-0.07270004470802278
-0.004388475134028583,-0.07309750800536201
-0.004385385134028578,-0.07349497130270094
-0.004382295134028581,-0.07333598598376553
-0.004379205134028584,-0.07444888321631536
-0.00437611513402858,-0.07413091257844398
-0.004373025134028583,-0.07508482449205812
-0.004369935134028585,-0.07516431715152583
-0.004366845134028581,-0.07572076576780087
-0.004363755134028584,-0.07587975108673657
-0.00436066513402858,-0.07659518502194718
-0.004357575134028582,-0.07651569236247932
-0.004354485134028585,-0.07731061895715632
-0.004351395134028581,-0.07754909693556131
-0.004348305134028584,-0.07731061895715777
-0.004345215134028579,-0.07802605289236837
-0.004342125134028582,-0.07810554555183621
-0.004339035134028585,-0.07882097948704551
-0.004335945134028581,-0.07897996480598252
-0.004332855134028583,-0.07945692076278958
-0.004329765134028579,-0.07969539874119312
-0.004326675134028582,-0.08033134001693587
-0.004323585134028585,-0.07977489140066198
-0.00432049513402858,-0.08112626661161432
-0.004317405134028583,-0.08080829597374294
-0.004314315134028579,-0.08192119320629276
-0.004311225134028582,-0.08192119320629276
-0.004308135134028585,-0.08263662714150337
-0.00430504513402858,-0.08255713448203553
-0.004301955134028583,-0.08335206107671397
-0.004298865134028579,-0.08327256841724728
-0.004295775134028582,-0.08390850969298888
-0.004292685134028584,-0.08398800235245672
-0.00428959513402858,-0.0844649583092638
-0.004286505134028583,-0.08494191426607087
-0.004283415134028579,-0.08502140692553972
-0.004280325134028581,-0.08557785554181363
-0.004277235134028584,-0.08581633352021716
-0.00427414513402858,-0.08621379681755638
-0.004271055134028583,-0.08669075277436344
-0.004267965134028578,-0.08708821607170281
-0.004264875134028581,-0.08716770873117052
-0.004261785134028584,-0.08804212798531681
-0.00425869513402858,-0.08804212798531681
-0.004255605134028582,-0.08859857660159172
-0.004252515134028585,-0.08891654723946252
-0.004249425134028581,-0.0890755325583988
-0.004246335134028584,-0.08939350319627017
-0.00424324513402858,-0.08963198117467371
-0.004240155134028582,-0.08994995181254509
-0.004237065134028585,-0.09042690776935128
-0.004233975134028581,-0.09074487840722353
-0.004230885134028584,-0.09106284904509492
-0.004227795134028579,-0.09169879032083766
-0.004224705134028582,-0.09161929766136982
-0.004221615134028585,-0.09209625361817601
-0.004218525134028581,-0.09265270223445181
-0.004215435134028583,-0.09249371691551611
-0.004212345134028579,-0.09344762882913026
-0.004209255134028582,-0.09368610680753378
-0.004206165134028585,-0.09392458478593689
-0.00420307513402858,-0.094083570104873
-0.004199985134028583,-0.09487849669955145
-0.004196895134028579,-0.0944810334022141
-0.004193805134028582,-0.09551443797529421
-0.004190715134028584,-0.09487849669955145
-0.00418762513402858,-0.09607088659156912
-0.004184535134028583,-0.09599139393210128
-0.004181445134028579,-0.09646834988890864
-0.004178355134028582,-0.09662733520784404
-0.004175265134028584,-0.09718378382411895
-0.00417217513402858,-0.09710429116465111
-0.004169085134028583,-0.09781972509986171
-0.004165995134028579,-0.09781972509986316
-0.004162905134028581,-0.09861465169454016
-0.004159815134028584,-0.098694144354008
-0.00415672513402858,-0.09909160765134722
-0.004153635134028583,-0.09948907094868645
-0.004150545134028578,-0.09956856360815516
-0.004147455134028581,-0.1000455195649614
-0.004144365134028584,-0.1003634902028327
-0.00414127513402858,-0.1006019681812363
-0.004138185134028582,-0.1010789241380433
-0.004135095134028585,-0.1013968947759141
-0.004132005134028581,-0.1015558800948504
-0.004128915134028584,-0.1021123287111253
-0.00412582513402858,-0.1024302993489967
-0.004122735134028582,-0.1023508066895289
-0.004119645134028585,-0.1032252259436736
-0.004116555134028581,-0.103304718603143
-0.004113465134028584,-0.1042586305167571
-0.004110375134028579,-0.1036226892410144
-0.004107285134028582,-0.104338123176225
-0.004104195134028585,-0.1044971084951604
-0.004101105134028581,-0.1052125424303713
-0.004098015134028583,-0.1051330497709034
-0.004094925134028579,-0.1060074690250497
-0.004091835134028582,-0.1060074690250497
-0.004088745134028585,-0.1063254396629211
-0.00408565513402858,-0.1065639176413246
-0.004082565134028583,-0.1067229029602603
-0.004079475134028579,-0.1071203662575998
-0.004076385134028582,-0.1072793515765352
-0.004073295134028584,-0.1078358001928101
-0.00407020513402858,-0.1080742781712137
-0.004067115134028583,-0.1082332634901494
-0.004064025134028579,-0.1081537708306833
-0.004060935134028582,-0.1091076827442957
-0.004057845134028584,-0.1090281900848278
-0.00405475513402858,-0.1098231166795063
-0.004051665134028583,-0.1100615946579098
-0.004048575134028579,-0.1102205799768456
-0.004045485134028581,-0.1103000726363133
-0.004042395134028584,-0.1109360139120561
-0.00403930513402858,-0.1107770285931204
-0.004036215134028583,-0.111492462528331
-0.004033125134028578,-0.1116514478472677
-0.004030035134028581,-0.1122078964635416
-0.004026945134028584,-0.1126053597608808
-0.00402385513402858,-0.112525867101413
-0.004020765134028582,-0.1134797790150271
-0.004017675134028585,-0.1131618083771563
-0.004014585134028581,-0.113559271674495
-0.004011495134028584,-0.113559271674495
-0.00400840513402858,-0.1142747056097056
-0.004005315134028582,-0.1143541982691734
-0.004002225134028585,-0.1151491248638504
-0.003999135134028581,-0.1149106468854483
-0.003996045134028584,-0.1156260808206589
-0.003992955134028579,-0.1159440514585303
-0.003989865134028582,-0.1158645587990625
-0.003986775134028585,-0.1165005000748041
-0.003983685134028581,-0.1167389780532088
-0.003980595134028583,-0.1170569486910801
-0.003977505134028579,-0.1172954266694837
-0.003974415134028582,-0.1177723826262907
-0.003971325134028585,-0.1179313679452264
-0.00396823513402858,-0.1184083239020335
-0.003965145134028583,-0.1185673092209692
-0.003962055134028579,-0.1191237578372445
-0.003958965134028582,-0.1193622358156476
-0.003955875134028584,-0.1198391917724547
-0.00395278513402858,-0.1201571624103261
-0.003949695134028583,-0.1200776697508582
-0.003946605134028579,-0.120554625707666
-0.003943515134028582,-0.1209520890050045
-0.003940425134028584,-0.1213495523023437
-0.00393733513402858,-0.1213495523023437
-0.003934245134028583,-0.1219854935780865
-0.003931155134028579,-0.1217470155996851
-0.003928065134028581,-0.1229394054917006
-0.003924975134028584,-0.1223829568754257
-0.00392188513402858,-0.1234163614485077
-0.003918795134028583,-0.1234163614485077
-0.003915705134028578,-0.1237343320863804
-0.003912615134028581,-0.1244497660215897
-0.003909525134028584,-0.1242112880431862
-0.00390643513402858,-0.1246882439999932
-0.003903345134028582,-0.1245292586810575
-0.003900255134028585,-0.1254831705946699
-0.003897165134028581,-0.1250857072973324
-0.003894075134028584,-0.1261191118704144
-0.003890985134028579,-0.1257216485730752
-0.003887895134028582,-0.1265960678272215
-0.003884805134028585,-0.1264370825082861
-0.003881715134028581,-0.126834545805625
-0.003878625134028583,-0.1273115017624321
-0.003875535134028579,-0.1275499797408356
-0.003872445134028582,-0.1277884577192392
-0.003869355134028585,-0.1281859210165777
-0.003866265134028581,-0.1287423696328533
-0.003863175134028583,-0.1286628769733854
-0.003860085134028579,-0.1295372962275317
-0.003856995134028582,-0.1292988182491282
-0.003853905134028585,-0.1301732375032745
-0.00385081513402858,-0.1302527301627423
-0.003847725134028583,-0.1300142521843388
-0.003844635134028579,-0.130650193460082
-0.003841545134028582,-0.1308886714384851
-0.003838455134028584,-0.1311271494168886
-0.00383536513402858,-0.1319220760115671
-0.003832275134028583,-0.1312066420763565
-0.003829185134028579,-0.1323195393089063
-0.003826095134028581,-0.1323195393089063
-0.003823005134028584,-0.1328759879251812
-0.00381991513402858,-0.1329554805846491
-0.003816825134028583,-0.1330349732441169
-0.003813735134028579,-0.1335914218603918
-0.003810645134028581,-0.1335914218603918
-0.003807555134028584,-0.1341478704766667
-0.00380446513402858,-0.1342273631361346
-0.003801375134028583,-0.1347838117524095
-0.003798285134028578,-0.1346248264334748
-0.003795195134028581,-0.1351812750497487
-0.003792105134028584,-0.1352607677092166
-0.00378901513402858,-0.1354197530281522
-0.003785925134028582,-0.136055694303895
-0.003782835134028585,-0.136055694303895
-0.003779745134028581,-0.1367711282391056
-0.003776655134028584,-0.1371685915364448
-0.003773565134028579,-0.1368506208985734
-0.003770475134028582,-0.1374865621743162
-0.003767385134028585,-0.1376455474932516
-0.003764295134028581,-0.1378045328121876
-0.003761205134028583,-0.1385199667473982
-0.003758115134028579,-0.1379635181311233
-0.003755025134028582,-0.1386789520663339
-0.003751935134028585,-0.1387584447258016
-0.003748845134028581,-0.139155908023141
-0.003745755134028583,-0.1398713419583515
-0.003742665134028579,-0.1398713419583515
-0.003739575134028582,-0.1397918492988837
-0.003736485134028585,-0.1401893125962229
-0.00373339513402858,-0.1407457612124978
-0.003730305134028583,-0.1408252538719657
-0.003727215134028579,-0.1413817024882403
-0.003724125134028582,-0.1412227171693049
-0.003721035134028584,-0.1415406878071763
-0.00371794513402858,-0.1420971364234512
-0.003714855134028583,-0.1418586584450477
-0.003711765134028579,-0.142494599720791
-0.003708675134028581,-0.1428125703586618
-0.003705585134028584,-0.1428125703586618
-0.00370249513402858,-0.1434485116344046
-0.003699405134028583,-0.1434485116344046
-0.003696315134028579,-0.1434485116344061
-0.003693225134028581,-0.1443229308885509
-0.003690135134028584,-0.1438459749317438
-0.00368704513402858,-0.1447998868453579
-0.003683955134028583,-0.1447203941858901
-0.003680865134028578,-0.1448793795048268
-0.003677775134028581,-0.1454358281211007
-0.003674685134028584,-0.1455153207805685
-0.00367159513402858,-0.1459922767373756
-0.003668505134028582,-0.146310247375247
-0.003665415134028585,-0.1460717693968439
-0.003662325134028581,-0.1467077106725862
-0.003659235134028584,-0.1464692326941827
-0.003656145134028579,-0.1468666959915219
-0.003653055134028582,-0.1476616225862003
-0.003649965134028585,-0.1475821299267326
-0.003646875134028581,-0.1480590858835396
-0.003643785134028583,-0.1480590858835396
-0.003640695134028579,-0.1479795932240717
-0.003637605134028582,-0.1486950271592823
-0.003634515134028585,-0.1488540124782177
-0.003631425134028581,-0.1486155344998145
-0.003628335134028583,-0.1497284317323643
-0.003625245134028579,-0.1493309684350251
-0.003622155134028582,-0.1498874170513
-0.003619065134028585,-0.1500464023702357
-0.00361597513402858,-0.1498874170513
-0.003612885134028583,-0.1506823436459784
-0.003609795134028579,-0.1512387922622525
-0.003606705134028582,-0.1507618363054463
-0.003603615134028584,-0.1514772702406569
-0.00360052513402858,-0.1517952408785282
-0.003597435134028583,-0.1518747335379961
-0.003594345134028579,-0.15243118215427
-0.003591255134028581,-0.1518747335379961
-0.003588165134028584,-0.1531466160894816
-0.00358507513402858,-0.1527491527921424
-0.003581985134028583,-0.1531466160894816
-0.003578895134028579,-0.1537030647057565
-0.003575805134028581,-0.1537030647057565
-0.003572715134028584,-0.1535440793868209
-0.00356962513402858,-0.1544184986409671
-0.003566535134028583,-0.1542595133220314
-0.003563445134028585,-0.1546569766193699
-0.003560355134028581,-0.1552134252356456
-0.003557265134028584,-0.1545774839599028
-0.00355417513402858,-0.1554519032140491
-0.003551085134028582,-0.1554519032140491
-0.003547995134028585,-0.1555313958735168
-0.003544905134028581,-0.156008351830324
-0.003541815134028584,-0.1563263224681954
-0.003538725134028579,-0.1558493665113883
-0.003535635134028582,-0.1571212490628739
-0.003532545134028585,-0.1567237857655354
-0.003529455134028581,-0.157041756403406
-0.003526365134028583,-0.1577571903386166
-0.003523275134028579,-0.1575187123602131
-0.003520185134028582,-0.158075160976488
-0.003517095134028585,-0.1583136389548911
-0.003514005134028581,-0.1584726242738272
-0.003510915134028583,-0.1583931316143594
-0.003507825134028579,-0.15910856554957
-0.003504735134028582,-0.1589495802306343
-0.003501645134028585,-0.1594265361874413
-0.00349855513402858,-0.1594265361874413
