-20250406-BKP/real-diodes-in-T10-L10-D00/100Hz-2V/scope.csv

#Digilent WaveForms Oscilloscope Acquisition
#Device Name: Discovery3
#Serial Number: SN:210415BD5874
#Date Time: 2025-04-06 18:41:33.621.785.810
#Sample rate: 200803Hz
#Samples: 32768
#Trigger: Source: Channel 1 Type: Edge Condition: Rising Level: 0 V Hyst.: Auto HoldOff: 0 s
#Channel 1: Range: 500 mV/div Offset: 0 V Sample Mode: Average
#Wavegen Channel 1: Running
#Mode: Simple
#Type: Sine
#Frequency: 100 Hz
#Period: 10 ms
#Amplitude: 2 V
#Offset: 0 V
#Symmetry: 50 %
#Phase: 0 °

Time (s),Channel 1 (V)
-0.1287261478586318,0.6010797369414267
-0.1287211678586318,0.6017156782171718
-0.1287161878586318,0.6012387222603666
-0.1287112078586318,0.605213355233757
-0.1287062278586318,0.601238722260372
-0.1287012478586318,0.6047363992769499
-0.1286962678586318,0.6023516194929189
-0.1286912878586318,0.6036235020443954
-0.1286863078586318,0.6012387222603691
-0.1286813278586318,0.6032260387470536
-0.1286763478586318,0.6022721268334468
-0.1286713678586318,0.6044979212985383
-0.1286663878586318,0.6020336488550432
-0.1286614078586318,0.6053723405526865
-0.1286564278586318,0.6042594433201444
-0.1286514478586318,0.6051338625742876
-0.1286464678586318,0.6044184286390811
-0.1286414878586318,0.6075186423583244
-0.1286365078586318,0.6017951708766606
-0.1286315278586318,0.6044979212985464
-0.1286265478586318,0.605133862574288
-0.1286215678586318,0.6038619800228037
-0.1286165878586318,0.6048158919364159
-0.1286116078586318,0.6065647304447078
-0.1286066278586318,0.6051338625742917
-0.1286016478586318,0.607836612996186
-0.1285966678586318,0.6083135689530029
-0.1285916878586318,0.6076776276772625
-0.1285867078586318,0.60879052490981
-0.1285817278586318,0.6073596570393913
-0.1285767478586318,0.6093469735260849
-0.1285717678586318,0.6079161056556662
-0.1285667878586318,0.6074391496988557
-0.1285618078586318,0.6069621937420504
-0.1285568278586318,0.6071211790609847
-0.1285518478586318,0.6071211790609853
-0.1285468678586318,0.6099034221423497
-0.1285418878586318,0.609823929482892
-0.1285369078586318,0.6101419001207627
-0.1285319278586318,0.6100624074612955
-0.1285269478586318,0.6122882019263911
-0.1285219678586318,0.6091879882071606
-0.1285169878586318,0.6100624074612939
-0.1285120078586318,0.6080750909746065
-0.1285070278586318,0.6066442231041782
-0.1285020478586318,0.6102213927802247
-0.1284970678586318,0.6110958120343775
-0.1284920878586318,0.6079161056556694
-0.1284871078586318,0.6115727679911802
-0.1284821278586318,0.6091879882071536
-0.1284771478586318,0.6122882019263838
-0.1284721678586318,0.6117317533101202
-0.1284671878586318,0.6122882019263931
-0.1284622078586318,0.6128446505426701
-0.1284572278586318,0.6135600844778794
-0.1284522478586318,0.6097444368234242
-0.1284472678586318,0.6122087092669228
-0.1284422878586318,0.6127651578831993
-0.1284373078586318,0.6111753046938482
-0.1284323278586318,0.613560084477872
-0.1284273478586318,0.6147524743698983
-0.1284223678586318,0.6133216064994823
-0.1284173878586318,0.6137190697968163
-0.1284124078586318,0.6155474009645735
-0.1284074278586318,0.6132421138400093
-0.1284024478586318,0.6155474009645726
-0.1283974678586318,0.613719069796823
-0.1283924878586318,0.6120497239479946
-0.1283875078586318,0.6108573340559783
-0.1283825278586318,0.6080750909745993
-0.1283775478586318,0.6105393634180936
-0.1283725678586318,0.6103803780991669
-0.1283675878586318,0.6127651578831979
-0.1283626078586318,0.6151499376672399
-0.1283576278586318,0.6164218202187207
-0.1283526478586318,0.6139575477752289
-0.1283476678586318,0.6176142101107408
-0.1283426878586318,0.6159448642619221
-0.1283377078586318,0.6162628348997874
-0.1283327278586318,0.6145139963914981
-0.1283277478586318,0.6173757321323372
-0.1283227678586318,0.6145139963915001
-0.1283177878586318,0.6180911660675446
-0.1283128078586318,0.6163423275592584
-0.1283078278586318,0.6176142101107361
-0.1283028478586318,0.617455224791805
-0.1282978678586318,0.6188066000027536
-0.1282928878586318,0.6114932753317167
-0.1282879078586318,0.6157063862835048
-0.1282829278586318,0.6118112459695881
-0.1282779478586318,0.6138780551157482
-0.1282729678586318,0.6130036358616068
-0.1282679878586318,0.6135600844778797
-0.1282630078586318,0.6115727679911918
-0.1282580278586318,0.6130036358616058
-0.1282530478586318,0.6137190697968138
-0.1282480678586318,0.6155474009645768
-0.1282430878586318,0.6143550110725613
-0.1282381078586318,0.6190450779811619
-0.1282331278586318,0.6190450779811619
-0.1282281478586318,0.6213503651057211
-0.1282231678586318,0.6168987761755301
-0.1282181878586318,0.6197605119163622
-0.1282132078586318,0.6183296440459514
-0.1282082278586318,0.6191245706406283
-0.1282032478586318,0.6192040633000977
-0.1281982678586318,0.6207939164894517
-0.1281932878586318,0.6181706587270225
-0.1281883078586318,0.6219068137219976
-0.1281833278586318,0.6192835559595751
-0.1281783478586318,0.6225427549977471
-0.1281733678586318,0.6211913797867986
-0.1281683878586318,0.6211118871273259
-0.1281634078586318,0.6204759458515843
-0.1281584278586318,0.620555438511051
-0.1281534478586318,0.6193630486190356
-0.1281484678586318,0.6213503651057305
-0.1281434878586318,0.6219068137220034
-0.1281385078586318,0.6141165330941839
-0.1281335278586318,0.614911459688834
-0.1281285478586318,0.6180911660675362
-0.1281235678586318,0.616978268834998
-0.1281185878586318,0.6170577614944657
-0.1281136078586318,0.6192040633000977
-0.1281086278586318,0.6215093504246609
-0.1281036478586318,0.6233376815924189
-0.1280986678586318,0.6207939164894593
-0.1280936878586318,0.6220657990409354
-0.1280887078586318,0.6219068137220044
-0.1280837278586318,0.6227812329761474
-0.1280787478586318,0.622622247657215
-0.1280737678586318,0.6248480421223106
-0.1280687878586318,0.6215093504246723
-0.1280638078586318,0.6254044907385824
-0.1280588278586318,0.6239736228681736
-0.1280538478586318,0.624132608187104
-0.1280488678586318,0.623417174251896
-0.1280438878586318,0.624132608187104
-0.1280389078586318,0.6202374678731867
-0.1280339278586318,0.6246890568033789
-0.1280289478586318,0.6232581889329603
-0.1280239678586318,0.6239736228681685
-0.1280189878586318,0.6240531155276361
-0.1280140078586318,0.6256429687169873
-0.1280090278586318,0.6127651578832022
-0.1280040478586318,0.6232581889329195
-0.1279990678586318,0.6186476146838227
-0.1279940878586318,0.6204759458515798
-0.1279891078586318,0.6198400045758404
-0.1279841278586318,0.6187271073432926
-0.1279791478586318,0.6181706587270177
-0.1279741678586318,0.6211118871273206
-0.1279691878586318,0.6184091367054291
-0.1279642078586318,0.6218273210625366
-0.1279592278586318,0.6204759458515881
-0.1279542478586318,0.6250070274412504
-0.1279492678586318,0.6255634760575243
-0.1279442878586318,0.6273123145658125
-0.1279393078586318,0.6243710861655128
-0.1279343278586318,0.6273123145658072
-0.1279293478586318,0.6254839833980573
-0.1279243678586318,0.6247685494628493
-0.1279193878586318,0.6246890568033789
-0.1279144078586318,0.6261994173332652
-0.1279094278586318,0.6192835559595655
-0.1279044478586318,0.6218273210625319
-0.1278994678586318,0.6221452917004066
-0.1278944878586318,0.6214298577651987
-0.1278895078586318,0.6231786962734835
-0.1278845278586318,0.6202374678731796
-0.1278795478586318,0.6288226750956757
-0.1278745678586318,0.6264378953116715
-0.1278695878586318,0.6254044907385914
-0.1278646078586318,0.6254044907385895
-0.1278596278586318,0.6265173879711373
-0.1278546478586318,0.6205554385110561
-0.1278496678586318,0.6233376815924204
-0.1278446878586318,0.6230197109545553
-0.1278397078586318,0.6275507925442213
-0.1278347278586318,0.6290611530741049
-0.1278297478586318,0.6296176016903853
-0.1278247678586318,0.6279482558415636
-0.1278197878586318,0.6308894842418709
-0.1278148078586318,0.6291406457335814
-0.1278098278586318,0.6283457191389027
-0.1278048478586318,0.6270738365874166
-0.1277998678586318,0.6269943439279467
-0.1277948878586318,0.6269943439279464
-0.1277899078586318,0.6294586163714406
-0.1277849278586318,0.6264378953116715
-0.1277799478586318,0.6311279622202658
-0.1277749678586318,0.6293791237119831
-0.1277699878586318,0.630094557647191
-0.1277650078586318,0.6292996310525169
-0.1277600278586318,0.6270738365874142
-0.1277550478586318,0.6279482558415573
-0.1277500678586318,0.6301740503066602
-0.1277450878586318,0.6272328219063553
-0.1277401078586318,0.6234171742518935
-0.1277351278586318,0.6234171742518935
-0.1277301478586318,0.6255634760575202
-0.1277251678586318,0.6227812329761557
-0.1277201878586318,0.6273123145658014
-0.1277152078586318,0.6248480421223146
-0.1277102278586318,0.6257224613764577
-0.1277052478586318,0.6266763732900751
-0.1277002678586318,0.6270738365874134
-0.1276952878586318,0.6259609393548644
-0.1276903078586318,0.6268353586090092
-0.1276853278586318,0.6230197109545681
-0.1276803478586318,0.6263584026521976
-0.1276753678586318,0.6255634760575282
-0.1276703878586318,0.6325588300906956
-0.1276654078586318,0.6401901253995809
-0.1276604278586318,0.6401106327401408
-0.1276554478586318,0.6315254255176292
-0.1276504678586318,0.6312074548797326
-0.1276454878586318,0.625960939354874
-0.1276405078586318,0.6243710861655133
-0.1276355278586318,0.6206349311705188
-0.1276305478586318,0.6238941302086886
-0.1276255678586318,0.6234171742518935
-0.1276205878586318,0.6280277485010199
-0.1276156078586318,0.629776587009321
-0.1276106278586318,0.630571513603998
-0.1276056478586318,0.6320023814744241
-0.1276006678586318,0.6339102053016454
-0.1275956878586318,0.6316844108365574
-0.1275907078586318,0.6343076685989881
-0.1275857278586318,0.6328768007285721
-0.1275807478586318,0.6341486832800525
-0.1275757678586318,0.6316844108365537
-0.1275707878586318,0.6296970943498531
-0.1275658078586318,0.6313664401986749
-0.1275608278586318,0.6302535429661246
-0.1275558478586318,0.6283457191389032
-0.1275508678586318,0.6316844108365371
-0.1275458878586318,0.6320023814744207
-0.1275409078586318,0.6308099915824074
-0.1275359278586318,0.6332742640259061
-0.1275309478586318,0.6330357860475031
-0.1275259678586318,0.6322408594528242
-0.1275209878586318,0.6329562933880335
-0.1275160078586318,0.6323203521122943
-0.1275110278586318,0.6262789099927358
-0.1275060478586318,0.6295381090309056
-0.1275010678586318,0.6296970943498531
-0.1274960878586318,0.6238146375492433
-0.1274911078586318,0.6256429687169931
-0.1274861278586318,0.6253249980791222
-0.1274811478586318,0.6278687631820898
-0.1274761678586318,0.6262789099927387
-0.1274711878586318,0.6308894842418541
-0.1274662078586318,0.632320352112292
-0.1274612278586318,0.6343871612584484
-0.1274562478586318,0.6308894842418709
-0.1274512678586318,0.6334332493448371
-0.1274462878586318,0.6307304989229351
-0.1274413078586318,0.6325588300906922
-0.1274363278586318,0.6320023814744241
-0.1274313478586318,0.6339102053016454
-0.1274263678586318,0.6306510062634791
-0.1274213878586318,0.6335922346637776
-0.1274164078586318,0.6318433961554912
-0.1274114278586318,0.6332742640259061
-0.1274064478586318,0.6325588300906969
-0.1274014678586318,0.6340691906205846
-0.1273964878586318,0.6298560796687965
-0.1273915078586318,0.6327178154096208
-0.1273865278586318,0.6267558659495538
-0.1273815478586318,0.6318433961554664
-0.1273765678586318,0.6311279622202743
-0.1273715878586318,0.6316844108365472
-0.1273666078586318,0.6311279622202743
-0.1273616278586318,0.632558830090693
-0.1273566478586318,0.6306510062634724
-0.1273516678586318,0.6334332493448367
-0.1273466878586318,0.6316049181770881
-0.1273417078586318,0.6283457191388998
-0.1273367278586318,0.6268353586090162
-0.1273317478586318,0.6281072411604962
-0.1273267678586318,0.6307304989229303
-0.1273217878586318,0.632320352112292
-0.1273168078586318,0.6326383227501629
-0.1273118278586318,0.6320818741338885
-0.1273068478586318,0.6320818741338885
-0.1273018678586318,0.6331947713664343
-0.1272968878586318,0.6319228888149528
-0.1272919078586318,0.633512742004304
-0.1272869278586318,0.6320818741338885
-0.1272819478586318,0.6331947713664363
-0.1272769678586318,0.6319228888149528
-0.1272719878586318,0.6299355723282604
-0.1272670078586318,0.6327973080690917
-0.1272620278586318,0.6287431824362464
-0.1272570478586318,0.6296970943498497
-0.1272520678586318,0.6327178154096312
-0.1272470878586318,0.6327178154096312
-0.1272421078586318,0.6306510062634673
-0.1272371278586318,0.6328768007285629
-0.1272321478586318,0.6323998447717574
-0.1272271678586318,0.6309689769013412
-0.1272221878586318,0.6320023814744169
-0.1272172078586318,0.6298560796687889
-0.1272122278586318,0.6300945576471915
-0.1272072478586318,0.6307304989229351
-0.1272022678586318,0.6318433961554829
-0.1271972878586318,0.6305715136039994
-0.1271923078586318,0.6325588300906919
-0.1271873278586318,0.6296970943498583
-0.1271823478586318,0.6325588300906904
-0.1271773678586318,0.6320023814744227
-0.1271723878586318,0.6307304989229351
-0.1271674078586318,0.6319228888149485
-0.1271624278586318,0.629776587009321
-0.1271574478586318,0.6290611530741117
-0.1271524678586318,0.630253542966128
-0.1271474878586318,0.6305715136039989
-0.1271425078586318,0.6250865201007154
-0.1271375278586318,0.6235761595708319
-0.1271325478586318,0.6245300714844398
-0.1271275678586318,0.6322408594528242
-0.1271225878586318,0.6310484695608108
-0.1271176078586318,0.6313664401986779
-0.1271126278586318,0.6295381090309208
-0.1271076478586318,0.6312074548797422
-0.1271026678586318,0.6290611530741143
-0.1270976878586318,0.6291406457335779
-0.1270927078586318,0.6292996310525136
-0.1270877278586318,0.6310484695608002
-0.1270827478586318,0.6303330356255959
-0.1270777678586318,0.6323203521122848
-0.1270727878586318,0.6299355723282567
-0.1270678078586318,0.6326383227501585
-0.1270628278586318,0.6304920209445336
-0.1270578478586318,0.6316049181770794
-0.1270528678586318,0.6304920209445356
-0.1270478878586318,0.6316049181770814
-0.1270429078586318,0.6275507925442361
-0.1270379278586318,0.629776587009321
-0.1270329478586318,0.6292996310525149
-0.1270279678586318,0.6300945576471924
-0.1270229878586318,0.6290611530741123
-0.1270180078586318,0.6316049181770724
-0.1270130278586318,0.6266763732900841
-0.1270080478586318,0.6286636897767639
-0.1270030678586318,0.6289816604146425
-0.1269980878586318,0.6309689769013315
-0.1269931078586318,0.6283457191388998
-0.1269881278586318,0.6285047044578351
-0.1269831478586318,0.6277097778631571
-0.1269781678586318,0.6283457191388987
-0.1269731878586318,0.6276302852036917
-0.1269682078586318,0.6298560796687849
-0.1269632278586318,0.6289816604146458
-0.1269582478586318,0.6296970943498531
-0.1269532678586318,0.6300150649877234
-0.1269482878586318,0.6314459328581458
-0.1269433078586318,0.6289021677551794
-0.1269383278586318,0.6306510062634654
-0.1269333478586318,0.6296176016903872
-0.1269283678586318,0.6292201383930475
-0.1269233878586318,0.6275507925442213
-0.1269184078586318,0.6287431824362347
-0.1269134278586318,0.6270738365874142
-0.1269084478586318,0.6292201383930421
-0.1269034678586318,0.6274712998847535
-0.1268984878586318,0.6308894842418646
-0.1268935078586318,0.6290611530741081
-0.1268885278586318,0.6278687631820949
-0.1268835478586318,0.6258814466954038
-0.1268785678586318,0.6312074548797422
-0.1268735878586318,0.6261994173332862
-0.1268686078586318,0.6281072411604962
-0.1268636278586318,0.625801954035933
-0.1268586478586318,0.6263584026522037
-0.1268536678586318,0.6264378953116714
-0.1268486878586318,0.6284252117983633
-0.1268437078586318,0.6260404320143366
-0.1268387278586318,0.6290611530740994
-0.1268337478586318,0.6275507925442213
-0.1268287678586318,0.6283457191388969
-0.1268237878586318,0.6274712998847535
-0.1268188078586318,0.6298560796687845
-0.1268138278586318,0.6265968806306073
-0.1268088478586318,0.6276302852036872
-0.1268038678586318,0.623735144889779
-0.1267988878586318,0.6271533292468759
-0.1267939078586318,0.6254044907385958
-0.1267889278586318,0.6263584026522037
-0.1267839478586318,0.6262789099927359
-0.1267789678586318,0.6277892705226249
-0.1267739878586318,0.6252455054196585
-0.1267690078586318,0.6289021677551684
-0.1267640278586318,0.6254044907385958
-0.1267590478586318,0.6236556522303033
-0.1267540678586318,0.6263584026522037
-0.1267490878586318,0.6258814466953984
-0.1267441078586318,0.6219863063814722
-0.1267391278586318,0.6251660127601802
-0.1267341478586318,0.6239736228681684
-0.1267291678586318,0.6249275347817806
-0.1267241878586318,0.624053115527641
-0.1267192078586318,0.6266763732900703
-0.1267142278586318,0.624371086165516
-0.1267092478586318,0.6265968806306073
-0.1267042678586318,0.6239736228681779
-0.1266992878586318,0.6273123145658178
-0.1266943078586318,0.624848042122319
-0.1266893278586318,0.623655652230297
-0.1266843478586318,0.6232581889329585
-0.1266793678586318,0.6245300714844386
-0.1266743878586318,0.6227812329761538
-0.1266694078586318,0.6254839833980474
-0.1266644278586318,0.6233376815924255
-0.1266594478586318,0.6241326081871011
-0.1266544678586318,0.623655652230297
-0.1266494878586318,0.6265968806306019
-0.1266445078586318,0.6184091367054229
-0.1266395278586318,0.6203964531921117
-0.1266345478586318,0.6146729817104514
-0.1266295678586318,0.623655652230297
-0.1266245878586318,0.6218273210625432
-0.1266196078586318,0.6230197109545542
-0.1266146278586318,0.6214298577652002
-0.1266096478586318,0.6230197109545542
-0.1266046678586318,0.6213503651057325
-0.1265996878586318,0.6242121008465695
-0.1265947078586318,0.6229402182950887
-0.1265897278586318,0.6229402182950864
-0.1265847478586318,0.624132608187104
-0.1265797678586318,0.6234966669113636
-0.1265747878586318,0.6219068137220044
-0.1265698078586318,0.621747828403069
-0.1265648278586318,0.620555438511051
-0.1265598478586318,0.6215888430841311
-0.1265548678586318,0.6190450779811681
-0.1265498878586318,0.6224632623382731
-0.1265449078586318,0.6200784825542526
-0.1265399278586318,0.6214298577651973
-0.1265349478586318,0.6215093504246648
-0.1265299678586318,0.6152294303267054
-0.1265249878586318,0.6176142101107365
-0.1265200078586318,0.616819283516059
-0.1265150278586318,0.6149909523483053
-0.1265100478586318,0.6105393634181188
-0.1265050678586318,0.614434503732027
-0.1265000878586318,0.6143550110725594
-0.1264951078586318,0.6134805918184129
-0.1264901278586318,0.6142755184130898
-0.1264851478586318,0.6141165330941556
-0.1264801678586318,0.6156268936240419
-0.1264751878586318,0.6115727679911854
-0.1264702078586318,0.6120497239479907
-0.1264652278586318,0.6090290028882245
-0.1264602478586318,0.6103008854396991
-0.1264552678586318,0.6083135689530101
-0.1264502878586318,0.6089495102287457
-0.1264453078586318,0.6061672671473762
-0.1264403278586318,0.6091879882071493
-0.1264353478586318,0.6075981350177952
-0.1264303678586318,0.6081545836340677
-0.1264253878586318,0.6083930616124703
-0.1264204078586318,0.610141900120757
-0.1264154278586318,0.6069621937420495
-0.1264104478586318,0.6108573340559598
-0.1264054678586318,0.6071211790609853
-0.1264004878586318,0.6089495102287423
-0.1263955078586318,0.6060877744879033
-0.1263905278586318,0.606167267147371
-0.1263855478586318,0.6020336488550582
-0.1263805678586318,0.6068032084231052
-0.1263755878586318,0.6048158919364249
-0.1263706078586318,0.6072801643799209
-0.1263656278586318,0.6050543699148294
-0.1263606478586318,0.6061672671473711
-0.1263556678586318,0.6055313258716295
-0.1263506878586318,0.6076776276772544
-0.1263457078586318,0.6044979212985522
-0.1263407278586318,0.6077571203367161
-0.1263357478586318,0.6044979212985464
-0.1263307678586318,0.6050543699148193
-0.1263257878586318,0.6040209653417393
-0.1263208078586318,0.6068032084231088
-0.1263158278586318,0.6030670534281252
-0.1263108478586318,0.606564730444704
-0.1263058678586318,0.6022721268334459
-0.1263008878586318,0.6017951708766406
-0.1262959078586318,0.6002053176872886
-0.1262909278586318,0.6017156782171718
-0.1262859478586318,0.6000463323683531
-0.1262809678586318,0.6009207516224934
-0.1262759878586318,0.5963101773733668
-0.1262710078586318,0.5994103910926043
-0.1262660278586318,0.597661552584315
-0.1262610478586318,0.5951177874813499
-0.1262560678586318,0.5973435819464363
-0.1262510878586318,0.5990129277952589
-0.1262461078586318,0.6014772002387683
-0.1262411278586318,0.603305531406522
