-20250405-BKP/synth-diodes-2f-1r-in-T10-L10-D10/1kHz5V/scope.csv

#Digilent WaveForms Oscilloscope Acquisition
#Device Name: Discovery3
#Serial Number: SN:210415BD5874
#Date Time: 2025-04-03 18:44:02.606.392.010
#Sample rate: 3.0303e+06Hz
#Samples: 32768
#Trigger: Source: Channel 1 Type: Edge Condition: Rising Level: 0 V Hyst.: Auto HoldOff: 0 s
#Channel 1: Range: 200 mV/div Offset: 0 V Sample Mode: Average
#Wavegen Channel 1: Running
#Mode: Simple
#Type: Sine
#Frequency: 1 kHz
#Period: 1 ms
#Amplitude: 5 V
#Offset: 0 V
#Symmetry: 50 %
#Phase: 0 °

Time (s),Channel 1 (V)
-0.004345907840436218,0.006236166143547027
-0.004345577840436217,0.006713122100350625
-0.004345247840436217,0.004805298273125822
-0.004344917840436217,0.004805298273125822
-0.004344587840436218,0.005202761570465045
-0.004344257840436217,0.003692401040575707
-0.004343927840436217,0.003533415721640306
-0.004343597840436217,0.003294937743236772
-0.004343267840436218,0.002182040510686946
-0.004342937840436217,0.003056459764832082
-0.004342607840436217,0.002420518489090481
-0.004342277840436217,0.003056459764833238
-0.004341947840436218,0.003851386359510239
-0.004341617840436217,0.002897474445900875
-0.004341287840436217,0.004725805613657977
-0.004340957840436217,0.003612908381108151
-0.004340627840436218,0.004089864337914352
-0.004340297840436217,0.004964283592061512
-0.004339967840436217,0.003612908381108151
-0.004339637840436218,0.004805298273125822
-0.004339307840436218,0.004964283592061223
-0.004338977840436217,0.005043776251529356
-0.004338647840436217,0.007031092738225474
-0.004338317840436218,0.00679261475982194
-0.004337987840436218,0.008382467949175942
-0.004337657840436217,0.009256887203325126
-0.004337327840436217,0.008938916565453748
-0.004336997840436218,0.01068775507374633
-0.004336667840436217,0.01052876975481194
-0.004336337840436217,0.01124420369002124
-0.004336007840436217,0.01195963762523185
-0.004335677840436218,0.01108521837108556
-0.004335347840436217,0.01180065230629616
-0.004335017840436217,0.01180065230629616
-0.004334687840436217,0.01084674039268202
-0.004334357840436218,0.01021079911693926
-0.004334027840436217,0.001148635937582697
-0.004333697840436217,-0.01109323362044312
-0.004333367840436217,-0.0174526463778707
-0.004333037840436218,-0.0215067720107234
-0.004332707840436217,-0.02277865456221976
-0.004332377840436217,-0.02468647838944457
-0.004332047840436217,-0.02627633157880146
-0.004331717840436218,-0.02556089764359216
-0.004331387840436217,-0.02707125817347991
-0.004331057840436217,-0.02603785360039793
-0.004330727840436218,-0.02595836094093008
-0.004330397840436218,-0.02619683891933318
-0.004330067840436217,-0.02452749307050888
-0.004329737840436217,-0.02532241966518732
-0.004329407840436218,-0.02476597104891241
-0.004329077840436218,-0.02420952243263851
-0.004328747840436217,-0.02484546370838026
-0.004328417840436217,-0.02381205913529828
-0.004328087840436218,-0.02357358115689474
-0.004327757840436217,-0.02381205913529596
-0.004327427840436217,-0.02254017658381276
-0.004327097840436217,-0.02333510317849121
-0.004326767840436218,-0.02254017658381276
-0.004326437840436217,-0.02214271328647296
-0.004326107840436217,-0.02182474264860216
-0.004325777840436217,-0.02190423530807
-0.004325447840436218,-0.02230169860540851
-0.004325117840436217,-0.02142727935126163
-0.004324787840436217,-0.02071184541605233
-0.004324457840436217,-0.02095032339445587
-0.004324127840436218,-0.02015539679977887
-0.004323797840436217,-0.0206323527565842
-0.004323467840436217,-0.0204733674376488
-0.004323137840436217,-0.01983742616190604
-0.004322807840436218,-0.01975793350243834
-0.004322477840436217,-0.01904249956722759
-0.004322147840436217,-0.01896300690775975
-0.004321817840436218,-0.01864503626988837
-0.004321487840436218,-0.01761163169680827
-0.004321157840436217,-0.01721416839946717
-0.004320827840436217,-0.01570380786957811
-0.004320497840436218,-0.01530634457223889
-0.004320167840436217,-0.01482938861543153
-0.004319837840436217,-0.01467040329649613
-0.004319507840436217,-0.01538583723170674
-0.004319177840436218,-0.01697569042106363
-0.004318847840436217,-0.02524292700573466
-0.004318517840436217,-0.03358965624984317
-0.004318187840436217,-0.03891566443418877
-0.004317857840436218,-0.04376471666172729
-0.004317527840436217,-0.04599051112683027
-0.004317197840436217,-0.04781884229458738
-0.004316867840436217,-0.04909072484607289
-0.004316537840436218,-0.0497266661218145
-0.004316207840436217,-0.05068057803542834
-0.004315877840436217,-0.04988565144075134
-0.004315547840436217,-0.05139601197064039
-0.004315217840436218,-0.05139601197064039
-0.004314887840436217,-0.04980615878128538
-0.004314557840436217,-0.05083956335436549
-0.004314227840436217,-0.05028311473809056
-0.004313897840436218,-0.04948818814341356
-0.004313567840436217,-0.05036260739755841
-0.004313237840436217,-0.04845478357033013
-0.004312907840436218,-0.04885224686766935
-0.004312577840436218,-0.04789833495405696
-0.004312247840436217,-0.04686493038097324
-0.004311917840436217,-0.04694442304044109
-0.004311587840436218,-0.04511609187268066
-0.004311257840436217,-0.04503659921321267
-0.004310927840436217,-0.04495710655374498
-0.004310597840436217,-0.04344674602385593
-0.004310267840436218,-0.04376471666172729
-0.004309937840436217,-0.04281080474811374
-0.004309607840436217,-0.04312877538598454
-0.004309277840436217,-0.042890297407581
-0.004308947840436218,-0.04169790751556333
-0.004308617840436217,-0.04233384879130523
-0.004308287840436217,-0.04185689283449903
-0.004307957840436217,-0.04193638549396687
-0.004307627840436218,-0.04225435613183768
-0.004307297840436217,-0.04098247358035244
-0.004306967840436217,-0.04082348826141705
-0.004306637840436217,-0.04114145889928843
-0.004306307840436218,-0.03986957634780523
-0.004305977840436217,-0.04066450294248136
-0.004305647840436217,-0.03994906900727076
-0.004305317840436217,-0.03955160570993153
-0.004304987840436218,-0.04034653230460854
-0.004304657840436217,-0.04185689283449903
-0.004304327840436217,-0.04909072484607289
-0.004303997840436218,-0.05688100547392168
-0.004303667840436218,-0.06268396961506378
-0.004303337840436217,-0.06753302184261287
-0.004303007840436217,-0.06856642641569485
-0.004302677840436218,-0.07063323556185881
-0.004302347840436217,-0.07150765481600554
-0.004302017840436217,-0.07174613279440864
-0.004301687840436217,-0.07301801534589415
-0.004301357840436218,-0.07246156672961925
-0.004301027840436217,-0.07238207407015212
-0.004300697840436217,-0.07277953736749063
-0.004300367840436217,-0.07150765481600511
-0.004300037840436218,-0.07246156672961925
-0.004299707840436217,-0.07158714747547223
-0.004299377840436217,-0.07118968417813373
-0.004299047840436217,-0.07134866949706942
-0.004298717840436218,-0.07023577226452161
-0.004298387840436217,-0.06967932364824526
-0.004298057840436217,-0.06999729428611606
-0.004297727840436217,-0.0693613530103733
-0.004297397840436218,-0.0700767869455826
-0.004297067840436217,-0.06944084566984114
-0.004296737840436217,-0.06904338237250192
-0.004296407840436217,-0.06872541173463055
-0.004296077840436218,-0.06848693375622744
-0.004295747840436217,-0.06785099248048425
-0.004295417840436217,-0.06777149982101641
-0.004295087840436218,-0.06681758790740228
-0.004294757840436218,-0.06602266131272527
-0.004294427840436217,-0.06562519801538461
-0.004294097840436217,-0.06506874939910968
-0.004293767840436218,-0.064909764080174
-0.004293437840436217,-0.06411483748549353
-0.004293107840436217,-0.06300194025294573
-0.004292777840436217,-0.06284295493401003
-0.004292447840436218,-0.06268396961507434
-0.004292117840436217,-0.06180955036092675
-0.004291787840436217,-0.06109411642571745
-0.004291457840436217,-0.06101462376624961
-0.004291127840436218,-0.06093513110678175
-0.004290797840436217,-0.06045817514997353
-0.004290467840436217,-0.05982223387423194
-0.004290137840436217,-0.06006071185263546
-0.004289807840436218,-0.06157107238252177
-0.004289477840436217,-0.06896388971305056
-0.004289147840436217,-0.07802605289236837
-0.004288817840436217,-0.08303409043884259
-0.004288487840436218,-0.0862932894770183
-0.004288157840436217,-0.08899603989893094
-0.004287827840436217,-0.08987045915307725
-0.004287497840436218,-0.0919372682992412
-0.004287167840436218,-0.0921757462776443
-0.004286837840436217,-0.09138081968296628
-0.004286507840436217,-0.09273219489391965
-0.004286177840436218,-0.09209625361817689
-0.004285847840436218,-0.09241422425604769
-0.004285517840436217,-0.0919372682992412
-0.004285187840436217,-0.09058589308828784
-0.004284857840436218,-0.09098335638562706
-0.004284527840436217,-0.08907553255839749
-0.004284197840436217,-0.08836009862318819
-0.004283867840436217,-0.0889165472394631
-0.004283537840436218,-0.08724720139063837
-0.004283207840436217,-0.08708821607170224
-0.004282877840436217,-0.08684973809329914
-0.004282547840436217,-0.08549836288234577
-0.004282217840436218,-0.0860548114986207
-0.004281887840436217,-0.08470343628766674
-0.004281557840436217,-0.08438546564979596
-0.004281227840436217,-0.08470343628766733
-0.004280897840436218,-0.08295459777937793
-0.004280567840436217,-0.08406749501192386
-0.004280237840436217,-0.08367003171458536
-0.004279907840436217,-0.08247764182256768
-0.004279577840436218,-0.08374952437405088
-0.004279247840436217,-0.08208017852522846
-0.004278917840436217,-0.08263662714150337
-0.004278587840436218,-0.08239814916309983
-0.004278257840436218,-0.08072880331427813
-0.004277927840436217,-0.08200068586576061
-0.004277597840436217,-0.08120575927108216
-0.004277267840436218,-0.08041083267640371
-0.004276937840436218,-0.08136474459001612
-0.004276607840436217,-0.0791389501249182
-0.004276277840436217,-0.08033134001693587
-0.004275947840436218,-0.07985438406012881
-0.004275617840436217,-0.07897996480599119
-0.004275287840436217,-0.0837495243740532
-0.004274957840436217,-0.08923451787733448
-0.004274627840436218,-0.09559393063476206
-0.004274297840436217,-0.1001250122244324
-0.004273967840436217,-0.1018738507327218
-0.004273637840436217,-0.1044971084951607
-0.004273307840436218,-0.1046560938140961
-0.004272977840436217,-0.1054510204087773
-0.004272647840436217,-0.1068023956197282
-0.004272317840436217,-0.1056100057277105
-0.004271987840436218,-0.1064844249818552
-0.004271657840436217,-0.1066434103007906
-0.004271327840436217,-0.1056100057277105
-0.004270997840436217,-0.1067229029602603
-0.004270667840436218,-0.1055305130682448
-0.004270337840436217,-0.105371527749307
-0.004270007840436217,-0.1062459470034532
-0.004269677840436218,-0.1046560938140964
-0.004269347840436218,-0.1053715277493057
-0.004269017840436217,-0.1042586305167571
-0.004268687840436217,-0.1027482699868681
-0.004268357840436218,-0.1040996451978214
-0.004268027840436217,-0.1027482699868675
-0.004267697840436217,-0.1024302993489967
-0.004267367840436217,-0.1023508066895289
-0.004267037840436218,-0.1010789241380433
-0.004266707840436217,-0.1010789241380407
-0.004266377840436217,-0.09964805626762215
-0.004266047840436217,-0.09909160765134722
-0.004265717840436218,-0.09933008562975076
-0.004265387840436217,-0.09734276914305363
-0.004265057840436217,-0.09678632052677973
-0.004264727840436217,-0.0965478425483762
-0.004264397840436218,-0.0954349453158284
-0.004264067840436217,-0.0955939306347596
-0.004263737840436217,-0.0942425554238087
-0.004263407840436217,-0.09376559946700162
-0.004263077840436218,-0.09464001872114633
-0.004262747840436217,-0.09312965819125887
-0.004262417840436217,-0.09376559946700162
-0.004262087840436217,-0.09273219489391965
-0.004261757840436218,-0.09161929766137185
-0.004261427840436217,-0.09257320957498395
-0.004261097840436217,-0.09305016553179103
-0.004260767840436218,-0.09940957828921861
-0.004260437840436218,-0.1079152928522625
-0.004260107840436217,-0.1116514478472667
-0.004259777840436217,-0.114036227631302
-0.004259447840436218,-0.1147516615665126
-0.004259117840436217,-0.1164210074153384
-0.004258787840436217,-0.1169774560316123
-0.004258457840436217,-0.1161825294369338
-0.004258127840436218,-0.1166594853937409
-0.004257797840436217,-0.1162620220964005
-0.004257467840436217,-0.1156260808206589
-0.004257137840436217,-0.1153876028422554
-0.004256807840436218,-0.1139567349718342
-0.004256477840436217,-0.1137977496528959
-0.004256147840436217,-0.1123668817824773
-0.004255817840436217,-0.1114129698688632
-0.004255487840436218,-0.1114129698688632
-0.004255157840436217,-0.1107770285931195
-0.004254827840436217,-0.1103000726363133
-0.004254497840436217,-0.1102205799768455
-0.004254167840436218,-0.1091076827442977
-0.004253837840436217,-0.1087102194469564
-0.004253507840436217,-0.1086307267874886
-0.004253177840436217,-0.1077563075333423
-0.004252847840436218,-0.1077563075333423
-0.004252517840436217,-0.1074383368954709
-0.004252187840436217,-0.1074383368954709
-0.004251857840436218,-0.1066434103007925
-0.004251527840436218,-0.106245947003454
-0.004251197840436217,-0.1057689910466462
-0.004250867840436217,-0.1054510204087748
-0.004250537840436218,-0.1055305130682427
-0.004250207840436217,-0.1056100057277092
-0.004249877840436217,-0.1048945717924999
-0.004249547840436217,-0.1040996451978214
-0.004249217840436218,-0.103304718603143
-0.004248887840436217,-0.1029867479652692
-0.004248557840436217,-0.1016353727543183
-0.004248227840436217,-0.1017148654137861
-0.004247897840436218,-0.1004429828623006
-0.004247567840436217,-0.09909160765134752
-0.004247237840436217,-0.09925059297028292
-0.004246907840436217,-0.09837617371613662
-0.004246577840436218,-0.09853515903507203
-0.004246247840436217,-0.09901211499188763
-0.004245917840436217,-0.1035431965815465
-0.004245587840436217,-0.1115719551877988
-0.004245257840436218,-0.1170569486910702
-0.004244927840436217,-0.1206341183671331
-0.004244597840436217,-0.1238138247458469
-0.004244267840436217,-0.1249267219783968
-0.004243937840436218,-0.1258806338920091
-0.004243607840436217,-0.1265165751677536
-0.004243277840436217,-0.1271525164434964
-0.004242947840436218,-0.1275499797408356
-0.004242617840436218,-0.1265960678272232
-0.004242287840436217,-0.1267550531461572
-0.004241957840436217,-0.1266755604866893
-0.004241627840436218,-0.1259601265514787
-0.004241297840436217,-0.1262780971893482
-0.004240967840436217,-0.1252446926162681
-0.004240637840436217,-0.1248472293189289
-0.004240307840436218,-0.1251651999568003
-0.004239977840436217,-0.1237343320863766
-0.004239647840436217,-0.1223829568754257
-0.004239317840436217,-0.1215085376212794
-0.004238987840436218,-0.1205546257076653
-0.004238657840436217,-0.120236655069792
-0.004238327840436217,-0.1192032504967119
-0.004237997840436217,-0.1188057871993727
-0.004237667840436218,-0.1188852798588404
-0.004237337840436217,-0.118090353264162
-0.004237007840436217,-0.1180108606046943
-0.004236677840436217,-0.1169774560316123
-0.004236347840436218,-0.1161825294369353
-0.004236017840436217,-0.1165005000748052
-0.004235687840436217,-0.1152286175233197
-0.004235357840436218,-0.1149106468854483
-0.004235027840436218,-0.1157055734801253
-0.004234697840436217,-0.1149901395449162
-0.004234367840436217,-0.1147516615665126
-0.004234037840436218,-0.1137977496528985
-0.004233707840436218,-0.1135592716744954
-0.004233377840436217,-0.1134797790150271
-0.004233047840436217,-0.1129233303987522
-0.004232717840436218,-0.1129233303987522
-0.004232387840436217,-0.1122078964635407
-0.004232057840436217,-0.1117309405067345
-0.004231727840436217,-0.1141157202907699
-0.004231397840436218,-0.1196007137940512
-0.004231067840436217,-0.1273115017624379
-0.004230737840436217,-0.1304912081411459
-0.004230407840436217,-0.13144512005476
-0.004230077840436218,-0.1335914218603879
-0.004229747840436217,-0.134624826433475
-0.004229417840436217,-0.1352607677092166
-0.004229087840436217,-0.1351812750497487
-0.004228757840436218,-0.1353402603686841
-0.004228427840436217,-0.1347838117524096
-0.004228097840436217,-0.1348633044118773
-0.004227767840436217,-0.1346248264334738
-0.004227437840436218,-0.1337504071793291
-0.004227107840436217,-0.1338298998387953
-0.004226777840436217,-0.1337504071793275
-0.004226447840436218,-0.1330349732441169
-0.004226117840436218,-0.1326375099467784
-0.004225787840436217,-0.1320015686710349
-0.004225457840436217,-0.1319220760115671
-0.004225127840436218,-0.1317630906926314
-0.004224797840436218,-0.1308886714384867
-0.004224467840436217,-0.1301732375032745
-0.004224137840436217,-0.1301732375032745
-0.004223807840436218,-0.1290603402707247
-0.004223477840436217,-0.1283449063355126
-0.004223147840436217,-0.1275499797408356
-0.004222817840436217,-0.1273115017624321
-0.004222487840436218,-0.126834545805625
-0.004222157840436217,-0.1250857072973316
-0.004221827840436217,-0.1246087513405254
-0.004221497840436217,-0.1237343320863791
-0.004221167840436218,-0.1237343320863791
-0.004220837840436217,-0.123098390810634
-0.004220507840436217,-0.1218265082591508
-0.004220177840436217,-0.1219060009186187
-0.004219847840436218,-0.1215085376212802
-0.004219517840436217,-0.1213495523023442
-0.004219187840436217,-0.1215880302807473
-0.004218857840436217,-0.12222397155649
-0.004218527840436218,-0.1225419421943608
-0.004218197840436217,-0.1230983908106363
-0.004217867840436217,-0.1219854935780865
-0.004217537840436218,-0.1224624495348936
-0.004217207840436218,-0.1219854935780874
-0.004216877840436217,-0.1210315816644724
-0.004216547840436217,-0.126357589848818
-0.004216217840436218,-0.1320810613305028
-0.004215887840436217,-0.1385199667474051
-0.004215557840436217,-0.1423356144018547
-0.004215227840436217,-0.143766482272276
-0.004214897840436218,-0.1460717693968434
-0.004214567840436217,-0.1465487253536517
-0.004214237840436217,-0.1471846666293933
-0.004213907840436217,-0.1479001005646039
-0.004213577840436218,-0.1467077106725862
-0.004213247840436217,-0.1476616225861982
-0.004212917840436217,-0.1464692326941827
-0.004212587840436217,-0.1443229308885509
-0.004212257840436218,-0.1440844529101478
-0.004211927840436217,-0.1421766290829179
-0.004211597840436217,-0.1415406878071763
-0.004211267840436217,-0.1405072832340943
-0.004210937840436218,-0.1392354006826111
-0.004210607840436217,-0.1387584447258017
-0.004210277840436217,-0.1375660548337841
-0.004209947840436217,-0.137089098876977
-0.004209617840436218,-0.1383609814284602
-0.004209287840436217,-0.1374070695148484
-0.004208957840436217,-0.1378045328121876
-0.004208627840436218,-0.1368506208985734
-0.004208297840436218,-0.1364531576012349
-0.004207967840436217,-0.1372480841959127
-0.004207637840436217,-0.1362146796228307
-0.004207307840436218,-0.1355787383470879
-0.004206977840436217,-0.1351017823902783
-0.004206647840436217,-0.1336709145198597
-0.004206317840436217,-0.1343863484550703
-0.004205987840436218,-0.1333529438819883
-0.004205657840436217,-0.1332734512225214
-0.004205327840436217,-0.1338298998387953
-0.004204997840436217,-0.132478524627842
-0.004204667840436218,-0.1320810613305028
-0.004204337840436217,-0.1312066420763545
-0.004204007840436217,-0.1300937448438066
-0.004203677840436217,-0.1304912081411459
-0.004203347840436218,-0.1293783109085981
-0.004203017840436217,-0.1284243989949834
-0.004202687840436217,-0.1292193255896604
-0.004202357840436217,-0.13144512005476
-0.004202027840436218,-0.1420176437639641
-0.004201697840436217,-0.1453563354616328
-0.004201367840436217,-0.147343651948329
-0.004201037840436217,-0.1492514757755572
-0.004200707840436218,-0.1493309684350249
-0.004200377840436217,-0.1505233583270427
-0.004200047840436217,-0.1510798069433177
-0.004199717840436218,-0.1503643730081071
-0.004199387840436218,-0.1513182849217194
-0.004199057840436217,-0.1498079243918321
-0.004198727840436217,-0.1496489390728964
-0.004198397840436218,-0.1498874170513
-0.004198067840436217,-0.1486155344998155
-0.004197737840436217,-0.1491719831160894
-0.004197407840436217,-0.1486950271592823
-0.004197077840436218,-0.1475821299267325
-0.004196747840436217,-0.1483770565214075
-0.004196417840436217,-0.1464692326941827
-0.004196087840436217,-0.1462307547157791
-0.004195757840436218,-0.1458332914184399
-0.004195427840436217,-0.1443229308885501
-0.004195097840436217,-0.1439254675912116
-0.004194767840436217,-0.1428920630181297
