real-diodes-in-T10-L10-D00/1kHz200mV/scope.csv

#Digilent WaveForms Oscilloscope Acquisition
#Device Name: Discovery3
#Serial Number: SN:210415BD5874
#Date Time: 2025-04-03 15:53:46.830.222.980
#Sample rate: 3.33333e+06Hz
#Samples: 32768
#Trigger: Source: Channel 1 Type: Edge Condition: Rising Level: 0 V Hyst.: Auto HoldOff: 0 s
#Channel 1: Range: 200 mV/div Offset: 0 V Sample Mode: Average
#Wavegen Channel 1: Running
#Mode: Simple
#Type: Sine
#Frequency: 1 kHz
#Period: 1 ms
#Amplitude: 200 mV
#Offset: 0 V
#Symmetry: 50 %
#Phase: 0 °

Time (s),Channel 1 (V)
0.002654691018250762,-0.5732653213770409
0.002654991018250762,-0.5734243066959767
0.002655291018250762,-0.5732653213770409
0.002655591018250762,-0.5712780048903449
0.002655891018250762,-0.5711190195714091
0.002656191018250762,-0.5690522104252451
0.002656491018250762,-0.5682572838305682
0.002656791018250762,-0.5679393131926959
0.002657091018250761,-0.5668264159601475
0.002657391018250761,-0.5654750407491946
0.002657691018250762,-0.5661109820249325
0.002657991018250762,-0.5647596068139786
0.002658291018250762,-0.5631697536246245
0.002658591018250762,-0.5630902609651568
0.002658891018250762,-0.5607054811811215
0.002659191018250762,-0.5603875105432501
0.002659491018250762,-0.5602285252243144
0.002659791018250762,-0.558877150013361
0.002660091018250762,-0.5584796867160218
0.002660391018250762,-0.5580822234186826
0.002660691018250762,-0.55633338491039
0.002660991018250762,-0.5560949069319865
0.002661291018250762,-0.5556179509751794
0.002661591018250762,-0.5551409950183723
0.002661891018250762,-0.5549025170399688
0.002662191018250762,-0.5540280977858241
0.002662491018250761,-0.5524382445964685
0.002662791018250761,-0.5517228106612564
0.002663091018250762,-0.5498944794934912
0.002663391018250762,-0.5480661483257334
0.002663691018250762,-0.5476686850283939
0.002663991018250762,-0.5471122364121166
0.002664291018250762,-0.5452044125848917
0.002664591018250762,-0.5447274566280846
0.002664891018250762,-0.5430581107792599
0.002665191018250762,-0.5411502869520317
0.002665491018250762,-0.5406733309952246
0.002665791018250762,-0.5393219557842712
0.002666091018250762,-0.5382090585517214
0.002666391018250762,-0.5379705805733179
0.002666691018250762,-0.5375731172759787
0.002666991018250762,-0.536380727383961
0.002667291018250762,-0.5355858007892825
0.002667591018250762,-0.5347113815351379
0.002667891018250762,-0.5329625430268469
0.002668191018250761,-0.5325650797295052
0.002668491018250761,-0.5324855870700367
0.002668791018250762,-0.531770153134825
0.002669091018250762,-0.5312137045185489
0.002669391018250762,-0.530021314626532
0.002669691018250762,-0.529226388031855
0.002669991018250762,-0.52866993941558
0.002670291018250762,-0.5276365348424981
0.002670591018250762,-0.5272390715451588
0.002670891018250762,-0.5276365348424981
0.002671191018250762,-0.5273980568640946
0.002671491018250762,-0.5263646522910126
0.002671791018250762,-0.5266826229288839
0.002672091018250762,-0.5252517550584628
0.002672391018250762,-0.5239003798475094
0.002672691018250762,-0.5229464679338952
0.002672991018250762,-0.5219130633608132
0.002673291018250762,-0.5200847321930562
0.002673591018250761,-0.5199257468741175
0.002673891018250761,-0.5177794450684892
0.002674191018250762,-0.5161100992196581
0.002674491018250762,-0.5147587240087048
0.002674791018250762,-0.5134073487977511
0.002675091018250762,-0.5118969882678638
0.002675391018250762,-0.5113405396515899
0.002675691018250762,-0.5092737305054259
0.002675991018250762,-0.5080813406134083
0.002676291018250762,-0.5077633699755369
0.002676591018250762,-0.5057760534888408
0.002676891018250762,-0.5050606195536301
0.002677191018250762,-0.5050606195536301
0.002677491018250762,-0.5028348250885305
0.002677791018250762,-0.5022783764722556
0.002678091018250762,-0.5014039572181094
0.002678391018250762,-0.4998141040287524
0.002678691018250762,-0.4990986700935431
0.002678991018250762,-0.4985422214772679
0.002679291018250761,-0.4964754123311067
0.002679591018250761,-0.496713890309506
0.002679891018250762,-0.4959984563742932
0.002680191018250762,-0.4944880958444071
0.002680491018250762,-0.4946470811633396
0.002680791018250762,-0.4930572279739856
0.002681091018250762,-0.4920238234009037
0.002681391018250762,-0.4919443307414358
0.002681691018250762,-0.489798028935804
0.002681991018250762,-0.4888441170221899
0.002682291018250762,-0.488764624362722
0.002682591018250762,-0.4871747711733651
0.002682891018250762,-0.4855054253245404
0.002683191018250762,-0.4853464400056047
0.002683491018250762,-0.4835181088378442
0.002683791018250762,-0.4825641969242301
0.002684091018250762,-0.4817692703295517
0.002684391018250762,-0.4793844905455207
0.002684691018250761,-0.4789075345887102
0.002684991018250761,-0.4776356520372261
0.002685291018250762,-0.4764432621452047
0.002685591018250762,-0.4756483355505264
0.002685891018250762,-0.4749329016153133
0.002686191018250762,-0.4728660924691531
0.002686491018250762,-0.4729455851286209
0.002686791018250762,-0.4719121805555389
0.002687091018250762,-0.4707197906635213
0.002687391018250762,-0.4704018200256499
0.002687691018250762,-0.4687324741768251
0.002687991018250762,-0.4675400842848075
0.002688291018250762,-0.467778562263211
0.002688591018250762,-0.4660297237549184
0.002688891018250762,-0.4651553045007721
0.002689191018250762,-0.4644398705655615
0.002689491018250762,-0.4634859586519474
0.002689791018250762,-0.4631679880140765
0.002690091018250762,-0.4620550907815282
0.002690391018250761,-0.4609421935489784
0.002690691018250761,-0.4603062522732348
0.002690991018250762,-0.4589548770622792
0.002691291018250762,-0.4583984284460029
0.002691591018250762,-0.4570470532350501
0.002691891018250762,-0.45601364866197
0.002692191018250762,-0.4550597367483559
0.002692491018250762,-0.4541853174942095
0.002692791018250762,-0.4522774936669813
0.002693091018250762,-0.4517210450507064
0.002693391018250762,-0.4510851037749636
0.002693691018250762,-0.4497337285640103
0.002693991018250762,-0.4492567726072032
0.002694291018250762,-0.4475079340989106
0.002694591018250762,-0.4460770662284894
0.002694891018250762,-0.4456001102716823
0.002695191018250762,-0.4440102570823254
0.002695491018250762,-0.4442487350607285
0.002695791018250761,-0.443453808466052
0.002696091018250761,-0.442261418574035
0.002696391018250762,-0.4417049699577567
0.002696691018250762,-0.4409895360225443
0.002696991018250762,-0.4393201901737231
0.002697291018250762,-0.439638160811594
0.002697591018250762,-0.4393201901737226
0.002697891018250762,-0.4378893223033014
0.002698191018250762,-0.4374123663464943
0.002698491018250762,-0.4367764250707515
0.002698791018250762,-0.4353455572003304
0.002699091018250762,-0.4345506306056519
0.002699391018250762,-0.4337557040109735
0.002699691018250762,-0.4324043288000201
0.002699991018250762,-0.4320863581621487
0.002700291018250762,-0.430893968270131
0.002700591018250762,-0.4297015783781134
0.002700891018250762,-0.4289861444429041
0.002701191018250762,-0.4274757839130164
0.002701491018250761,-0.4258859307236597
0.002701791018250761,-0.4260449160425923
0.002702091018250762,-0.4242165848748311
0.002702391018250762,-0.4236601362585558
0.002702691018250762,-0.4228652096638759
0.002702991018250762,-0.4212753564745219
0.002703291018250762,-0.4213548491339897
0.002703591018250762,-0.4198444886041006
0.002703891018250762,-0.4184136207336794
0.002704191018250762,-0.4180956500958081
0.002704491018250762,-0.4174597088200653
0.002704791018250762,-0.4154723923333692
0.002705091018250762,-0.4157903629712406
0.002705391018250762,-0.414518480419755
0.002705691018250762,-0.4136440611656088
0.002705991018250762,-0.414041524462948
0.002706291018250762,-0.413008119889866
0.002706591018250762,-0.4118952226573181
0.002706891018250761,-0.4114977593599777
0.002707191018250761,-0.4099079061706229
0.002707491018250762,-0.4088745015975388
0.002707791018250762,-0.4092719648948731
0.002708091018250762,-0.4069666777703096
0.002708391018250762,-0.4068871851108419
0.002708691018250762,-0.4070461704297776
0.002708991018250762,-0.4044229126673388
0.002709291018250762,-0.4039459567105317
0.002709591018250762,-0.4030715374563854
0.002709891018250762,-0.4010842209696893
0.002710191018250762,-0.4006867576723501
0.002710491018250762,-0.3999713237371395
0.002710791018250762,-0.3985404558667183
0.002711091018250762,-0.3983814705477826
0.002711391018250762,-0.3979840072504434
0.002711691018250762,-0.3959966907637472
0.002711991018250762,-0.3966326320394888
0.002712291018250761,-0.3940888669365236
0.002712591018250761,-0.3932144476823743
0.002712891018250761,-0.3938503889581143
0.002713191018250762,-0.3917835798119494
0.002713491018250762,-0.3906706825794042
0.002713791018250762,-0.3921015504498186
0.002714091018250762,-0.3897962633252554
0.002714391018250762,-0.3895577853468518
0.002714691018250762,-0.3905116972604659
0.002714991018250762,-0.3885243807737698
0.002715291018250762,-0.3878884394980271
0.002715591018250762,-0.3881269174764306
0.002715891018250762,-0.3859011230113309
0.002716191018250762,-0.3857421376923952
0.002716491018250762,-0.3852651817355882
0.002716791018250762,-0.3831983725894242
0.002717091018250762,-0.3835163432272956
0.002717391018250762,-0.3822444606758101
0.002717691018250762,-0.3809725781243269
0.002717991018250761,-0.3805751148269861
0.002718291018250761,-0.3796212029133729
0.002718591018250762,-0.3781903350429497
0.002718891018250762,-0.3780313497240116
0.002719191018250762,-0.3765209891941238
0.002719491018250762,-0.3757260625994468
0.002719791018250762,-0.3757260625994468
0.002720091018250762,-0.3738977314316864
0.002720391018250762,-0.3733412828154115
0.002720691018250762,-0.3731822974964758
0.002720991018250762,-0.3714334589881832
0.002721291018250762,-0.3714334589881832
0.002721591018250762,-0.371035995690844
0.002721891018250762,-0.3692076645230836
0.002722191018250762,-0.3695256351609549
0.002722491018250762,-0.3693666498420192
0.002722791018250762,-0.3675383186742588
0.002723091018250762,-0.3675383186742588
0.002723391018250761,-0.3669023773985172
0.002723691018250761,-0.3657099875065006
0.002723991018250761,-0.3661074508038369
0.002724291018250762,-0.3648355682523505
0.002724591018250762,-0.3639611489982065
0.002724891018250762,-0.3643586122955428
0.002725191018250762,-0.3631662224035274
0.002725491018250762,-0.3619738325115097
0.002725791018250762,-0.3615763692141705
0.002726091018250762,-0.3603044866626849
0.002726391018250762,-0.3589531114517316
0.002726691018250762,-0.3581581848570531
0.002726991018250762,-0.356727316986632
0.002727291018250762,-0.3564093463487605
0.002727591018250762,-0.3560118830514213
0.002727891018250762,-0.3548989858188715
0.002728191018250762,-0.3544220298620644
0.002728491018250762,-0.3532296399700467
0.002728791018250762,-0.3521167427374989
0.002729091018250761,-0.3518782647590938
0.002729391018250761,-0.3507653675265456
0.002729691018250762,-0.3500499335913331
0.002729991018250762,-0.3501294262507984
0.002730291018250762,-0.348778051039846
0.002730591018250762,-0.347983124445169
0.002730891018250762,-0.3480626171046369
0.002731191018250762,-0.3471881978504906
0.002731491018250762,-0.34647276391528
0.002731791018250762,-0.3458368226395372
0.002732091018250762,-0.3450418960448587
0.002732391018250762,-0.3446444327475195
0.002732691018250762,-0.3443264621096482
0.002732991018250762,-0.3439289988123089
0.002733291018250762,-0.3436110281744376
0.002733591018250762,-0.3429750868986948
0.002733891018250762,-0.342339145622952
0.002734191018250762,-0.3416237116877427
0.002734491018250761,-0.3410672630714675
0.002734791018250761,-0.3405903071146604
0.002735091018250762,-0.3396363952010413
0.002735391018250762,-0.3374106007359455
0.002735691018250762,-0.3373311080764769
0.002735991018250762,-0.3368541521196672
0.002736291018250762,-0.3349463282924425
0.002736591018250762,-0.335184806270846
0.002736891018250762,-0.3336744457409569
0.002737191018250762,-0.3325615485084071
0.002737491018250762,-0.3325615485084071
0.002737791018250762,-0.3316871292542609
0.002738091018250762,-0.3304152467027753
0.002738391018250762,-0.330574232021711
0.002738691018250762,-0.3292228568107577
0.002738991018250762,-0.3284279302160792
0.002739291018250762,-0.3291433641512898
0.002739591018250762,-0.3272355403240615
0.002739891018250762,-0.3268380770267231
0.002740191018250761,-0.3266790917077869
0.002740491018250761,-0.3253277164968357
0.002740791018250762,-0.3250892385184302
0.002741091018250762,-0.3253277164968294
0.002741391018250762,-0.3231814146912024
0.002741691018250762,-0.3236583706480085
0.002741991018250762,-0.3237378633074764
0.002742291018250762,-0.3221480101181195
0.002742591018250762,-0.3225454734154587
0.002742891018250762,-0.3220685174586516
0.002743191018250762,-0.3200017083124877
0.002743491018250762,-0.320876127566634
0.002743791018250762,-0.3194452596962128
0.002744091018250762,-0.3180143918257916
0.002744391018250762,-0.3191272890583414
0.002744691018250762,-0.316742509274306
0.002744991018250762,-0.3155501193822884
0.002745291018250762,-0.3162655533174977
0.002745591018250761,-0.3146757001281449
0.002745891018250761,-0.3138807735334651
0.002746191018250762,-0.3143577294902665
0.002746491018250762,-0.3120524423657032
0.002746791018250762,-0.312052442365703
0.002747091018250762,-0.3118934570467654
0.002747391018250762,-0.3107010671547498
0.002747691018250762,-0.3099856332195393
0.002747991018250762,-0.3099061405600714
0.002748291018250762,-0.3079983167328431
0.002748591018250762,-0.3084752726896502
0.002748891018250762,-0.3083162873707145
0.002749191018250762,-0.3066469415218898
0.002749491018250762,-0.3078393314139075
0.002749791018250762,-0.3062494782245506
0.002750091018250762,-0.3056135369488078
0.002750391018250762,-0.3065674488624219
0.002750691018250762,-0.3046596250351937
0.002750991018250762,-0.3037057131215812
0.002751291018250761,-0.3049775956730627
0.002751591018250761,-0.3025133232295663
0.002751891018250762,-0.3024338305700938
0.002752191018250762,-0.3023543379106228
0.002752491018250762,-0.3005260067428659
0.002752791018250762,-0.3006054994023336
0.002753091018250762,-0.3000490507860586
0.002753391018250762,-0.2980617342993626
0.002753691018250762,-0.297823256320959
0.002753991018250762,-0.2981412269588304
0.002754291018250762,-0.2963923884505378
0.002754591018250762,-0.2962334031316021
0.002754891018250762,-0.2960744178126664
0.002755191018250762,-0.2944845646233095
0.002755491018250762,-0.2949615205801166
0.002755791018250762,-0.2936896380286311
0.002756091018250762,-0.2931331894123562
0.002756391018250762,-0.2928947114339531
0.002756691018250761,-0.2917818142014048
0.002756991018250761,-0.2913048582445966
0.002757291018250762,-0.2909868876067231
0.002757591018250762,-0.2902714536715137
0.002757891018250762,-0.2902714536715127
0.002758191018250762,-0.2897150050552372
0.002758491018250762,-0.2888405858010926
0.002758791018250762,-0.2887610931416247
0.002759091018250762,-0.2882046445253498
0.002759391018250762,-0.2877276885685427
0.002759691018250762,-0.2874892105901392
0.002759991018250762,-0.2868532693143964
0.002760291018250762,-0.2858198647413144
0.002760591018250762,-0.2858993574007823
0.002760891018250762,-0.2841505188924897
0.002761191018250762,-0.283991533573554
0.002761491018250762,-0.2831966069788756
0.002761791018250762,-0.282481173043665
0.002762091018250762,-0.2818452317679234
0.002762391018250761,-0.2810503051732452
0.002762691018250761,-0.2802553785785667
0.002762991018250762,-0.2802553785785639
0.002763291018250762,-0.2794604519838847
0.002763591018250762,-0.2782680620918685
0.002763891018250762,-0.27787059879453
0.002764191018250762,-0.2769961795403837
0.002764491018250762,-0.2765192235835766
0.002764791018250762,-0.2769961795403837
0.002765091018250762,-0.2750883557131554
0.002765391018250762,-0.2746908924158162
0.002765691018250762,-0.2751678483726233
0.002765991018250762,-0.2734985025237985
0.002766291018250762,-0.2738164731616699
0.002766591018250762,-0.2734985025237985
0.002766891018250762,-0.2726240832696522
0.002767191018250762,-0.2731805318859271
0.002767491018250762,-0.2723061126317824
0.002767791018250761,-0.2715906786965715
0.002768091018250761,-0.2718291566749733
0.002768391018250762,-0.2707162594424234
0.002768691018250762,-0.2703982888045521
0.002768991018250762,-0.2701598108261469
0.002769291018250762,-0.2689674209341304
0.002769591018250762,-0.2684109723178564
0.002769891018250762,-0.2684904649773243
0.002770191018250762,-0.2665031484906282
0.002770491018250762,-0.2665031484906282
0.002770791018250762,-0.2661851778527568
0.002771091018250762,-0.2641978613660607
0.002771391018250762,-0.2649927879607392
0.002771691018250762,-0.2641978613660607
0.002771991018250762,-0.2627669934956395
0.002772291018250762,-0.2629259788145752
0.002772591018250762,-0.2626875008361717
0.002772891018250762,-0.2607001843494755
0.002773191018250762,-0.2616540962630879
0.002773491018250761,-0.259984750414268
0.002773791018250761,-0.2591103311601202
0.002774091018250762,-0.2595872871169242
0.002774391018250762,-0.2587923605222461
0.002774691018250762,-0.258156419246506
0.002774991018250762,-0.258951345841183
0.002775291018250762,-0.2575999706302296
0.002775591018250762,-0.2575204779707617
0.002775891018250762,-0.257917941268101
0.002776191018250762,-0.2559306247814048
0.002776491018250762,-0.2560896101003405
0.002776791018250762,-0.2565665660571476
0.002777091018250762,-0.2557716394624692
0.002777391018250762,-0.2554536688245977
0.002777691018250762,-0.2555331614840656
0.002777991018250762,-0.2541817862731123
0.002778291018250762,-0.2542612789325801
0.002778591018250762,-0.2536253376568385
0.002778891018250761,-0.2518764991485479
0.002779191018250761,-0.2518764991485448
0.002779491018250762,-0.2513200505322681
0.002779791018250762,-0.2503661386186554
0.002780091018250762,-0.250207153299719
0.002780391018250762,-0.2496507046834434
0.002780691018250762,-0.248696792769831
0.002780991018250762,-0.2490147634077023
0.002781291018250762,-0.2479813588346204
0.002781591018250762,-0.2472659248994098
0.002781891018250762,-0.2472659248994098
0.002782191018250762,-0.2463915056452635
0.002782491018250762,-0.2451991157532458
0.002782791018250762,-0.2454375937316493
0.002783091018250762,-0.2440067258612281
0.002783391018250762,-0.2444836818180352
0.002783691018250762,-0.2440067258612281
0.002783991018250762,-0.2429733212881461
0.002784291018250762,-0.2428938286286784
0.002784591018250761,-0.2430528139476137
0.002784891018250761,-0.2418604240555985
0.002785191018250762,-0.2427348433097405
0.002785491018250762,-0.2415424534177247
0.002785791018250762,-0.2413834680987898
0.002786091018250762,-0.2417014387366606
0.002786391018250762,-0.2409065121419822
0.002786691018250762,-0.2408270194825143
0.002786991018250762,-0.2401115855473037
0.002787291018250762,-0.2393166589526253
0.002787591018250762,-0.2395551369310288
0.002787891018250762,-0.2392371662931574
0.002788191018250762,-0.2375678204443327
0.002788491018250762,-0.23693187916859
0.002788791018250762,-0.2362959378928472
0.002789091018250762,-0.2352625333197652
0.002789391018250762,-0.2339906507682797
0.002789691018250762,-0.233116231514135
0.002789991018250761,-0.2322418122599887
0.002790291018250761,-0.2313673930058424
0.002790591018250762,-0.2311289150274364
0.002790891018250762,-0.2306519590706292
0.002791191018250762,-0.230095510454355
0.002791491018250762,-0.2299365251354192
0.002791791018250762,-0.2296980471570161
0.002792091018250762,-0.2291415985407412
0.002792391018250762,-0.2289031205623376
0.002792691018250762,-0.2283466719460627
0.002792991018250762,-0.2277902233297878
0.002793291018250762,-0.2278697159892557
0.002793591018250762,-0.2272337747135129
0.002793891018250762,-0.2267568187567058
0.002794191018250762,-0.2273132673729807
0.002794491018250762,-0.2267568187567058
0.002794791018250762,-0.226677326097238
0.002795091018250762,-0.2272337747135119
0.002795391018250762,-0.2268363114161744
0.002795691018250761,-0.2262003701404321
0.002795991018250761,-0.2273132673729787
0.002796291018250762,-0.2269952967351086
0.002796591018250762,-0.2265978334377711
0.002796891018250762,-0.2271542820540432
0.002797191018250762,-0.2261208774809631
