-20250406-BKP/real-diodes-in-T00-L10-D00/1kHz-1V/scope.csv

#Digilent WaveForms Oscilloscope Acquisition
#Device Name: Discovery3
#Serial Number: SN:210415BD5874
#Date Time: 2025-04-06 18:44:25.614.782.440
#Sample rate: 200803Hz
#Samples: 32768
#Trigger: Source: Channel 1 Type: Edge Condition: Rising Level: 0 V Hyst.: Auto HoldOff: 0 s
#Channel 1: Range: 500 mV/div Offset: 0 V Sample Mode: Average
#Wavegen Channel 1: Running
#Mode: Simple
#Type: Sine
#Frequency: 1 kHz
#Period: 1 ms
#Amplitude: 1 V
#Offset: 0 V
#Symmetry: 50 %
#Phase: 0 °

Time (s),Channel 1 (V)
-0.1287264635122821,0.2613281103758751
-0.1287214835122821,0.2691978836631774
-0.1287165035122821,0.2708672295120044
-0.1287115235122821,0.2721391120634876
-0.1287065435122821,0.2731725166365641
-0.1287015635122821,0.2716621561066805
-0.1286965835122821,0.2719006340850855
-0.1286916035122821,0.2722980973824185
-0.1286866235122821,0.2696748396199892
-0.1286816435122821,0.2699133175983849
-0.1286766635122821,0.2682439717495632
-0.1286716835122821,0.2679260011116771
-0.1286667035122821,0.2638718754788318
-0.1286617235122821,0.2651437580302984
-0.1286567435122821,0.2599767351649002
-0.1286517635122821,0.2560021021915073
-0.1286467835122821,0.2538558003858833
-0.1286418035122821,0.2538558003858833
-0.1286368235122821,0.2520274692181154
-0.1286318435122821,0.247893850925795
-0.1286268635122821,0.2452705931633535
-0.1286218835122821,0.2445551592281455
-0.1286169035122821,0.2417729161467718
-0.1286119235122821,0.2420113941251469
-0.1286069435122821,0.2268282961668437
-0.1286019635122821,0.2289745979724343
-0.1285969835122821,0.2215022879824705
-0.1285920035122821,0.2206278687283193
-0.1285870235122821,0.2179251183064175
-0.1285820435122821,0.2160967871386215
-0.1285770635122821,0.2063191900241122
-0.1285720835122821,0.2118041835273544
-0.1285671035122821,0.201072674499232
-0.1285621235122821,0.1997212992882836
-0.1285571435122821,0.1958261589743571
-0.1285521635122821,0.1960646369527602
-0.1285471835122821,0.1839022600541793
-0.1285422035122821,0.1835047967568408
-0.1285372235122821,0.1714219125177298
-0.1285322435122821,0.1718193758150676
-0.1285272635122821,0.1711039418798231
-0.1285222835122821,0.1618033007221158
-0.1285173035122821,0.1599749695543621
-0.1285123235122821,0.1586235943433705
-0.1285073435122821,0.1394658634116548
-0.1285023635122821,0.1435994817039807
-0.1284973835122821,0.1430430330877078
-0.1284924035122821,0.1268265305562634
-0.1284874235122821,0.1257136333237029
-0.1284824435122821,0.117605382057966
-0.1284774635122821,0.1089406821760014
-0.1284724835122821,0.1083842335597275
-0.1284675035122821,0.1067148877108789
-0.1284625235122821,0.09359859889870836
-0.1284575435122821,0.09336012092024266
-0.1284525635122821,0.07626919913471822
-0.1284475835122821,0.07944890551342101
-0.1284426035122821,0.07642818445362962
-0.1284376235122821,0.06307341766308028
-0.1284326435122821,0.05711146820296908
-0.1284276635122821,0.05790639479764609
-0.1284226835122821,0.0449490913043822
-0.1284177035122821,0.042087355563545
-0.1284127235122821,0.04065648769305785
-0.1284077435122821,0.02253216133445519
-0.1284027635122821,0.02221419069658642
-0.1283977835122821,0.02292962463175972
-0.1283928035122821,0.003851386359546388
-0.1283878235122821,0.00583870284619421
-0.1283828435122821,-0.0016336071437696
-0.1283778635122821,-0.007039107987592006
-0.1283728835122821,-0.009503380431086226
-0.1283679035122821,-0.01276257946931124
-0.1283629235122821,-0.02468647838944255
-0.1283579435122821,-0.02357358115692915
-0.1283529635122821,-0.03303320763356508
-0.1283479835122821,-0.03128436912527568
-0.1283430035122821,-0.03358965624985864
-0.1283380235122821,-0.04209537081290256
-0.1283330435122821,-0.04583152580789647
-0.1283280635122821,-0.04726239367831246
-0.1283230835122821,-0.05847085866328811
-0.1283181035122821,-0.06109411642572049
-0.1283131235122821,-0.06276346227453915
-0.1283081435122821,-0.07428989789738547
-0.1283031635122821,-0.07746960427609347
-0.1282981835122821,-0.0753233024704949
-0.1282932035122821,-0.09360661414806594
-0.1282882235122821,-0.08684973809330261
-0.1282832435122821,-0.08780365000691327
-0.1282782635122821,-0.09368610680753407
-0.1282732835122821,-0.09376559946700842
-0.1282683035122821,-0.09750175446198353
-0.1282633235122821,-0.1013174021164449
-0.1282583435122821,-0.1002045048838971
-0.1282533635122821,-0.1069613809386731
-0.1282483835122821,-0.1120489111446059
-0.1282434035122821,-0.1145926762475848
-0.1282384235122821,-0.1167389780532088
-0.1282334435122821,-0.1159440514585193
-0.1282284635122821,-0.112923330398756
-0.1282234835122821,-0.1149901395449162
-0.1282185035122821,-0.1189647725183088
-0.1282135235122821,-0.1192032504967119
-0.1282085435122821,-0.1213495523023585
-0.1282035635122821,-0.1254036779352038
-0.1281985835122821,-0.1187262945399124
-0.1281936035122821,-0.1207931036860641
-0.1281886235122821,-0.1181698459236347
-0.1281836435122821,-0.1204751330481892
-0.1281786635122821,-0.1159440514585303
-0.1281736835122821,-0.1163415147558697
-0.1281687035122821,-0.1164210074153374
-0.1281637235122821,-0.1134797790149889
-0.1281587435122821,-0.1029867479652716
-0.1281537635122821,-0.1063254396629283
-0.1281487835122821,-0.1083127561496224
-0.1281438035122821,-0.1111744918904544
-0.1281388235122821,-0.1156260808206634
-0.1281338435122821,-0.1180903532641621
-0.1281288635122821,-0.1192827431561765
-0.1281238835122821,-0.1174544119884194
-0.1281189035122821,-0.1133207936960773
-0.1281139235122821,-0.109425653382167
-0.1281089435122821,-0.1061664543439588
-0.1281039635122821,-0.09885312967293891
-0.1280989835122821,-0.09622987191050959
-0.1280940035122821,-0.08470343628766588
-0.1280890235122821,-0.08390850969298888
-0.1280840435122821,-0.0812852519305477
-0.1280790635122821,-0.08064931065480725
-0.1280740835122821,-0.07746960427610705
-0.1280691035122821,-0.081205759271057
-0.1280641235122821,-0.06737403652367401
-0.1280591435122821,-0.06649961726951947
-0.1280541635122821,-0.06021969717157116
-0.1280491835122821,-0.05219093856531812
-0.1280442035122821,-0.05179347526797962
-0.1280392235122821,-0.04543406251052978
-0.1280342435122821,-0.03931312773152799
-0.1280292635122821,-0.03549748007704831
-0.1280242835122821,-0.02913806731963491
-0.1280193035122821,-0.02420952243264646
-0.1280143235122821,-0.02540191232464519
-0.1280093435122821,-0.01991691882137388
-0.1280043635122821,-0.01562431521010405
-0.1279993835122821,-0.01220613085299295
-0.1279944035122821,-0.001236143846415628
-0.1279894235122821,0.002817981786429704
-0.1279844435122821,0.00719007805720541
-0.1279794635122821,0.01935245495574025
-0.1279744835122821,0.0187165136799998
-0.1279695035122821,0.02054484484778582
-0.1279645235122821,0.03525098684931034
-0.1279595435122821,0.03715881067654122
-0.1279545635122821,0.03858967854695983
-0.1279495835122821,0.04868524629937929
-0.1279446035122821,0.04955966555353208
-0.1279396235122821,0.05488567373790415
-0.1279346435122821,0.0648222561713509
-0.1279296635122821,0.06609413872283409
-0.1279246835122821,0.07865397891875948
-0.1279197035122821,0.08191317795693519
-0.1279147235122821,0.08159520731912889
-0.1279097435122821,0.09948105569932887
-0.1279047635122821,0.1009119235697567
-0.1278997835122821,0.1027402547375244
-0.1278948035122821,0.1103715500464097
-0.1278898235122821,0.1152206022739652
-0.1278848435122821,0.1168899481227869
-0.1278798635122821,0.135014274481452
-0.1278748835122821,0.1331064506542272
-0.1278699035122821,0.1373990542655296
-0.1278649235122821,0.148051070634182
-0.1278599435122821,0.1490049825478094
-0.1278549635122821,0.1526616448833359
-0.1278499835122821,0.1630751832735857
-0.1278450035122821,0.159180042959703
-0.1278400235122821,0.1716603904961319
-0.1278350435122821,0.1743631409180301
-0.1278300635122821,0.1696730740094358
-0.1278250835122821,0.1717398831556362
-0.1278201035122821,0.1817559582485482
-0.1278151235122821,0.181755958248556
-0.1278101435122821,0.1839022600541821
-0.1278051635122821,0.1850946499461955
-0.1278001835122821,0.1849356646272957
-0.1277952035122821,0.2034574542832698
-0.1277902235122821,0.2029804983264584
-0.1277852435122821,0.201788108434445
-0.1277802635122821,0.2166532357549173
-0.1277752835122821,0.2125991101220791
-0.1277703035122821,0.2165737430954783
-0.1277653235122821,0.2204688834093901
-0.1277603435122821,0.2213433026635348
-0.1277553635122821,0.2265898181884328
-0.1277503835122821,0.2377187905139108
-0.1277454035122821,0.2344595914757156
-0.1277404235122821,0.2307234364807405
-0.1277354435122821,0.2387521950869943
-0.1277304635122821,0.239149658384337
-0.1277254835122821,0.2418524088062339
-0.1277205035122821,0.2411369748710237
-0.1277155235122821,0.238672702427525
-0.1277105435122821,0.2400240776384785
-0.1277055635122821,0.2401035702979462
-0.1277005835122821,0.23700335657873
-0.1276956035122821,0.2451911005038883
-0.1276906235122821,0.2416139308278312
-0.1276856435122821,0.2405010335952861
-0.1276806635122821,0.2408984968926239
-0.1276756835122821,0.2398650923195353
-0.1276707035122821,0.2358109666866826
-0.1276657235122821,0.2414549455088947
-0.1276607435122821,0.2401035702979462
-0.1276557635122821,0.2361289373245531
-0.1276507835122821,0.2358904593461496
-0.1276458035122821,0.235413503389348
-0.1276408235122821,0.2366853859408322
-0.1276358435122821,0.2385137171085893
-0.1276308635122821,0.2365264006218835
-0.1276258835122821,0.2312003924375476
-0.1276209035122821,0.2292130759508509
-0.1276159235122821,0.2290540906319158
-0.1276109435122821,0.2246025017017173
-0.1276059635122821,0.2248409796801155
-0.1276009835122821,0.2223767072366213
-0.1275960035122821,0.220309898090449
-0.1275910235122821,0.218163596284821
-0.1275860435122821,0.2195149714957579
-0.1275810635122821,0.2104528083164401
-0.1275760835122821,0.2088629551270699
-0.1275711035122821,0.2052062927915624
-0.1275661235122821,0.2052062927915482
-0.1275611435122821,0.2013111524776341
-0.1275561635122821,0.1991648506720101
-0.1275511835122821,0.1949517397202113
-0.1275462035122821,0.1954286956770175
-0.1275412235122821,0.1906591361089311
-0.1275362435122821,0.1820739288864195
-0.1275312635122821,0.1791327004860639
-0.1275262835122821,0.1666523529496577
-0.1275213035122821,0.1643470658250936
-0.1275163235122821,0.1653009777386846
-0.1275113435122821,0.1544899760510774
-0.1275063635122821,0.155046424667347
-0.1275013835122821,0.1521051962670421
-0.1274964035122821,0.1399428193684474
-0.1274914235122821,0.1359681863950696
-0.1274864435122821,0.1313576121458733
-0.1274814635122821,0.1145051683387507
-0.1274764835122821,0.1140282123819453
-0.1274715035122821,0.1033761960132462
-0.1274665235122821,0.09948105569932887
-0.1274615435122821,0.09646033463954587
-0.1274565635122821,0.09375758421764406
-0.1274515835122821,0.07889245689717445
-0.1274466035122821,0.08366201646522778
-0.1274416235122821,0.07142014690716726
-0.1274366435122821,0.06800196255006005
-0.1274316635122821,0.06673007999857918
-0.1274266835122821,0.05750893150029501
-0.1274217035122821,0.05099053342394361
-0.1274167235122821,0.05035459214817135
-0.1274117435122821,0.03413808961676053
-0.1274067635122821,0.03596642078452499
-0.1274017835122821,0.03707931801707078
-0.1273968035122821,0.01521883666340885
-0.1273918235122821,0.01394695411191423
-0.1273868435122821,0.006395151462496453
-0.1273818635122821,0.0007511726402622712
-0.1273768835122821,-0.001156651186962532
-0.1273719035122821,-0.007277585966032846
-0.1273669235122821,-0.01999641148084173
-0.1273619435122821,-0.01951945552406936
-0.1273569635122821,-0.0290585746601889
-0.1273519835122821,-0.03613342135282346
-0.1273470035122821,-0.03867718645579637
-0.1273420235122821,-0.04479812123480928
-0.1273370435122821,-0.05123702665170139
-0.1273320635122821,-0.04940869548394428
-0.1273270835122821,-0.06196853567985998
-0.1273221035122821,-0.06093513110678175
-0.1273171235122821,-0.06363788152871942
-0.1273121435122821,-0.07214359609175625
-0.1273071635122821,-0.07675417034087448
-0.1273021835122821,-0.07532330247049607
-0.1272972035122821,-0.0942425554238087
-0.1272922235122821,-0.09249371691552001
-0.1272872435122821,-0.09464001872114793
-0.1272822635122821,-0.1099821019984414
-0.1272772835122821,-0.1098231166795063
-0.1272723035122821,-0.1114924625283492
-0.1272673235122821,-0.1165005000748
-0.1272623435122821,-0.113638764333968
-0.1272573635122821,-0.1131618083771708
-0.1272523835122821,-0.1214290449618116
-0.1272474035122821,-0.124370273362131
-0.1272424235122821,-0.1293783109085961
-0.1272374435122821,-0.1314451200547516
-0.1272324635122821,-0.1291398329302002
-0.1272274835122821,-0.1333529438819776
-0.1272225035122821,-0.1304117154816773
-0.1272175235122821,-0.1300142521843388
-0.1272125435122821,-0.1359762016444291
-0.1272075635122821,-0.1370096062175091
-0.1272025835122821,-0.1384404740879153
-0.1271976035122821,-0.1343068557956024
-0.1271926235122821,-0.1331939585630549
-0.1271876435122821,-0.1338298998387952
-0.1271826635122821,-0.1337504071793277
-0.1271776835122821,-0.1311271494168865
-0.1271727035122821,-0.129934759524871
-0.1271677235122821,-0.127788457719236
-0.1271627435122821,-0.1260396192109466
-0.1271577635122821,-0.1274704870813629
-0.1271527835122821,-0.1261191118704144
-0.1271478035122821,-0.1265960678272134
-0.1271428235122821,-0.1243702733621207
-0.1271378435122821,-0.1237343320863802
-0.1271328635122821,-0.1214290449618234
-0.1271278835122821,-0.1279474430381748
-0.1271229035122821,-0.1246882439999912
-0.1271179235122821,-0.1235753467674434
-0.1271129435122821,-0.1166594853937389
-0.1271079635122821,-0.116103036777466
-0.1271029835122821,-0.1115719551877838
-0.1270980035122821,-0.1074383368954648
-0.1270930235122821,-0.1040996451978275
-0.1270880435122821,-0.10298674796526
-0.1270830635122821,-0.09662733520784404
-0.1270780835122821,-0.100283997543353
-0.1270731035122821,-0.09702479850518327
-0.1270681235122821,-0.09201676095870123
-0.1270631435122821,-0.08987045915306886
-0.1270581635122821,-0.08525988490391073
-0.1270531835122821,-0.07659518502194819
-0.1270482035122821,-0.07715163363822208
-0.1270432235122821,-0.07611822906511856
-0.1270382435122821,-0.06427382280443124
-0.1270332635122821,-0.06180955036088699
-0.1270282835122821,-0.0505215927164941
-0.1270233035122821,-0.04551355517001641
-0.1270183235122821,-0.04455964325638768
-0.1270133435122821,-0.03462306082294323
-0.1270083635122821,-0.03104589114686694
-0.1270033835122821,-0.02818415540602974
-0.1269984035122821,-0.02357358115688144
-0.1269934235122821,-0.01626025648585303
-0.1269884435122821,-0.01594228584793798
-0.1269834635122821,-0.003938894268337097
-0.1269784835122821,-0.005131284160334524
-0.1269735035122821,0.000433202002412148
-0.1269685235122821,0.01021079911692148
-0.1269635435122821,0.01251608624150314
-0.1269585635122821,0.01052876975481064
-0.1269535835122821,0.02332708792913509
-0.1269486035122821,0.02372455122647286
-0.1269436235122821,0.03612540610347168
-0.1269386435122821,0.04025902439578789
-0.1269336635122821,0.04208735556356669
-0.1269286835122821,0.04804930502365055
-0.1269237035122821,0.05750893150030686
-0.1269187235122821,0.05647552692723574
-0.1269137435122821,0.06243747638731324
-0.1269087635122821,0.07293050743705833
-0.1269037835122821,0.07006877169622633
-0.1268988035122821,0.06657109467963278
-0.1268938235122821,0.06426580755510605
-0.1268888435122821,0.08207216327583849
-0.1268838635122821,0.09876562176411581
-0.1268788835122821,0.09741424655316491
-0.1268739035122821,0.09820917314788428
-0.1268689235122821,0.1207055957772434
-0.1268639435122821,0.119195235247374
-0.1268589635122821,0.1246007360911678
-0.1268539835122821,0.1346168111841203
-0.1268490035122821,0.1357297084166818
-0.1268440235122821,0.1443944082986454
-0.1268390435122821,0.1546489613699754
-0.1268340635122821,0.1339013772489057
-0.1268290835122821,0.1410557166010532
-0.1268241035122821,0.1638701098682831
-0.1268191235122821,0.169116625393158
-0.1268141435122821,0.1683216987984824
-0.1268091635122821,0.1781787885724986
-0.1268041835122821,0.1791327004861298
-0.1267992035122821,0.1904206581305227
-0.1267942235122821,0.1896257315358683
-0.1267892435122821,0.1915335553630931
-0.1267842635122821,0.1974160121637358
-0.1267792835122821,0.2035369469427376
-0.1267743035122821,0.1992443433314355
-0.1267693235122821,0.1886718196222444
-0.1267643435122821,0.1852536352651395
-0.1267593635122821,0.1963826075906517
-0.1267543835122821,0.207432087256662
-0.1267494035122821,0.2012316598181811
-0.1267444235122821,0.2072731019377263
-0.1267394435122821,0.2119631688463329
-0.1267344635122821,0.2129965734194111
-0.1267294835122821,0.2150633825655983
-0.1267245035122821,0.2214227953229973
-0.1267195235122821,0.2184815669226978
-0.1267145435122821,0.2250794576585205
-0.1267095635122821,0.2234101118096988
-0.1267045835122821,0.2215022879824691
-0.1266996035122821,0.2207073613877921
-0.1266946235122821,0.230405465842861
-0.1266896435122821,0.2281796713777695
-0.1266846635122821,0.2332672015836957
-0.1266796835122821,0.2288951053129862
-0.1266747035122821,0.2322337970106235
-0.1266697235122821,0.236923863919233
-0.1266647435122821,0.2372418345571038
-0.1266597635122821,0.2327107529674566
-0.1266547835122821,0.2381957464707179
-0.1266498035122821,0.2387521950870131
-0.1266448235122821,0.2443166812497178
-0.1266398435122821,0.2310414071185873
-0.1266348635122821,0.2242845310638661
-0.1266298835122821,0.2358109666866826
-0.1266249035122821,0.241931901465692
-0.1266199235122821,0.2339031428594543
-0.1266149435122821,0.2297695245671203
-0.1266099635122821,0.2281001787183016
-0.1266049835122821,0.2300080025455082
-0.1266000035122821,0.2240460530854443
-0.1265950235122821,0.2255564136153279
-0.1265900435122821,0.2222972145771405
-0.1265850635122821,0.2176071476685461
-0.1265800835122821,0.2126786027815367
-0.1265751035122821,0.211009256932715
-0.1265701235122821,0.2042523808779419
-0.1265651435122821,0.2025035423696556
-0.1265601635122821,0.1978929681205152
-0.1265551835122821,0.1963826075906254
-0.1265502035122821,0.1929644232335205
-0.1265452235122821,0.193997827806573
-0.1265402435122821,0.1811995096322733
-0.1265352635122821,0.1806430610159795
-0.1265302835122821,0.1703090152851785
-0.1265253035122821,0.1710244492203894
-0.1265203235122821,0.1711039418798467
-0.1265153435122821,0.1654599630575683
-0.1265103635122821,0.1457457835096
-0.1265053835122821,0.13779651756283
-0.1265004035122821,0.1391478927737983
-0.1264954235122821,0.1473356366989714
-0.1264904435122821,0.1408967312820228
-0.1264854635122821,0.1262700819399926
-0.1264804835122821,0.1269060232157214
-0.1264755035122821,0.1230903755612614
-0.1264705235122821,0.1135512564251547
-0.1264655435122821,0.112915315149378
-0.1264605635122821,0.1037736593105925
-0.1264555835122821,0.09574490070433714
-0.1264506035122821,0.09407555485551543
-0.1264456235122821,0.09359859889866268
-0.1264406435122821,0.0810387587027889
-0.1264356635122821,0.08056180274592804
-0.1264306835122821,0.06577616808495389
-0.1264257035122821,0.06092711585743301
-0.1264207235122821,0.05878081405176636
-0.1264157435122821,0.04447213534758034
-0.1264107635122821,0.04161039960673547
-0.1264057835122821,0.04025902439578456
-0.1264008035122821,0.0273017209025253
-0.1263958235122821,0.02714273558359019
-0.1263908435122821,0.03111736855691648
-0.1263858635122821,0.01299304219829141
-0.1263808835122821,0.0006716799808203101
-0.1263759035122821,-0.01657822712371139
-0.1263709235122821,-0.009423887771618383
-0.1263659435122821,-0.006482659371350639
-0.1263609635122821,-0.0181680803130813
-0.1263559835122821,-0.02436850775155931
-0.1263510035122821,-0.02055286009712662
-0.1263460235122821,-0.02603785360041644
-0.1263410435122821,-0.0311253838063423
-0.1263360635122821,-0.0323972663578255
-0.1263310835122821,-0.04249283411025132
-0.1263261035122821,-0.04773934963511954
-0.1263211235122821,-0.0418568928345479
-0.1263161435122821,-0.05529115228456478
-0.1263111635122821,-0.05338332845734518
-0.1263061835122821,-0.05576810824138212
-0.1263012035122821,-0.06141208706357856
-0.1262962235122821,-0.06793048513994718
-0.1262912435122821,-0.06522773471804538
-0.1262862635122821,-0.07524380981098788
