real-diodes-in-T10-L10-D00/1kHz2V/scope.csv

#Digilent WaveForms Oscilloscope Acquisition
#Device Name: Discovery3
#Serial Number: SN:210415BD5874
#Date Time: 2025-04-03 15:55:18.101.218.100
#Sample rate: 3.33333e+06Hz
#Samples: 32768
#Trigger: Source: Channel 1 Type: Edge Condition: Rising Level: 0 V Hyst.: Auto HoldOff: 0 s
#Channel 1: Range: 200 mV/div Offset: 0 V Sample Mode: Average
#Wavegen Channel 1: Running
#Mode: Simple
#Type: Sine
#Frequency: 1 kHz
#Period: 1 ms
#Amplitude: 2 V
#Offset: 0 V
#Symmetry: 50 %
#Phase: 0 °

Time (s),Channel 1 (V)
0.002654709434713963,0.04836727566150473
0.002655009434713963,0.04804930502363335
0.002655309434713963,0.04892372427777963
0.002655609434713963,0.04781082704522982
0.002655909434713963,0.04820829034256904
0.002656209434713963,0.0472543784289549
0.002656509434713963,0.04661843715321329
0.002656809434713963,0.04677742247214754
0.002657109434713963,0.04725437842895403
0.002657409434713963,0.04661843715321329
0.002657709434713964,0.04741336374788988
0.002658009434713964,0.04701590045055107
0.002658309434713964,0.04685691513161625
0.002658609434713964,0.04717488576948706
0.002658909434713964,0.04709539311001922
0.002659209434713964,0.0474133637478906
0.002659509434713964,0.04773133438576196
0.002659809434713964,0.04757234906682628
0.002660109434713964,0.0474133637478906
0.002660409434713963,0.04781082704522982
0.002660709434713963,0.04749285640735844
0.002661009434713963,0.04828778300203689
0.002661309434713963,0.04852626098044041
0.002661609434713963,0.04836727566150473
0.002661909434713963,0.04860575363990827
0.002662209434713963,0.04884423161831136
0.002662509434713963,0.0478108270452317
0.002662809434713963,0.04836727566150371
0.002663109434713964,0.04828778300203631
0.002663409434713964,0.04796981236416666
0.002663709434713964,0.04860575363990755
0.002664009434713964,0.0482082903425676
0.002664309434713964,0.0474133637478906
0.002664609434713964,0.04765184172629412
0.002664909434713964,0.04804930502363335
0.002665209434713964,0.0474133637478906
0.002665509434713964,0.04757234906682628
0.002665809434713963,0.04757234906682628
0.002666109434713963,0.04590300321800155
0.002666409434713963,0.04630046651534077
0.002666709434713963,0.04614148119640507
0.002667009434713963,0.04598249587746939
0.002667309434713963,0.04669792981267999
0.002667609434713963,0.04645945183427689
0.002667909434713963,0.04582351055853485
0.002668209434713963,0.04661843715321069
0.002668509434713963,0.04630046651534134
0.002668809434713964,0.04574401789906802
0.002669109434713964,0.04693640779108207
0.002669409434713964,0.04614148119640565
0.002669709434713964,0.04645945183427645
0.002670009434713964,0.04733387108842274
0.002670309434713964,0.04598249587746939
0.002670609434713964,0.04645945183427645
0.002670909434713964,0.04685691513161568
0.002671209434713964,0.04590300321800155
0.002671509434713963,0.04757234906682628
0.002671809434713963,0.04685691513161568
0.002672109434713963,0.04574401789906585
0.002672409434713963,0.04733387108842274
0.002672709434713963,0.0474133637478906
0.002673009434713963,0.04637995917480861
0.002673309434713963,0.04789031970469491
0.002673609434713963,0.04677742247214986
0.002673909434713963,0.04645945183427703
0.002674209434713964,0.04685691513161278
0.002674509434713964,0.04526706194225893
0.002674809434713964,0.04534655460172836
0.002675109434713964,0.04630046651533773
0.002675409434713964,0.04463112066651602
0.002675709434713964,0.04526706194225878
0.002676009434713964,0.04526706194225878
0.002676309434713964,0.04375670141236973
0.002676609434713964,0.0442336573691768
0.002676909434713963,0.04447213534758034
0.002677209434713963,0.0442336573691768
0.002677509434713963,0.04542604726119447
0.002677809434713963,0.04526706194225878
0.002678109434713963,0.04455162800704818
0.002678409434713963,0.0449490913043874
0.002678709434713963,0.0450285839638551
0.002679009434713963,0.04614148119640304
0.002679309434713963,0.04645945183427588
0.002679609434713963,0.04558503258013175
0.002679909434713964,0.04534655460172735
0.002680209434713964,0.04574401789906483
0.002680509434713964,0.04518756928279297
0.002680809434713964,0.04630046651534077
0.002681109434713964,0.04701590045055136
0.002681409434713964,0.04622097385587291
0.002681709434713964,0.04614148119640507
0.002682009434713964,0.04590300321800155
0.002682309434713964,0.04534655460172662
0.002682609434713963,0.04590300321800155
0.002682909434713963,0.04558503258013016
0.002683209434713963,0.04574401789906585
0.002683509434713963,0.04582351055853369
0.002683809434713963,0.04486959864491956
0.002684109434713963,0.04431315002864465
0.002684409434713963,0.04494909130438624
0.002684709434713963,0.0446311206665166
0.002685009434713963,0.04502858396385452
0.002685309434713964,0.04518756928278863
0.002685609434713964,0.04391568673130587
0.002685909434713964,0.04415416470970881
0.002686209434713964,0.04407467205024111
0.002686509434713964,0.04367720875290189
0.002686809434713964,0.0451080766233231
0.002687109434713964,0.04542604726119447
0.002687409434713964,0.04542604726119447
0.002687709434713964,0.04558503258013016
0.002688009434713963,0.04542604726119447
0.002688309434713963,0.04526706194225878
0.002688609434713963,0.04590300321800155
0.002688909434713963,0.04582351055853369
0.002689209434713963,0.04590300321800155
0.002689509434713963,0.04653894449374429
0.002689809434713963,0.04582351055853499
0.002690109434713963,0.0463004665153399
0.002690409434713963,0.04614148119640536
0.002690709434713963,0.04630046651534048
0.002691009434713964,0.04701590045055107
0.002691309434713964,0.04685691513161452
0.002691609434713964,0.04622097385587291
0.002691909434713964,0.04622097385587291
0.002692209434713964,0.04542604726119447
0.002692509434713964,0.04534655460172662
0.002692809434713964,0.04574401789906585
0.002693109434713964,0.04486959864491956
0.002693409434713964,0.0451080766233231
0.002693709434713963,0.04558503258013016
0.002694009434713963,0.04431315002864465
0.002694309434713963,0.04463112066651602
0.002694609434713963,0.0451080766233231
0.002694909434713963,0.04534655460172662
0.002695209434713963,0.04558503258013016
0.002695509434713963,0.04542604726119476
0.002695809434713963,0.04510807662332367
0.002696109434713963,0.04574401789906469
0.002696409434713964,0.04637995917480919
0.002696709434713964,0.04669792981268158
0.002697009434713964,0.04757234906682772
0.002697309434713964,0.04836727566150473
0.002697609434713964,0.04804930502363335
0.002697909434713964,0.04836727566150473
0.002698209434713964,0.04836727566150473
0.002698509434713964,0.04924169491565102
0.002698809434713964,0.050275099488733
0.002699109434713963,0.05067256278607223
0.002699409434713963,0.0517059673591542
0.002699709434713963,0.05146748938075067
0.002700009434713963,0.05003662151032946
0.002700309434713963,0.05146748938075067
0.002700609434713963,0.05162647469968636
0.002700909434713963,0.05170596735915405
0.002701209434713963,0.0517059673591542
0.002701509434713963,0.05107002608341261
0.002701809434713963,0.05019560682926675
0.002702109434713964,0.05067256278607252
0.002702409434713964,0.05083154810500762
0.002702709434713964,0.05067256278607396
0.002703009434713964,0.05162647469968636
0.002703309434713964,0.05083154810500791
0.002703609434713964,0.050275099488733
0.002703909434713964,0.05067256278607223
0.002704209434713964,0.05067256278607223
0.002704509434713964,0.05075205544554007
0.002704809434713963,0.05210343065649342
0.002705109434713963,0.05130850406181497
0.002705409434713963,0.05130850406181497
0.002705709434713963,0.05178546001862205
0.002706009434713963,0.05075205544554007
0.002706309434713963,0.05146748938075067
0.002706609434713963,0.05202393799702457
0.002706909434713963,0.05051357746713928
0.002707209434713963,0.05067256278607193
0.002707509434713964,0.05019560682926343
0.002707809434713964,0.04924169491565131
0.002708109434713964,0.04940068023458657
0.002708409434713964,0.04932118757511886
0.002708709434713964,0.04860575363990827
0.002709009434713964,0.04900321693724749
0.002709309434713964,0.04812879768310119
0.002709609434713964,0.0474133637478906
0.002709909434713964,0.04852626098044041
0.002710209434713963,0.04749285640735844
0.002710509434713963,0.04765184172629412
0.002710809434713963,0.04812879768310119
0.002711109434713963,0.04693640779108352
0.002711409434713963,0.04701590045055136
0.002711709434713963,0.04733387108842274
0.002712009434713963,0.04653894449374574
0.002712309434713963,0.04630046651534121
0.002712609434713963,0.04669792981267927
0.002712909434713963,0.04653894449374459
0.002713209434713964,0.04701590045055092
0.002713509434713964,0.04677742247214538
0.002713809434713964,0.04542604726119649
0.002714109434713964,0.04653894449374429
0.002714409434713964,0.04685691513161568
0.002714709434713964,0.04733387108842274
0.002715009434713964,0.04765184172629412
0.002715309434713964,0.04709539311001922
0.002715609434713964,0.04765184172629412
0.002715909434713963,0.04765184172629412
0.002716209434713963,0.04781082704522982
0.002716509434713963,0.04852626098044041
0.002716809434713963,0.04892372427777963
0.002717109434713963,0.04860575363990827
0.002717409434713963,0.04860575363990827
0.002717709434713963,0.04820829034256977
0.002718009434713963,0.04804930502363364
0.002718309434713963,0.04868524629937495
0.002718609434713964,0.04892372427777963
0.002718909434713964,0.04892372427777963
0.002719209434713964,0.04892372427777848
0.002719509434713964,0.04828778300203689
0.002719809434713964,0.04828778300203689
0.002720109434713964,0.04852626098044041
0.002720409434713964,0.04812879768310119
0.002720709434713964,0.04892372427777963
0.002721009434713964,0.04820829034256904
0.002721309434713963,0.04709539311001922
0.002721609434713963,0.0474133637478906
0.002721909434713963,0.04717488576948706
0.002722209434713963,0.04645945183427645
0.002722509434713963,0.04789031970469766
0.002722809434713963,0.04669792981267999
0.002723109434713963,0.04685691513161538
0.002723409434713963,0.04773133438576038
0.002723709434713963,0.04661843715321416
0.002724009434713963,0.04717488576948604
0.002724309434713964,0.04804930502363219
0.002724609434713964,0.04741336374789248
0.002724909434713964,0.04844676832097286
0.002725209434713964,0.04860575363990827
0.002725509434713964,0.0472543784289549
0.002725809434713964,0.04852626098044041
0.002726109434713964,0.04860575363990827
0.002726409434713964,0.04828778300203689
0.002726709434713964,0.04963915821299024
0.002727009434713963,0.04868524629937611
0.002727309434713963,0.04804930502363335
0.002727609434713963,0.04892372427777963
0.002727909434713963,0.04789031970469766
0.002728209434713963,0.04765184172629412
0.002728509434713963,0.04868524629937611
0.002728809434713963,0.0487647389588438
0.002729109434713963,0.04828778300203775
0.002729409434713963,0.04860575363990769
0.002729709434713964,0.04781082704522967
0.002730009434713964,0.04773133438576254
0.002730309434713964,0.04804930502363176
0.002730609434713964,0.04717488576948706
0.002730909434713964,0.04749285640735844
0.002731209434713964,0.04693640779108352
0.002731509434713964,0.04550553992066232
0.002731809434713964,0.04661843715321214
0.002732109434713964,0.04693640779108352
0.002732409434713963,0.04645945183427645
0.002732709434713963,0.04693640779108352
0.002733009434713963,0.04645945183427645
0.002733309434713963,0.04590300321800155
0.002733609434713963,0.04645945183427645
0.002733909434713963,0.04669792981267999
0.002734209434713963,0.04653894449374459
0.002734509434713963,0.04725437842895359
0.002734809434713963,0.0471748857694872
0.002735109434713964,0.04661843715321257
0.002735409434713964,0.04685691513161582
0.002735709434713964,0.04693640779108337
0.002736009434713964,0.04685691513161726
0.002736309434713964,0.04773133438576196
0.002736609434713964,0.04765184172629412
0.002736909434713964,0.04709539311001922
0.002737209434713964,0.04717488576948706
0.002737509434713964,0.04630046651534077
0.002737809434713964,0.04645945183427645
0.002738109434713963,0.0474133637478906
0.002738409434713963,0.04765184172629412
0.002738709434713963,0.04765184172629412
0.002739009434713963,0.04709539311001922
0.002739309434713963,0.04574401789906585
0.002739609434713963,0.04550553992066232
0.002739909434713963,0.04566452523959771
0.002740209434713963,0.04479010598545331
0.002740509434713963,0.04510807662332252
0.002740809434713964,0.04479010598544911
0.002741109434713964,0.04335923811503224
0.002741409434713964,0.04431315002864277
0.002741709434713964,0.04327974545556267
0.002742009434713964,0.04335923811503051
0.002742309434713964,0.04439264268811249
0.002742609434713964,0.04304126747715913
0.002742909434713964,0.0426438041798199
0.002743209434713964,0.04312076013662698
0.002743509434713963,0.042087355563545
0.002743809434713963,0.04176938492567361
0.002744109434713963,0.04216684822301284
0.002744409434713963,0.0419283702446093
0.002744709434713963,0.04176938492567361
0.002745009434713963,0.04137192162833439
0.002745309434713963,0.03882815652536799
0.002745609434713963,0.03906663450376646
0.002745909434713963,0.038510185887493
0.002746209434713964,0.03763576663334454
0.002746509434713964,0.03699982535760004
0.002746809434713964,0.03540997216824431
0.002747109434713964,0.03445606025462972
0.002747409434713964,0.03326367036261423
0.002747709434713964,0.03111736855698242
0.002748009434713964,0.03048142728123967
0.002748309434713964,0.02865309611347924
0.002748609434713964,0.02714273558359019
0.002748909434713964,0.0253938970752976
0.002749209434713963,0.02300911729126226
0.002749509434713963,0.01990890357201632
0.002749809434713963,0.01823955772319158
0.002750109434713963,0.01569579262022055
0.002750409434713963,0.01299304219831383
0.002750709434713963,0.01068775507374633
0.002751009434713963,0.007269570716635226
0.002751309434713963,0.003851386359517903
0.002751609434713963,0.0007511726402713807
0.002751909434713964,-0.003302952992599689
0.002752209434713964,-0.006244181392911535
0.002752509434713964,-0.01005982904736938
0.002752809434713964,-0.01459091063702829
0.002753109434713964,-0.01936047020509897
0.002753409434713964,-0.0249249563678481
0.002753709434713964,-0.03112538380633999
0.002754009434713964,-0.03637189933121775
0.002754309434713964,-0.04312877538598454
0.002754609434713963,-0.05004463675968704
0.002754909434713963,-0.0565630348360503
0.002755209434713963,-0.06467128610177046
0.002755509434713963,-0.07301801534589415
0.002755809434713963,-0.08096728129267863
0.002756109434713963,-0.08994995181254509
0.002756409434713963,-0.0990916076513306
0.002756709434713963,-0.1085512341280035
0.002757009434713963,-0.1199186844319019
0.002757309434713964,-0.1304912081411644
0.002757609434713964,-0.1406662685530531
0.002757909434713964,-0.153385094067906
0.002758209434713964,-0.1648320370312762
0.002758509434713964,-0.1765969506324958
0.002758809434713964,-0.1895542541257545
0.002759109434713964,-0.2020346016622061
0.002759409434713964,-0.2152303831338683
0.002759709434713964,-0.2285851499244662
0.002760009434713964,-0.2422578873529355
0.002760309434713963,-0.2564870733976797
0.002760609434713963,-0.2718291566749738
0.002760909434713963,-0.2861378353791859
0.002761209434713963,-0.3021953525916904
0.002761509434713963,-0.3174579432095166
0.002761809434713963,-0.333117997124682
0.002762109434713963,-0.3505268895481084
0.002762409434713963,-0.3672203480363571
0.002762709434713963,-0.3835958358867336
0.002763009434713964,-0.402038132883335
0.002763309434713964,-0.4193675326473252
0.002763609434713964,-0.4367764250707848
0.002763909434713964,-0.4550597367483559
0.002764209434713964,-0.4732635557664923
0.002764509434713964,-0.4913878821251609
0.002764809434713964,-0.5111815543326542
0.002765109434713964,-0.5293853733507906
0.002765409434713964,-0.5497354941745589
0.002765709434713963,-0.569688151700988
0.002766009434713963,-0.5891638532706099
0.002766309434713963,-0.6079241209050212
0.002766609434713963,-0.6258894619447541
0.002766909434713963,-0.6405161112868376
0.002767209434713963,-0.6533144294611606
0.002767509434713963,-0.662456085299946
0.002767809434713963,-0.6673846301869601
0.002768109434713963,-0.6704848439062093
0.002768409434713964,-0.671597741138764
0.002768709434713964,-0.6712002778414251
0.002769009434713964,-0.6708823072035502
0.002769309434713964,-0.6686565127384523
0.002769609434713964,-0.6673846301869691
0.002769909434713964,-0.6666691962517585
0.002770209434713964,-0.664363909127191
0.002770509434713964,-0.6630125339162376
0.002770809434713964,-0.6617406513647521
0.002771109434713964,-0.6601507981753952
0.002771409434713963,-0.6591173936023133
0.002771709434713963,-0.6581634816886991
0.002772009434713963,-0.6563351505209387
0.002772309434713963,-0.6558581945641316
0.002772609434713963,-0.6552222532883889
0.002772909434713963,-0.6540298633963711
0.002773209434713963,-0.6528374735043557
0.002773509434713963,-0.6518040689312734
0.002773809434713963,-0.6510091423365946
0.002774109434713964,-0.6498962451040403
0.002774409434713964,-0.6483063919146848
0.002774709434713964,-0.6474319726605375
0.002775009434713964,-0.6460011047901189
0.002775309434713964,-0.6454446561738439
0.002775609434713964,-0.6442522662818263
0.002775909434713964,-0.6426624130924694
0.002776209434713964,-0.6414700232004518
0.002776509434713964,-0.640277633308434
0.002776809434713963,-0.6397211846921591
0.002777109434713963,-0.6382903168217379
0.002777409434713963,-0.6370184342702524
0.002777709434713963,-0.6345541618267492
0.002778009434713963,-0.6338387278915386
0.002778309434713963,-0.632646337999521
0.002778609434713963,-0.6304205435344253
0.002778909434713963,-0.6289101830045351
0.002779209434713963,-0.6278767784314522
0.002779509434713964,-0.6262074325826232
0.002779809434713964,-0.6249355500311362
0.002780109434713964,-0.6228687408849736
0.002780409434713964,-0.6215173656740203
0.002780709434713964,-0.6201659904630693
0.002781009434713964,-0.6184171519547768
0.002781309434713964,-0.6176222253600983
0.002781609434713964,-0.6165888207870163
0.002781909434713964,-0.6146809969597881
0.002782209434713964,-0.6142835336624488
0.002782509434713963,-0.6123757098352205
0.002782809434713963,-0.6099909300511852
0.002783109434713963,-0.6094344814349103
0.002783409434713963,-0.6081625988834247
0.002783709434713963,-0.6064137603751322
0.002784009434713963,-0.6061752823967287
0.002784309434713963,-0.6048239071857777
0.002784609434713963,-0.6041879659100337
0.002784909434713963,-0.6025186200612108
0.002785209434713964,-0.6015647081475923
0.002785509434713964,-0.6008492742123798
0.002785809434713964,-0.5990209430446212
0.002786109434713964,-0.5982260164499442
0.002786409434713964,-0.5972721045363301
0.002786709434713964,-0.5961592073037802
0.002787009434713964,-0.5945693541144234
0.002787309434713964,-0.5927410229466629
0.002787609434713964,-0.592184574330388
0.002787909434713963,-0.5909126917789025
0.002788209434713963,-0.5886074046543349
0.002788509434713963,-0.5882894340164636
0.002788809434713963,-0.5863021175297675
0.002789109434713963,-0.5849507423188142
0.002789409434713963,-0.5846327716809427
0.002789709434713963,-0.5825659625347825
0.002790009434713963,-0.5812145873238279
0.002790309434713963,-0.5807376313670193
0.002790609434713964,-0.5783528515829824
0.002790909434713964,-0.5780348809451087
0.002791209434713964,-0.5764450277557518
0.002791509434713964,-0.5748551745663967
0.002791809434713964,-0.5742192332906551
0.002792109434713964,-0.572708872760766
0.002792409434713964,-0.5713574975498127
0.002792709434713964,-0.5715959755282162
0.002793009434713964,-0.5687342397873738
0.002793309434713964,-0.5677803278737596
0.002793609434713963,-0.568654747127906
0.002793909434713963,-0.5665084453222742
0.002794209434713963,-0.5654750407491922
0.002794509434713963,-0.5654750407491922
0.002794809434713963,-0.5634082316030282
0.002795109434713963,-0.5628517829867543
0.002795409434713963,-0.5622953343704794
0.002795709434713963,-0.5601490325648505
0.002796009434713963,-0.5593541059701695
0.002796309434713964,-0.5579232380997449
0.002796609434713964,-0.5568103408671948
0.002796909434713964,-0.5556179509751771
0.002797209434713964,-0.5543460684236939
