real-diodes-in-T10-L10-D10/1kHz1V/scope.csv

#Digilent WaveForms Oscilloscope Acquisition
#Device Name: Discovery3
#Serial Number: SN:210415BD5874
#Date Time: 2025-04-03 15:57:20.296.267.290
#Sample rate: 3.33333e+06Hz
#Samples: 32768
#Trigger: Source: Channel 1 Type: Edge Condition: Rising Level: 0 V Hyst.: Auto HoldOff: 0 s
#Channel 1: Range: 200 mV/div Offset: 0 V Sample Mode: Average
#Wavegen Channel 1: Running
#Mode: Simple
#Type: Sine
#Frequency: 1 kHz
#Period: 1 ms
#Amplitude: 1 V
#Offset: 0 V
#Symmetry: 50 %
#Phase: 0 °

Time (s),Channel 1 (V)
0.002654654934881244,0.04439264268811249
0.002654954934881244,0.04486959864491956
0.002655254934881244,0.04463112066651602
0.002655554934881244,0.04502858396385524
0.002655854934881244,0.04502858396385524
0.002656154934881244,0.04447213534758034
0.002656454934881244,0.04534655460172504
0.002656754934881243,0.04534655460172662
0.002657054934881243,0.04510807662332354
0.002657354934881243,0.04582351055853238
0.002657654934881244,0.04542604726119461
0.002657954934881244,0.04550553992066175
0.002658254934881244,0.04518756928279138
0.002658554934881244,0.04542604726119447
0.002658854934881244,0.04542604726119447
0.002659154934881244,0.04542604726119447
0.002659454934881244,0.04582351055853369
0.002659754934881244,0.04558503258013016
0.002660054934881244,0.04574401789906585
0.002660354934881244,0.04502858396385524
0.002660654934881244,0.04518756928279094
0.002660954934881244,0.04566452523959801
0.002661254934881244,0.04486959864491956
0.002661554934881244,0.04550553992066232
0.002661854934881244,0.04526706194225878
0.002662154934881244,0.04439264268811408
0.002662454934881243,0.0443131500286448
0.002662754934881243,0.04399517939077385
0.002663054934881244,0.04367720875290391
0.002663354934881244,0.04479010598545128
0.002663654934881244,0.04455162800704847
0.002663954934881244,0.04471061332598373
0.002664254934881244,0.04463112066651602
0.002664554934881244,0.04463112066651602
0.002664854934881244,0.04431315002864465
0.002665154934881244,0.04518756928279094
0.002665454934881244,0.0449490913043874
0.002665754934881244,0.04518756928279094
0.002666054934881244,0.04558503258013016
0.002666354934881244,0.04486959864491956
0.002666654934881244,0.04582351055853369
0.002666954934881244,0.04574401789906585
0.002667254934881244,0.04542604726119447
0.002667554934881244,0.04669792981267768
0.002667854934881243,0.04606198853693839
0.002668154934881243,0.04598249587746953
0.002668454934881243,0.04614148119640478
0.002668754934881244,0.04558503258013016
0.002669054934881244,0.04558503258013103
0.002669354934881244,0.04606198853693579
0.002669654934881244,0.04526706194225878
0.002669954934881244,0.04566452523959801
0.002670254934881244,0.04582351055853369
0.002670554934881244,0.0451080766233231
0.002670854934881244,0.04526706194225878
0.002671154934881244,0.04518756928279094
0.002671454934881244,0.04399517939077327
0.002671754934881244,0.04502858396385524
0.002672054934881244,0.04471061332598388
0.002672354934881244,0.04415416470970895
0.002672654934881244,0.04479010598545172
0.002672954934881244,0.04486959864491956
0.002673254934881244,0.04463112066651646
0.002673554934881243,0.04550553992066073
0.002673854934881243,0.04550553992066232
0.002674154934881244,0.04486959864492072
0.002674454934881244,0.04550553992066276
0.002674754934881244,0.04574401789906599
0.002675054934881244,0.04582351055853369
0.002675354934881244,0.04582351055853369
0.002675654934881244,0.04614148119640507
0.002675954934881244,0.04606198853693723
0.002676254934881244,0.04614148119640507
0.002676554934881244,0.04558503258013016
0.002676854934881244,0.04582351055853369
0.002677154934881244,0.04637995917480861
0.002677454934881244,0.04534655460172662
0.002677754934881244,0.04669792981267999
0.002678054934881244,0.04637995917480861
0.002678354934881244,0.04606198853693723
0.002678654934881244,0.04574401789906642
0.002678954934881243,0.04550553992066276
0.002679254934881243,0.04486959864492072
0.002679554934881243,0.04534655460172576
0.002679854934881244,0.04510807662332339
0.002680154934881244,0.04526706194225936
0.002680454934881244,0.04558503258012886
0.002680754934881244,0.04486959864491956
0.002681054934881244,0.04479010598545172
0.002681354934881244,0.04502858396385524
0.002681654934881244,0.04455162800704818
0.002681954934881244,0.04486959864491956
0.002682254934881244,0.04582351055853369
0.002682554934881244,0.04526706194225878
0.002682854934881244,0.04590300321800155
0.002683154934881244,0.04614148119640507
0.002683454934881244,0.04582351055853369
0.002683754934881244,0.04653894449374429
0.002684054934881244,0.04645945183427645
0.002684354934881244,0.04614148119640565
0.002684654934881243,0.04661843715321127
0.002684954934881243,0.04701590045055064
0.002685254934881244,0.04661843715321257
0.002685554934881244,0.04685691513161568
0.002685854934881244,0.04685691513161495
0.002686154934881244,0.04645945183427645
0.002686454934881244,0.04709539311001922
0.002686754934881244,0.04709539311001922
0.002687054934881244,0.04685691513161568
0.002687354934881244,0.04693640779108352
0.002687654934881244,0.04661843715321214
0.002687954934881244,0.04614148119640507
0.002688254934881244,0.04582351055853369
0.002688554934881244,0.04590300321800155
0.002688854934881244,0.04558503258013016
0.002689154934881244,0.04590300321800155
0.002689454934881244,0.04590300321800155
0.002689754934881244,0.04558503258013074
0.002690054934881243,0.04582351055853325
0.002690354934881243,0.0455850325801306
0.002690654934881243,0.04637995917480717
0.002690954934881244,0.04614148119640493
0.002691254934881244,0.0460619885369378
0.002691554934881244,0.04637995917480876
0.002691854934881244,0.04645945183427645
0.002692154934881244,0.04637995917480861
0.002692454934881244,0.04669792981267999
0.002692754934881244,0.04653894449374429
0.002693054934881244,0.04645945183427645
0.002693354934881244,0.04622097385587291
0.002693654934881244,0.04685691513161568
0.002693954934881244,0.04693640779108352
0.002694254934881244,0.04661843715321214
0.002694554934881244,0.04669792981267999
0.002694854934881244,0.04765184172629412
0.002695154934881244,0.04653894449374429
0.002695454934881244,0.0468569151316151
0.002695754934881243,0.04717488576948648
0.002696054934881243,0.04677742247214856
0.002696354934881244,0.04685691513161553
0.002696654934881244,0.0467774224721461
0.002696954934881244,0.045823510558536
0.002697254934881244,0.04709539311001922
0.002697554934881244,0.04669792981267999
0.002697854934881244,0.04677742247214783
0.002698154934881244,0.04828778300203689
0.002698454934881244,0.0474133637478906
0.002698754934881244,0.04812879768310119
0.002699054934881244,0.04852626098044041
0.002699354934881244,0.04844676832097257
0.002699654934881244,0.04828778300203689
0.002699954934881244,0.04916220225618317
0.002700254934881244,0.04820829034256904
0.002700554934881244,0.04852626098044041
0.002700854934881244,0.04900321693724662
0.002701154934881243,0.04796981236416738
0.002701454934881243,0.04876473895884251
0.002701754934881243,0.04876473895884395
0.002702054934881244,0.0480493050236345
0.002702354934881244,0.0486852462993764
0.002702654934881244,0.04884423161830948
0.002702954934881244,0.04757234906682628
0.002703254934881244,0.04836727566150473
0.002703554934881244,0.04828778300203689
0.002703854934881244,0.04645945183427645
0.002704154934881244,0.04693640779108352
0.002704454934881244,0.04502858396385524
0.002704754934881244,0.04248481886088422
0.002705054934881244,0.04184887758514146
0.002705354934881244,0.03906663450376689
0.002705654934881244,0.03612540610345664
0.002705954934881244,0.03469453823303544
0.002706254934881244,0.03175330983272517
0.002706554934881244,0.02928903738922648
0.002706854934881243,0.02722222824306179
0.002707154934881243,0.02388353654541463
0.002707454934881244,0.02173723473977212
0.002707754934881244,0.01919346963679935
0.002708054934881244,0.0156957926202152
0.002708354934881244,0.01275456421991029
0.002708654934881244,0.009256887203325126
0.002708954934881244,0.005043776251529356
0.002709254934881244,0.001148635937604965
0.002709554934881244,-0.003223460333126494
0.002709854934881244,-0.008628961176939936
0.002710154934881244,-0.01331902808554277
0.002710454934881244,-0.01904249956722759
0.002710754934881244,-0.02540191232465517
0.002711054934881244,-0.03136386178474353
0.002711354934881244,-0.03835921581791386
0.002711654934881244,-0.04614949644576265
0.002711954934881244,-0.05330383579785565
0.002712254934881243,-0.06188904302038029
0.002712554934881243,-0.07095120619971371
0.002712854934881243,-0.07993387671958031
0.002713154934881244,-0.09066538574777275
0.002713454934881244,-0.1000455195649797
0.002713754934881244,-0.1101410873174006
0.002714054934881244,-0.122780420172765
0.002714354934881244,-0.1337504071793275
0.002714654934881244,-0.1456743060995042
0.002714954934881244,-0.1598239994847806
0.002715254934881244,-0.1722248543617644
0.002715554934881244,-0.1854206358334266
0.002715854934881244,-0.1998088071971065
0.002716154934881244,-0.2139585005823828
0.002716454934881244,-0.2280287013081913
0.002716754934881244,-0.2429733212881461
0.002717054934881244,-0.2584743898843759
0.002717354934881244,-0.2743729217779448
0.002717654934881244,-0.2900329756930817
0.002717954934881243,-0.3062494782245211
0.002718254934881243,-0.3232609073506384
0.002718554934881244,-0.3405903071146901
0.002718854934881244,-0.3574427509218765
0.002719154934881244,-0.3761235258968179
0.002719454934881244,-0.3936119109797119
0.002719754934881244,-0.4116567446789126
0.002720054934881244,-0.4311324462485346
0.002720354934881244,-0.4494952505856067
0.002720654934881244,-0.4686529815173573
0.002720954934881244,-0.4888441170221899
0.002721254934881244,-0.5083993112512797
0.002721554934881244,-0.52866993941558
0.002721854934881244,-0.5493380308772197
0.002722154934881244,-0.5696086590415201
0.002722454934881244,-0.5902767505031598
0.002722754934881244,-0.6103883933485245
0.002723054934881244,-0.6304205435343849
0.002723354934881243,-0.6494192891472017
0.002723654934881243,-0.6654768063597116
0.002723954934881243,-0.6785136025124436
0.002724254934881244,-0.6878937363296835
0.002724554934881244,-0.6936967004708322
0.002724854934881244,-0.6972738701468815
0.002725154934881244,-0.6987842306767678
0.002725454934881244,-0.6984662600388963
0.002725754934881244,-0.6987047380172999
0.002726054934881244,-0.698148289401025
0.002726354934881244,-0.6972738701468787
0.002726654934881244,-0.6970353921684752
0.002726954934881244,-0.695604524298054
0.002727254934881244,-0.6938556857897614
0.002727554934881244,-0.6941736564276327
0.002727854934881244,-0.6925838032382758
0.002728154934881244,-0.6907554720705155
0.002728454934881244,-0.689960545475837
0.002728754934881244,-0.6879732289891445
0.002729054934881243,-0.6858269271835129
0.002729354934881243,-0.6857474345240413
0.002729654934881244,-0.6842370739941482
0.002729954934881244,-0.6820907721885198
0.002730254934881244,-0.6817728015506458
0.002730554934881244,-0.6800239630423563
0.002730854934881244,-0.6780366465556603
0.002731154934881244,-0.6766057786852391
0.002731454934881244,-0.6743799842201395
0.002731754934881244,-0.6738235356038645
0.002732054934881244,-0.6726311457118468
0.002732354934881244,-0.6709617998630221
0.002732654934881244,-0.671518248479297
0.002732954934881244,-0.6695309319926009
0.002733254934881244,-0.6677026008248405
0.002733554934881244,-0.6671461522085655
0.002733854934881244,-0.6657152843381443
0.002734154934881244,-0.6638074605109195
0.002734454934881243,-0.6637279678514484
0.002734754934881243,-0.660866232110611
0.002735054934881244,-0.6595148568996516
0.002735354934881244,-0.6590379009428414
0.002735654934881244,-0.656812106477743
0.002735954934881244,-0.6553017459478556
0.002736254934881244,-0.6546658046721139
0.002736554934881244,-0.6523605175475464
0.002736854934881244,-0.651088634996061
0.002737154934881244,-0.6494192891472362
0.002737454934881244,-0.6479089286173472
0.002737754934881244,-0.6467165387253294
0.002738054934881244,-0.6455241488333118
0.002738354934881244,-0.6436163250060836
0.002738654934881244,-0.6429803837303407
0.002738954934881244,-0.6415495158599196
0.002739254934881244,-0.6396416920326913
0.002739554934881244,-0.6387672727785449
0.002739854934881244,-0.6373364049081264
0.002740154934881243,-0.636223507675576
0.002740454934881243,-0.6347926398051553
0.002740754934881244,-0.6332822792752628
0.002741054934881244,-0.6328053233184544
0.002741354934881244,-0.6316129334264371
0.002741654934881244,-0.630579528853357
0.002741954934881244,-0.629546124280275
0.002742254934881244,-0.6284332270477252
0.002742554934881244,-0.6267638811989005
0.002742854934881244,-0.6256509839663507
0.002743154934881244,-0.6245380867338007
0.002743454934881244,-0.622868740884976
0.002743754934881244,-0.6216763509929584
0.002744054934881244,-0.6190530932305195
0.002744354934881244,-0.6178607033385018
0.002744654934881244,-0.6169067914248877
0.002744954934881244,-0.6158733868518057
0.002745254934881244,-0.6140450556840487
0.002745554934881243,-0.612534695154159
0.002745854934881243,-0.6108653493053345
0.002746154934881244,-0.6091165107970363
0.002746454934881244,-0.6076856429266155
0.002746754934881244,-0.6064932530345987
0.002747054934881244,-0.6057778190993871
0.002747354934881244,-0.604505936547904
0.002747654934881244,-0.6027570980396113
0.002747954934881244,-0.6019621714449329
0.002748254934881244,-0.6004518109150438
0.002748554934881244,-0.5994978990014297
0.002748854934881244,-0.597828553152605
0.002749154934881244,-0.5967156559200552
0.002749454934881244,-0.5952052953901661
0.002749754934881244,-0.5952052953901661
0.002750054934881244,-0.5937744275197449
0.002750354934881244,-0.5930589935845343
0.002750654934881244,-0.592661530287195
0.002750954934881243,-0.5901177651842286
0.002751254934881243,-0.5896408092274178
0.002751554934881243,-0.5886868973138046
0.002751854934881244,-0.5874150147623151
0.002752154934881244,-0.5862226248702977
0.002752454934881244,-0.5851892202972158
0.002752754934881244,-0.5841558157241357
0.002753054934881244,-0.5827249478537144
0.002753354934881244,-0.5820095139185039
0.002753654934881244,-0.5795452414750006
0.002753954934881244,-0.5793067634965972
0.002754254934881244,-0.5775579249883046
0.002754554934881244,-0.5758090864800119
0.002754854934881244,-0.5754116231826728
0.002755154934881244,-0.5735832920149123
0.002755454934881244,-0.5726293801012982
0.002755754934881244,-0.5715164828687483
0.002756054934881244,-0.5699266296793914
0.002756354934881244,-0.5688932251063114
0.002756654934881243,-0.5679393131926971
0.002756954934881243,-0.5654750407491966
0.002757254934881244,-0.5647596068139797
0.002757554934881244,-0.5638056949003645
0.002757854934881244,-0.5621363490515412
0.002758154934881244,-0.5613414224568624
0.002758454934881244,-0.5603080178837823
0.002758754934881244,-0.5587181646944254
0.002759054934881244,-0.5579232380997469
0.002759354934881244,-0.557366789483472
0.002759654934881244,-0.5560949069319865
0.002759954934881244,-0.5554589656562438
0.002760254934881244,-0.5541870831047582
0.002760554934881244,-0.553312663850612
0.002760854934881244,-0.5525177372559334
0.002761154934881244,-0.5513253473639158
0.002761454934881244,-0.5500534648124303
0.002761754934881244,-0.5494970161961554
0.002762054934881243,-0.5476686850283983
0.002762354934881243,-0.5470327437526533
0.002762654934881243,-0.5453633979038305
0.002762954934881244,-0.5437735447144686
0.002763254934881244,-0.5426606474819204
0.002763554934881244,-0.5425016621629807
0.002763854934881244,-0.5401168823789497
0.002764154934881244,-0.5400373897194819
0.002764454934881244,-0.5382885512111892
0.002764754934881244,-0.5359832640866218
0.002765054934881244,-0.5359832640866218
0.002765354934881244,-0.5344729035567327
0.002765654934881244,-0.5324855870700366
0.002765954934881244,-0.5324060944105687
0.002766254934881244,-0.5314521824969546
0.002766554934881244,-0.5304187779238726
0.002766854934881244,-0.5295443586697264
0.002767154934881244,-0.528192983458773
0.002767454934881244,-0.5269211009072898
0.002767754934881243,-0.5262851596315459
0.002768054934881243,-0.5252517550584647
0.002768354934881244,-0.5246158137827184
0.002768654934881244,-0.5237413945285709
0.002768954934881244,-0.5222310339986836
0.002769254934881244,-0.5216745853824079
0.002769554934881244,-0.5206411808093278
0.002769854934881244,-0.5198462542146493
0.002770154934881244,-0.5183358936847603
0.002770454934881244,-0.5176999524090174
0.002770754934881244,-0.5163485771980642
0.002771054934881244,-0.5158716212412571
0.002771354934881244,-0.514361260711368
0.002771654934881244,-0.5134073487977538
0.002771954934881244,-0.5121354662462684
0.002772254934881244,-0.5109430763542507
0.002772554934881244,-0.5099096717811687
0.002772854934881244,-0.5088762672080868
0.002773154934881243,-0.5070479360403296
0.002773454934881243,-0.5058555461483109
0.002773754934881243,-0.5050606195536316
0.002774054934881244,-0.504345185618418
0.002774354934881244,-0.5034707663642712
0.002774654934881244,-0.5023578691317212
0.002774954934881244,-0.5011654792397058
0.002775254934881244,-0.4994166407314132
0.002775554934881244,-0.4994166407314132
0.002775854934881244,-0.4975883095636528
0.002776154934881244,-0.4965549049905708
0.002776454934881244,-0.4956804857364245
0.002776754934881244,-0.4950445444606817
0.002777054934881244,-0.4936136765902606
0.002777354934881244,-0.493375198611857
0.002777654934881244,-0.4926597646766464
0.002777954934881244,-0.4915468674440966
0.002778254934881244,-0.4904339702115468
0.002778554934881244,-0.4899570142547406
0.002778854934881243,-0.489082595000595
0.002779154934881243,-0.4882081757464487
0.002779454934881244,-0.4868568005354917
0.002779754934881244,-0.4857439033029428
0.002780054934881244,-0.485107962027199
0.002780354934881244,-0.4839155721351815
0.002780654934881244,-0.4828026749026337
0.002780954934881244,-0.4822462262863588
0.002781254934881244,-0.4806563730970019
0.002781554934881244,-0.4787485492697736
0.002781854934881244,-0.47851007129137
0.002782154934881244,-0.4777151446966916
0.002782454934881244,-0.4764432621452061
0.002782754934881244,-0.4757278282099955
0.002783054934881244,-0.4738994970422351
0.002783354934881244,-0.4733430484259601
0.002783654934881244,-0.4723096438528782
0.002783954934881244,-0.4711172539608605
0.002784254934881243,-0.4700043567283126
0.002784554934881243,-0.4694479081120367
0.002784854934881243,-0.4679375475821494
0.002785154934881244,-0.4680965329010801
0.002785454934881244,-0.466824650349593
0.002785754934881244,-0.4646783485439639
0.002786054934881244,-0.4640424072682223
0.002786354934881244,-0.4637244366303509
0.002786654934881244,-0.462691032057269
0.002786954934881244,-0.4625320467383333
0.002787254934881244,-0.462134583440994
0.002787554934881244,-0.4607037155705728
0.002787854934881244,-0.4602267596137657
0.002788154934881244,-0.4593523403596195
0.002788454934881244,-0.4581599504676018
0.002788754934881244,-0.4583189357865375
0.002789054934881244,-0.4560931413214379
0.002789354934881244,-0.4560931413214379
0.002789654934881244,-0.45498024408889
0.002789954934881243,-0.4536288688779371
0.002790254934881243,-0.4521980010075161
0.002790554934881244,-0.4521185083480421
0.002790854934881244,-0.4502106845208156
0.002791154934881244,-0.4492567726072028
0.002791454934881244,-0.4490182946287959
0.002791754934881244,-0.4469514854826357
0.002792054934881244,-0.4460770662284894
0.002792354934881244,-0.4456796029311502
0.002792654934881244,-0.4434538084660505
0.002792954934881244,-0.4429768525092435
0.002793254934881244,-0.4425793892119042
0.002793554934881244,-0.4407510580441438
0.002793854934881244,-0.4413869993198866
0.002794154934881244,-0.4400356241089332
0.002794454934881244,-0.4382867856006406
0.002794754934881244,-0.4384457709195763
0.002795054934881244,-0.4374123663464962
0.002795354934881243,-0.4361404837950111
0.002795654934881243,-0.4363789617734119
0.002795954934881243,-0.4352660645408645
0.002796254934881244,-0.4341531673083136
0.002796554934881244,-0.4346301232651159
0.002796854934881244,-0.4324838214594863
