-20250405-BKP/real-diodes-out/-bkp-20250401/100Hz1V/scope.csv

#Digilent WaveForms Oscilloscope Acquisition
#Device Name: Discovery3
#Serial Number: SN:210415BD5874
#Date Time: 2025-04-01 12:40:51.821.167.260
#Sample rate: 1.49254e+06Hz
#Samples: 32768
#Trigger: Source: Channel 1 Type: Edge Condition: Rising Level: 0 V Hyst.: Auto HoldOff: 0 s
#Channel 1: Range: 200 mV/div Offset: 0 V Sample Mode: Average
#Wavegen Channel 1: Running
#Mode: Simple
#Type: Sine
#Frequency: 100 Hz
#Period: 10 ms
#Amplitude: 1 V
#Offset: 0 V
#Symmetry: 50 %
#Phase: 0 °

Time (s),Channel 1 (V)
-0.01097676633333333,-0.471355731939264
-0.01097609633333333,-0.4718326878960702
-0.01097542633333333,-0.4715147172581997
-0.01097475633333333,-0.4714352245987319
-0.01097408633333333,-0.4715942099176675
-0.01097341633333333,-0.4711172539608599
-0.01097274633333333,-0.4707992833229891
-0.01097207633333333,-0.470878775982457
-0.01097140633333333,-0.4707197906635215
-0.01097073633333333,-0.4704813126851177
-0.01097006633333333,-0.4704813126851177
-0.01096939633333333,-0.4704813126851177
-0.01096872633333333,-0.4708787759824568
-0.01096805633333333,-0.4707992833229891
-0.01096738633333333,-0.4704813126851177
-0.01096671633333333,-0.4706402980040532
-0.01096604633333333,-0.4706402980040534
-0.01096537633333333,-0.4700043567283106
-0.01096470633333333,-0.4700043567283106
-0.01096403633333333,-0.4693684154525679
-0.01096336633333333,-0.4697658787499071
-0.01096269633333333,-0.4695274007715036
-0.01096202633333333,-0.4693684154525672
-0.01096135633333333,-0.4689709521552287
-0.01096068633333333,-0.4692094301336322
-0.01096001633333333,-0.4688119668362937
-0.01095934633333333,-0.4684939961984216
-0.01095867633333333,-0.4686529815173573
-0.01095800633333333,-0.4681760255605502
-0.01095733633333333,-0.4681760255605499
-0.01095666633333333,-0.4680170402416146
-0.01095599633333333,-0.4684145035389538
-0.01095532633333333,-0.4680170402416153
-0.01095465633333333,-0.4680170402416146
-0.01095398633333333,-0.4680170402416146
-0.01095331633333333,-0.4679375475821468
-0.01095264633333333,-0.4684939961984216
-0.01095197633333333,-0.4679375475821467
-0.01095130633333333,-0.4681760255605502
-0.01095063633333333,-0.4683350108794849
-0.01094996633333333,-0.467778562263211
-0.01094929633333333,-0.4681760255605502
-0.01094862633333333,-0.4675400842848086
-0.01094795633333333,-0.4676990696037431
-0.01094728633333333,-0.4673810989658718
-0.01094661633333333,-0.4669836356685326
-0.01094594633333333,-0.4668246503495964
-0.01094527633333333,-0.4665861723711933
-0.01094460633333333,-0.4663476943927898
-0.01094393633333333,-0.4661092164143867
-0.01094326633333333,-0.4661092164143862
-0.01094259633333333,-0.4654732751386435
-0.01094192633333333,-0.4653142898197078
-0.01094125633333333,-0.4653142898197075
-0.01094058633333333,-0.4651553045007721
-0.01093991633333333,-0.4653142898197078
-0.01093924633333333,-0.4653142898197072
-0.01093857633333333,-0.4649963191818364
-0.01093790633333333,-0.4650758118413043
-0.01093723633333333,-0.465155304500772
-0.01093656633333333,-0.4649168265223686
-0.01093589633333333,-0.4645193632250293
-0.01093522633333333,-0.4638834219492866
-0.01093455633333333,-0.464439870565561
-0.01093388633333333,-0.4641218999276902
-0.01093321633333333,-0.4637244366303509
-0.01093254633333333,-0.4637244366303509
-0.01093187633333333,-0.4637244366303509
-0.01093120633333333,-0.4639629146087544
-0.01093053633333333,-0.4637244366303509
-0.01092986633333333,-0.4634064659924795
-0.01092919633333333,-0.4634064659924795
-0.01092852633333333,-0.4630884953546082
-0.01092785633333333,-0.4626910320572697
-0.01092718633333333,-0.4630884953546082
-0.01092651633333333,-0.4629295100356725
-0.01092584633333333,-0.4626910320572694
-0.01092517633333333,-0.4629295100356725
-0.01092450633333333,-0.4630090026951403
-0.01092383633333333,-0.4624525540788654
-0.01092316633333333,-0.4620550907815271
-0.01092249633333333,-0.4625320467383333
-0.01092182633333333,-0.4620550907815262
-0.01092115633333333,-0.4617371201436554
-0.01092048633333333,-0.4619755981220584
-0.01091981633333333,-0.4618961054625905
-0.01091914633333333,-0.4617371201436548
-0.01091847633333333,-0.4614986421652515
-0.01091780633333333,-0.461657627484187
-0.01091713633333333,-0.4610216862084442
-0.01091646633333333,-0.4609421935489766
-0.01091579633333333,-0.4611011788679121
-0.01091512633333333,-0.4609421935489764
-0.01091445633333333,-0.461021686208444
-0.01091378633333333,-0.4603062522732336
-0.01091311633333333,-0.4603857449327015
-0.01091244633333333,-0.4603062522732336
-0.01091177633333333,-0.4598292963164273
-0.01091110633333333,-0.4602267596137657
-0.01091043633333333,-0.4597498036569587
-0.01090976633333333,-0.459670310997491
-0.01090909633333333,-0.4598292963164266
-0.01090842633333333,-0.4599882816353622
-0.01090775633333333,-0.4600677742948301
-0.01090708633333333,-0.4595113256785546
-0.01090641633333333,-0.4591933550406838
-0.01090574633333333,-0.4594318330190873
-0.01090507633333333,-0.459511325678555
-0.01090440633333333,-0.4594318330190873
-0.01090373633333333,-0.4588753844028124
-0.01090306633333333,-0.4586369064244093
-0.01090239633333333,-0.4588753844028124
-0.01090172633333333,-0.4586369064244089
-0.01090105633333333,-0.4576829945107947
-0.01090038633333333,-0.4579214724891985
-0.01089971633333333,-0.4580804578081339
-0.01089904633333333,-0.4579214724891982
-0.01089837633333333,-0.4577624871702629
-0.01089770633333333,-0.457524009191859
-0.01089703633333333,-0.4576035018513269
-0.01089636633333333,-0.4572060385539877
-0.01089569633333333,-0.4572855312134539
-0.01089502633333333,-0.4564111119593092
-0.01089435633333333,-0.4564906046187771
-0.01089368633333333,-0.4567290825971803
-0.01089301633333333,-0.4565700972782449
-0.01089234633333333,-0.4562521266403735
-0.01089167633333333,-0.4564906046187766
-0.01089100633333333,-0.4559341560025021
-0.01089033633333333,-0.4558546633430343
-0.01088966633333333,-0.4558546633430343
-0.01088899633333333,-0.4553777073862274
-0.01088832633333333,-0.4554572000456951
-0.01088765633333333,-0.4552982147267594
-0.01088698633333333,-0.4555366927051624
-0.01088631633333333,-0.454980244088888
-0.01088564633333333,-0.4552187220672915
-0.01088497633333333,-0.4552187220672915
-0.01088430633333333,-0.4548212587699523
-0.01088363633333333,-0.4548212587699523
-0.01088296633333333,-0.4546622734510166
-0.01088229633333333,-0.4548212587699521
-0.01088162633333333,-0.4549007514294202
-0.01088095633333333,-0.4544237954726131
-0.01088028633333333,-0.4537083615374038
-0.01087961633333333,-0.4536288688779346
-0.01087894633333333,-0.4537083615374025
-0.01087827633333333,-0.4533903908995311
-0.01087760633333333,-0.4535493762184662
-0.01087693633333333,-0.4532314055805954
-0.01087626633333333,-0.4533903908995311
-0.01087559633333333,-0.4526749569643218
-0.01087492633333333,-0.4527544496237884
-0.01087425633333333,-0.4529134349427241
-0.01087358633333333,-0.4531519129211276
-0.01087291633333333,-0.45267495696432
-0.01087224633333333,-0.4523569863264491
-0.01087157633333333,-0.4518800303696421
-0.01087090633333333,-0.4518005377101744
-0.01087023633333333,-0.4514825670723028
-0.01086956633333333,-0.4517210450507064
-0.01086889633333333,-0.4512440890939002
-0.01086822633333333,-0.4509261184560279
-0.01086755633333333,-0.4504491624992208
-0.01086688633333333,-0.4502901771802852
-0.01086621633333333,-0.4507671331370917
-0.01086554633333333,-0.4504491624992208
-0.01086487633333333,-0.450369669839753
-0.01086420633333333,-0.4501311918613499
-0.01086353633333333,-0.4499722065424138
-0.01086286633333333,-0.4496542359045424
-0.01086219633333333,-0.4496542359045424
-0.01086152633333333,-0.449654235904542
-0.01086085633333333,-0.4494157579261389
-0.01086018633333333,-0.4495747432450746
-0.01085951633333333,-0.4494157579261391
-0.01085884633333333,-0.4494952505856067
-0.01085817633333333,-0.4491772799477353
-0.01085750633333333,-0.4490977872882677
-0.01085683633333333,-0.4484618460125248
-0.01085616633333333,-0.4483823533530569
-0.01085549633333333,-0.4481438753746534
-0.01085482633333333,-0.4480643827151846
-0.01085415633333333,-0.4475874267583784
-0.01085348633333333,-0.4475079340989106
-0.01085281633333333,-0.4472694561205075
-0.01085214633333333,-0.4471899634610392
-0.01085147633333333,-0.4469514854826357
-0.01085080633333333,-0.4469514854826357
-0.01085013633333333,-0.4462360515474256
-0.01084946633333333,-0.4465540221852964
-0.01084879633333333,-0.4464745295258286
-0.01084812633333333,-0.4463155442068932
-0.01084745633333333,-0.4463950368663608
-0.01084678633333333,-0.4459180809095537
-0.01084611633333333,-0.4463155442068922
-0.01084544633333333,-0.4456001102716823
-0.01084477633333333,-0.4453616322932788
-0.01084410633333333,-0.4454411249527466
-0.01084343633333333,-0.4452026469743433
-0.01084276633333333,-0.445282139633811
-0.01084209633333333,-0.445282139633811
-0.01084142633333333,-0.4443282277201985
-0.01084075633333333,-0.4438512717633897
-0.01084008633333333,-0.4438512717633897
-0.01083941633333333,-0.444248735060729
-0.01083874633333333,-0.4438512717633893
-0.01083807633333333,-0.4436127937849862
-0.01083740633333333,-0.4427383745308399
-0.01083673633333333,-0.4428178671903076
-0.01083606633333333,-0.4422614185740328
-0.01083539633333333,-0.4425793892119042
-0.01083472633333333,-0.4428178671903073
-0.01083405633333333,-0.442579389211904
-0.01083338633333333,-0.4424998965524364
-0.01083271633333333,-0.4427383745308399
-0.01083204633333333,-0.4428178671903069
-0.01083137633333333,-0.4423409112335007
-0.01083070633333333,-0.4416254772982901
-0.01083003633333333,-0.4416254772982901
-0.01082936633333333,-0.4410690286820152
-0.01082869633333333,-0.4410690286820152
-0.01082802633333333,-0.4413869993198866
-0.01082735633333333,-0.4404330874062721
-0.01082668633333333,-0.4402741020873367
-0.01082601633333333,-0.440115116768401
-0.01082534633333333,-0.4401946094278687
-0.01082467633333333,-0.4401946094278689
-0.01082400633333333,-0.4399561314494654
-0.01082333633333333,-0.4397971461305297
-0.01082266633333333,-0.439479175492657
-0.01082199633333333,-0.4387637415574477
-0.01082132633333333,-0.4391612048547869
-0.01082065633333333,-0.4391612048547868
-0.01081998633333333,-0.4390817121953191
-0.01081931633333333,-0.4390022195358512
-0.01081864633333333,-0.4390022195358512
-0.01081797633333333,-0.438604756238512
-0.01081730633333333,-0.4383662782601085
-0.01081663633333333,-0.4389227268763834
-0.01081596633333333,-0.438445770919576
-0.01081529633333333,-0.4382867856006406
-0.01081462633333333,-0.4385252635790441
-0.01081395633333333,-0.4385252635790441
-0.01081328633333333,-0.4372533810275586
-0.01081261633333333,-0.437094395708623
-0.01081194633333333,-0.4366969324112837
-0.01081127633333333,-0.4371738883680902
-0.01081060633333333,-0.4368559177302194
-0.01080993633333333,-0.4366969324112837
-0.01080926633333333,-0.4361404837950091
-0.01080859633333333,-0.4362994691139445
-0.01080792633333333,-0.4362199764544766
-0.01080725633333333,-0.4360609911355413
-0.01080658633333333,-0.4355840351787339
-0.01080591633333333,-0.4355045425192661
-0.01080524633333333,-0.4356635278382017
-0.01080457633333333,-0.4354250498597975
-0.01080390633333333,-0.435027586562459
-0.01080323633333333,-0.4347096159245876
-0.01080256633333333,-0.4350275865624584
-0.01080189633333333,-0.4346301232651197
-0.01080122633333333,-0.4347096159245876
-0.01080055633333333,-0.4343121526272484
-0.01079988633333333,-0.4338351966704415
-0.01079921633333333,-0.4339146893299092
-0.01079854633333333,-0.432960777416295
-0.01079787633333333,-0.4330402700757626
-0.01079720633333333,-0.4328812847568272
-0.01079653633333333,-0.4327222994378915
-0.01079586633333333,-0.4326428067784238
-0.01079519633333333,-0.4327222994378915
-0.01079452633333333,-0.4322453434810844
-0.01079385633333333,-0.4322453434810844
-0.01079318633333333,-0.4318478801837449
-0.01079251633333333,-0.4316888948648095
-0.01079184633333333,-0.4317683875242774
-0.01079117633333333,-0.4314504168864065
-0.01079050633333333,-0.4315299095458738
-0.01078983633333333,-0.4313709242269381
-0.01078916633333333,-0.430893968270131
-0.01078849633333333,-0.4312914315674701
-0.01078782633333333,-0.4312119389080024
-0.01078715633333333,-0.4309734609295989
-0.01078648633333333,-0.4305759976322607
-0.01078581633333333,-0.4311324462485346
-0.01078514633333333,-0.4305759976322597
-0.01078447633333333,-0.4300195490159858
-0.01078380633333333,-0.4296220857186455
-0.01078313633333333,-0.4292246224213063
-0.01078246633333333,-0.4289861444429028
-0.01078179633333333,-0.4285886811455639
-0.01078112633333333,-0.4287476664644992
-0.01078045633333333,-0.4281117251887565
-0.01077978633333333,-0.4283502031671596
-0.01077911633333333,-0.4275552765724816
-0.01077844633333333,-0.4275552765724816
-0.01077777633333333,-0.4272373059346102
-0.01077710633333333,-0.4273167985940793
-0.01077643633333333,-0.4280322325292886
-0.01077576633333333,-0.426839842637271
-0.01077509633333333,-0.4266808573183355
-0.01077442633333333,-0.4261244087020604
-0.01077375633333333,-0.4262039013615282
-0.01077308633333333,-0.4262039013615282
-0.01077241633333333,-0.4257269454047212
-0.01077174633333333,-0.4255679600857855
-0.01077107633333333,-0.4254089747668497
-0.01077040633333333,-0.4250115114695098
-0.01076973633333333,-0.4246140481721713
-0.01076906633333333,-0.4246140481721713
-0.01076839633333333,-0.4239781068964297
-0.01076772633333333,-0.4238191215774929
-0.01076705633333333,-0.4242165848748321
-0.01076638633333333,-0.4238191215774929
-0.01076571633333333,-0.4231831803017503
-0.01076504633333333,-0.4232626729612179
-0.01076437633333333,-0.4231036876422823
-0.01076370633333333,-0.4228652096638792
-0.01076303633333333,-0.4224677463665395
-0.01076236633333333,-0.4223087610476038
-0.01076169633333333,-0.4223882537070715
-0.01076102633333333,-0.4224677463665395
-0.01076035633333333,-0.4220702830692003
-0.01075968633333333,-0.4219112977502646
-0.01075901633333333,-0.421831805090796
-0.01075834633333333,-0.4214343417934575
-0.01075767633333333,-0.4210368784961183
-0.01075700633333333,-0.4207189078582475
-0.01075633633333333,-0.4209573858366505
-0.01075566633333333,-0.4202419519014399
-0.01075499633333333,-0.420162459241972
-0.01075432633333333,-0.4197649959446323
-0.01075365633333333,-0.4195265179662293
-0.01075298633333333,-0.4195265179662293
-0.01075231633333333,-0.4187315913715522
-0.01075164633333333,-0.4190495620094222
-0.01075097633333333,-0.4188905766904865
-0.01075030633333333,-0.4183341280742126
-0.01074963633333333,-0.4182546354147437
-0.01074896633333333,-0.4178571721174045
-0.01074829633333333,-0.4175392014795332
-0.01074762633333333,-0.4176981867984681
-0.01074695633333333,-0.4173007235011296
-0.01074628633333333,-0.4174597088200653
-0.01074561633333333,-0.417539201479533
-0.01074494633333333,-0.4169827528632583
-0.01074427633333333,-0.4161878262685798
-0.01074360633333333,-0.4161083336091119
-0.01074293633333333,-0.4165057969064506
-0.01074226633333333,-0.4161878262685798
-0.01074159633333333,-0.4161878262685798
-0.01074092633333333,-0.4159493482901767
-0.01074025633333333,-0.4159493482901763
-0.01073958633333333,-0.4153928996739014
-0.01073891633333333,-0.4152339143549659
-0.01073824633333333,-0.4149954363765621
-0.01073757633333333,-0.4145979730792229
-0.01073690633333333,-0.4142800024413515
-0.01073623633333333,-0.4141210171224148
-0.01073556633333333,-0.4135645685061409
-0.01073489633333333,-0.4130876125493338
-0.01073422633333333,-0.412769641911463
-0.01073355633333333,-0.4122131932951876
-0.01073288633333333,-0.4118952226573162
-0.01073221633333333,-0.4124516712735911
-0.01073154633333333,-0.4116567446789129
-0.01073087633333333,-0.4118157299978483
-0.01073020633333333,-0.4112592813815734
-0.01072953633333333,-0.4112592813815734
-0.01072886633333333,-0.4111002960626377
-0.01072819633333333,-0.4107028327652985
-0.01072752633333333,-0.4107028327652985
-0.01072685633333333,-0.4106233401058304
-0.01072618633333333,-0.410464354786895
-0.01072551633333333,-0.4099873988300879
-0.01072484633333333,-0.4099079061706192
-0.01072417633333333,-0.409430950213813
-0.01072350633333333,-0.4093514575543452
-0.01072283633333333,-0.4095104428732805
-0.01072216633333333,-0.4092719648948773
-0.01072149633333333,-0.4088745015975381
-0.01072082633333333,-0.4083180529812632
-0.01072015633333333,-0.4086360236191341
-0.01071948633333333,-0.408397545640731
-0.01071881633333333,-0.4075231263865847
-0.01071814633333333,-0.4068076924513754
-0.01071747633333333,-0.4066487071324384
-0.01071680633333333,-0.4069666777703098
-0.01071613633333333,-0.4070461704297776
-0.01071546633333333,-0.4066487071324369
-0.01071479633333333,-0.4058537805377599
-0.01071412633333333,-0.4058537805377599
-0.01071345633333333,-0.4058537805377594
-0.01071278633333333,-0.4055358098998886
-0.01071211633333333,-0.405297331921485
-0.01071144633333333,-0.4048998686241466
-0.01071077633333333,-0.4047408833052101
-0.01071010633333333,-0.4042639273484031
-0.01070943633333333,-0.403786971391596
-0.01070876633333333,-0.4037074787321271
-0.01070809633333333,-0.4031510301158532
-0.01070742633333333,-0.4031510301158532
-0.01070675633333333,-0.403230522775321
-0.01070608633333333,-0.4026740741590462
-0.01070541633333333,-0.4021176255427713
-0.01070474633333333,-0.402276610861707
-0.01070407633333333,-0.4017201622454311
-0.01070340633333333,-0.4011637136291571
-0.01070273633333333,-0.4010047283102214
-0.01070206633333333,-0.4010842209696893
-0.01070139633333333,-0.4010842209696893
-0.01070072633333333,-0.4009252356507536
-0.01070005633333333,-0.4008457429912859
-0.01069938633333333,-0.4008457429912858
-0.01069871633333333,-0.3998918310776716
-0.01069804633333333,-0.3999713237371395
-0.01069737633333333,-0.3990969044829937
-0.01069670633333333,-0.3994148751208645
-0.01069603633333333,-0.3990969044829932
-0.01069536633333333,-0.3991763971424608
-0.01069469633333333,-0.3993353824613967
-0.01069402633333333,-0.3982224852288469
-0.01069335633333333,-0.3985404558667183
-0.01069268633333333,-0.3979045145909748
-0.01069201633333333,-0.3975070512936363
-0.01069134633333333,-0.3967916173584257
-0.01069067633333333,-0.3975865439531028
-0.01069000633333333,-0.3968711100178935
-0.01068933633333333,-0.3963146614016186
-0.01068866633333333,-0.3963146614016186
-0.01068799633333333,-0.3967916173584257
-0.01068732633333333,-0.3961556760826829
-0.01068665633333333,-0.3952812568285366
-0.01068598633333333,-0.3953607494880042
-0.01068531633333333,-0.3952017641690688
-0.01068464633333333,-0.3948837935311974
-0.01068397633333333,-0.3942478522554558
-0.01068330633333333,-0.3939298816175832
-0.01068263633333333,-0.3934529256607762
-0.01068196633333333,-0.3932939403418405
-0.01068129633333333,-0.3927374917255656
-0.01068062633333333,-0.3927374917255656
-0.01067995633333333,-0.3924195210876942
-0.01067928633333333,-0.3924195210876935
-0.01067861633333333,-0.392022057790355
-0.01067794633333333,-0.392022057790355
-0.01067727633333333,-0.3910681458767426
-0.01067660633333333,-0.3913066238551444
-0.01067593633333333,-0.3910681458767409
-0.01067526633333333,-0.3906706825794016
-0.01067459633333333,-0.3898757559847233
-0.01067392633333333,-0.389955248644191
-0.01067325633333333,-0.3905116972604659
-0.01067258633333333,-0.3901937266225951
-0.01067191633333333,-0.389955248644191
-0.01067124633333333,-0.3890808293900447
-0.01067057633333333,-0.3892398147089804
-0.01066990633333333,-0.3886038734332369
-0.01066923633333333,-0.3882064101358985
-0.01066856633333333,-0.3880474248169627
-0.01066789633333333,-0.3880474248169627
-0.01066722633333333,-0.3871730055628165
-0.01066655633333333,-0.3872524982222843
-0.01066588633333333,-0.3864575716276073
-0.01066521633333333,-0.3866960496060094
-0.01066454633333333,-0.3859806156707988
-0.01066387633333333,-0.3856626450329274
-0.01066320633333333,-0.3858216303518612
-0.01066253633333333,-0.3847882257787811
-0.01066186633333333,-0.3851061964166525
-0.01066119633333333,-0.3843112698219755
-0.01066052633333333,-0.383834313865167
-0.01065985633333333,-0.3837548212056991
-0.01065918633333333,-0.3833573579083599
-0.01065851633333333,-0.3835163432272943
