real-diodes-in-T10-L10-D10/1kHz2V/scope.csv

#Digilent WaveForms Oscilloscope Acquisition
#Device Name: Discovery3
#Serial Number: SN:210415BD5874
#Date Time: 2025-04-03 15:57:55.847.272.720
#Sample rate: 3.33333e+06Hz
#Samples: 32768
#Trigger: Source: Channel 1 Type: Edge Condition: Rising Level: 0 V Hyst.: Auto HoldOff: 0 s
#Channel 1: Range: 200 mV/div Offset: 0 V Sample Mode: Average
#Wavegen Channel 1: Running
#Mode: Simple
#Type: Sine
#Frequency: 1 kHz
#Period: 1 ms
#Amplitude: 2 V
#Offset: 0 V
#Symmetry: 50 %
#Phase: 0 °

Time (s),Channel 1 (V)
0.002654716550165656,0.05560110767307859
0.002655016550165656,0.05583958565148213
0.002655316550165656,0.05480618107840014
0.002655616550165656,0.05591907831094997
0.002655916550165656,0.05568060033254645
0.002656216550165656,0.05464719575946446
0.002656516550165655,0.05639603426775386
0.002656816550165655,0.05552161501361234
0.002657116550165655,0.05440871778106295
0.002657416550165655,0.05583958565147953
0.002657716550165656,0.05520364437573893
0.002658016550165656,0.05496516639733613
0.002658316550165656,0.0551241517162695
0.002658616550165656,0.0540112544837217
0.002658916550165656,0.0540112544837217
0.002659216550165656,0.05464719575946446
0.002659516550165656,0.05369328384585033
0.002659816550165656,0.05409074714318955
0.002660116550165656,0.05448821044052878
0.002660416550165656,0.05385226916478601
0.002660716550165656,0.05361379118638247
0.002661016550165656,0.05448821044052878
0.002661316550165656,0.05361379118638247
0.002661616550165656,0.05448821044052878
0.002661916550165656,0.05560110767307859
0.002662216550165655,0.05560110767307859
0.002662516550165655,0.0559190783109494
0.002662816550165655,0.05631654160828847
0.002663116550165656,0.05639603426775848
0.002663416550165656,0.0571909608624362
0.002663716550165656,0.05758842415977428
0.002664016550165656,0.05734994618137262
0.002664316550165656,0.05814487277604963
0.002664616550165656,0.05790639479764609
0.002664916550165656,0.05766791681924256
0.002665216550165656,0.05814487277604963
0.002665516550165656,0.0577474094787104
0.002665816550165656,0.0570319755434998
0.002666116550165656,0.05742943884083902
0.002666416550165656,0.0570319755434998
0.002666716550165656,0.05623704894882135
0.002667016550165656,0.05711146820296764
0.002667316550165656,0.05679349756509626
0.002667616550165655,0.05599857097041926
0.002667916550165655,0.05568060033254702
0.002668216550165655,0.05560110767307874
0.002668516550165655,0.0553626296946755
0.002668816550165656,0.05536262969467579
0.002669116550165656,0.05576009299201385
0.002669416550165656,0.05552161501361003
0.002669716550165656,0.05512415171627152
0.002670016550165656,0.05544212235414291
0.002670316550165656,0.05504465905680368
0.002670616550165656,0.05583958565148213
0.002670916550165656,0.05512415171627152
0.002671216550165656,0.05448821044052878
0.002671516550165656,0.054885673737868
0.002671816550165656,0.05568060033254645
0.002672116550165656,0.05448821044052878
0.002672416550165656,0.05591907831094997
0.002672716550165656,0.05576009299201429
0.002673016550165656,0.05504465905680368
0.002673316550165655,0.05615755628935148
0.002673616550165655,0.0559985709704181
0.002673916550165655,0.05560110767307931
0.002674216550165656,0.05687299022456253
0.002674516550165656,0.05599857097041695
0.002674816550165656,0.05552161501361191
0.002675116550165656,0.05615755628935148
0.002675416550165656,0.05504465905680368
0.002675716550165656,0.05520364437573937
0.002676016550165656,0.05560110767307859
0.002676316550165656,0.0547266884189323
0.002676616550165656,0.05528313703520722
0.002676916550165656,0.05568060033254645
0.002677216550165656,0.05480618107840014
0.002677516550165656,0.05544212235414291
0.002677816550165656,0.05576009299201429
0.002678116550165656,0.05464719575946446
0.002678416550165656,0.05591907831094997
0.002678716550165655,0.05671400490562697
0.002679016550165655,0.05552161501361292
0.002679316550165655,0.05671400490562625
0.002679616550165655,0.05687299022456382
0.002679916550165656,0.05591907831095301
0.002680216550165656,0.05758842415977371
0.002680516550165656,0.05703197554349879
0.002680816550165656,0.05647552692722489
0.002681116550165656,0.05758842415977472
0.002681416550165656,0.05655501958669273
0.002681716550165656,0.05655501958669273
0.002682016550165656,0.05758842415977472
0.002682316550165656,0.05663451224616058
0.002682616550165656,0.05679349756509626
0.002682916550165656,0.05742943884083902
0.002683216550165656,0.05623704894882135
0.002683516550165656,0.05631654160828919
0.002683816550165656,0.05695248288403196
0.002684116550165656,0.05480618107840014
0.002684416550165655,0.05623704894881875
0.002684716550165655,0.05623704894882135
0.002685016550165655,0.05464719575946735
0.002685316550165656,0.05568060033254702
0.002685616550165656,0.05599857097041507
0.002685916550165656,0.05448821044053181
0.002686216550165656,0.05615755628935351
0.002686516550165656,0.05568060033254645
0.002686816550165656,0.05504465905680368
0.002687116550165656,0.05687299022456412
0.002687416550165656,0.05623704894882135
0.002687716550165656,0.05591907831094997
0.002688016550165656,0.05679349756509626
0.002688316550165656,0.05607806362988567
0.002688616550165656,0.05647552692722489
0.002688916550165656,0.05711146820296764
0.002689216550165656,0.05631654160828919
0.002689516550165656,0.0570319755434998
0.002689816550165655,0.0572704535219029
0.002690116550165655,0.05655501958669404
0.002690416550165655,0.05695248288403124
0.002690716550165655,0.05719096086243505
0.002691016550165656,0.05671400490562958
0.002691316550165656,0.05734994618137002
0.002691616550165656,0.05671400490562755
0.002691916550165656,0.05623704894882135
0.002692216550165656,0.05671400490562842
0.002692516550165656,0.05607806362988567
0.002692816550165656,0.05576009299201429
0.002693116550165656,0.05671400490562842
0.002693416550165656,0.05591907831094997
0.002693716550165656,0.05512415171627152
0.002694016550165656,0.05544212235414291
0.002694316550165656,0.05480618107840014
0.002694616550165656,0.05552161501361075
0.002694916550165656,0.05599857097041781
0.002695216550165655,0.05544212235414291
0.002695516550165655,0.0550446590568044
0.002695816550165655,0.05560110767307758
0.002696116550165655,0.0554421223541432
0.002696416550165656,0.05576009299201429
0.002696716550165656,0.05576009299201458
0.002697016550165656,0.0559190783109494
0.002697316550165656,0.05560110767307859
0.002697616550165656,0.05576009299201429
0.002697916550165656,0.05583958565148213
0.002698216550165656,0.05663451224616058
0.002698516550165656,0.05639603426775704
0.002698816550165656,0.05671400490562842
0.002699116550165656,0.05711146820296764
0.002699416550165656,0.05671400490562842
0.002699716550165656,0.05695248288403196
0.002700016550165656,0.05790639479764609
0.002700316550165656,0.05679349756509626
0.002700616550165656,0.05679349756509626
0.002700916550165655,0.05695248288403167
0.002701216550165655,0.05631654160829035
0.002701516550165655,0.0567140049056277
0.002701816550165655,0.05599857097041912
0.002702116550165656,0.05623704894882092
0.002702416550165656,0.05599857097041709
0.002702716550165656,0.05560110767307715
0.002703016550165656,0.05480618107840014
0.002703316550165656,0.05536262969467506
0.002703616550165656,0.05456770309999662
0.002703916550165656,0.0547266884189323
0.002704216550165656,0.05560110767307859
0.002704516550165656,0.05480618107840014
0.002704816550165656,0.05528313703520722
0.002705116550165656,0.05591907831094997
0.002705416550165656,0.05480618107840014
0.002705716550165656,0.05623704894882135
0.002706016550165656,0.05639603426775704
0.002706316550165655,0.05583958565148213
0.002706616550165655,0.05679349756509453
0.002706916550165655,0.05591907831095156
0.002707216550165655,0.05631654160828847
0.002707516550165656,0.05750893150030426
0.002707816550165656,0.05607806362988654
0.002708116550165656,0.05655501958669491
0.002708416550165656,0.0577474094787104
0.002708716550165656,0.05655501958669273
0.002709016550165656,0.0570319755434998
0.002709316550165656,0.05695248288403196
0.002709616550165656,0.05591907831094997
0.002709916550165656,0.05679349756509626
0.002710216550165656,0.05679349756509626
0.002710516550165656,0.05583958565148213
0.002710816550165656,0.05719096086243548
0.002711116550165656,0.05711146820296764
0.002711416550165656,0.05615755628935351
0.002711716550165656,0.05679349756509626
0.002712016550165655,0.05750893150030556
0.002712316550165655,0.05679349756509756
0.002712616550165655,0.05790639479764406
0.002712916550165655,0.05711146820296908
0.002713216550165656,0.0561575562893551
0.002713516550165656,0.05703197554349763
0.002713816550165656,0.05583958565148242
0.002714116550165656,0.05599857097041781
0.002714416550165656,0.05639603426775704
0.002714716550165656,0.05504465905680368
0.002715016550165656,0.05552161501361075
0.002715316550165656,0.05639603426775704
0.002715616550165656,0.05448821044052878
0.002715916550165656,0.05536262969467506
0.002716216550165656,0.05607806362988567
0.002716516550165656,0.05520364437573937
0.002716816550165656,0.0570319755434998
0.002717116550165656,0.05655501958669273
0.002717416550165655,0.05512415171627152
0.002717716550165655,0.05711146820296403
0.002718016550165655,0.05695248288403225
0.002718316550165655,0.05576009299201646
0.002718616550165656,0.05719096086243447
0.002718916550165656,0.05663451224615884
0.002719216550165656,0.0556806003325489
0.002719516550165656,0.0570319755434998
0.002719816550165656,0.05576009299201429
0.002720116550165656,0.05528313703520722
0.002720416550165656,0.05576009299201429
0.002720716550165656,0.05496516639733584
0.002721016550165656,0.05552161501361075
0.002721316550165656,0.05560110767307859
0.002721616550165656,0.05496516639733584
0.002721916550165656,0.05520364437573937
0.002722216550165656,0.05528313703520722
0.002722516550165656,0.05385226916478601
0.002722816550165656,0.05385226916478601
0.002723116550165655,0.05345480586744751
0.002723416550165655,0.05114951874288348
0.002723716550165655,0.04987763619139609
0.002724016550165655,0.04852626098044287
0.002724316550165656,0.04550553992065871
0.002724616550165656,0.04351822343396172
0.002724916550165656,0.04105395099045665
0.002725216550165656,0.03755627397387784
0.002725516550165656,0.03636388408186017
0.002725816550165656,0.03254823642740363
0.002726116550165656,0.02920954472975415
0.002726416550165656,0.02618882366997605
0.002726716550165656,0.0223731760155195
0.002727016550165656,0.01760361644744882
0.002727316550165656,0.01450340272820288
0.002727616550165656,0.008938916565453748
0.002727916550165656,0.00408986433791522
0.002728216550165656,-0.000520709911219774
0.002728516550165655,-0.006959615328115196
0.002728816550165655,-0.01339852074499891
0.002729116550165655,-0.01920148488615273
0.002729416550165655,-0.02699176551399789
0.002729716550165656,-0.03462306082293846
0.002730016550165656,-0.04193638549398278
0.002730316550165656,-0.05068057803544569
0.002730616550165656,-0.0594247705768927
0.002730916550165656,-0.06824845577782347
0.002731216550165656,-0.07810554555183621
0.002731516550165656,-0.08843959128265604
0.002731816550165656,-0.09885312967294368
0.002732116550165656,-0.1101410873173776
0.002732416550165656,-0.1213495523023437
0.002732716550165656,-0.133511929200924
0.002733016550165656,-0.1462307547157791
0.002733316550165656,-0.1599034921442484
0.002733616550165656,-0.1726223176591036
0.002733916550165656,-0.1863745477470407
0.002734216550165655,-0.2007627191106944
0.002734516550165655,-0.2156278464311805
0.002734816550165655,-0.2309699297084737
0.002735116550165656,-0.2460735350074194
0.002735416550165656,-0.261097647646846
0.002735716550165656,-0.2782680620919003
0.002736016550165656,-0.2953589838774854
0.002736316550165656,-0.311654979068364
0.002736616550165656,-0.3301767687243718
0.002736916550165656,-0.3471087051910227
0.002737216550165656,-0.3655510021875627
0.002737516550165656,-0.3839138065246348
0.002737816550165656,-0.4026740741590462
0.002738116550165656,-0.4213548491339897
0.002738416550165656,-0.442181925914565
0.002738716550165656,-0.4603857449327015
0.002739016550165656,-0.4804178951185983
0.002739316550165656,-0.501085986580238
0.002739616550165655,-0.5205616881498599
0.002739916550165655,-0.5409913016330588
0.002740216550165655,-0.5620568563920365
0.002740516550165655,-0.5820890065779353
0.002740816550165656,-0.6026776053801804
0.002741116550165656,-0.6230277262039428
0.002741416550165656,-0.6400391553300602
0.002741716550165656,-0.6563351505209387
0.002742016550165656,-0.6691334686952617
0.002742316550165656,-0.6760493300689642
0.002742616550165656,-0.6820907721885203
0.002742916550165656,-0.6843165666536201
0.002743216550165656,-0.6845550446320235
0.002743516550165656,-0.6852704785672341
0.002743816550165656,-0.684793522610427
0.002744116550165656,-0.6836011327184094
0.002744416550165656,-0.6837601180373452
0.002744716550165656,-0.6828856987831988
0.002745016550165656,-0.6814548309127776
0.002745316550165655,-0.6828062061237286
0.002745616550165655,-0.6813753382533123
0.002745916550165655,-0.6801829483612943
0.002746216550165656,-0.680659904318096
0.002746516550165656,-0.6789110658098041
0.002746816550165656,-0.6775596905988529
0.002747116550165656,-0.6774007052799141
0.002747416550165656,-0.6755723741121571
0.002747716550165656,-0.6738235356038645
0.002748016550165656,-0.673028609009186
0.002748316550165656,-0.6707233218846186
0.002748616550165656,-0.6692924540141973
0.002748916550165656,-0.668418034760051
0.002749216550165656,-0.6655562990192087
0.002749516550165656,-0.6648408650839981
0.002749816550165656,-0.6634099972135769
0.002750116550165656,-0.6611047100890094
0.002750416550165656,-0.6606277541322023
0.002750716550165655,-0.6591968862617811
0.002751016550165655,-0.6566531211588147
0.002751316550165655,-0.6561761652020038
0.002751616550165655,-0.6546658046721167
0.002751916550165656,-0.6528374735043529
0.002752216550165656,-0.6525195028664784
0.002752516550165656,-0.6505321863797827
0.002752816550165656,-0.6487038552120256
0.002753116550165656,-0.6481474065957507
0.002753416550165656,-0.6463190754279903
0.002753716550165656,-0.6444907442602298
0.002754016550165656,-0.6440932809628905
0.002754316550165656,-0.6419469791572587
0.002754616550165656,-0.6408340819247089
0.002754916550165656,-0.6413905305409838
0.002755216550165656,-0.6389262580974807
0.002755516550165656,-0.6378928535243987
0.002755816550165656,-0.6374158975675916
0.002756116550165656,-0.6357465517187669
0.002756416550165655,-0.634395176507816
0.002756716550165655,-0.6337592352320719
0.002757016550165655,-0.6315334407669752
0.002757316550165656,-0.6305000361938867
0.002757616550165656,-0.6291486609829319
0.002757916550165656,-0.627002359177302
0.002758216550165656,-0.6258894619447521
0.002758516550165656,-0.6247765647122043
0.002758816550165656,-0.622868740884976
0.002759116550165656,-0.6216763509929584
0.002759416550165656,-0.620324975782005
0.002759716550165656,-0.6180991813169053
0.002760016550165656,-0.6178607033385018
0.002760316550165656,-0.6160323721707414
0.002760616550165656,-0.6149989675976594
0.002760916550165656,-0.614204041002981
0.002761216550165656,-0.6124552024946884
0.002761516550165656,-0.6109448419647994
0.002761816550165655,-0.6094344814349103
0.002762116550165655,-0.6083215842023625
0.002762416550165655,-0.606334267715668
0.002762716550165655,-0.606175282396729
0.002763016550165656,-0.6038699952721592
0.002763316550165656,-0.6028365906990781
0.002763616550165656,-0.6022801420828005
0.002763916550165656,-0.6002133329366403
0.002764216550165656,-0.5992594210230262
0.002764516550165656,-0.5987029724067513
0.002764816550165656,-0.5975900751742014
0.002765116550165656,-0.595761744006441
0.002765416550165656,-0.5948873247522947
0.002765716550165656,-0.5942513834765519
0.002766016550165656,-0.5933769642224057
0.002766316550165656,-0.5924230523087916
0.002766616550165656,-0.5901972578436918
0.002766916550165656,-0.5889253752922063
0.002767216550165656,-0.5878919707191244
0.002767516550165655,-0.5859841468918996
0.002767816550165655,-0.5849507423188161
0.002768116550165655,-0.584473786362008
0.002768416550165656,-0.5824864698753081
0.002768716550165656,-0.5808966166859525
0.002769016550165656,-0.5800221974318049
0.002769316550165656,-0.5785118369019169
0.002769616550165656,-0.5775579249883046
0.002769916550165656,-0.5765245204152226
0.002770216550165656,-0.5742987259501229
0.002770516550165656,-0.5731858287175731
0.002770816550165656,-0.5727883654202339
0.002771116550165656,-0.5708010489335378
0.002771416550165656,-0.5692906884036487
0.002771716550165656,-0.5684162691495024
0.002772016550165656,-0.5672238792574847
0.002772316550165656,-0.5659519967059993
0.002772616550165656,-0.5657930113870635
0.002772916550165655,-0.5636467095814317
0.002773216550165655,-0.5632492462840933
0.002773516550165655,-0.5622158417110125
0.002773816550165655,-0.5611824371379305
0.002774116550165656,-0.5607054811811196
0.002774416550165656,-0.5596720766080362
0.002774716550165656,-0.5578437454402791
0.002775016550165656,-0.5579232380997469
0.002775316550165656,-0.5555384583157116
0.002775616550165656,-0.5545050537426296
0.002775916550165656,-0.5545050537426296
0.002776216550165656,-0.55227925927753
0.002776516550165656,-0.550212450131366
0.002776816550165656,-0.5504509281097695
0.002777116550165656,-0.5475891923689271
0.002777416550165656,-0.5467942657742486
0.002777716550165656,-0.5463173098174415
0.002778016550165656,-0.5443299933307455
0.002778316550165656,-0.5428991254603243
0.002778616550165655,-0.5432170960981951
0.002778916550165655,-0.5409118089736323
0.002779216550165655,-0.5397989117410803
0.002779516550165656,-0.5396399264221386
0.002779816550165656,-0.5374141319570429
0.002780116550165656,-0.5373346392975732
0.002780416550165656,-0.5363012347244885
0.002780716550165656,-0.5337574696215222
0.002781016550165656,-0.5333600063241829
0.002781316550165656,-0.5331215283457794
0.002781616550165656,-0.5315316751564225
0.002781916550165656,-0.5314521824969546
0.002782216550165656,-0.5295443586697264
0.002782516550165656,-0.5279545054803695
0.002782816550165656,-0.5288289247345157
0.002783116550165656,-0.5270800862262232
0.002783416550165656,-0.5254902330368663
0.002783716550165656,-0.5256492183558019
0.002784016550165655,-0.5237413945285737
0.002784316550165655,-0.5219925560202843
0.002784616550165655,-0.521754078041878
0.002784916550165655,-0.5192898055983788
0.002785216550165656,-0.5190513276199695
0.002785516550165656,-0.5183358936847569
0.002785816550165656,-0.5164280698575296
0.002786116550165656,-0.5151561873060465
0.002786416550165656,-0.5149972019871107
0.002786716550165656,-0.5116585102894613
0.002787016550165656,-0.5114995249705256
0.002787316550165656,-0.5105456130569115
0.002787616550165656,-0.5075248919971334
0.002787916550165656,-0.506729965402455
0.002788216550165656,-0.5060940241267121
0.002788516550165656,-0.5037887370021447
0.002788816550165656,-0.5028348250885305
0.002789116550165656,-0.5018014205154485
0.002789416550165656,-0.5001320746666238
0.002789716550165655,-0.5005295379639623
0.002790016550165655,-0.4994166407314152
0.002790316550165655,-0.4984627288178008
0.002790616550165656,-0.4982242508393934
0.002790916550165656,-0.4970318609473752
0.002791216550165656,-0.4956009930769567
0.002791516550165656,-0.4956009930769535
0.002791816550165656,-0.493852154568664
0.002792116550165656,-0.4928187499955821
0.002792416550165656,-0.4916263601035644
0.002792716550165656,-0.4904339702115468
0.002793016550165656,-0.4895595509574004
0.002793316550165656,-0.4885261463843185
0.002793616550165656,-0.4870952785138973
0.002793916550165656,-0.4860618739408153
0.002794216550165656,-0.4863798445786867
0.002794516550165656,-0.4848694840487976
0.002794816550165656,-0.484154050113587
0.002795116550165655,-0.4839155721351839
0.002795416550165655,-0.4824847042647649
0.002795716550165655,-0.4816102850106176
0.002796016550165655,-0.4812128217132775
0.002796316550165656,-0.4797024611833854
0.002796616550165656,-0.478430578631901
0.002796916550165656,-0.4777946373561564
0.002797216550165656,-0.4761252915073347
