synth-diodes-out/-bkp-20250402/100Hz5V/scope.csv

#Digilent WaveForms Oscilloscope Acquisition
#Device Name: Discovery3
#Serial Number: SN:210415BD5874
#Date Time: 2025-04-01 16:54:55.320.738.290
#Sample rate: 299401Hz
#Samples: 32768
#Trigger: Source: Channel 1 Type: Edge Condition: Rising Level: 0 V Hyst.: Auto HoldOff: 0 s
#Channel 1: Range: 200 mV/div Offset: 0 V Sample Mode: Average
#Wavegen Channel 1: Running
#Mode: Simple
#Type: Sine
#Frequency: 100 Hz
#Period: 10 ms
#Amplitude: 5 V
#Offset: 0 V
#Symmetry: 50 %
#Phase: 0 °

Time (s),Channel 1 (V)
-0.05471947413043478,-0.2080760437817623
-0.05471613413043477,-0.2172176996205644
-0.05471279413043478,-0.2160253097285468
-0.05470945413043478,-0.2147534271770613
-0.05470611413043477,-0.2170587143016288
-0.05470277413043478,-0.2238155903563956
-0.05469943413043478,-0.2251669655673489
-0.05469609413043477,-0.2251669655673489
-0.05469275413043478,-0.2248489949294775
-0.05468941413043478,-0.2370908644875256
-0.05468607413043478,-0.2364549232117829
-0.05468273413043478,-0.2375678204443327
-0.05467939413043477,-0.2400320928878331
-0.05467605413043478,-0.2385217323579469
-0.05467271413043478,-0.2483788221319596
-0.05466937413043477,-0.2487762854292988
-0.05466603413043478,-0.2475838955372811
-0.05466269413043478,-0.2569640293544868
-0.05465935413043477,-0.2586333752033115
-0.05465601413043478,-0.2579974339275688
-0.05465267413043478,-0.261495110944154
-0.05464933413043477,-0.2615746036036218
-0.05464599413043478,-0.2691264062530671
-0.05464265413043478,-0.2684109723178577
-0.05463931413043478,-0.2682519869989208
-0.05463597413043478,-0.2754858190104946
-0.05463263413043477,-0.2776321208161279
-0.05462929413043478,-0.2784270474108049
-0.05462595413043478,-0.2818452317679222
-0.05462261413043477,-0.2810503051732438
-0.05461927413043478,-0.2939281160070346
-0.05461593413043478,-0.2918613068608706
-0.05461259413043477,-0.2910663802661922
-0.05460925413043478,-0.2939281160070346
-0.05460591413043478,-0.3047391176946615
-0.05460257413043478,-0.3020363672727548
-0.05459923413043478,-0.3031492645053046
-0.05459589413043478,-0.3022748452511599
-0.05459255413043478,-0.310621574495282
-0.05458921413043478,-0.3114959937494283
-0.05458587413043477,-0.3101446185384778
-0.05458253413043478,-0.3117344717278318
-0.05457919413043478,-0.3114165010899604
-0.05457585413043477,-0.3258841651131082
-0.05457251413043478,-0.3262816284104474
-0.05456917413043478,-0.3248507605400262
-0.05456583413043477,-0.3359002402060566
-0.05456249413043478,-0.3380465420116884
-0.05455915413043478,-0.3374900933954135
-0.05455581413043478,-0.3398748731794489
-0.05455247413043478,-0.3416237116877414
-0.05454913413043478,-0.3481421097640928
-0.05454579413043478,-0.3487780510398475
-0.05454245413043478,-0.3479036317857012
-0.05453911413043477,-0.3544220298620644
-0.05453577413043478,-0.3580786921975853
-0.05453243413043478,-0.3573632582623747
-0.05452909413043477,-0.3593505747490708
-0.05452575413043478,-0.3571247802839712
-0.05452241413043478,-0.3661869434633054
-0.05451907413043477,-0.3687307085662765
-0.05451573413043478,-0.3680152746310659
-0.05451239413043478,-0.3705590397340323
-0.05450905413043478,-0.381767504719003
-0.05450571413043478,-0.3801776515296461
-0.05450237413043477,-0.3830393872704929
-0.05449903413043478,-0.3854241670545239
-0.05449569413043478,-0.3974275586341685
-0.05449235413043477,-0.3957582127853437
-0.05448901413043478,-0.3952812568285366
-0.05448567413043478,-0.3979045145909755
-0.05448233413043477,-0.4059332731972278
-0.05447899413043478,-0.4062512438350992
-0.05447565413043478,-0.4080795750028596
-0.05447231413043477,-0.4055358098998886
-0.05446897413043478,-0.4049793612836137
-0.05446563413043478,-0.4158698556306886
-0.05446229413043478,-0.4138825391440123
-0.05445895413043478,-0.4166647822253868
-0.05445561413043477,-0.4218318050908041
-0.05445227413043478,-0.4258859307236568
-0.05444893413043478,-0.4266808573183353
-0.05444559413043477,-0.4266808573183353
-0.05444225413043478,-0.4310529535890668
-0.05443891413043478,-0.4369354103896873
-0.05443557413043477,-0.4367764250707515
-0.05443223413043478,-0.4379688149627692
-0.05442889413043478,-0.4409100433630795
-0.05442555413043478,-0.4474284414394428
-0.05442221413043478,-0.4474284414394428
-0.05441887413043478,-0.4454411249527502
-0.05441553413043478,-0.4481438753746534
-0.05441219413043478,-0.4523569863264491
-0.05440885413043477,-0.4548212587699555
-0.05440551413043478,-0.4565700972782449
-0.05440217413043478,-0.4564906046187771
-0.05439883413043477,-0.4680170402416146
-0.05439549413043478,-0.4678580549226788
-0.05439215413043478,-0.4657912457765149
-0.05438881413043477,-0.4680965329010824
-0.05438547413043478,-0.4783510859724344
-0.05438213413043478,-0.4827231822431658
-0.05437879413043478,-0.4849489767082655
-0.05437545413043478,-0.4864593372381545
-0.05437211413043477,-0.484710498729882
-0.05436877413043478,-0.4957599783958924
-0.05436543413043478,-0.4932957059523891
-0.05436209413043477,-0.494885559141746
-0.05435875413043478,-0.501562942537045
-0.05435541413043478,-0.5043451856184196
-0.05435207413043477,-0.5051401122130981
-0.05434873413043478,-0.5035502590237412
-0.05434539413043478,-0.5064914874240514
-0.05434205413043477,-0.5142022753924324
-0.05433871413043478,-0.512294451565204
-0.05433537413043478,-0.5140432900734934
-0.05433203413043478,-0.5157921285817892
-0.05432869413043478,-0.5332805136647151
-0.05432535413043477,-0.5314521824969528
-0.05432201413043478,-0.5304982705833405
-0.05431867413043478,-0.5320881237726974
-0.05431533413043477,-0.5370166686597038
-0.05431199413043478,-0.5394014484437391
-0.05430865413043478,-0.5413092722709674
-0.05430531413043477,-0.5403553603573532
-0.05430197413043478,-0.5507688987476409
-0.05429863413043478,-0.5508483914071087
-0.05429529413043477,-0.5496560015150911
-0.05429195413043478,-0.5525177372559334
-0.05428861413043478,-0.55712831150506
-0.05428527413043478,-0.5601490325648466
-0.05428193413043478,-0.5607054811811215
-0.05427859413043477,-0.5599900472459262
-0.05427525413043478,-0.5684162691495024
-0.05427191413043478,-0.57072155627407
-0.05426857413043477,-0.5723909021228947
-0.05426523413043478,-0.5748551745663978
-0.05426189413043478,-0.5709600342524734
-0.05425855413043477,-0.5837583524267964
-0.05425521413043478,-0.5813735726427611
-0.05425187413043478,-0.5841558157241357
-0.05424853413043478,-0.5914691403951774
-0.05424519413043478,-0.5943308761360198
-0.05424185413043478,-0.5921845743303918
-0.05423851413043478,-0.5920255890114523
-0.05423517413043478,-0.5937744275197449
-0.05423183413043477,-0.6032340539964131
-0.05422849413043478,-0.6002928255961082
-0.05422515413043478,-0.60243912740174
-0.05422181413043477,-0.6022801420828042
-0.05421847413043478,-0.6130911437704312
-0.05421513413043478,-0.6124552024946884
-0.05421179413043477,-0.6115807832405421
-0.05420845413043478,-0.614204041002981
-0.05420511413043478,-0.6194505565278587
-0.05420177413043478,-0.6222327996092333
-0.05419843413043478,-0.6235841748201867
-0.05419509413043477,-0.6230277262039282
-0.05419175413043478,-0.6320898893832461
-0.05418841413043478,-0.6336002499131351
-0.05418507413043477,-0.6319309040643103
-0.05418173413043478,-0.6338387278915386
-0.05417839413043478,-0.6376543755459951
-0.05417505413043477,-0.6413905305409838
-0.05417171413043478,-0.6428213984114051
-0.05416837413043478,-0.6413905305409838
-0.05416503413043477,-0.6483858845741542
-0.05416169413043478,-0.6522015322286108
-0.05415835413043478,-0.6502142157419183
-0.05415501413043478,-0.6525195028664821
-0.05415167413043478,-0.6432188617087443
-0.05414833413043477,-0.6583224670076392
-0.05414499413043478,-0.660786739451138
-0.05414165413043478,-0.6598328275375238
-0.05413831413043477,-0.6611047100890094
-0.05413497413043478,-0.673028609009186
-0.05413163413043478,-0.6678615861437761
-0.05412829413043477,-0.6697694099710044
-0.05412495413043478,-0.673028609009186
-0.05412161413043478,-0.6793880217666136
-0.05411827413043478,-0.6746979548580108
-0.05411493413043478,-0.6736645502849288
-0.05411159413043478,-0.6743799842201381
-0.05410825413043478,-0.6763673007068356
-0.05410491413043478,-0.6785930951719352
-0.05410157413043477,-0.6795470070855509
-0.05409823413043478,-0.6804214263396956
-0.05409489413043478,-0.6843165666536201
-0.05409155413043477,-0.6855884492051055
-0.05408821413043478,-0.684873015269895
-0.05408487413043478,-0.6869398244160589
-0.05408153413043477,-0.6909939500489189
-0.05407819413043478,-0.6908349647299833
-0.05407485413043478,-0.6909939500489189
-0.05407151413043478,-0.6921068472814688
-0.05406817413043478,-0.6910734427083868
-0.05406483413043478,-0.6930607591950793
-0.05406149413043478,-0.6920273546220009
-0.05405815413043478,-0.6907554720705155
-0.05405481413043477,-0.6930607591950829
-0.05405147413043478,-0.6916298913246617
-0.05404813413043478,-0.690437501432644
-0.05404479413043477,-0.6923453252598724
-0.05404145413043478,-0.6909144573894511
-0.05403811413043478,-0.6874167803728659
-0.05403477413043477,-0.6886886629243515
-0.05403143413043478,-0.687893736329673
-0.05402809413043478,-0.6907554720705155
-0.05402475413043478,-0.6845550446320235
-0.05402141413043478,-0.6850320005888306
-0.05401807413043477,-0.6867013464376529
-0.05401473413043478,-0.685349971226702
-0.05401139413043478,-0.685349971226702
-0.05400805413043477,-0.6826472208047952
-0.05400471413043478,-0.6812163529343741
-0.05400137413043478,-0.6831241767616023
-0.05399803413043477,-0.6786725878314031
-0.05399469413043478,-0.6744594768796073
-0.05399135413043478,-0.6718362191171684
-0.05398801413043477,-0.6744594768796073
-0.05398467413043478,-0.6688154980573903
-0.05398133413043478,-0.6691334686952611
-0.05397799413043478,-0.6700078879494079
-0.05397465413043478,-0.6687360053979224
-0.05397131413043477,-0.6772417199609568
-0.05396797413043478,-0.6634894898730447
-0.05396463413043478,-0.6604687688132665
-0.05396129413043477,-0.6624560852999627
-0.05395795413043478,-0.657686525731892
-0.05395461413043478,-0.6521220395691429
-0.05395127413043477,-0.6533144294611606
-0.05394793413043478,-0.6514066056339323
-0.05394459413043478,-0.6520425469096751
-0.05394125413043478,-0.6514860982934001
-0.05393791413043478,-0.6462395827685224
-0.05393457413043478,-0.6485448698930857
-0.05393123413043478,-0.6484653772336221
-0.05392789413043478,-0.6403571259679018
-0.05392455413043477,-0.6436163250060812
-0.05392121413043478,-0.642344442454598
-0.05391787413043478,-0.6443317589412941
-0.05391453413043477,-0.6355875663998312
-0.05391119413043478,-0.635190103102492
-0.05390785413043478,-0.637733868205463
-0.05390451413043477,-0.636223507675574
-0.05390117413043478,-0.6397211846921591
-0.05389783413043478,-0.6320103967237782
-0.05389449413043478,-0.6312154701290997
-0.05389115413043478,-0.6330438012968602
-0.05388781413043478,-0.6279562710909273
-0.05388447413043478,-0.6267638811989005
-0.05388113413043478,-0.627479315134111
-0.05387779413043477,-0.6264459105610291
-0.05387445413043478,-0.6297051095992107
-0.05387111413043478,-0.6260484472636898
-0.05386777413043477,-0.6204044684414729
-0.05386443413043478,-0.6238226527985902
-0.05386109413043478,-0.6230277262039118
-0.05385775413043477,-0.623902145458058
-0.05385441413043478,-0.6242201160959294
-0.05385107413043478,-0.6242996087553973
-0.05384773413043478,-0.6241406234364616
-0.05384439413043478,-0.6209609170577478
-0.05384105413043477,-0.6197685271657308
-0.05383771413043478,-0.6201659904630693
-0.05383437413043478,-0.6189736005710517
-0.05383103413043477,-0.6188941079115838
-0.05382769413043478,-0.6159528795112735
-0.05382435413043478,-0.6136475923867061
-0.05382101413043477,-0.61571440153287
-0.05381767413043478,-0.6149194749381915
-0.05381433413043478,-0.6144425189813845
-0.05381099413043477,-0.6149989675976594
-0.05380765413043478,-0.6138065777056417
-0.05380431413043478,-0.6157938941923342
-0.05380097413043478,-0.6146015043003202
-0.05379763413043478,-0.6150784602571273
-0.05379429413043477,-0.6169862840843535
-0.05379095413043478,-0.6158733868518057
-0.05378761413043478,-0.6230277262039118
-0.05378427413043477,-0.6233456968417831
-0.05378093413043478,-0.6212788876956191
-0.05377759413043478,-0.6235841748201867
-0.05377425413043477,-0.6223122922687011
-0.05377091413043478,-0.6217558436524262
-0.05376757413043478,-0.622868740884976
-0.05376423413043478,-0.6212788876956191
-0.05376089413043478,-0.6234251895012509
-0.05375755413043478,-0.6216763509929616
-0.05375421413043478,-0.6212788876956191
-0.05375087413043478,-0.6251740280095436
-0.05374753413043477,-0.6242201160959179
-0.05374419413043478,-0.6178607033385018
-0.05374085413043478,-0.6179401959979697
-0.05373751413043477,-0.617781210679034
-0.05373417413043478,-0.620801931738812
-0.05373083413043478,-0.6207224390793442
-0.05372749413043477,-0.6204044684414729
-0.05372415413043478,-0.6224712775876369
-0.05372081413043478,-0.6207224390793442
-0.05371747413043478,-0.6200070051441336
-0.05371413413043478,-0.6206429464198764
-0.05371079413043478,-0.6191325858899901
-0.05370745413043478,-0.619848019825198
-0.05370411413043478,-0.6193710638683909
-0.05370077413043477,-0.6172247620627591
-0.05369743413043478,-0.6184966446142446
-0.05369409413043478,-0.6184966446142446
-0.05369075413043477,-0.6180196886574375
-0.05368741413043478,-0.6185761372737124
-0.05368407413043478,-0.6173042547222269
-0.05368073413043477,-0.6189736005710517
-0.05367739413043478,-0.6187351225926481
-0.05367405413043478,-0.618258166635842
-0.05367071413043478,-0.6214378730145549
-0.05366737413043478,-0.6205634537604086
-0.05366403413043477,-0.6152374455760649
-0.05366069413043478,-0.616270850149145
-0.05365735413043478,-0.6147604896192559
-0.05365401413043477,-0.6175427327006304
-0.05365067413043478,-0.6169862840843555
-0.05364733413043478,-0.6146015043003202
-0.05364399413043477,-0.6163503428086128
-0.05364065413043478,-0.6149194749381915
-0.05363731413043478,-0.6169862840843555
-0.05363397413043478,-0.6155554162139343
-0.05363063413043478,-0.615237445576063
-0.05362729413043478,-0.6173042547222232
-0.05362395413043478,-0.6190530932305195
-0.05362061413043478,-0.6181786739763732
-0.05361727413043477,-0.6161118648302106
-0.05361393413043478,-0.6168272987654199
-0.05361059413043478,-0.6193710638683909
-0.05360725413043477,-0.6189736005710517
-0.05360391413043478,-0.617781210679034
-0.05360057413043478,-0.6189736005710517
-0.05359723413043477,-0.6169067914248877
-0.05359389413043478,-0.6173042547222269
-0.05359055413043478,-0.6165888207870163
-0.05358721413043478,-0.6155554162139343
-0.05358387413043478,-0.6172247620627591
-0.05358053413043478,-0.6152374455760666
-0.05357719413043478,-0.6150784602571273
-0.05357385413043478,-0.6161118648302093
-0.05357051413043477,-0.6142835336624511
-0.05356717413043478,-0.6155554162139343
-0.05356383413043478,-0.6143630263219166
-0.05356049413043477,-0.6140450556840453
-0.05355715413043478,-0.6163503428086128
-0.05355381413043478,-0.6115012905810743
-0.05355047413043477,-0.6126141878136241
-0.05354713413043478,-0.6132501290893668
-0.05354379413043478,-0.6122962171757527
-0.05354045413043478,-0.6138860703651096
-0.05353711413043478,-0.612137231856817
-0.05353377413043477,-0.6123757098352223
-0.05353043413043478,-0.6133296217488347
-0.05352709413043478,-0.6118987538784135
-0.05352375413043477,-0.6129321584514955
-0.05352041413043478,-0.6111833199432029
-0.05351707413043478,-0.6113423052621386
-0.05351373413043477,-0.6116602759000099
-0.05351039413043478,-0.6103089006890566
-0.05350705413043478,-0.6117397685594778
-0.05350371413043477,-0.6107858566458636
-0.05350037413043478,-0.6138065777056417
-0.05349703413043478,-0.6164298354680758
-0.05349369413043478,-0.6126141878136241
-0.05349035413043478,-0.6147604896192559
-0.05348701413043477,-0.6122167245162796
-0.05348367413043478,-0.6093549887754425
-0.05348033413043478,-0.6094344814349103
-0.05347699413043477,-0.6093549887754425
-0.05347365413043478,-0.6084805695212961
-0.05347031413043478,-0.6093549887754425
-0.05346697413043477,-0.6070497016508749
-0.05346363413043478,-0.6077651355860856
-0.05346029413043478,-0.6080831062239569
-0.05345695413043478,-0.6129321584514955
-0.05345361413043478,-0.6118987538784135
-0.05345027413043478,-0.6095139740943825
-0.05344693413043478,-0.6107858566458636
-0.05344359413043478,-0.6122167245162848
-0.05344025413043477,-0.6103883933485278
-0.05343691413043478,-0.6122167245162848
-0.05343357413043478,-0.6120577391973492
-0.05343023413043477,-0.6141245483435132
-0.05342689413043478,-0.6143630263219166
-0.05342355413043478,-0.6122167245162848
-0.05342021413043477,-0.6139655630245774
-0.05341687413043478,-0.6128526657920276
-0.05341353413043478,-0.6130116511109633
-0.05341019413043478,-0.6136475923867061
-0.05340685413043478,-0.6111833199432029
-0.05340351413043478,-0.612216724516283
-0.05340017413043478,-0.6130911437704312
-0.05339683413043478,-0.6099114373917174
-0.05339349413043477,-0.6107063639863973
-0.05339015413043478,-0.6115807832405421
-0.05338681413043478,-0.6099909300511852
-0.05338347413043477,-0.6110243346242672
-0.05338013413043478,-0.6102294080295887
-0.05337679413043478,-0.6132501290893668
-0.05337345413043477,-0.623902145458058
-0.05337011413043478,-0.620801931738812
-0.05336677413043478,-0.6175427327006304
-0.05336343413043478,-0.6196890345062622
-0.05336009413043478,-0.6191325858899873
-0.05335675413043477,-0.6193710638683877
-0.05335341413043478,-0.6176222253600983
-0.05335007413043478,-0.6178607033385018
-0.05334673413043477,-0.6193710638683909
-0.05334339413043478,-0.6163503428086128
-0.05334005413043478,-0.6172247620627591
-0.05333671413043477,-0.6175427327006304
-0.05333337413043478,-0.6213583803550869
-0.05333003413043478,-0.6223917849281689
-0.05332669413043477,-0.6193710638683909
-0.05332335413043478,-0.6204839611009407
-0.05332001413043478,-0.6214378730145531
-0.05331667413043478,-0.6200070051441336
-0.05331333413043478,-0.6227097555660404
-0.05330999413043477,-0.6231072188633762
-0.05330665413043478,-0.6211993950361513
-0.05330331413043478,-0.6226302629065725
-0.05329997413043477,-0.6212788876956191
-0.05329663413043478,-0.6202454831225371
-0.05329329413043478,-0.6220738142902976
-0.05328995413043477,-0.6204044684414729
-0.05328661413043478,-0.6201659904630693
-0.05328327413043478,-0.6202454831225371
-0.05327993413043478,-0.6196890345062622
-0.05327659413043478,-0.6205634537604086
-0.05327325413043478,-0.6185761372737161
-0.05326991413043478,-0.6195300491873266
-0.05326657413043478,-0.6196095418467944
-0.05326323413043477,-0.619371063868392
-0.05325989413043478,-0.6200070051441336
-0.05325655413043478,-0.6196095418467944
-0.05325321413043477,-0.6215173656740227
-0.05324987413043478,-0.6254919986474149
-0.05324653413043478,-0.623902145458058
-0.05324319413043477,-0.6212788876956191
-0.05323985413043478,-0.6211993950361513
-0.05323651413043478,-0.621835336311894
-0.05323317413043478,-0.622868740884976
-0.05322983413043478,-0.620801931738812
-0.05322649413043478,-0.6204839611009413
-0.05322315413043478,-0.621835336311894
-0.05321981413043478,-0.6188941079115838
-0.05321647413043477,-0.6189736005710517
-0.05321313413043478,-0.6196095418467944
-0.05320979413043478,-0.6177017180195662
-0.05320645413043477,-0.6184171519547768
-0.05320311413043478,-0.6172247620627591
-0.05319977413043478,-0.6179401959979697
-0.05319643413043477,-0.6199275124846658
-0.05319309413043478,-0.6190530932305195
-0.05318975413043478,-0.6192120785494551
-0.05318641413043478,-0.6197685271657301
-0.05318307413043478,-0.6170657767438233
-0.05317973413043477,-0.6122962171757566
-0.05317639413043478,-0.6144425189813845
-0.05317305413043478,-0.6122167245162848
-0.05316971413043477,-0.6141245483435132
-0.05316637413043478,-0.6142835336624488
-0.05316303413043478,-0.6114217979216064
-0.05315969413043477,-0.613170636429899
-0.05315635413043478,-0.6122962171757527
-0.05315301413043478,-0.6176222253600983
-0.05314967413043478,-0.6211993950361513
-0.05314633413043478,-0.6190530932305195
-0.05314299413043478,-0.6211199023766797
-0.05313965413043478,-0.6227097555660404
-0.05313631413043478,-0.6211993950361513
-0.05313297413043477,-0.6235046821607187
