synth-diodes-1f-1r-in-T00-L10-D00/100Hz-1V/scope.csv

#Digilent WaveForms Oscilloscope Acquisition
#Device Name: Discovery3
#Serial Number: SN:210415BD5874
#Date Time: 2025-04-06 19:45:52.709.557.580
#Sample rate: 208333Hz
#Samples: 32768
#Trigger: Source: Channel 1 Type: Edge Condition: Rising Level: 0 V Hyst.: Auto HoldOff: 0 s
#Channel 1: Range: 200 mV/div Offset: 0 V Sample Mode: Average
#Wavegen Channel 1: Running
#Mode: Simple
#Type: Sine
#Frequency: 100 Hz
#Period: 10 ms
#Amplitude: 1 V
#Offset: 0 V
#Symmetry: 50 %
#Phase: 0 °

Time (s),Channel 1 (V)
-0.09149355902861137,-0.3584761554949245
-0.09148875902861137,-0.3569657949650355
-0.09148395902861137,-0.3568068096460998
-0.09147915902861137,-0.3565683316676962
-0.09147435902861137,-0.3560118830514213
-0.09146955902861137,-0.3560913757108892
-0.09146475902861137,-0.3551374637972768
-0.09145995902861137,-0.3554554344351459
-0.09145515902861137,-0.354501522521534
-0.09145035902861137,-0.3547400004999354
-0.09144555902861136,-0.353627103267387
-0.09144075902861136,-0.354183551883659
-0.09143595902861136,-0.3531501473105794
-0.09143115902861136,-0.3533886252889825
-0.09142635902861136,-0.3523552207159005
-0.09142155902861136,-0.3525142060348362
-0.09141675902861136,-0.351560294121222
-0.09141195902861136,-0.3514808014617542
-0.09140715902861136,-0.3506858748670758
-0.09140235902861137,-0.3506063822076079
-0.09139755902861137,-0.3495729776345259
-0.09139275902861137,-0.3497319629534616
-0.09138795902861137,-0.349016529018251
-0.09138315902861137,-0.3494934849750581
-0.09137835902861137,-0.3475856611478298
-0.09137355902861137,-0.3471881978504913
-0.09136875902861137,-0.3478241391262322
-0.09136395902861137,-0.3477446464667657
-0.09135915902861136,-0.3461547932774092
-0.09135435902861136,-0.3464727639152774
-0.09134955902861136,-0.345041896044859
-0.09134475902861136,-0.3452008813637936
-0.09133995902861136,-0.3447239254069874
-0.09133515902861136,-0.3443264621096482
-0.09133035902861136,-0.3440879841312446
-0.09132555902861136,-0.3432930575365662
-0.09132075902861136,-0.3436110281744376
-0.09131595902861137,-0.3424981309418877
-0.09131115902861137,-0.3425776236013556
-0.09130635902861137,-0.3415442190282736
-0.09130155902861137,-0.3417826970066771
-0.09129675902861137,-0.3405108144551916
-0.09129195902861137,-0.3405108144551916
-0.09128715902861137,-0.3392389319037084
-0.09128235902861137,-0.3391594392442384
-0.09127755902861137,-0.3386029906279643
-0.09127275902861137,-0.3382055273306249
-0.09126795902861136,-0.3374106007359455
-0.09126315902861136,-0.3373311080764765
-0.09125835902861136,-0.3366156741412654
-0.09125355902861136,-0.3355822695681853
-0.09124875902861136,-0.3347078503140389
-0.09124395902861136,-0.3356617622276531
-0.09123915902861136,-0.3347873429735068
-0.09123435902861136,-0.3334359677625534
-0.09122955902861137,-0.3336744457409569
-0.09122475902861137,-0.3324025631894715
-0.09121995902861137,-0.333117997124682
-0.09121515902861137,-0.3320050998921322
-0.09121035902861137,-0.3324025631894715
-0.09120555902861137,-0.331130680637986
-0.09120075902861137,-0.3319256072326644
-0.09119595902861137,-0.3302562613838427
-0.09119115902861137,-0.3308922026595812
-0.09118635902861137,-0.3294613347891638
-0.09118155902861136,-0.3296203201080942
-0.09117675902861136,-0.3281099595782084
-0.09117195902861136,-0.3284279302160769
-0.09116715902861136,-0.3271560476645942
-0.09116235902861136,-0.3273945256429973
-0.09115755902861136,-0.3258841651131082
-0.09115275902861136,-0.3263611210699153
-0.09114795902861136,-0.3251687311778976
-0.09114315902861136,-0.3254867018157689
-0.09113835902861137,-0.323896848626412
-0.09113355902861137,-0.3246917752210905
-0.09112875902861137,-0.3227044587343944
-0.09112395902861137,-0.322386488096523
-0.09111915902861137,-0.3227839513938622
-0.09111435902861137,-0.3222275027775873
-0.09110955902861137,-0.3207966349071688
-0.09110475902861137,-0.3214325761829077
-0.09109995902861137,-0.3201606936314257
-0.09109515902861137,-0.3203991716098264
-0.09109035902861136,-0.3194452596962138
-0.09108555902861136,-0.3200017083124854
-0.09108075902861136,-0.3187298257610027
-0.09107595902861136,-0.3190477963988735
-0.09107115902861136,-0.3178554065068559
-0.09106635902861136,-0.3179348991663237
-0.09106155902861136,-0.3168220019337739
-0.09105675902861136,-0.3169014945932417
-0.09105195902861137,-0.3154706267228206
-0.09104715902861137,-0.3159475826796276
-0.09104235902861137,-0.315232148744417
-0.09103755902861137,-0.3149936707660135
-0.09103275902861137,-0.3143577294902707
-0.09102795902861137,-0.3142782368308029
-0.09102315902861137,-0.3136422955550601
-0.09101835902861137,-0.3134833102361247
-0.09101355902861137,-0.3124499056630443
-0.09100875902861137,-0.312290920344107
-0.09100395902861136,-0.3115754864088921
-0.09099915902861136,-0.3093496919437991
-0.09099435902861136,-0.3107805598142167
-0.09098955902861136,-0.3102241111979428
-0.09098475902861136,-0.3087137506680537
-0.09097995902861136,-0.3092701992843286
-0.09097515902861136,-0.308077809392311
-0.09097035902861136,-0.3083162873707145
-0.09096555902861136,-0.307521360776036
-0.09096075902861137,-0.3074418681165682
-0.09095595902861137,-0.3068854195002933
-0.09095115902861137,-0.3064084635434862
-0.09094635902861137,-0.3057725222677435
-0.09094155902861137,-0.3052160736514686
-0.09093675902861137,-0.3047391176946615
-0.09093195902861137,-0.3029107865269044
-0.09092715902861137,-0.303467235143175
-0.09092235902861137,-0.3021158599322251
-0.09091755902861137,-0.3024338305700934
-0.09091275902861136,-0.301161948018609
-0.09090795902861136,-0.301479918656477
-0.09090315902861136,-0.2998900654671235
-0.09089835902861136,-0.3002080361049944
-0.09089355902861136,-0.2990156462129767
-0.09088875902861136,-0.2991746315319124
-0.09088395902861136,-0.2973463003641519
-0.09087915902861136,-0.2969488370668127
-0.09087435902861137,-0.2943255793043738
-0.09086955902861137,-0.2961539104721342
-0.09086475902861137,-0.2951205058990523
-0.09085995902861137,-0.2940076086665024
-0.09085515902861137,-0.2937691306880989
-0.09085035902861137,-0.2928152187744848
-0.09084555902861137,-0.2926562334555491
-0.09084075902861137,-0.2917818142014044
-0.09083595902861137,-0.2925767407960798
-0.09083115902861137,-0.2906689169688565
-0.09082635902861136,-0.2910663802661889
-0.09082155902861136,-0.2892380490984318
-0.09081675902861136,-0.2892380490984289
-0.09081195902861136,-0.2876481959090749
-0.09080715902861136,-0.2879661665469462
-0.09080235902861136,-0.2864558060170572
-0.09079755902861136,-0.2867737766549286
-0.09079275902861136,-0.2853429087845074
-0.09078795902861136,-0.2851044308061039
-0.09078315902861137,-0.2837530555951505
-0.09077835902861137,-0.283514577616747
-0.09077355902861137,-0.2830376216599399
-0.09076875902861137,-0.2820042170868579
-0.09076395902861137,-0.2813682758111151
-0.09075915902861137,-0.2803348712380332
-0.09075435902861137,-0.2794604519838885
-0.09074955902861137,-0.2768371942214528
-0.09074475902861137,-0.2789834960270759
-0.09073995902861137,-0.2766782089025165
-0.09073515902861136,-0.2769961795403812
-0.09073035902861136,-0.2756448043294305
-0.09072555902861136,-0.2757242969888964
-0.09072075902861136,-0.2747703850752841
-0.09071595902861136,-0.2740549511400734
-0.09071115902861136,-0.2731805318859271
-0.09070635902861136,-0.2730215465669915
-0.09070155902861136,-0.2716701713560381
-0.09069675902861137,-0.271193215399231
-0.09069195902861137,-0.2698418401882777
-0.09068715902861137,-0.2694443768909384
-0.09068235902861137,-0.2693648842314706
-0.09067755902861137,-0.2673775677447745
-0.09067275902861137,-0.2678545237015815
-0.09066795902861137,-0.2658672072148854
-0.09066315902861137,-0.2662646705122239
-0.09065835902861137,-0.2643568466849999
-0.09065355902861137,-0.264436339344464
-0.09064875902861136,-0.2628464861551063
-0.09064395902861136,-0.2622900375388298
-0.09063915902861136,-0.2608591696684112
-0.09063435902861136,-0.2608591696684112
-0.09062955902861136,-0.25942830179799
-0.09062475902861136,-0.2578384486086331
-0.09061995902861136,-0.258394897224908
-0.09061515902861136,-0.2575999706302296
-0.09061035902861136,-0.2565665660571476
-0.09060555902861137,-0.2554536688245977
-0.09060075902861137,-0.2550562055272586
-0.09059595902861137,-0.2539433082947087
-0.09059115902861137,-0.2533868596784338
-0.09058635902861137,-0.2521944697864161
-0.09058155902861137,-0.2516380211701412
-0.09057675902861137,-0.2502866459591903
-0.09057195902861137,-0.2502071532997202
-0.09056715902861137,-0.2484583147914306
-0.09056235902861137,-0.2483788221319597
-0.09055755902861136,-0.2467094762831343
-0.09055275902861136,-0.2463915056452612
-0.09054795902861136,-0.2451196230937767
-0.09054315902861136,-0.2444041891585673
-0.09053835902861136,-0.243052813947614
-0.09053355902861136,-0.2419399167150642
-0.09052875902861136,-0.2408270194825143
-0.09052395902861136,-0.239475644271561
-0.09051915902861137,-0.2388397029958182
-0.09051435902861137,-0.2374883277848649
-0.09050955902861137,-0.2373293424659292
-0.09050475902861137,-0.2350240553413617
-0.09049995902861137,-0.2334342021520048
-0.09049515902861137,-0.2335136948114726
-0.09049035902861137,-0.2324007975789228
-0.09048555902861137,-0.2308109443895688
-0.09048075902861137,-0.2304134810922274
-0.09047595902861137,-0.228744135243405
-0.09047115902861136,-0.2276312380108496
-0.09046635902861136,-0.226279862799897
-0.09046155902861136,-0.2253259508862822
-0.09045675902861136,-0.2239745756753313
-0.09045195902861136,-0.2230206637617171
-0.09044715902861136,-0.2222257371670387
-0.09044235902861136,-0.2205563913182139
-0.09043755902861136,-0.219999942701939
-0.09043275902861136,-0.2179331335557751
-0.09042795902861137,-0.2176151629179037
-0.09042315902861137,-0.2157868317501433
-0.09041835902861137,-0.2152303831338683
-0.09041355902861137,-0.2129250960093008
-0.09040875902861137,-0.2119711840956867
-0.09040395902861137,-0.2100633602684584
-0.09039915902861137,-0.2094274189927169
-0.09039435902861137,-0.207758073143894
-0.09038955902861137,-0.2061682199545369
-0.09038475902861137,-0.205373293359857
-0.09037995902861136,-0.2034654695326224
-0.09037515902861136,-0.2007627191107209
-0.09037035902861136,-0.2009217044296537
-0.09036555902861136,-0.1994908365592351
-0.09036075902861136,-0.1979009833698782
-0.09035595902861136,-0.1962316375210535
-0.09035115902861136,-0.1944827990127609
-0.09034635902861136,-0.1928134531639361
-0.09034155902861137,-0.1913825852935149
-0.09033675902861137,-0.1896337467852224
-0.09033195902861137,-0.188282371574269
-0.09032715902861137,-0.1866130257254442
-0.09032235902861137,-0.1847846945576838
-0.09031755902861137,-0.1830358560493912
-0.09031275902861137,-0.1810485395626951
-0.09030795902861137,-0.180015134989615
-0.09030315902861137,-0.1774713698866467
-0.09029835902861137,-0.1760405020162235
-0.09029355902861136,-0.1730992736159088
-0.09028875902861136,-0.1720658690428234
-0.09028395902861136,-0.1692041333019842
-0.09027915902861136,-0.1680912360694364
-0.09027435902861136,-0.1660244269232725
-0.09026955902861136,-0.1636396471392371
-0.09026475902861136,-0.1620497939498802
-0.09025995902861136,-0.1590290728901021
-0.09025515902861136,-0.1581546536359558
-0.09025035902861137,-0.1537030647057565
-0.09024555902861137,-0.1541005280030958
-0.09024075902861137,-0.1508413289649141
-0.09023595902861137,-0.1490924904566215
-0.09023115902861137,-0.1463897400347148
-0.09022635902861137,-0.1447998868453579
-0.09022155902861137,-0.1421766290829238
-0.09021675902861137,-0.140348297915162
-0.09021195902861137,-0.1378045328121922
-0.09020715902861136,-0.1358172163254871
-0.09020235902861136,-0.1334324365414524
-0.09019755902861136,-0.1313656273952865
-0.09019275902861136,-0.1282654136760423
-0.09018795902861136,-0.1261191118704144
-0.09018315902861136,-0.1235753467674434
-0.09017835902861136,-0.1206341183671331
-0.09017355902861136,-0.1180108606046943
-0.09016875902861136,-0.1149901395449162
-0.09016395902861137,-0.1131618083771557
-0.09015915902861137,-0.1101410873173776
-0.09015435902861137,-0.1081537708306815
-0.09014955902861137,-0.1046560938140964
-0.09014475902861137,-0.1030662406247395
-0.09013995902861137,-0.09933008562975076
-0.09013515902861137,-0.09750175446199033
-0.09013035902861137,-0.09408357010487922
-0.09012555902861137,-0.0897909664936172
-0.09012075902861137,-0.0883600986231908
-0.09011595902861136,-0.08541887022287185
-0.09011115902861136,-0.08208017852522267
-0.09010635902861136,-0.07890047214651062
-0.09010155902861136,-0.07667467768141502
-0.09009675902861136,-0.07317700066482985
-0.09009195902861136,-0.07095120619973019
-0.09008715902861136,-0.06713555854527364
-0.09008235902861136,-0.064909764080174
-0.09007755902861136,-0.06077614578784607
-0.09007275902861137,-0.05855035132274641
-0.09006795902861137,-0.0544167330304185
-0.09006315902861137,-0.05171398260851177
-0.09005835902861137,-0.04781884229458738
-0.09005355902861137,-0.04495710655374498
-0.09004875902861137,-0.04114145889928843
-0.09004395902861137,-0.03827972315845121
-0.09003915902861137,-0.03446407550399641
-0.09003435902861137,-0.03184081774155537
-0.09002955902861136,-0.02778669210868488
-0.09002475902861136,-0.02468647838943734
-0.09001995902861136,-0.02071184541604741
-0.09001515902861136,-0.01800909499413809
-0.09001035902861136,-0.01387547670181769
-0.09000555902861136,-0.01037779968523252
-0.09000075902861136,-0.005528747457693991
-0.08999595902861136,-0.002746504376319426
-0.08999115902861136,0.0001152313645229838
-0.08998635902861137,0.004566820294722287
-0.08998155902861137,0.007428556035564698
-0.08997675902861137,0.01219811560363538
-0.08997195902861137,0.01458289538767072
-0.08996715902861137,0.01911397697733787
-0.08996235902861137,0.02261165399392304
-0.08995755902861137,0.02571186771316898
-0.08995275902861137,0.03032244196229559
-0.08994795902861137,0.03334316302207659
-0.08994315902861137,0.03779475195227328
-0.08993835902861136,0.04168989226621228
-0.08993355902861136,0.04526706194226529
-0.08992875902861136,0.0488442316183183
-0.08992395902861136,0.0524214012943648
-0.08991915902861136,0.05655501958669273
-0.08991435902861136,0.05925777000859946
-0.08990955902861136,0.06370935893879875
-0.08990475902861136,0.06609413872283409
-0.08989995902861136,0.07030724967462987
-0.08989515902861137,0.07285101477760089
-0.08989035902861137,0.07714361838886451
-0.08988555902861137,0.07952839817289985
-0.08988075902861137,0.08397998710309916
-0.08987595902861137,0.0877956347575557
-0.08987115902861137,0.09018041454159105
-0.08986635902861137,0.09248570166615434
-0.08986155902861137,0.09606287134220505
-0.08985675902861137,0.09852714378571026
-0.08985195902861136,0.1017863428239016
-0.08984715902861136,0.1046480785647436
-0.08984235902861136,0.1072713363271836
-0.08983755902861136,0.1105305353653638
-0.08983275902861136,0.1129948078088625
-0.08982795902861136,0.1165719774849155
-0.08982315902861136,0.1189567572689508
-0.08981835902861136,0.1226134196044717
-0.08981355902861136,0.1246007360911678
-0.08980875902861137,0.128098413107753
-0.08980395902861137,0.1302447149133848
-0.08979915902861137,0.1335039139515664
-0.08979435902861137,0.1354117377787947
-0.08978955902861137,0.138829922135912
-0.08978475902861137,0.1404197753252689
-0.08977995902861137,0.1443149156391933
-0.08977515902861137,0.1459047688285473
-0.08977035902861137,0.1495614311640644
-0.08976555902861137,0.1514692549912959
-0.08976075902861136,0.1544104833916144
-0.08975595902861136,0.157033741154055
-0.08975115902861136,0.1606109108301052
-0.08974635902861136,0.1626777199762654
-0.08974155902861136,0.1636316318898796
-0.08973675902861136,0.1671293089064647
-0.08973195902861136,0.1686396694363538
-0.08972715902861136,0.171103941879857
-0.08972235902861136,0.1731707510260209
-0.08971755902861137,0.1754760381505884
-0.08971275902861137,0.1773043693183489
-0.08970795902861137,0.1802455977186591
-0.08970315902861137,0.1823918995242909
-0.08969835902861137,0.1838227673947121
-0.08969355902861137,0.1872409517518294
-0.08968875902861137,0.188433341643845
-0.08968395902861137,0.1911360920657489
-0.08967915902861137,0.1923284819577694
-0.08967435902861136,0.1952697103580847
-0.08966955902861136,0.1968595635474423
-0.08966475902861136,0.198846880034139
-0.08965995902861136,0.2011521671587052
-0.08965515902861136,0.2027420203480592
-0.08965035902861136,0.2057627414078373
-0.08964555902861136,0.2071936092782585
-0.08964075902861136,0.2098168670406974
-0.08963595902861136,0.2111682422516507
-0.08963115902861137,0.2136325146951539
-0.08962635902861137,0.2164942504359963
-0.08962155902861137,0.2175276550090783
-0.08961675902861137,0.2187995375605638
-0.08961195902861137,0.2210253320256635
-0.08960715902861137,0.2228536631934239
-0.08960235902861137,0.2243640237233129
-0.08959755902861137,0.2263513402100054
-0.08959275902861137,0.2277822080804277
-0.08958795902861137,0.2300080025455259
-0.08958315902861136,0.2311208997780831
-0.08957835902861136,0.2329492309458429
-0.08957355902861136,0.2344595914757336
-0.08956875902861136,0.2368443712597646
-0.08956395902861136,0.237639297854443
-0.08955915902861136,0.2403420482763497
-0.08955435902861136,0.2410574822115603
-0.08954955902861136,0.2436012473145314
-0.08954475902861136,0.2443961739092098
-0.08953995902861137,0.2467014610337773
-0.08953515902861137,0.2479733435852628
-0.08953035902861137,0.2501196453908947
-0.08952555902861137,0.2516300059207837
-0.08952075902861137,0.2529018884722692
-0.08951595902861137,0.2544917416616261
-0.08951115902861137,0.2559226095320447
-0.08950635902861137,0.2579894186782075
-0.08950155902861137,0.2602152131433069
-0.08949675902861136,0.2614870956947972
-0.08949195902861136,0.2618845589921401
-0.08948715902861136,0.2643488314356408
-0.08948235902861136,0.2654617286681916
-0.08947755902861136,0.2670515818575456
-0.08947275902861136,0.2690388983442417
-0.08946795902861136,0.2695953469605166
-0.08946315902861136,0.2719006340850841
-0.08945835902861136,0.2722186047229554
-0.08945355902861137,0.2743649065285872
-0.08944875902861137,0.2751598331232657
-0.08944395902861137,0.2772266422694297
-0.08943915902861137,0.2776241055667689
-0.08943435902861137,0.2795319293939972
-0.08942955902861137,0.2798499000318685
-0.08942475902861137,0.2819167091780325
-0.08941995902861137,0.2824731577943064
-0.08941515902861137,0.2850964155567415
-0.08941035902861137,0.2856528641730202
-0.08940555902861136,0.2877196733191862
-0.08940075902861136,0.2882761219354637
-0.08939595902861136,0.2902634384221572
-0.08939115902861136,0.2908198870384311
-0.08938635902861136,0.2928072035251272
-0.08938155902861136,0.2931251741629986
-0.08937675902861136,0.2960664025633089
-0.08937195902861136,0.295986909903841
-0.08936715902861136,0.2969408218174552
-0.08936235902861137,0.2985306750068121
-0.08935755902861137,0.2996435722393619
-0.08935275902861137,0.3013129180881866
-0.08934795902861137,0.3018693667044615
-0.08934315902861137,0.3033002345748828
-0.08933835902861137,0.3042541464884969
-0.08933355902861137,0.3056055216994478
-0.08932875902861137,0.3059234923373211
-0.08932395902861137,0.3075928381861433
-0.08931915902861136,0.3078313161645532
-0.08931435902861136,0.3096596473323112
-0.08930955902861136,0.3101366032891209
-0.08930475902861136,0.3120444271163466
-0.08929995902861136,0.3125213830731527
-0.08929515902861136,0.3146676848787845
-0.08929035902861136,0.3149061628571881
-0.08928555902861136,0.3160985527492057
-0.08928075902861136,0.3172114499817555
-0.08927595902861137,0.3184038398737732
-0.08927115902861137,0.3187218105116446
-0.08926635902861137,0.3199142004036623
-0.08926155902861137,0.3207091269983408
-0.08925675902861137,0.3218220242308906
-0.08925195902861137,0.3242068040149259
-0.08924715902861137,0.3242068040149259
-0.08924235902861137,0.3251607159285383
-0.08923755902861137,0.3261146278421524
-0.08923275902861137,0.3276249883720405
-0.08922795902861136,0.3274660030531104
-0.08922315902861136,0.3290558562424646
-0.08921835902861136,0.3291353489019347
-0.08921355902861136,0.3304867241128857
-0.08920875902861136,0.3304072314534178
-0.08920395902861136,0.3320765773022425
-0.08919915902861136,0.3323150552806461
