-20250405-BKP/real-diodes-out/1kHz2V/scope.csv

#Digilent WaveForms Oscilloscope Acquisition
#Device Name: Discovery3
#Serial Number: SN:210415BD5874
#Date Time: 2025-04-03 19:57:28.966.303.760
#Sample rate: 3.22581e+06Hz
#Samples: 32768
#Trigger: Source: Channel 1 Type: Edge Condition: Rising Level: 0 V Hyst.: Auto HoldOff: 0 s
#Channel 1: Range: 200 mV/div Offset: 0 V Sample Mode: Average
#Wavegen Channel 1: Running
#Mode: Simple
#Type: Sine
#Frequency: 1 kHz
#Period: 1 ms
#Amplitude: 2 V
#Offset: 0 V
#Symmetry: 50 %
#Phase: 0 °

Time (s),Channel 1 (V)
-0.001567383396492044,0.5231769306629412
-0.001567073396492044,0.5240513499170876
-0.001566763396492044,0.5243693205549589
-0.001566453396492044,0.5221435260898633
-0.001566143396492043,0.522620482046665
-0.001565833396492044,0.5219050481114552
-0.001565523396492044,0.5216665701330522
-0.001565213396492044,0.5222230187493271
-0.001564903396492044,0.5203946875815667
-0.001564593396492044,0.5207921508789058
-0.001564283396492044,0.5210306288573094
-0.001563973396492044,0.51824838577594
-0.001563663396492044,0.519281790349015
-0.001563353396492044,0.5187253417327405
-0.001563043396492044,0.5180099077975313
-0.001562733396492044,0.517135488543385
-0.001562423396492044,0.5162610692892388
-0.001562113396492044,0.5167380252460458
-0.001561803396492044,0.5157046206729639
-0.001561493396492044,0.5143532454620129
-0.001561183396492044,0.5151481720566875
-0.001560873396492044,0.5137967968457328
-0.001560563396492044,0.5122864363158465
-0.001560253396492044,0.5127633922726536
-0.001559943396492044,0.5114915097211681
-0.001559633396492044,0.5114915097211681
-0.001559323396492044,0.5101401345102147
-0.001559013396492044,0.5084707886613929
-0.001558703396492044,0.5096631785534054
-0.001558393396492044,0.5073578914288381
-0.001558083396492044,0.5062449941962903
-0.001557773396492044,0.5075963694072436
-0.001557463396492044,0.5047346336664013
-0.001557153396492044,0.5044166630285298
-0.001556843396492044,0.5058475308989511
-0.001556533396492044,0.5026678245202373
-0.001556223396492044,0.5033832584554465
-0.001555913396492044,0.5027473171797008
-0.001555603396492044,0.500362537395673
-0.001555293396492044,0.5021113759039624
-0.001554983396492044,0.5005215227146055
-0.001554673396492044,0.4980572502711023
-0.001554363396492044,0.5005215227146055
-0.001554053396492044,0.4970238456980203
-0.001553743396492044,0.4963879044222787
-0.001553433396492044,0.4982957282494985
-0.001553123396492044,0.4942416026166463
-0.001552813396492044,0.4945595732545171
-0.001552503396492044,0.4940031246382422
-0.001552193396492044,0.4904259549621892
-0.001551883396492044,0.4926517494272888
-0.001551573396492044,0.4906644329405928
-0.001551263396492044,0.4876437118808201
-0.001550953396492044,0.4906644329405881
-0.001550643396492044,0.4881206678376174
-0.001550333396492044,0.4857358880535864
-0.001550023396492044,0.4876437118808146
-0.001549713396492044,0.483351108269551
-0.001549403396492044,0.4823971963559369
-0.001549093396492044,0.483351108269551
-0.001548783396492044,0.4778661147662797
-0.001548473396492044,0.4794559679556237
-0.001548163396492044,0.4795354606150828
-0.001547853396492044,0.473096555198199
-0.001547543396492044,0.4765147395553164
-0.001547233396492044,0.4752428570038308
-0.001546923396492044,0.4709502533925672
-0.001546613396492044,0.4737324964739418
-0.001546303396492044,0.4703143121168307
-0.001545993396492044,0.4688834442464059
-0.001545683396492044,0.4703143121168163
-0.001545373396492044,0.4657832305271574
-0.001545063396492044,0.4662601864839644
-0.001544753396492044,0.4661012011650287
-0.001544443396492044,0.4612521489374902
-0.001544133396492044,0.4637959140404612
-0.001543823396492044,0.4619675828727041
-0.001543513396492044,0.456880052666768
-0.001543203396492044,0.4592648324507893
-0.001542893396492044,0.4566415746883552
-0.001542583396492044,0.4538593316069806
-0.001542273396492044,0.4549722288395305
-0.001541963396492044,0.4505206399093312
-0.001541653396492044,0.4498052059741205
-0.001541343396492044,0.4501231766119919
-0.001541033396492044,0.4447176757681883
-0.001540723396492044,0.4460690509791301
-0.001540413396492044,0.4451151390655177
-0.001540103396492044,0.4397096382217043
-0.001539793396492044,0.4420944180057396
-0.001539483396492044,0.4399481162001078
-0.001539173396492044,0.435258049291505
-0.001538863396492044,0.4371658731187332
-0.001538553396492044,0.4329527621669451
-0.001538243396492044,0.4311244309991776
-0.001537933396492044,0.4314424016370392
-0.001537623396492044,0.4263548714311063
-0.001537313396492044,0.4261163934527028
-0.001537003396492044,0.4245265402633459
-0.001536693396492044,0.4202339366520823
-0.001536383396492044,0.4199954586736788
-0.001536073396492044,0.4176901715491155
-0.001535763396492044,0.4133975679378484
-0.001535453396492044,0.4137950312351804
-0.001535143396492044,0.4102178615591339
-0.001534833396492044,0.4070381551804201
-0.001534523396492044,0.4068791698614844
-0.001534213396492044,0.4017916396555423
-0.001533903396492044,0.3992478745525713
-0.001533593396492044,0.3983734552984267
-0.001533283396492044,0.3933654177519599
-0.001532973396492044,0.391934549881525
-0.001532663396492044,0.3893907847785586
-0.001532353396492044,0.3861315857403769
-0.001532043396492044,0.3843827472320844
-0.001531733396492044,0.38048760691816
-0.001531423396492044,0.3775463785178497
-0.001531113396492044,0.3754795693716895
-0.001530803396492044,0.3708689951225591
-0.001530493396492044,0.3679277667222357
-0.001530183396492044,0.3653045089598016
-0.001529873396492044,0.3615683539648129
-0.001529563396492044,0.3583886475860991
-0.001529253396492044,0.3562423457804673
-0.001528943396492044,0.3525856834449465
-0.001528633396492044,0.3491674990878353
-0.001528323396492044,0.3455108367523149
-0.001528013396492044,0.3428875789898635
-0.001527703396492044,0.3396283799516878
-0.001527393396492044,0.3345408497457457
-0.001527083396492044,0.3323945479401139
-0.001526773396492044,0.3286583929451252
-0.001526463396492044,0.3247632526312008
-0.001526153396492044,0.3215040535930192
-0.001525843396492044,0.3184038398737789
-0.001525533396492044,0.3156215967923914
-0.001525223396492044,0.3116469638190064
-0.001524913396492044,0.3066389262725322
-0.001524603396492044,0.3051285657426432
-0.001524293396492044,0.2993256016014905
-0.001523983396492044,0.2958279245849054
-0.001523673396492044,0.2947150273523555
-0.001523363396492044,0.2885145999138749
-0.001523053396492044,0.2853348935351441
-0.001522743396492044,0.2821551871564281
-0.001522433396492044,0.2777830908857046
-0.001522123396492044,0.2757957743990085
-0.001521813396492044,0.2719006340850841
-0.001521503396492044,0.2665746259007385
-0.001521193396492044,0.2652232506897851
-0.001520883396492044,0.2604536911217231
-0.001520573396492044,0.2543327563426899
-0.001520263396492044,0.2540942783642739
-0.001519953396492044,0.2469399390121808
-0.001519643396492044,0.2445551592281455
-0.001519333396492044,0.2420113941251745
-0.001519023396492044,0.2348570547730685
-0.001518713396492044,0.2343800988162614
-0.001518403396492044,0.2312798850970211
-0.001518093396492043,0.2238870677665054
-0.001517783396492044,0.2236485897880953
-0.001517473396492044,0.2197534494741779
-0.001517163396492044,0.2127580954410076
-0.001516853396492044,0.2127580954410076
-0.001516543396492044,0.2066371606619836
-0.001516233396492044,0.2025035423696556
-0.001515923396492044,0.2017086157749786
-0.001515613396492044,0.1936798571687395
-0.001515303396492044,0.1924874672767029
-0.001514993396492044,0.1901026874926719
-0.001514683396492044,0.1808815389944019
-0.001514373396492044,0.1824713921837588
-0.001514063396492044,0.1773838619778167
-0.001513753396492044,0.1697525666689036
-0.001513443396492044,0.1706269859230483
-0.001513133396492044,0.1646650364629724
-0.001512823396492044,0.1594980135975515
-0.001512513396492044,0.1594185209380838
-0.001512203396492044,0.1513102696723636
-0.001511893396492044,0.1493229531856675
-0.001511583396492044,0.1474946220179071
-0.001511273396492044,0.1397838340495262
-0.001510963396492044,0.1390684001143156
-0.001510653396492044,0.1362066643734784
-0.001510343396492044,0.1272239938536089
-0.001510033396492044,0.1284163837456244
-0.001509723396492044,0.1231698682207466
-0.001509413396492044,0.116810455463319
-0.001509103396492044,0.116333499506512
-0.001508793396492044,0.1102920573869558
-0.001508483396492044,0.1054430051594172
-0.001508173396492044,0.1053635124999495
-0.001507863396492044,0.09797069516943721
-0.001507553396492044,0.09653982729901443
-0.001507243396492044,0.09423454017445113
-0.001506933396492044,0.08612628890873096
-0.001506623396492044,0.08453643571937407
-0.001506313396492044,0.0810387587027889
-0.001506003396492044,0.07467934594536133
-0.001505693396492044,0.07388441935068432
-0.001505383396492044,0.06816094786898837
-0.001505073396492044,0.0628349396846526
-0.001504763396492044,0.06291443234412031
-0.001504453396492044,0.05663451224616058
-0.001504143396492044,0.05353429852691463
-0.001503833396492044,0.0517059673591542
-0.001503523396492044,0.04399517939077327
-0.001503213396492044,0.04184887758514536
-0.001502903396492044,0.03866917120641682
-0.001502593396492044,0.03270722174633556
-0.001502283396492044,0.03064041260017536
-0.001501973396492044,0.02602983835104036
-0.001501663396492044,0.02062433750722692
-0.001501353396492044,0.01911397697733787
-0.001501043396492044,0.01370847613352443
-0.001500733396492044,0.01029029177641332
-0.001500423396492044,0.007587541354505303
-0.001500113396492044,0.0009896506186634919
-0.001499803396492044,-0.002190055760044513
-0.001499493396492044,-0.005051791500886923
-0.001499183396492044,-0.01093424830150743
-0.001498873396492044,-0.01363699872341415
-0.001498563396492044,-0.01785010967520992
-0.001498253396492044,-0.02174524998912723
-0.001497943396492044,-0.02452749307050382
-0.001497633396492044,-0.03001248657379493
-0.001497323396492044,-0.03263574433622904
-0.001497013396492044,-0.03581545071494283
-0.001496703396492044,-0.04137993687769195
-0.001496393396492044,-0.04487761389427712
-0.001496083396492044,-0.04765985697565168
-0.001495773396492044,-0.05195246058690749
-0.001495463396492044,-0.0566425274955096
-0.001495153396492044,-0.06021969717157637
-0.001494843396492044,-0.06308143291241357
-0.001494533396492044,-0.06745352918314503
-0.001494223396492044,-0.07254105938908709
-0.001493913396492044,-0.0738129419405726
-0.001493603396492044,-0.07897996480598252
-0.001493293396492044,-0.0835905390551175
-0.001492983396492044,-0.08573684086074541
-0.001492673396492044,-0.09114234170456839
-0.001492363396492044,-0.0942425554238087
-0.001492053396492044,-0.09885312967294368
-0.001491743396492044,-0.1029867479652716
-0.001491433396492044,-0.105371527749307
-0.001491123396492044,-0.1106975359336526
-0.001490813396492044,-0.1148311542259805
-0.001490503396492044,-0.1154670955017221
-0.001490193396492044,-0.1219060009186259
-0.001489883396492044,-0.1258806338920152
-0.001489573396492044,-0.1282654136760462
-0.001489263396492044,-0.1348633044118773
-0.001488953396492044,-0.1366916355796378
-0.001488643396492044,-0.1394738786610123
-0.001488333396492044,-0.1465487253536505
-0.001488023396492044,-0.1473436519483275
-0.001487713396492044,-0.1519542261974747
-0.001487403396492044,-0.1578366829980847
-0.001487093396492044,-0.1579956683170201
-0.001486783396492044,-0.1649115296907226
-0.001486473396492044,-0.1686476846857113
-0.001486163396492044,-0.1697605819182612
-0.001485853396492044,-0.1774713698866421
-0.001485543396492044,-0.1787432524381253
-0.001485233396492044,-0.1813665102005617
-0.001484923396492044,-0.1893952688068195
-0.001484613396492044,-0.189792732104158
-0.001484303396492044,-0.1936083797586146
-0.001483993396492044,-0.2012396750675277
-0.001483683396492044,-0.2010011970891241
-0.001483373396492044,-0.2062477126140019
-0.001483063396492044,-0.2114147354794024
-0.001482753396492044,-0.2119711840956857
-0.001482443396492044,-0.2188870454693935
-0.001482133396492044,-0.2212718252534245
-0.001481823396492044,-0.2238155903563956
-0.001481513396492044,-0.2315263783247765
-0.001481203396492044,-0.2320033342815836
-0.001480893396492044,-0.2347060847034903
-0.001480583396492044,-0.2432912919260019
-0.001480273396492044,-0.2421783946934697
-0.001479963396492044,-0.2471069395804854
-0.001479653396492044,-0.2533073670189659
-0.001479343396492044,-0.252750918402691
-0.001479033396492044,-0.2592693164790543
-0.001478723396492044,-0.2634029347713822
-0.001478413396492044,-0.2641978613660607
-0.001478103396492044,-0.2710342300802953
-0.001477793396492044,-0.2730215465669878
-0.001477483396492044,-0.275326833691575
-0.001477173396492044,-0.2841505188924897
-0.001476863396492044,-0.2831966069788756
-0.001476553396492044,-0.2869327619738643
-0.001476243396492044,-0.2941665939854382
-0.001475933396492044,-0.2936896380286311
-0.001475623396492044,-0.2994926021697837
-0.001475313396492044,-0.3045006397162489
-0.001475003396492044,-0.304977595673076
-0.001474693396492044,-0.3110190377926269
-0.001474383396492044,-0.3141192515118671
-0.001474073396492044,-0.3150731634254813
-0.001473763396492044,-0.3225454734154587
-0.001473453396492044,-0.3234993853290729
-0.001473143396492044,-0.3262816284104474
-0.001472833396492044,-0.3321640852110572
-0.001472523396492044,-0.3317666219137372
-0.001472213396492044,-0.3364566888223399
-0.001471903396492044,-0.3410672630714665
-0.001471593396492044,-0.3406697997741273
-0.001471283396492044,-0.34647276391528
-0.001470973396492044,-0.3501294262508008
-0.001470663396492044,-0.3504473968886722
-0.001470353396492044,-0.3576812289002329
-0.001470043396492044,-0.3585556481543908
-0.001469733396492044,-0.3606224573005656
-0.001469423396492044,-0.3657099875064984
-0.001469113396492044,-0.3665844067606447
-0.001468803396492044,-0.3699230984582942
-0.001468493396492044,-0.3737387461127507
-0.001468183396492044,-0.3745336727074292
-0.001467873396492044,-0.3786672909997496
-0.001467563396492044,-0.3820059826974005
-0.001467253396492044,-0.3831188799299653
-0.001466943396492044,-0.3880474248169627
-0.001466633396492044,-0.3900347413036589
-0.001466323396492044,-0.3911476385362087
-0.001466013396492044,-0.3948043008717296
-0.001465703396492044,-0.3967916173584257
-0.001465393396492044,-0.3991763971424567
-0.001465083396492044,-0.4022766108617013
-0.001464773396492044,-0.4040254493700065
-0.001464463396492044,-0.4078410970244561
-0.001464153396492044,-0.4084770383001988
-0.001463843396492044,-0.4102258768084914
-0.001463533396492044,-0.4138030464845445
-0.001463223396492044,-0.4150749290360299
-0.001462913396492044,-0.4172212308416617
-0.001462603396492044,-0.4200034739230313
-0.001462293396492044,-0.4215138344529289
-0.001461983396492044,-0.4234216582801537
-0.001461673396492044,-0.4241370922153643
-0.001461363396492044,-0.4274757839130137
-0.001461053396492044,-0.4296220857186455
-0.001460743396492044,-0.4293041150807742
-0.001460433396492044,-0.4328017920973593
-0.001460123396492044,-0.4345506306056487
-0.001459813396492044,-0.434709615924593
-0.001459503396492044,-0.4376508443249015
-0.001459193396492044,-0.439638160811594
-0.001458883396492044,-0.4394791754926583
-0.001458573396492044,-0.4428178671903077
-0.001458263396492044,-0.4425793892119042
-0.001457953396492044,-0.4451231543148753
-0.001457643396492044,-0.447825904736777
-0.001457333396492044,-0.44560011027169
-0.001457023396492044,-0.4498132212234808
-0.001456713396492044,-0.4513235817533672
-0.001456403396492044,-0.4502901771802852
-0.001456093396492044,-0.4544237954726131
-0.001455783396492044,-0.4548212587699523
-0.001455473396492044,-0.4546622734510166
-0.001455163396492044,-0.4583984284459985
-0.001454853396492043,-0.4575240091918614
-0.001454543396492044,-0.4587958917433508
-0.001454233396492044,-0.4622140761004619
-0.001453923396492044,-0.4598292963164266
-0.001453613396492044,-0.4627705247167368
-0.001453303396492044,-0.46523479716024
-0.001452993396492044,-0.4634064659924795
-0.001452683396492044,-0.4683350108794769
-0.001452373396492044,-0.4676195769442766
-0.001452063396492044,-0.4669041430090744
-0.001451753396492044,-0.4722301511934103
-0.001451443396492044,-0.4696068934309715
-0.001451133396492044,-0.4706402980040534
-0.001450823396492044,-0.4757278282099955
-0.001450513396492044,-0.4720711658744746
-0.001450203396492044,-0.4736610190638286
-0.001449893396492044,-0.4778741300156196
-0.001449583396492044,-0.4744559456585173
-0.001449273396492044,-0.47851007129137
-0.001448963396492044,-0.4791460125671128
-0.001448653396492044,-0.476999710761481
-0.001448343396492044,-0.4818487629890195
-0.001448033396492044,-0.4797819538428555
-0.001447723396492044,-0.4798614465023234
-0.001447413396492044,-0.4855054253245301
-0.001447103396492044,-0.4812128217132798
-0.001446793396492044,-0.4828821675621015
-0.001446483396492044,-0.4874927418112365
-0.001446173396492044,-0.4834386161783764
-0.001445863396492044,-0.4859028886218796
-0.001445553396492044,-0.4881286830869793
-0.001445243396492044,-0.4853464400056047
-0.001444933396492044,-0.4901954922331344
-0.001444623396492044,-0.4893210729789949
-0.001444313396492044,-0.4882081757464571
-0.001444003396492044,-0.4936931692497284
-0.001443693396492044,-0.4898775215952718
-0.001443383396492044,-0.4910699114872895
-0.001443073396492044,-0.4965549049905708
-0.001442763396492044,-0.492341794038775
-0.001442453396492044,-0.4948855591417414
-0.001442143396492044,-0.4986217141367273
-0.001441833396492044,-0.4945675885038797
-0.001441523396492044,-0.4973498315852493
-0.001441213396492044,-0.4979062802015242
-0.001440903396492044,-0.4958394710553602
-0.001440593396492044,-0.5012449718991736
-0.001440283396492044,-0.4989396847746062
-0.001439973396492044,-0.4983832361583322
-0.001439663396492044,-0.5027553324290575
-0.001439353396492044,-0.4998935966882236
-0.001439043396492044,-0.5017219278559807
-0.001438733396492044,-0.5039477223210803
-0.001438423396492044,-0.5012449718991736
-0.001438113396492044,-0.5038682296616125
-0.001437803396492044,-0.5050606195536301
-0.001437493396492044,-0.5023578691317283
-0.001437183396492044,-0.5063325021051085
-0.001436873396492044,-0.5054580828509675
-0.001436563396492044,-0.5044246782778874
-0.001436253396492044,-0.5080018479539404
-0.001435943396492044,-0.5064119947645835
-0.001435633396492044,-0.5068094580619228
-0.001435323396492044,-0.5087967745486188
-0.001435013396492044,-0.5077633699755388
-0.001434703396492044,-0.5099096717811649
-0.001434393396492044,-0.5111020616731838
-0.001434083396492044,-0.5096711938027652
-0.001433773396492044,-0.5124534368841397
-0.001433463396492044,-0.511817495608397
-0.001433153396492044,-0.5115790176299935
-0.001432843396492044,-0.5134868414572217
-0.001432533396492044,-0.5139637974140279
-0.001432223396492044,-0.5133278561382871
-0.001431913396492044,-0.5142022753924318
-0.001431603396492044,-0.5138843047545609
-0.001431293396492044,-0.5153151726249822
-0.001430983396492044,-0.5149972019871107
-0.001430673396492044,-0.5156331432628535
-0.001430363396492044,-0.517461474430614
-0.001430053396492044,-0.5158716212412571
-0.001429743396492044,-0.5161895918791278
-0.001429433396492044,-0.5175409670900809
-0.001429123396492044,-0.5170640111332747
-0.001428813396492044,-0.5177794450684853
-0.001428503396492044,-0.5176999524090174
-0.001428193396492044,-0.5192103129389065
-0.001427883396492044,-0.5196872688957136
-0.001427573396492044,-0.5192898055983743
-0.001427263396492044,-0.5203232101714544
-0.001426953396492044,-0.5222310339986802
-0.001426643396492044,-0.5197667615551843
-0.001426333396492044,-0.5213566147445383
-0.001426023396492044,-0.523025960593363
-0.001425713396492044,-0.5219925560202811
-0.001425403396492044,-0.5244568284637843
-0.001425093396492044,-0.5237413945285737
-0.001424783396492044,-0.5243773358043153
-0.001424473396492044,-0.5262851596315414
-0.001424163396492044,-0.5244568284637861
-0.001423853396492044,-0.5254107403773984
-0.001423543396492044,-0.5270800862262232
-0.001423233396492044,-0.5244568284637843
-0.001422923396492044,-0.5269211009072875
-0.001422613396492044,-0.527159578885691
