real-diodes-out/100Hz-2V/scope.csv

#Digilent WaveForms Oscilloscope Acquisition
#Device Name: Discovery3
#Serial Number: SN:210415BD5874
#Date Time: 2025-04-06 22:04:54.424.886.120
#Sample rate: 100000Hz
#Samples: 32768
#Trigger: Source: Channel 1 Type: Edge Condition: Rising Level: 0 V Hyst.: Auto HoldOff: 0 s
#Average: 1
#Channel 1: Range: 500 mV/div Offset: 0 V Sample Mode: Average
#Wavegen Channel 1: Running
#Mode: Simple
#Type: Sine
#Frequency: 100 Hz
#Period: 10 ms
#Amplitude: 2 V
#Offset: 0 V
#Symmetry: 50 %
#Phase: 0 °

Time (s),Channel 1 (V)
-0.19972,0.3555269118452567
-0.19971,0.3640199465976002
-0.1997,0.3737477998393495
-0.19969,0.3828397118053395
-0.19968,0.3919540572826231
-0.19967,0.4007665257279235
-0.19966,0.4088523434823831
-0.19965,0.4162090721208646
-0.19964,0.4231795542176492
-0.19963,0.4298320656765382
-0.19962,0.4361007690188676
-0.19961,0.4418403341064669
-0.1996,0.4472209630138728
-0.19959,0.4521519463260164
-0.19958,0.4569351610748458
-0.19957,0.4613755332494235
-0.19956,0.4654842796053537
-0.19955,0.4695384052382064
-0.19954,0.4737900433071748
-0.19953,0.4768317348231383
-0.19952,0.48027235269151
-0.19951,0.483454497495361
-0.1995,0.4861596863424104
-0.19949,0.4891779689770458
-0.19948,0.4918173203453894
-0.19947,0.4944927604057562
-0.19946,0.4969321609128665
-0.19945,0.4993827781756021
-0.19944,0.5017812131404007
-0.19943,0.5041001554457401
-0.19942,0.5065371175277081
-0.19941,0.5082771777055076
-0.1994,0.5101303808096659
-0.19939,0.5119065296794967
-0.19938,0.513655368187786
-0.19937,0.5154042066960787
-0.19936,0.5169555327682731
-0.19935,0.5185317307768597
-0.19934,0.5201874214449168
-0.19933,0.5217250923363381
-0.19932,0.52323545286623
-0.19931,0.5248774883535197
-0.1993,0.5260859718514399
-0.19929,0.5281205937857967
-0.19928,0.5288321262407909
-0.19927,0.5300854767612321
-0.19926,0.5314505071529529
-0.19925,0.5326043699278076
-0.19924,0.5338489421177558
-0.19923,0.5349891497118406
-0.19922,0.5361020469443886
-0.19921,0.5372149441769404
-0.1992,0.5383278414094902
-0.19919,0.5393090636846376
-0.19918,0.5401971381195531
-0.19917,0.5419274445968051
-0.19916,0.542650193807426
-0.19915,0.5433904996790344
-0.19914,0.5447121261033169
-0.19913,0.545418781708033
-0.19912,0.5459752303243079
-0.19911,0.5467950288553856
-0.1991,0.5475377731521298
-0.19909,0.5484507195234415
-0.19908,0.5495363063944543
-0.19907,0.5505833661483057
-0.19906,0.5511559083704853
-0.19905,0.5517645392846919
-0.19904,0.5531905303048399
-0.19903,0.5533977964414919
-0.19902,0.5545692158773283
-0.19901,0.5552100340033455
-0.199,0.5558186649175541
-0.19899,0.5563229312358953
-0.19898,0.5569973996288033
-0.19897,0.5576469960853124
-0.19896,0.558612124754558
-0.19895,0.5591188294980374
-0.19894,0.5597138052314764
-0.19893,0.56028390902852
-0.19892,0.561301219995698
-0.19891,0.5617557424412437
-0.1989,0.5625345754300175
-0.19889,0.5632773197267635
-0.19888,0.5635318913110713
-0.19887,0.5638883890661079
-0.19886,0.5643516898421467
-0.19885,0.5649603207563554
-0.19884,0.5656620995107984
-0.19883,0.5662458584886072
-0.19882,0.566341444753981
-0.19881,0.5668681445835836
-0.1988,0.5674382483806251
-0.19879,0.5691139341348066
-0.19878,0.5692441460371266
-0.19877,0.5696640428457257
-0.19876,0.5697596291110982
-0.19875,0.5700888165046007
-0.19874,0.5705521172806395
-0.19873,0.5709632357587462
-0.19872,0.5713606990560847
-0.19871,0.5720215122682261
-0.1987,0.5723419213312346
-0.19869,0.5727120742670382
-0.19868,0.5731753750430784
-0.19867,0.5743107057868889
-0.19866,0.5743975137217683
-0.19865,0.5747652282324353
-0.19864,0.5749788342744415
-0.19863,0.5752694945507774
-0.19862,0.575653302667349
-0.19861,0.5760507659646875
-0.1986,0.5765140667407278
-0.19859,0.5765959978253329
-0.19858,0.5771226976549346
-0.19857,0.577297776579776
-0.19856,0.5775089441966446
-0.19855,0.5780766095685497
-0.19854,0.5791075757164945
-0.19853,0.5791670732898393
-0.19852,0.5793372753644048
-0.19851,0.5795757533428085
-0.1985,0.579945906278613
-0.19849,0.5801458571398509
-0.19848,0.5804365174161872
-0.19847,0.5808203255327582
-0.19846,0.5810202763939971
-0.19845,0.5813767741490339
-0.19844,0.581971749882473
-0.19843,0.5822785037647151
-0.19842,0.5829778440940208
-0.19841,0.5828510459868949
-0.1984,0.5829281002212254
-0.19839,0.5832187604975629
-0.19838,0.5838000810502345
-0.19837,0.5838434850176744
-0.19836,0.5837639923582064
-0.19835,0.5840136870922402
-0.19834,0.5842658202514114
-0.19833,0.5844384607511142
-0.19832,0.5850583084209525
-0.19831,0.5853128800052607
-0.1983,0.5854060278454961
-0.19829,0.586275570249368
-0.19828,0.5859263877697436
-0.19827,0.5862780086745052
-0.19826,0.5866369448546791
-0.19825,0.5864282156629481
-0.19824,0.5866369448546791
-0.19823,0.5866915655777492
-0.19822,0.5869549154925501
-0.19821,0.5871412111730212
-0.1982,0.5874318714493576
-0.19819,0.5877498420872284
-0.19818,0.587804462810299
-0.19817,0.5884628375973024
-0.19816,0.5885335519262771
-0.19815,0.5887174091816105
-0.19814,0.5887583747239132
-0.19813,0.5888242122026135
-0.19812,0.588837867383381
-0.19811,0.5891670547768821
-0.1981,0.5892353306807202
-0.19809,0.5895645180742219
-0.19808,0.5900936563289608
-0.19807,0.5901892425943344
-0.19806,0.5901234051156338
-0.19805,0.5900439124561661
-0.19804,0.5910836569346041
-0.19803,0.5909071149546828
-0.19802,0.5912860462209795
-0.19801,0.591381632486352
-0.198,0.5911841200502509
-0.19799,0.5911431545079484
-0.19798,0.5911431545079484
-0.19797,0.59160401685885
-0.19796,0.5917654406029238
-0.19795,0.5917132583049909
-0.19794,0.5918312780816238
-0.19793,0.5918585884431591
-0.19792,0.592451125751462
-0.19791,0.5923765099422686
-0.1979,0.5925988943147675
-0.19789,0.5925876775591368
-0.19788,0.5923765099422686
-0.19787,0.5924672193573668
-0.19786,0.5924286922402016
-0.19785,0.5929417368890366
-0.19784,0.5931826532925774
-0.19783,0.5930124512180117
-0.19782,0.5930373231544093
-0.19781,0.5929851408564766
-0.1978,0.5931031606331095
-0.19779,0.5940521956964493
-0.19778,0.5937166683975917
-0.19777,0.5937391019088523
-0.19776,0.5935688998342863
-0.19775,0.593264584377183
-0.19774,0.5934074760902134
-0.19773,0.5935801165899166
-0.19772,0.5937391019088519
-0.19771,0.593700574791687
-0.1977,0.5935552446535188
-0.19769,0.5936596092493842
-0.19768,0.5936869196109195
-0.19767,0.5948061567488251
-0.19766,0.5947749449070715
-0.19765,0.5946544867053011
-0.19764,0.5943116441310317
-0.19763,0.594177530748494
-0.19762,0.5942955505251272
-0.19761,0.5944545358440626
-0.1976,0.5943501712481972
-0.19759,0.5943886983653627
-0.19758,0.5942048411100294
-0.19757,0.5940980380890262
-0.19756,0.5940185454295585
-0.19755,0.5940707277274911
-0.19754,0.5948085951739625
-0.19753,0.5943004273754015
-0.19752,0.5942297130464269
-0.19751,0.5941116932697937
-0.1975,0.5942160578656591
-0.19749,0.5941116932697937
-0.19748,0.594150220386959
-0.19747,0.5940322006103261
-0.19746,0.5940707277274911
-0.19745,0.5939527079508581
-0.19744,0.5941887475041239
-0.19743,0.5941116932697937
-0.19742,0.5946769202165609
-0.19741,0.5942731170138665
-0.1974,0.5940980380890262
-0.19739,0.5942818953443602
-0.19738,0.5945203733227633
-0.19737,0.5942321514715641
-0.19736,0.5940980380890264
-0.19735,0.5940185454295583
-0.19734,0.5939390527700905
-0.19733,0.5939253975893231
-0.19732,0.5941887475041243
-0.19731,0.5940458557910929
-0.1973,0.5938073778126898
-0.19729,0.5942272746212897
-0.19728,0.5937961610570597
-0.19727,0.5938844320470206
-0.19726,0.5940570725467237
-0.19725,0.593886870472158
-0.19724,0.5937142299724545
-0.19723,0.5934894071748185
-0.19722,0.5934484416325161
-0.19721,0.5935142791112163
-0.1972,0.5935937717706842
-0.19719,0.5934099145153506
-0.19718,0.5930397615795464
-0.19717,0.5934323480266107
-0.19716,0.5931329094197818
-0.19715,0.5931168158138771
-0.19714,0.593196308473344
-0.19713,0.59274910130321
-0.19712,0.5924560026017365
-0.19711,0.592349199580734
-0.1971,0.5920721944851648
-0.19709,0.5924125986342967
-0.19708,0.5920995048467004
-0.19707,0.5919517362833945
-0.19706,0.591872243623926
-0.19705,0.5915952385283577
-0.19704,0.5920673176348903
-0.19703,0.5916498592514277
-0.19702,0.5916722927626884
-0.19701,0.5913704157307218
-0.197,0.591236302348184
-0.19699,0.5908276222952143
-0.19698,0.5908773661680099
-0.19697,0.5908388390508447
-0.19696,0.5905618339552757
-0.19695,0.5903097007961047
-0.19694,0.5898737103816002
-0.19693,0.5896601043395945
-0.19692,0.590159493807662
-0.19691,0.5900712228177011
-0.1969,0.589701069881897
-0.19689,0.5895011190206579
-0.19688,0.5890787837869217
-0.19687,0.588667665308815
-0.19686,0.5885993894049776
-0.19685,0.5884677144475767
-0.19684,0.5882428916499407
-0.19683,0.5880702511502379
-0.19682,0.5877795908739012
-0.19681,0.5875932951934308
-0.1968,0.5877634972679965
-0.19679,0.588199487682501
-0.19678,0.5874913690227013
-0.19677,0.5870641569386906
-0.19676,0.5864828363860177
-0.19675,0.5860444075463769
-0.19674,0.586041969121239
-0.19673,0.5859239493446058
-0.19672,0.5856991265469701
-0.19671,0.5828271494205527
-0.1967,0.5838200761363619
-0.19669,0.5859912498783875
-0.19668,0.5865052698972785
-0.19667,0.5863350678227091
-0.19666,0.5845164903555008
-0.19665,0.5838186130812764
-0.19664,0.5834869872626371
-0.19663,0.5832348541034664
-0.19662,0.5832597260398643
-0.19661,0.5829441938271307
-0.1966,0.5828100804445924
-0.19659,0.5823355629129224
-0.19658,0.5819766267327492
-0.19657,0.5817903310522778
-0.19656,0.5816313457333415
-0.19655,0.5813406854570058
-0.19654,0.581549414648737
-0.19653,0.5806823106700016
-0.19652,0.5802936257031562
-0.19651,0.579923472767352
-0.1965,0.5797893593848145
-0.19649,0.5793148418531443
-0.19648,0.5788900681942701
-0.19647,0.5784267674182314
-0.19646,0.5780156489401238
-0.19645,0.5778815355575853
-0.19644,0.5775386929833167
-0.19643,0.5773387421220785
-0.19642,0.5773772692392425
-0.19641,0.5766667121543076
-0.1964,0.5762531552510637
-0.19639,0.5758035096557924
-0.19638,0.5753265536989846
-0.19637,0.5749154352208778
-0.19636,0.5745179719235394
-0.19635,0.5741205086261993
-0.19634,0.5737230453288601
-0.19633,0.573457256988922
-0.19632,0.5728237541383161
-0.19631,0.5722399951605055
-0.1963,0.5718810589803323
-0.19629,0.5722214631294642
-0.19628,0.5710524821187627
-0.19627,0.5709905461202812
-0.19626,0.5703731368755804
-0.19625,0.5695782102809034
-0.19624,0.5688491211649238
-0.19623,0.5682653621871139
-0.19622,0.5679064260069406
-0.19621,0.5675884553690687
-0.1962,0.5669412973376947
-0.19619,0.5664892133172863
-0.19618,0.5657625626264454
-0.19617,0.5656260108187696
-0.19616,0.5652309859465683
-0.19615,0.5648198674684616
-0.19614,0.5640273792989218
-0.19613,0.563152960044774
-0.19612,0.5624102157480284
-0.19611,0.5617606192915193
-0.1961,0.5613221904518764
-0.19609,0.5609905646332375
-0.19608,0.5600800566870631
-0.19607,0.5593100020287824
-0.19606,0.5585945680935704
-0.19605,0.5578132966796608
-0.19604,0.5581376072228882
-0.19603,0.557179793829054
-0.19602,0.5564346111071725
-0.19601,0.5555353199166284
-0.196,0.5545155705243159
-0.19599,0.5537455158660333
-0.19598,0.553095919409523
-0.19597,0.5525916530911819
-0.19596,0.5517196722621719
-0.19595,0.5508974353059569
-0.19594,0.55010250871128
-0.19593,0.5491759071592008
-0.19592,0.5487486950751872
-0.19591,0.5475089997355133
-0.1959,0.5464731567372942
-0.19589,0.5455192448236817
-0.19588,0.5443678204739649
-0.19587,0.5435704554541492
-0.19586,0.5428550215189399
-0.19585,0.5420079126263273
-0.19584,0.5408701434573797
-0.19583,0.5398094285227627
-0.19582,0.5387101864709803
-0.19581,0.537663126717129
-0.1958,0.5366297221440489
-0.19579,0.5359913424431689
-0.19578,0.5344473316463865
-0.19577,0.5330276805315981
-0.19576,0.5317421427993451
-0.19575,0.5305360977265621
-0.19574,0.5293437078345422
-0.19573,0.5278879680277232
-0.19572,0.5261800950617362
-0.19571,0.5249579563830432
-0.1957,0.5235817092356898
-0.19569,0.5223483538013719
-0.19568,0.5207609390371521
-0.19567,0.5196841304966265
-0.19566,0.5175451439664102
-0.19565,0.515555389054577
-0.19564,0.513910915142153
-0.19563,0.5122552244740928
-0.19562,0.5103225287104667
-0.19561,0.5082035372663738
-0.1956,0.5063205853755395
-0.19559,0.5039655543781724
-0.19558,0.5017646318494745
-0.19557,0.4997500050012433
-0.19556,0.4973018261636404
-0.19555,0.4948238985393742
-0.19554,0.492754650968073
-0.19553,0.4896480973434656
-0.19552,0.486572755560623
-0.19551,0.4837495469369459
-0.1955,0.4803089290685743
-0.19549,0.4768634343499157
-0.19548,0.473576924950199
-0.19547,0.4697910260824216
-0.19546,0.4658958857684903
-0.19545,0.4620007454545575
-0.19544,0.4573813928749378
-0.19543,0.4527435082642678
-0.19542,0.4480012590577223
-0.19541,0.4425733247026581
-0.1954,0.4368771635825083
-0.19539,0.4306928297499323
-0.19538,0.4242153972158604
-0.19537,0.4171702993098944
-0.19536,0.4096867725643003
-0.19535,0.4018057825213397
-0.19534,0.3933298167449367
-0.19533,0.3846129345650247
-0.19532,0.3751445297578581
-0.19531,0.3655259179622304
-0.1953,0.3553806063370369
-0.19529,0.3449943783082843
-0.19528,0.3343174900031746
-0.19527,0.3229276061880329
-0.19526,0.3114670080438958
-0.19525,0.2998883901231464
-0.19524,0.2881507868834194
-0.19523,0.2761225233673771
-0.19522,0.2639079641708862
-0.19521,0.2517977695702165
-0.1952,0.2397807228097828
-0.19519,0.2278431687088603
-0.19518,0.2153925699590809
-0.19517,0.2028985672418393
-0.19516,0.1905498946628108
-0.19515,0.1782285324452949
-0.19514,0.1657096577917007
-0.19513,0.1535448424679605
-0.19512,0.1413961207501478
-0.19511,0.1288387189793883
-0.1951,0.1164627360387795
-0.19509,0.1040096988638403
-0.19508,0.09159518880611164
-0.19507,0.07899682149302685
-0.19506,0.0661599762015157
-0.19505,0.05361135276124938
-0.19504,0.04099933026739708
-0.19503,0.02835999741203277
-0.19502,0.01591817699272348
-0.19501,0.003122297243537677
-0.195,-0.009821351068929961
-0.19499,-0.0222519547326095
-0.19498,-0.03483666686492677
-0.19497,-0.04741016224159088
-0.19496,-0.06010167739493389
-0.19495,-0.07262299047371097
-0.19494,-0.08523501296754032
-0.19493,-0.09767683338682663
-0.19492,-0.1100118507851327
-0.19491,-0.1224648879600267
-0.1949,-0.135076910453879
-0.19489,-0.1475187308731426
-0.19488,-0.1600512607075497
-0.19487,-0.1726769383821695
-0.19486,-0.1853162712375338
-0.19485,-0.1976264166994424
-0.19484,-0.2098682862575131
-0.19483,-0.2223076682516396
-0.19482,-0.2345905033519902
-0.19481,-0.2468323729100605
-0.1948,-0.2590084049893861
-0.19479,-0.2711707818879663
-0.19478,-0.2832673213078242
-0.19477,-0.2952185305895579
-0.19476,-0.3071424295097346
-0.19475,-0.3187371410363886
-0.19474,-0.3300002267444458
-0.19473,-0.3399577796341055
-0.19472,-0.3505117713122869
-0.19471,-0.3609140929469443
-0.1947,-0.3710506262416802
-0.19469,-0.380487819207076
-0.19468,-0.3897226228861135
-0.19467,-0.3980878841612948
-0.19466,-0.4067364904373695
-0.19465,-0.414427283319627
-0.19464,-0.4215045684373895
-0.19463,-0.4281048975983707
-0.19462,-0.4346891331534343
-0.19461,-0.4407603240596517
-0.1946,-0.446327248647549
-0.19459,-0.4518780796295391
-0.19458,-0.4565208410904751
-0.19457,-0.4609724300206744
-0.19456,-0.4654898564295814
-0.19455,-0.4695600756683388
-0.19454,-0.4730080088121283
-0.19453,-0.4768734003393735
-0.19452,-0.4802554960044698
-0.19451,-0.4835805325213517
-0.1945,-0.4867875492615947
-0.19449,-0.4899672556403143
-0.19448,-0.4928177746255264
-0.19447,-0.4952049928346989
-0.19446,-0.4978394673527681
-0.19445,-0.500278867859878
-0.19444,-0.5027953226013094
-0.19443,-0.5049440628320785
-0.19442,-0.5068133595421459
-0.19441,-0.5092342280182049
-0.1944,-0.5109221058980716
-0.19439,-0.5128933287788594
-0.19438,-0.5148284629676263
-0.19437,-0.5168021242735549
-0.19436,-0.5187236032815472
-0.19435,-0.520433914672678
-0.19434,-0.5218399106067038
-0.19433,-0.5231912858176547
-0.19432,-0.5248060109434094
-0.19431,-0.5263436818348363
-0.1943,-0.5278540423647226
-0.19429,-0.5285085156715071
-0.19428,-0.530368058681018
-0.19427,-0.5317243107422491
-0.19426,-0.5332458880277684
-0.19425,-0.534704066259722
-0.19424,-0.5359374216940448
-0.19423,-0.5369322991499632
-0.19422,-0.5378862110635756
-0.19421,-0.5391034728919911
-0.1942,-0.540243680486078
-0.19419,-0.5413565777186258
-0.19418,-0.5424036374724752
-0.19417,-0.5428445047372561
-0.19416,-0.5438866876408293
-0.19415,-0.5449474025754463
-0.19414,-0.5459149696698262
-0.19413,-0.5470005565408428
-0.19412,-0.5481134537733926
-0.19411,-0.5489630010911395
-0.1941,-0.5496262527284188
-0.19409,-0.5506572188763652
-0.19408,-0.5515067661941122
-0.19407,-0.5523016927887906
-0.19406,-0.55309661938347
-0.19405,-0.5536281960633461
-0.19404,-0.5536442896692508
-0.19403,-0.554749871626387
-0.19402,-0.5557062219651404
-0.19401,-0.556448966261886
-0.194,-0.5570327252396948
-0.19399,-0.5575233363772705
-0.19398,-0.5583953172062764
-0.19397,-0.5566498924931799
-0.19396,-0.5580973416545316
-0.19395,-0.5594672488965282
-0.19394,-0.5601987764376422
-0.19393,-0.561229742585587
-0.19392,-0.5620134524246336
-0.19391,-0.5623338614876437
-0.1939,-0.5607947275411381
-0.19389,-0.5629029899146265
-0.19388,-0.5637374189965298
-0.19387,-0.5644640696873708
-0.19386,-0.5658515335903497
-0.19385,-0.566901031769339
-0.19384,-0.5650239320988399
-0.19383,-0.565785696111652
-0.19382,-0.5668215391098711
-0.19381,-0.5672487511938847
-0.1938,-0.5684884465335587
-0.19379,-0.5689975897021751
-0.19378,-0.5703031225205492
-0.19377,-0.5706942459125349
-0.19376,-0.5706557187953696
-0.19375,-0.5712346009229041
-0.19374,-0.5718841973794153
-0.19373,-0.5725859761338591
-0.19372,-0.5729722226755674
-0.19371,-0.5707225316441257
-0.1937,-0.5717588623273722
-0.19369,-0.5725996313146259
-0.19368,-0.5734330850264697
-0.19367,-0.5740441543658136
-0.19366,-0.5749956278542916
-0.19365,-0.5755681700764712
-0.19364,-0.5757817761184766
-0.19363,-0.5759407614374127
-0.19362,-0.5765606091072507
-0.19361,-0.5770785306063604
-0.1936,-0.5773579741270664
-0.19359,-0.577728127062867
-0.19358,-0.5757554411269976
-0.19357,-0.5765830426185112
-0.19356,-0.5776325407974989
-0.19355,-0.5781255903602098
-0.19354,-0.5787864035723503
-0.19353,-0.5799626998584612
-0.19352,-0.5799836703146424
-0.19351,-0.5804035671232423
-0.1935,-0.5808283407821156
-0.19349,-0.581291641558156
-0.19348,-0.5817027600362631
-0.19347,-0.5818368734188007
-0.19346,-0.5818505285995682
-0.19345,-0.5798754042385601
-0.19344,-0.5809800108256407
-0.19343,-0.581820779812896
-0.19342,-0.5819958587377361
-0.19341,-0.5831287510564096
-0.1934,-0.5835584015655583
-0.19339,-0.584257741894863
-0.19338,-0.5847234810960409
-0.19337,-0.5849234319572791
-0.19336,-0.5850824172762148
-0.19335,-0.5851097276377498
-0.19334,-0.5855047525099524
-0.19333,-0.5857841960306579
-0.19332,-0.5835866872971489
-0.19331,-0.5844391607250617
-0.1933,-0.5851731266913129
-0.19329,-0.5847420131270827
-0.19328,-0.5860811962123477
-0.19327,-0.5865791226253364
-0.19326,-0.5866200881676389
-0.19325,-0.5845791263279321
-0.19324,-0.5863942899999471
-0.19323,-0.5867927286673429
-0.19322,-0.5873057733161773
-0.19321,-0.5882709019854216
-0.1932,-0.5888434442075976
-0.19319,-0.5868185759737956
-0.19318,-0.5872374974123397
-0.19317,-0.5870199898901156
-0.19316,-0.5876622710712139
-0.19315,-0.5886683652827609
-0.19314,-0.5895042574197403
-0.19313,-0.5893116218339153
-0.19312,-0.5873998965264708
-0.19311,-0.5887951633898872
-0.1931,-0.5891638532706099
-0.19309,-0.5896905531002143
-0.19308,-0.590655681769457
-0.19307,-0.5913598989490373
-0.19306,-0.5887698037684646
-0.19305,-0.5892633410162011
-0.19304,-0.5891526365149795
-0.19303,-0.5900060853129452
-0.19302,-0.5911189825454967
-0.19301,-0.5918368549058445
-0.193,-0.5914852340010828
-0.19299,-0.5891511734598981
-0.19298,-0.5907936966322144
-0.19297,-0.5912306624167738
-0.19296,-0.5917573622463765
-0.19295,-0.59245914100082
-0.19294,-0.5926478751064276
-0.19293,-0.5902255435752827
-0.19292,-0.5902470017164876
-0.19291,-0.5908829429922303
-0.1929,-0.5913213718318721
-0.19289,-0.5923113724375124
-0.19288,-0.5929634073191618
-0.19287,-0.5925322937549277
-0.19286,-0.5903820904690811
-0.19285,-0.5919997417049988
-0.19284,-0.5922913773513915
-0.19283,-0.5926590918620578
-0.19282,-0.5932018852975652
-0.19281,-0.5936266589564352
