synth-diodes-1f-1r-in-T10-L10-D00/100Hz-1V/scope.csv

#Digilent WaveForms Oscilloscope Acquisition
#Device Name: Discovery3
#Serial Number: SN:210415BD5874
#Date Time: 2025-04-06 21:20:48.662.228.840
#Sample rate: 100000Hz
#Samples: 32768
#Trigger: Source: Channel 1 Type: Edge Condition: Rising Level: 0 V Hyst.: Auto HoldOff: 0 s
#Average: 1
#Channel 1: Range: 500 mV/div Offset: 0 V Sample Mode: Average
#Wavegen Channel 1: Running
#Mode: Simple
#Type: Sine
#Frequency: 100 Hz
#Period: 10 ms
#Amplitude: 1 V
#Offset: 0 V
#Symmetry: 50 %
#Phase: 0 °

Time (s),Channel 1 (V)
-0.19972,0.1002759822940073
-0.19971,0.1013486543253816
-0.1997,0.1039920246884083
-0.19969,0.1062254810965857
-0.19968,0.1116003341680799
-0.19967,0.1172299468470165
-0.19966,0.1170288208411348
-0.19965,0.1211662701050057
-0.19964,0.1277335130685133
-0.19963,0.1298338432156544
-0.19962,0.1339511798789355
-0.19961,0.1397005104185279
-0.1996,0.1443254508109308
-0.19959,0.1478336629992535
-0.19958,0.1517661552856906
-0.19957,0.1537343169146913
-0.19956,0.1564313208792867
-0.19955,0.1597087170322816
-0.19954,0.1638432930674987
-0.19953,0.1642733196229395
-0.19952,0.1674472795443382
-0.19951,0.1724361622331078
-0.1995,0.1740499589945997
-0.19949,0.1775217769532814
-0.19948,0.1850956076890849
-0.19947,0.1893307467272292
-0.19946,0.1901994195240738
-0.19945,0.1955646951667117
-0.19944,0.1997921722617742
-0.19943,0.1982626568741903
-0.19942,0.2003313815061267
-0.19941,0.2053451655099103
-0.1994,0.2069886523008359
-0.19939,0.2088983916138377
-0.19938,0.2105878500632471
-0.19937,0.2111701577374211
-0.19936,0.2121566329091349
-0.19935,0.2142512165989646
-0.19934,0.2155642820945108
-0.19933,0.2136411343811224
-0.19932,0.2108521870995498
-0.19931,0.2101760206226295
-0.1993,0.2073688762262461
-0.19929,0.2049591951271918
-0.19928,0.2023570077082201
-0.19927,0.1991543155002687
-0.19926,0.1961556225268488
-0.19925,0.1914004291020447
-0.19924,0.1860112098872899
-0.19923,0.1833084594653832
-0.19922,0.1800693730277952
-0.19921,0.1760181206235849
-0.1992,0.1723068669436101
-0.19919,0.1685735851772839
-0.19918,0.1654752869438016
-0.19917,0.1628539446671293
-0.19916,0.1607095583472719
-0.19915,0.1588812271795114
-0.19914,0.1568115448046878
-0.19913,0.1546432149127017
-0.19912,0.1528905454328682
-0.19911,0.1515248040786384
-0.1991,0.151463508533988
-0.19909,0.1505153430776852
-0.19908,0.1500058238627833
-0.19907,0.1487368145399526
-0.19906,0.1483441399570395
-0.19905,0.1485270688481035
-0.19904,0.1483154076704847
-0.19903,0.1482636895546862
-0.19902,0.1481545068657785
-0.19901,0.1475990159923888
-0.199,0.1471747358942647
-0.19899,0.1468854975429487
-0.19898,0.146401837385945
-0.19897,0.1449728850012969
-0.19896,0.1441013389758037
-0.19895,0.14472291410827
-0.19894,0.1465953014487435
-0.19893,0.1469659479453018
-0.19892,0.1471766513800356
-0.19891,0.1470962009776826
-0.1989,0.1468040893977104
-0.19889,0.1467552445105688
-0.19888,0.1473107353839575
-0.19887,0.147279129868747
-0.19886,0.1473701154428374
-0.19885,0.1484724775036499
-0.19884,0.1481315210365351
-0.19883,0.1487722510267028
-0.19882,0.1498813172877129
-0.19881,0.1505459908500105
-0.1988,0.1515793954230906
-0.19879,0.1520496471797029
-0.19878,0.1518427747165114
-0.19877,0.1526664335977432
-0.19876,0.1538320066889765
-0.19875,0.1547035527144679
-0.19874,0.155154649613375
-0.19873,0.155791548632003
-0.19872,0.1563719408204055
-0.19871,0.1569868117526763
-0.1987,0.1584435386809967
-0.19869,0.1596876466888103
-0.19868,0.16007744804307
-0.19867,0.1590421279842167
-0.19866,0.158575707199148
-0.19865,0.1597135057467117
-0.19864,0.1607756426063511
-0.19863,0.1621796936759854
-0.19862,0.1626729312618393
-0.19861,0.1620973277878629
-0.1986,0.1621969330479175
-0.19859,0.1620207083570497
-0.19858,0.1633720835680006
-0.19857,0.1648039091813095
-0.19856,0.166742380780863
-0.19855,0.1684538673166338
-0.19854,0.1687766266689313
-0.19853,0.1699163407022673
-0.19852,0.1709210129887926
-0.19851,0.171530137463751
-0.1985,0.1710943644510017
-0.19849,0.1694604550889314
-0.19848,0.1698109889848985
-0.19847,0.1710014633911435
-0.19846,0.1721172338523512
-0.19845,0.1728489494166087
-0.19844,0.172136388710055
-0.19843,0.1722197123410625
-0.19842,0.1729619630770595
-0.19841,0.1741055080819325
-0.1984,0.176309274460674
-0.19839,0.1775610444115671
-0.19838,0.176111021683446
-0.19837,0.1757384597011206
-0.19836,0.1759338392496926
-0.19835,0.1774671856088255
-0.19834,0.1777506775028307
-0.19833,0.1780312961681817
-0.19832,0.1763073589748995
-0.19831,0.1720386989357706
-0.1983,0.1778636911632794
-0.19829,0.1791422779149616
-0.19828,0.1812320728903725
-0.19827,0.1831715022328077
-0.19826,0.1832452484349622
-0.19825,0.1779450993085127
-0.19824,0.176267133773728
-0.19823,0.1803021045488835
-0.19822,0.181069256599891
-0.19821,0.1813843540091081
-0.1982,0.1820835063152718
-0.19819,0.1793730939502842
-0.19818,0.1737607206432788
-0.19817,0.1794525866097521
-0.19816,0.1799831761681269
-0.19815,0.1804850334399479
-0.19814,0.1806698778167814
-0.19813,0.1799448664527198
-0.19812,0.1782563657461926
-0.19811,0.1787179978168372
-0.1981,0.1796556281014033
-0.19809,0.178684476815857
-0.19808,0.1793750094360525
-0.19807,0.1813479597794735
-0.19806,0.1794228965802949
-0.19805,0.172774245471569
-0.19804,0.177465270123055
-0.19803,0.1782372108884914
-0.19802,0.1789986164821875
-0.19801,0.1789497715950449
-0.198,0.1784594072378418
-0.19799,0.1769097792496653
-0.19798,0.1777861139895821
-0.19797,0.1787103358737545
-0.19796,0.1791346159718797
-0.19795,0.1800406407412365
-0.19794,0.1825939832730552
-0.19793,0.1806401877873386
-0.19792,0.1745326614087245
-0.19791,0.1804285266097235
-0.1979,0.1807579901622176
-0.19789,0.1827424334202606
-0.19788,0.1841455267470097
-0.19787,0.1836216413888284
-0.19786,0.1807455395047149
-0.19785,0.1797638530474259
-0.19784,0.1795905015852138
-0.19783,0.1802388935184614
-0.19782,0.1788645324782657
-0.19781,0.1791154611141735
-0.1978,0.1771032433124631
-0.19779,0.1730194276501691
-0.19778,0.1791116301426373
-0.19777,0.179658501330059
-0.19776,0.17870554715933
-0.19775,0.1779374373654373
-0.19774,0.1766588506137538
-0.19773,0.1743545212320715
-0.19772,0.1731736242546787
-0.19771,0.1742108597992995
-0.1977,0.1750488848238092
-0.19769,0.1735299046079559
-0.19768,0.171500447434311
-0.19767,0.1672662661390297
-0.19766,0.1626116357171928
-0.19765,0.1699201716738064
-0.19764,0.1710206182488465
-0.19763,0.1700398895344497
-0.19762,0.1691673857660739
-0.19761,0.1676187155207806
-0.1976,0.1641478553049769
-0.19759,0.1640817710459043
-0.19758,0.1685352754618639
-0.19757,0.1689059219584269
-0.19756,0.1686071061782568
-0.19755,0.1679012496718997
-0.19754,0.1634391255699589
-0.19753,0.1566468130284579
-0.19752,0.1616577238035746
-0.19751,0.1601952504179449
-0.1975,0.1609212195248897
-0.19749,0.1599788005258996
-0.19748,0.1586532843728434
-0.19747,0.152823503430917
-0.19746,0.1508026659432333
-0.19745,0.1542486248440182
-0.19744,0.1528091372876326
-0.19743,0.1503228367577686
-0.19742,0.149995288691044
-0.19741,0.1484102242161121
-0.1974,0.1449317020572355
-0.19739,0.1508907782886686
-0.19738,0.1521913931267065
-0.19737,0.1499723028617994
-0.19736,0.1440304660023137
-0.19735,0.1433389756392189
-0.19734,0.1397847917924114
-0.19733,0.1429731178570884
-0.19732,0.1488182226851909
-0.19731,0.148205267238689
-0.1973,0.146798342940399
-0.19729,0.1455331645891101
-0.19728,0.1410298575430964
-0.19727,0.1344022767778434
-0.19726,0.1374411949524368
-0.19725,0.1362670021752406
-0.19724,0.136674042901428
-0.19723,0.135898271164454
-0.19722,0.1366472261006422
-0.19721,0.1348533736767493
-0.1972,0.1371921818022998
-0.19719,0.1423534582103963
-0.19718,0.142972160114207
-0.19717,0.1432412858649306
-0.19716,0.1414857431564466
-0.19715,0.1374986595255424
-0.19714,0.1300340114786619
-0.19713,0.1350190631958816
-0.19712,0.1362919034902524
-0.19711,0.1379104889661611
-0.1971,0.1390933014293295
-0.19709,0.1375158988974785
-0.19708,0.1338084761890513
-0.19707,0.131059754108651
-0.19706,0.129014015305956
-0.19705,0.1268236573276118
-0.19704,0.1261350401931856
-0.19703,0.1255527325190036
-0.19702,0.1212141572492569
-0.19701,0.1152972217047763
-0.197,0.1179080288097005
-0.19699,0.1157282060030945
-0.19698,0.1158766561502927
-0.19697,0.1144208869648602
-0.19696,0.1136307490846052
-0.19695,0.1134162146783304
-0.19694,0.1134506934221965
-0.19693,0.1134344117931477
-0.19692,0.1112143637853577
-0.19691,0.1102642828432862
-0.1969,0.1109117170336517
-0.19689,0.108494373991507
-0.19688,0.1032775484960849
-0.19687,0.1076544334812385
-0.19686,0.1052840198404859
-0.19685,0.1050694854342067
-0.19684,0.1040581089474829
-0.19683,0.1028187896540954
-0.19682,0.1032507316952985
-0.19681,0.1031223941486805
-0.1968,0.1000308001154072
-0.19679,0.0974496830399143
-0.19678,0.0934262051793759
-0.19677,0.09145517032173224
-0.19676,0.08838943534634842
-0.19675,0.08352793246131685
-0.19674,0.08693941261822671
-0.19673,0.08648161151912422
-0.19672,0.08837985791749674
-0.19671,0.08746425571929113
-0.1967,0.08538595365850454
-0.19669,0.08433530971349038
-0.19668,0.0797429325791727
-0.19667,0.07549725836928281
-0.19666,0.07526644233396151
-0.19665,0.07562942688743456
-0.19664,0.07513140058714823
-0.19663,0.07169406137233059
-0.19662,0.0670528393508764
-0.19661,0.07285867672067216
-0.1966,0.07463241654398921
-0.19659,0.07657184588642796
-0.19658,0.07750372971368018
-0.19657,0.07528368170589358
-0.19656,0.07285867672067402
-0.19655,0.06918764824188345
-0.19654,0.06813508881109892
-0.19653,0.06872314294258698
-0.19652,0.0701808276137899
-0.19651,0.07169118814367895
-0.1965,0.06912539495435031
-0.19649,0.06482800262866198
-0.19648,0.06894150832039808
-0.19647,0.06700016349219441
-0.19646,0.06781616043034232
-0.19645,0.06669081254028074
-0.19644,0.0646105949937294
-0.19643,0.06340288121554809
-0.19642,0.06055168064644199
-0.19641,0.05989466902722744
-0.1964,0.05978452859543433
-0.19639,0.05802419717252221
-0.19638,0.05581564207935345
-0.19637,0.05106140639744035
-0.19636,0.04446160017585889
-0.19635,0.05026073334545458
-0.19634,0.0480512205094038
-0.19633,0.04828682525915122
-0.19632,0.0486919504995727
-0.19631,0.05036129634839795
-0.1963,0.05063616855643559
-0.19629,0.04857414812469776
-0.19628,0.04596142553398667
-0.19627,0.0417339484389222
-0.19626,0.03945452037225384
-0.19625,0.03779379420939917
-0.19624,0.03278192569137697
-0.19623,0.02611699295359205
-0.19622,0.03159240902800907
-0.19621,0.03095455226650582
-0.1962,0.02967883874347544
-0.19619,0.02750284690840755
-0.19618,0.02643592133434663
-0.19617,0.02831405513213704
-0.19616,0.02950452953838208
-0.19615,0.02866267354232949
-0.19614,0.02686307466112917
-0.19613,0.02851709662378699
-0.19612,0.02766949417042506
-0.19611,0.02834949161888504
-0.1961,0.03042492045101527
-0.19609,0.02917506598588797
-0.19608,0.02807270392507565
-0.19607,0.02894999640787763
-0.19606,0.0307840740329516
-0.19605,0.03198412586804689
-0.19604,0.02994221803689683
-0.19603,0.02844143493585811
-0.19602,0.02736780516160053
-0.19601,0.02394866306159798
-0.196,0.02037149338555147
-0.19599,0.01738429332674782
-0.19598,0.01574367976447789
-0.19597,0.01578582045142583
-0.19596,0.01739003978405919
-0.19595,0.0168853092835823
-0.19594,0.0167598449656278
-0.19593,0.01741781432772877
-0.19592,0.01744558887139835
-0.19591,0.01744271564274268
-0.1959,0.01739482849848533
-0.19589,0.0168757318547312
-0.19588,0.0139096021394061
-0.19587,0.01187727173710832
-0.19586,0.01097412019640885
-0.19585,0.008870916820606612
-0.19584,0.006421968263267074
-0.19583,0.005965124907047767
-0.19582,0.004669298783433579
-0.19581,0.00347307791987206
-0.1958,0.001859281158389427
-0.19579,7.692164911589036e-05
-0.19578,-0.002059802727664161
-0.19577,-0.002348083336094974
-0.19576,-0.003021376584359597
-0.19575,-0.005244297820799521
-0.19574,-0.006483617114193356
-0.19573,-0.006212575877694096
-0.19572,-0.006925136584249744
-0.19571,-0.0110530084192676
-0.1957,-0.01407181399328211
-0.19569,-0.01784723644655627
-0.19568,-0.02102119636795666
-0.19567,-0.02005483379683924
-0.19566,-0.02151347621092738
-0.19565,-0.02302192125504597
-0.19564,-0.02483109756510057
-0.19563,-0.02766410101939146
-0.19562,-0.02983338865426671
-0.19561,-0.03123552423813055
-0.1956,-0.03226892881121508
-0.19559,-0.03343641738822126
-0.19558,-0.03476001805550263
-0.19557,-0.03563156408099323
-0.19556,-0.03661899699559208
-0.19555,-0.03868484839886707
-0.19554,-0.0399222522064864
-0.19553,-0.04027182835957147
-0.19552,-0.04202737106805746
-0.19551,-0.04569361083243059
-0.1955,-0.0497333703220049
-0.19549,-0.05156361697554314
-0.19548,-0.05298586515999729
-0.19547,-0.05387081958587948
-0.19546,-0.05534095491459259
-0.19545,-0.05543098274579956
-0.19544,-0.05632072588610584
-0.19543,-0.05614450119523809
-0.19542,-0.05760314360932947
-0.19541,-0.05793164941893574
-0.1954,-0.05769125595476378
-0.19539,-0.06027333077313518
-0.19538,-0.06000324727952584
-0.19537,-0.05915851805481959
-0.19536,-0.05924279942871342
-0.19535,-0.05955406586638836
-0.19534,-0.05889322327563297
-0.19533,-0.05959524881045113
-0.19532,-0.06339557257874606
-0.19531,-0.06799369617037655
-0.1953,-0.06989385805451954
-0.19529,-0.07047616572869358
-0.19528,-0.07194534331452591
-0.19527,-0.07415677163634311
-0.19526,-0.07485592394250687
-0.19525,-0.07681163491398893
-0.19524,-0.07730774572850209
-0.19523,-0.07761135022309706
-0.19522,-0.07865624771079786
-0.19521,-0.07709129583645677
-0.1952,-0.07526296466869434
-0.19519,-0.07415868712211357
-0.19518,-0.07383305454116038
-0.19517,-0.072055483746312
-0.19516,-0.07151818998774262
-0.19515,-0.07322967652351334
-0.19514,-0.07371333668051612
-0.19513,-0.07575907548320797
-0.19512,-0.0771985630395942
-0.19511,-0.07619772172460977
-0.1951,-0.07611727132225488
-0.19509,-0.07528882372659182
-0.19508,-0.073274690439115
-0.19507,-0.07115424769138232
-0.19506,-0.07120788129295823
-0.19505,-0.07404950443320568
-0.19504,-0.07365299887875169
-0.19503,-0.07384358971289752
-0.19502,-0.07409930706323348
-0.19501,-0.07269334050782618
-0.195,-0.07225756749508268
-0.19499,-0.07373536476687521
-0.19498,-0.07383688551270128
-0.19497,-0.07290595942833228
-0.19496,-0.07155649970314769
-0.19495,-0.07049627832927909
-0.19494,-0.06924929709280973
-0.19493,-0.06857025738723577
-0.19492,-0.0694705356992819
-0.19491,-0.06986321028219428
-0.1949,-0.06847352535583383
-0.19489,-0.06655612409975876
-0.19488,-0.06761826095939208
-0.19487,-0.0692368464353038
-0.19486,-0.07009785728905532
-0.19485,-0.06925600129300633
-0.19484,-0.06922726900645083
-0.19483,-0.06885662250989665
-0.19482,-0.06856546867280963
-0.19481,-0.06897059391323411
-0.1948,-0.07085447416833027
-0.19479,-0.07232844046858269
-0.19478,-0.07216945514964727
-0.19477,-0.0718227522252208
-0.19476,-0.07164365430569736
-0.19475,-0.07246443995827342
-0.19474,-0.0723753698699548
-0.19473,-0.07218094806426972
-0.19472,-0.07394511045872394
-0.19471,-0.07357063299062816
-0.1947,-0.07323350749505608
-0.19469,-0.07424201075312233
-0.19468,-0.07500437408970505
-0.19467,-0.07492679691600815
-0.19466,-0.07519209169519556
-0.19465,-0.07497372631737978
-0.19464,-0.07388956137138673
-0.19463,-0.0747295018816669
-0.19462,-0.07776650457049185
-0.19461,-0.07812565815242332
-0.1946,-0.07736712578738217
-0.19459,-0.07802701063525433
-0.19458,-0.07842638941836329
-0.19457,-0.08005359458024205
-0.19456,-0.08242592370676981
-0.19455,-0.08263662714150337
-0.19454,-0.0823684591336598
-0.19453,-0.08200260135153173
-0.19452,-0.08266727491382864
-0.19451,-0.08332524427592962
-0.1945,-0.08257533159685419
-0.19449,-0.08072305685696372
-0.19448,-0.0791849217834051
-0.19447,-0.07837467130256502
-0.19446,-0.07940807587564701
-0.19445,-0.08033421324559394
-0.19444,-0.08163961679805803
-0.19443,-0.08337983562038356
-0.19442,-0.08367098945747097
-0.19441,-0.08388265063508975
-0.1944,-0.08460478877049696
-0.19439,-0.08530681430531309
-0.19438,-0.08374282017385659
-0.19437,-0.08336068076268102
-0.19436,-0.08395160812281903
-0.19435,-0.08188958769108226
-0.19434,-0.08150265956548228
-0.19433,-0.08245178276466855
-0.19432,-0.08271803528674167
-0.19431,-0.08295364003649044
-0.1943,-0.083466032480048
-0.19429,-0.08550698256831284
-0.19428,-0.08727784916296041
-0.19427,-0.08898167375565455
-0.19426,-0.09101017318641141
-0.19425,-0.09114329944744774
-0.19424,-0.0913281438242828
-0.19423,-0.09213169010493211
-0.19422,-0.09422340056610617
-0.19421,-0.09508632690562974
-0.1942,-0.09434790714117534
-0.19419,-0.09416210502145562
-0.19418,-0.09376272623834594
-0.19417,-0.09374452912353042
-0.19416,-0.09472046912350099
-0.19415,-0.09469077909406094
-0.19414,-0.09434886488406154
-0.19413,-0.0944015407427444
-0.19412,-0.09485742635607847
-0.19411,-0.09540429754350011
-0.1941,-0.09501449618924371
-0.19409,-0.09564756423633053
-0.19408,-0.09551156474663854
-0.19407,-0.09503748201848715
-0.19406,-0.09509111562005665
-0.19405,-0.09551826894683513
-0.19404,-0.09542632562985932
-0.19403,-0.09395044384383913
-0.19402,-0.09397917613039126
-0.19401,-0.09416210502145562
-0.194,-0.0950767494767778
-0.19399,-0.09817600545314017
-0.19398,-0.0998836610173696
-0.19397,-0.09967774629706218
-0.19396,-0.1001508712823283
-0.19395,-0.1001527867680998
-0.19394,-0.1007121086130294
-0.19393,-0.1021209483970924
-0.19392,-0.1039186317925243
-0.19391,-0.105004712224293
-0.1939,-0.1061990176020811
-0.19389,-0.1076825613311831
-0.19388,-0.1093279636078819
-0.19387,-0.1121188263752235
-0.19386,-0.1152056316940706
-0.19385,-0.116562753362341
-0.19384,-0.1181708036665165
-0.19383,-0.1188919840590372
-0.19382,-0.1208831315172742
-0.19381,-0.1240159084946214
-0.1938,-0.1270500379547851
-0.19379,-0.1282730756191281
-0.19378,-0.1288400594071374
-0.19377,-0.127041418268818
-0.19376,-0.1271103757565504
-0.19375,-0.1281504845298251
-0.19374,-0.1254956212521776
-0.19373,-0.123821486688933
-0.19372,-0.1261315625279224
-0.19371,-0.1282931882197158
-0.1937,-0.1287452428615105
-0.19369,-0.129567943999857
-0.19368,-0.128429187709406
-0.19367,-0.1239086412914846
-0.19366,-0.1226013222532415
-0.19365,-0.1250224962669135
-0.19364,-0.1294788739115308
-0.19363,-0.1323386941666088
-0.19362,-0.1269705452953132
-0.19361,-0.1125574726166174
-0.1936,-0.1017589215865046
-0.19359,-0.1088395147364753
-0.19358,-0.1193900103593192
-0.19357,-0.1202720915565413
-0.19356,-0.1094093717531039
-0.19355,-0.1026994250997255
-0.19354,-0.1078358001928142
-0.19353,-0.1180549167773941
-0.19352,-0.118592210535981
-0.19351,-0.1134472157569314
-0.1935,-0.1136263136764566
-0.19349,-0.1169362730875515
-0.19348,-0.1181612262376588
-0.19347,-0.115934474029678
-0.19346,-0.1137374118511332
-0.19345,-0.1136253559335761
-0.19344,-0.1161068677490069
-0.19343,-0.1161221916351685
-0.19342,-0.1128993868266274
-0.19341,-0.1064547349524147
-0.1934,-0.1001614064540638
-0.19339,-0.09846811703311552
-0.19338,-0.1048667972488344
-0.19337,-0.1148215767971302
-0.19336,-0.1173184124987271
-0.19335,-0.1177043828814456
-0.19334,-0.1194666297901277
-0.19333,-0.1185596472778874
-0.19332,-0.1149355482004602
-0.19331,-0.1093346678080717
-0.1933,-0.1067142832742933
-0.19329,-0.1039511950506212
-0.19328,-0.1013174021164517
-0.19327,-0.1038381813901765
-0.19326,-0.1125440642162343
-0.19325,-0.1208036388577913
-0.19324,-0.1196457277096508
-0.19323,-0.1115968565028053
-0.19322,-0.1085972057865097
-0.19321,-0.1141971284360102
-0.1932,-0.1187780126556981
-0.19319,-0.1159928963456709
-0.19318,-0.107932532224208
-0.19317,-0.1027032560712759
-0.19316,-0.1063532142065927
-0.19315,-0.1134299763850013
-0.19314,-0.1173634264143216
-0.19313,-0.114099438661721
-0.19312,-0.111842038681416
-0.19311,-0.1135429900454481
-0.1931,-0.1156845031366538
-0.19309,-0.1162045575232878
-0.19308,-0.1138849042554461
-0.19307,-0.1103479597805707
-0.19306,-0.1101219324596785
-0.19305,-0.1120038972290043
-0.19304,-0.1139912137157004
-0.19303,-0.1154958277882753
-0.19302,-0.1173394828422021
-0.19301,-0.1192980670423414
-0.193,-0.1172130607813639
-0.19299,-0.1158272068265406
-0.19298,-0.1152429836666026
-0.19297,-0.1177206645104925
-0.19296,-0.117529115933461
-0.19295,-0.1154517716155547
-0.19294,-0.1127892463948304
-0.19293,-0.1117213630778822
