-20250405-BKP/synth-diodes-1f-1r-in-T00-L10-D10/100Hz1V/scope.csv

#Digilent WaveForms Oscilloscope Acquisition
#Device Name: Discovery3
#Serial Number: SN:210415BD5874
#Date Time: 2025-04-03 16:19:05.595.701.120
#Sample rate: 344828Hz
#Samples: 32768
#Trigger: Source: Channel 1 Type: Edge Condition: Rising Level: 0 V Hyst.: Auto HoldOff: 0 s
#Channel 1: Range: 200 mV/div Offset: 0 V Sample Mode: Average
#Wavegen Channel 1: Running
#Mode: Simple
#Type: Sine
#Frequency: 100 Hz
#Period: 10 ms
#Amplitude: 1 V
#Offset: 0 V
#Symmetry: 50 %
#Phase: 0 °

Time (s),Channel 1 (V)
-0.03483940687424841,0.1048865565431423
-0.03483650687424841,0.1052045271810137
-0.03483360687424841,0.103535181332189
-0.03483070687424841,0.103535181332189
-0.03482780687424841,0.1040916299484639
-0.03482490687424841,0.1026607620780427
-0.03482200687424841,0.102501776759107
-0.03481910687424841,0.1025812694185748
-0.03481620687424841,0.1010709088886858
-0.03481330687424841,0.1009119235697501
-0.03481040687424841,0.1009119235697501
-0.03480750687424841,0.09964004101826457
-0.03480460687424841,0.09876562176411827
-0.03480170687424841,0.09900409974252181
-0.03479880687424841,0.09805018782890768
-0.03479590687424841,0.0975732318721006
-0.03479300687424841,0.09773221719103629
-0.03479010687424841,0.09669881261795431
-0.03478720687424841,0.09630134932061508
-0.03478430687424841,0.09820917314784336
-0.03478140687424841,0.09685779793689001
-0.03477850687424841,0.09479098879072603
-0.03477560687424841,0.09494997410966058
-0.03477270687424841,0.09431403283391766
-0.03476980687424841,0.09359859889870981
-0.03476690687424841,0.09439352549338566
-0.03476400687424841,0.09375758421764131
-0.03476110687424841,0.0922472236877553
-0.03475820687424842,0.0924062090066904
-0.03475530687424842,0.09208823836881989
-0.03475240687424842,0.09033939986052991
-0.03474950687424842,0.09089584847680063
-0.03474660687424842,0.09057787783893086
-0.03474370687424842,0.08890853199010856
-0.03474080687424842,0.08938548794691173
-0.03473790687424842,0.08906751730904122
-0.03473500687424842,0.08747766411968433
-0.03473210687424842,0.08747766411968433
-0.03472920687424842,0.08755715677915217
-0.03472630687424842,0.08628527422766666
-0.03472340687424842,0.08580831827085958
-0.03472050687424841,0.0862057815681988
-0.03471760687424841,0.08533136231405251
-0.03471470687424841,0.08429795774097054
-0.03471180687424841,0.08493389901671329
-0.03470890687424841,0.08437745040043838
-0.03470600687424841,0.08310556784895286
-0.03470310687424841,0.08350303114629208
-0.03470020687424841,0.08326455316788856
-0.03469730687424841,0.08167469997853166
-0.03469440687424841,0.08231064125427441
-0.03469150687424841,0.08199267061640304
-0.03468860687424841,0.08000535412970693
-0.03468570687424841,0.08056180274598183
-0.03468280687424841,0.08024383210811045
-0.03467990687424841,0.07857448625928572
-0.03467700687424841,0.07897194955662494
-0.03467410687424841,0.07865397891875356
-0.03467120687424841,0.07714361838886451
-0.03466830687424841,0.07770006700513943
-0.03466540687424841,0.07698463306992882
-0.03466250687424841,0.075871735837379
-0.03465960687424841,0.0780180376430108
-0.03465670687424841,0.07714361838886451
-0.03465380687424841,0.07332797073440796
-0.03465090687424841,0.07269202945866521
-0.03464800687424841,0.07269202945866521
-0.03464510687424841,0.0698302937178228
-0.03464220687424841,0.06839942584740159
-0.03463930687424841,0.06720703595538392
-0.03463640687424841,0.06458377819294504
-0.03463350687424841,0.06180153511157048
-0.03463060687424841,0.06068863787902065
-0.03462770687424841,0.0577474094787104
-0.03462480687424841,0.05520364437573937
-0.03462190687424841,0.0540112544837217
-0.03461900687424841,0.05114951874287929
-0.03461610687424841,0.04781082704522707
-0.03461320687424841,0.04630046651533643
-0.03461030687424841,0.04391568673129892
-0.03460740687424841,0.04033851705524836
-0.03460450687424841,0.03811272259014872
-0.03460160687424841,0.0358869281250466
-0.03459870687424841,0.03230975844899633
-0.03459580687424842,0.03024294930283989
-0.03459290687424842,0.02817614015667593
-0.03459000687424842,0.02459897048062566
-0.03458710687424842,0.02237317601552355
-0.03458420687424842,0.0195114402746823
-0.03458130687424842,0.01577528527969519
-0.03457840687424842,0.01315202751724952
-0.03457550687424842,0.01036978443587495
-0.03457260687424842,0.005918195505675648
-0.03456970687424842,0.003453923062172462
-0.03456680687424842,0.00106914327813712
-0.03456390687424842,-0.003302952992594339
-0.03456100687424841,-0.006641644690243817
-0.03455810687424841,-0.008787946495875625
-0.03455520687424841,-0.01260359415033217
-0.03455230687424841,-0.01689619776159578
-0.03454940687424841,-0.01920148488616328
-0.03454650687424841,-0.02238119126487707
-0.03454360687424841,-0.02707125817347991
-0.03454070687424841,-0.02945603795751525
-0.03453780687424841,-0.03215878837942197
-0.03453490687424841,-0.03438458284452163
-0.03453200687424841,-0.03724631858536404
-0.03452910687424841,-0.04090298092088489
-0.03452620687424841,-0.04479812123480928
-0.03452330687424841,-0.04742137899724816
-0.03452040687424841,-0.04877275420820151
-0.03451750687424841,-0.05068057803542979
-0.03451460687424841,-0.05370129909520789
-0.03451170687424841,-0.05545013760350047
-0.03450880687424841,-0.05680151281445384
-0.03450590687424841,-0.05966324855529624
-0.03450300687424841,-0.06180955036092806
-0.03450010687424841,-0.06324041823134925
-0.03449720687424841,-0.06729454386420934
-0.03449430687424841,-0.06896388971303408
-0.03449140687424841,-0.07095120619973019
-0.03448850687424841,-0.07460786853525106
-0.03448560687424841,-0.07731061895715777
-0.03448270687424841,-0.0791389501249182
-0.03447980687424841,-0.08231865650363199
-0.03447690687424841,-0.08510089958500655
-0.03447400687424841,-0.0866112601148956
-0.03447110687424841,-0.08963198117467371
-0.03446820687424841,-0.09201676095870905
-0.03446530687424841,-0.0935271214885981
-0.03446240687424841,-0.09630936456997266
-0.03445950687424841,-0.09821718839720094
-0.03445660687424841,-0.09893262233241154
-0.03445370687424841,-0.1018738507327257
-0.03445080687424841,-0.1040201525383552
-0.03444790687424841,-0.1048945717925048
-0.03444500687424841,-0.1075973222144107
-0.03444210687424841,-0.1098231166795086
-0.03443920687424841,-0.1110949992309964
-0.03443630687424842,-0.1136387643339582
-0.03443340687424842,-0.1162620220963969
-0.03443050687424842,-0.1171364413505464
-0.03442760687424842,-0.1199981770913852
-0.03442470687424842,-0.1229394054916953
-0.03442180687424842,-0.1238138247458453
-0.03441890687424842,-0.1261986045298779
-0.03441600687424842,-0.1281064283571105
-0.03441310687424842,-0.1292988182491282
-0.03441020687424842,-0.1309681640979529
-0.03440730687424842,-0.1327170026062455
-0.03440440687424842,-0.1347043190929416
-0.03440150687424842,-0.1378045328121876
-0.03439860687424841,-0.1397918492988837
-0.03439570687424841,-0.1411432245098371
-0.03439280687424841,-0.1421766290829191
-0.03438990687424841,-0.1449588721642936
-0.03438700687424841,-0.1470256813104576
-0.03438410687424841,-0.147343651948329
-0.03438120687424841,-0.1494104610944929
-0.03437830687424841,-0.1525106748137389
-0.03437540687424841,-0.1533056014084173
-0.03437250687424841,-0.154974947257242
-0.03436960687424841,-0.1576776976791488
-0.03436670687424841,-0.1583931316143594
-0.03436380687424841,-0.1598239994847806
-0.03436090687424841,-0.1625267499066873
-0.03435800687424841,-0.1630037058634944
-0.03435510687424841,-0.1648320370312548
-0.03435220687424841,-0.1674552947936937
-0.03434930687424841,-0.1680912360694364
-0.03434640687424841,-0.1695221039398576
-0.03434350687424841,-0.171906883723893
-0.03434060687424841,-0.1730197809564428
-0.03433770687424841,-0.1736557222321856
-0.03433480687424841,-0.1765969506324958
-0.03433190687424841,-0.1778688331839813
-0.03432900687424841,-0.1782662964813206
-0.03432610687424841,-0.1809690469032273
-0.03432320687424841,-0.1820819441357771
-0.03432030687424841,-0.1825589000925842
-0.03431740687424841,-0.1851026651955552
-0.03431450687424841,-0.1871694743417192
-0.03431160687424841,-0.1878054156174619
-0.03430870687424841,-0.1901107027420294
-0.03430580687424841,-0.1916210632719185
-0.03430290687424841,-0.1921775118881934
-0.03430000687424841,-0.1945622916722287
-0.03429710687424841,-0.1959931595426499
-0.03429420687424841,-0.1963111301805249
-0.03429130687424841,-0.1982984466672212
-0.03428840687424841,-0.2003652558133792
-0.03428550687424841,-0.1991728659213665
-0.03428260687424841,-0.2006832264512581
-0.03427970687424841,-0.2036244548515669
-0.03427680687424841,-0.2057707566571961
-0.03427390687424842,-0.2064861905924041
-0.03427100687424842,-0.2081555364412271
-0.03426810687424842,-0.2088709703764395
-0.03426520687424842,-0.2104608235657948
-0.03426230687424842,-0.2123686473930225
-0.03425940687424842,-0.2129250960092998
-0.03425650687424842,-0.2141969785607864
-0.03425360687424842,-0.2165817583448217
-0.03425070687424842,-0.2172176996205644
-0.03424780687424842,-0.2182511041936464
-0.03424490687424842,-0.2203974059992783
-0.03424200687424842,-0.2211128399344889
-0.03423910687424842,-0.2216692885507638
-0.03423620687424841,-0.2233386343995885
-0.03423330687424841,-0.2249284875889454
-0.03423040687424841,-0.2251669655673489
-0.03422750687424841,-0.2265183407783023
-0.03422460687424841,-0.2288236279028698
-0.03422170687424841,-0.229221091200209
-0.03421880687424841,-0.2300160177948875
-0.03421590687424841,-0.2320828269410514
-0.03421300687424841,-0.2330367388546656
-0.03421010687424841,-0.2335931874709405
-0.03420720687424841,-0.235898474595508
-0.03420430687424841,-0.2362959378928472
-0.03420140687424841,-0.2371703571469935
-0.03419850687424841,-0.2393166589526253
-0.03419560687424841,-0.2399526002283681
-0.03419270687424841,-0.2401910782067716
-0.03418980687424841,-0.2426553506502748
-0.03418690687424841,-0.2441657111801638
-0.03418400687424841,-0.2438477405422924
-0.03418110687424841,-0.2448016524559066
-0.03417820687424841,-0.2471069395804741
-0.03417530687424841,-0.2469479542615384
-0.03417240687424841,-0.2482198368130239
-0.03416950687424841,-0.2503661386186557
-0.03416660687424841,-0.25020715329972
-0.03416370687424841,-0.2513200505322699
-0.03416080687424841,-0.2525124404242875
-0.03415790687424841,-0.2524329477648197
-0.03415500687424841,-0.2535458449973695
-0.03415210687424841,-0.256884536695019
-0.03414920687424841,-0.2575204779707617
-0.03414630687424841,-0.2573614926518261
-0.03414340687424841,-0.2585538825438437
-0.03414050687424841,-0.2605411990305398
-0.03413760687424841,-0.2610181549873469
-0.03413470687424841,-0.261495110944154
-0.03413180687424841,-0.2634824274308513
-0.03412890687424841,-0.2641183687065934
-0.03412600687424841,-0.2644363393444666
-0.03412310687424841,-0.2657877145554196
-0.03412020687424841,-0.266900611787968
-0.03411730687424841,-0.2672185824258414
-0.03411440687424842,-0.2686494502962574
-0.03411150687424842,-0.2699213328477432
-0.03410860687424842,-0.2698418401882778
-0.03410570687424842,-0.2714316933776317
-0.03410280687424842,-0.2728625612480531
-0.03409990687424842,-0.2727830685885881
-0.03409700687424842,-0.2739754584806034
-0.03409410687424842,-0.2755653116699625
-0.03409120687424842,-0.275326833691559
-0.03408830687424842,-0.2765987162430444
-0.03408540687424842,-0.2785065400702728
-0.03408250687424842,-0.2784270474108049
-0.03407960687424842,-0.2791424813460155
-0.03407670687424841,-0.2808118271948402
-0.03407380687424841,-0.2806528418759046
-0.03407090687424841,-0.2816067537895187
-0.03406800687424841,-0.2828786363410042
-0.03406510687424841,-0.2827991436815364
-0.03406220687424841,-0.2839120409140862
-0.03405930687424841,-0.2851044308061039
-0.03405640687424841,-0.2854224014439752
-0.03405350687424841,-0.2864558060170572
-0.03405060687424841,-0.2881251518658819
-0.03404770687424841,-0.2882046445253498
-0.03404480687424841,-0.2883636298442855
-0.03404190687424841,-0.2903509463309816
-0.03403900687424841,-0.2905894243093851
-0.03403610687424841,-0.2904304389904495
-0.03403320687424841,-0.2905099316499173
-0.03403030687424841,-0.2918613068608706
-0.03402740687424841,-0.2939281160070346
-0.03402450687424841,-0.2948820279206488
-0.03402160687424841,-0.2951999985585201
-0.03401870687424841,-0.2953589838774558
-0.03401580687424841,-0.2968693444073449
-0.03401290687424841,-0.2975052856830877
-0.03401000687424841,-0.297823256320959
-0.03400710687424841,-0.2992541241913802
-0.03400420687424841,-0.2991746315319124
-0.03400130687424841,-0.2996515874887195
-0.03399840687424841,-0.3016389039754155
-0.03399550687424841,-0.3017978892943513
-0.03399260687424841,-0.3021158599322226
-0.03398970687424841,-0.3041826690783866
-0.03398680687424841,-0.3042621617378544
-0.03398390687424841,-0.3047391176946615
-0.03398100687424841,-0.3066469415218898
-0.03397810687424841,-0.3067264341813576
-0.03397520687424841,-0.3067264341813576
-0.03397230687424841,-0.3086342580085865
-0.03396940687424841,-0.3089522286464573
-0.03396650687424841,-0.3089522286464606
-0.03396360687424841,-0.3107805598142183
-0.03396070687424841,-0.3110985304520895
-0.03395780687424841,-0.3113370084304946
-0.03395490687424841,-0.312449905663043
-0.03395200687424842,-0.3127678763009132
-0.03394910687424842,-0.3129268616198492
-0.03394620687424842,-0.3144372221497359
-0.03394330687424842,-0.3146757001281416
-0.03394040687424842,-0.3145167148092067
-0.03393750687424842,-0.3165040312958989
-0.03393460687424842,-0.3168220019337734
-0.03393170687424842,-0.3163450459769668
-0.03392880687424842,-0.3180143918257916
-0.03392590687424842,-0.3190477963988735
-0.03392300687424842,-0.3183323624636629
-0.03392010687424842,-0.3192067817178093
-0.03391720687424842,-0.3205581569287626
-0.03391430687424841,-0.3202401862908912
-0.03391140687424841,-0.3201606936314234
-0.03390850687424841,-0.3201606936314234
-0.03390560687424841,-0.3207171422476983
-0.03390270687424841,-0.3227839513938622
-0.03389980687424841,-0.3237378633074764
-0.03389690687424841,-0.3239763412858799
-0.03389400687424841,-0.3235788779885407
-0.03389110687424841,-0.3241353266048156
-0.03388820687424841,-0.3248507605400262
-0.03388530687424841,-0.3246122825616227
-0.03388240687424841,-0.3253277164968333
-0.03387950687424841,-0.3269175696861902
-0.03387660687424841,-0.3266790917077866
-0.03387370687424841,-0.3273945256429973
-0.03387080687424841,-0.3287459008539506
-0.03386790687424841,-0.3284279302160792
-0.03386500687424841,-0.329063871491822
-0.03386210687424841,-0.3304152467027753
-0.03385920687424841,-0.3299382907459683
-0.03385630687424841,-0.331130680637986
-0.03385340687424841,-0.3321640852110679
-0.03385050687424841,-0.3321640852110679
-0.03384760687424841,-0.3328795191462785
-0.03384470687424841,-0.3340719090382962
-0.03384180687424841,-0.3335154604220213
-0.03383890687424841,-0.3336744457409569
-0.03383600687424841,-0.3355027769087174
-0.03383310687424841,-0.3351053136113782
-0.03383020687424841,-0.3350258209519103
-0.03382730687424841,-0.3363771961628637
-0.03382440687424841,-0.3359002402060566
-0.03382150687424841,-0.3360592255249923
-0.03381860687424841,-0.3375695860548814
-0.03381570687424841,-0.3375695860548814
-0.03381280687424841,-0.3377285713738171
-0.03380990687424841,-0.3396363952010444
-0.03380700687424841,-0.3391594392442382
-0.03380410687424841,-0.3391594392442416
-0.03380120687424841,-0.3409877704119978
-0.03379830687424841,-0.3405108144551914
-0.03379540687424841,-0.3404313217957273
-0.03379250687424842,-0.3423391456229485
-0.03378960687424842,-0.3422596529634844
-0.03378670687424842,-0.341782697006678
-0.03378380687424842,-0.3416237116877417
-0.03378090687424842,-0.3421801603040154
-0.03377800687424842,-0.343849506152838
-0.03377510687424842,-0.3447239254069858
-0.03377220687424842,-0.3447239254069874
-0.03376930687424842,-0.3440084914717768
-0.03376640687424842,-0.3453598666827302
-0.03376350687424842,-0.3456778373206015
-0.03376060687424842,-0.3457573299800694
-0.03375770687424842,-0.3469497198720871
-0.03375480687424842,-0.3470292125315549
-0.03375190687424841,-0.3471087051910227
-0.03374900687424841,-0.3487780510398475
-0.03374610687424841,-0.3489370363587831
-0.03374320687424841,-0.348539573061444
-0.03374030687424841,-0.3497319629534616
-0.03373740687424841,-0.3503679042292044
-0.03373450687424841,-0.3501294262508008
-0.03373160687424841,-0.3512423234833507
-0.03372870687424841,-0.3516397867806899
-0.03372580687424841,-0.3512423234833507
-0.03372290687424841,-0.3517192794401577
-0.03372000687424841,-0.3530706546511111
-0.03371710687424841,-0.3524347133753683
-0.03371420687424841,-0.3529911619916432
-0.03371130687424841,-0.3540245665647252
-0.03370840687424841,-0.3537065959268538
-0.03370550687424841,-0.3537065959268538
-0.03370260687424841,-0.3548989858188715
-0.03369970687424841,-0.3548989858188715
-0.03369680687424841,-0.3552169564567429
-0.03369390687424841,-0.3564093463487605
-0.03369100687424841,-0.3558528977324856
-0.03368810687424841,-0.3564093463487605
-0.03368520687424841,-0.3575222435813104
-0.03368230687424841,-0.3575222435813104
-0.03367940687424841,-0.3571247802839712
-0.03367650687424841,-0.3586351408138602
-0.03367360687424841,-0.3589531114517316
-0.03367070687424841,-0.3584761554949245
-0.03366780687424841,-0.35974803804641
-0.03366490687424841,-0.3599865160248136
-0.03366200687424841,-0.3587941261327959
-0.03365910687424841,-0.3581581848570531
-0.03365620687424841,-0.3593505747490708
-0.03365330687424841,-0.3603839793221528
-0.03365040687424841,-0.3605429646410896
-0.03364750687424841,-0.3611789059168299
-0.03364460687424841,-0.3604634719816211
-0.03364170687424841,-0.3607019499600264
-0.03363880687424841,-0.3618943398520401
-0.03363590687424841,-0.3609404279384286
-0.03363300687424841,-0.3614173838952381
-0.03363010687424842,-0.3632457150629919
-0.03362720687424842,-0.3626097737872536
-0.03362430687424842,-0.3626892664467201
-0.03362140687424842,-0.3642791196360743
-0.03361850687424842,-0.3634841930414002
-0.03361560687424842,-0.3637226710198018
-0.03361270687424842,-0.3653920168686239
-0.03360980687424842,-0.3651535388902235
-0.03360690687424842,-0.3650740462307556
-0.03360400687424842,-0.3662664361227733
-0.03360110687424842,-0.366425421441709
-0.03359820687424842,-0.3655510021875627
-0.03359530687424842,-0.3667433920795804
-0.03359240687424841,-0.3667433920795804
-0.03358950687424841,-0.3659484654849019
-0.03358660687424841,-0.3673793333553231
-0.03358370687424841,-0.3683332452689373
-0.03358080687424841,-0.367458826014791
-0.03357790687424841,-0.3683332452689373
-0.03357500687424841,-0.3692076645230836
-0.03357210687424841,-0.3684922305878729
-0.03356920687424841,-0.3692871571825514
-0.03356630687424841,-0.370002591117762
-0.03356340687424841,-0.3693666498420192
-0.03356050687424841,-0.3698436057988263
-0.03355760687424841,-0.3708770103719083
-0.03355470687424841,-0.370002591117762
-0.03355180687424841,-0.3704795470745691
-0.03354890687424841,-0.3711949810097797
-0.03354600687424841,-0.3707975177124405
-0.03354310687424841,-0.3713539663287154
-0.03354020687424841,-0.3718309222855224
-0.03353730687424841,-0.371035995690844
-0.03353440687424841,-0.3696051278204228
-0.03353150687424841,-0.3707975177124405
-0.03352860687424841,-0.3716719369665867
-0.03352570687424841,-0.3723078782423295
-0.03352280687424841,-0.3731822974964758
-0.03351990687424841,-0.3728643268586044
-0.03351700687424841,-0.3723078782423295
-0.03351410687424841,-0.3732617901559436
-0.03351120687424841,-0.3736592534532829
-0.03350830687424841,-0.373102804837008
-0.03350540687424841,-0.3737387461127507
-0.03350250687424841,-0.3748516433453005
-0.03349960687424841,-0.3742157020695578
-0.03349670687424841,-0.3748516433453005
-0.03349380687424841,-0.3757260625994468
-0.03349090687424841,-0.3750901213237041
-0.03348800687424841,-0.3750901213237071
-0.03348510687424841,-0.3767594671725272
-0.03348220687424841,-0.3758850479183815
-0.03347930687424841,-0.3753285993021092
-0.03347640687424841,-0.3762030185562539
-0.03347350687424841,-0.3762030185562524
-0.03347060687424842,-0.3754080919615769
-0.03346770687424842,-0.3764414965346555
-0.03346480687424842,-0.377077437810399
