-20250405-BKP/synth-diodes-1f-1r-out/1kHz5V/scope.csv

#Digilent WaveForms Oscilloscope Acquisition
#Device Name: Discovery3
#Serial Number: SN:210415BD5874
#Date Time: 2025-04-03 12:19:37.992.597.130
#Sample rate: 2.5641e+06Hz
#Samples: 32768
#Trigger: Source: Channel 1 Type: Edge Condition: Rising Level: 0 V Hyst.: Auto HoldOff: 0 s
#Channel 1: Range: 200 mV/div Offset: 0 V Sample Mode: Average
#Wavegen Channel 1: Running
#Mode: Simple
#Type: Sine
#Frequency: 1 kHz
#Period: 1 ms
#Amplitude: 5 V
#Offset: 0 V
#Symmetry: 50 %
#Phase: 0 °

Time (s),Channel 1 (V)
-0.002636187181022956,0.455210706817934
-0.002635797181022955,0.4523489710770916
-0.002635407181022955,0.4525079563960251
-0.002635017181022956,0.4513155665040096
-0.002634627181022955,0.4506796252282668
-0.002634237181022955,0.4509181032066685
-0.002633847181022956,0.4498846986335884
-0.002633457181022955,0.450600132568799
-0.002633067181022955,0.4485333234226359
-0.002632677181022956,0.4490102793794421
-0.002632287181022955,0.445989558319664
-0.002631897181022955,0.4472614408711497
-0.002631507181022956,0.4473409335306174
-0.002631117181022955,0.4489307867199743
-0.002630727181022955,0.4474999188495532
-0.002630337181022956,0.4475794115090209
-0.002629947181022955,0.4486923087415707
-0.002629557181022955,0.4471819482116827
-0.002629167181022956,0.4477383968279566
-0.002628777181022955,0.4463870216170032
-0.002628387181022955,0.4473409335306174
-0.002627997181022956,0.4440817344924357
-0.002627607181022955,0.4441612271519036
-0.002627217181022955,0.4428893446004181
-0.002626827181022956,0.4422534033246753
-0.002626437181022955,0.4405045648163827
-0.002626047181022955,0.440345579497447
-0.002625657181022956,0.4390736969459615
-0.002625267181022955,0.4374043510971368
-0.002624877181022955,0.4374838437566047
-0.002624487181022956,0.4312039236586449
-0.002624097181022955,0.4269113200473812
-0.002623707181022955,0.4254009595174922
-0.002623317181022956,0.4277062466420598
-0.002622927181022955,0.4261163934527028
-0.002622537181022955,0.4276267539825919
-0.002622147181022956,0.4268318273879134
-0.002621757181022955,0.4277857393015276
-0.002621367181022955,0.4267523347284456
-0.002620977181022956,0.4274677686636562
-0.002620587181022955,0.4280242172799311
-0.002620197181022955,0.4253214668580244
-0.002619807181022956,0.4251624815390887
-0.002619417181022955,0.4240495843065389
-0.002619027181022955,0.4261958861121707
-0.002618637181022956,0.4216648045225035
-0.002618247181022956,0.4231751650523926
-0.002617857181022955,0.4208698779278251
-0.002617467181022956,0.4197569806952752
-0.002617077181022956,0.4194390100574039
-0.002616687181022955,0.4182466201653862
-0.002616297181022956,0.4196774880358074
-0.002615907181022956,0.4177696642085791
-0.002615517181022955,0.4176106788896434
-0.002615127181022956,0.415305391765076
-0.002614737181022956,0.4161798110192222
-0.002614347181022955,0.4133975679378477
-0.002613957181022956,0.4149874211272045
-0.002613567181022956,0.4148284358082689
-0.002613177181022955,0.4143514798514618
-0.002612787181022956,0.4144309725109295
-0.002612397181022956,0.4141924945325261
-0.002612007181022955,0.4160208257002865
-0.002611617181022956,0.4139540165541263
-0.002611227181022956,0.4152258991056081
-0.002610837181022955,0.4141130018730583
-0.002610447181022956,0.4243675549443916
-0.002610057181022956,0.4337476887616159
-0.002609667181022955,0.3897882480758978
-0.002609277181022956,0.3907421599895102
-0.002608887181022956,0.3905036820111084
-0.002608497181022955,0.390185711373237
-0.002608107181022956,0.3887548435028184
-0.002607717181022956,0.3884368728649444
-0.002607327181022955,0.3864495563782483
-0.002606937181022956,0.3876419462702638
-0.002606547181022956,0.3854161518051663
-0.002606157181022955,0.3856546297835698
-0.002605767181022956,0.3842237619131513
-0.002605377181022956,0.3849391958483593
-0.002604987181022955,0.3847802105294236
-0.002604597181022956,0.3837468059563435
-0.002604207181022956,0.3849391958483593
-0.002603817181022955,0.3847802105294236
-0.002603427181022955,0.3857341224430335
-0.002603037181022956,0.3834288353184702
-0.002602647181022955,0.3844622398915522
-0.002602257181022955,0.3822364454264534
-0.002601867181022956,0.3827134013832596
-0.002601477181022955,0.3807260848965635
-0.002601087181022955,0.3796131876640153
-0.002600697181022956,0.38048760691816
-0.002600307181022955,0.3783413051125282
-0.002599917181022955,0.3769104372421038
-0.002599527181022956,0.3751615987338144
-0.002599137181022955,0.3759565253284928
-0.002598747181022955,0.3742076868202022
-0.002598357181022956,0.37532058405275
-0.002597967181022955,0.3726973262903112
-0.002597577181022955,0.3721408776740358
-0.002597187181022956,0.3719023996956327
-0.002596797181022955,0.3709484877820186
-0.002596407181022955,0.3699945758683899
-0.002596017181022956,0.3619658172621522
-0.002595627181022955,0.3365281662324419
-0.002595237181022955,0.3517907568502711
-0.002594847181022956,0.3534601026990928
-0.002594457181022955,0.3508368449366539
-0.002594067181022955,0.3528241614233503
-0.002593677181022956,0.3529831467422857
-0.002593287181022955,0.3515522788718645
-0.002592897181022955,0.3505188742987825
-0.002592507181022956,0.3503598889798468
-0.002592117181022955,0.3502009036609111
-0.002591727181022955,0.3478161238768758
-0.002591337181022956,0.3485315578120864
-0.002590947181022955,0.3451133734549691
-0.002590557181022955,0.3469417046227295
-0.002590167181022956,0.3438414909034835
-0.002589777181022955,0.3432850422872086
-0.002589387181022955,0.3434440276061443
-0.002588997181022956,0.3429670716493373
-0.002588607181022955,0.342569608351998
-0.002588217181022955,0.3409797551626411
-0.002587827181022956,0.3416156964383839
-0.002587437181022955,0.3398668579300913
-0.002587047181022955,0.3417746817573196
-0.002586657181022956,0.3407412771842376
-0.002586267181022955,0.3421721450546588
-0.002585877181022955,0.3402643212274306
-0.002585487181022956,0.342569608351998
-0.002585097181022955,0.3412977258005125
-0.002584707181022955,0.3411387404815768
-0.002584317181022956,0.3405822918653019
-0.002583927181022955,0.3395488872922199
-0.002583537181022955,0.3393899019732842
-0.002583147181022956,0.337482078146056
-0.002582757181022956,0.3366076588919097
-0.002582367181022955,0.3350178057025528
-0.002581977181022956,0.3358127322972312
-0.002581587181022956,0.3242862966743937
-0.002581197181022955,0.2929661888440629
-0.002580807181022956,0.3043336391479647
-0.002580417181022956,0.3040951611695612
-0.002580027181022955,0.3021078446828651
-0.002579637181022956,0.3015513960665901
-0.002579247181022956,0.3018693667044615
-0.002578857181022955,0.3009949474503152
-0.002578467181022956,0.3004384988340403
-0.002578077181022956,0.2999615428772333
-0.002577687181022955,0.3024258153207364
-0.002577297181022956,0.3010744401097855
-0.002576907181022956,0.3029822639370114
-0.002576517181022955,0.3009949474503152
-0.002576127181022956,0.3033002345748785
-0.002575737181022956,0.3015513960665901
-0.002575347181022955,0.3020283520233972
-0.002574957181022956,0.3013924107476557
-0.002574567181022956,0.3008359621313795
-0.002574177181022955,0.2994845869204262
-0.002573787181022956,0.2976562557526691
-0.002573397181022956,0.2974972704337301
-0.002573007181022955,0.2951919833091626
-0.002572617181022956,0.2962253878822427
-0.002572227181022956,0.2943970567144841
-0.002571837181022955,0.2945560420334198
-0.002571447181022956,0.2928072035251304
-0.002571057181022956,0.2931251741629986
-0.002570667181022955,0.2922507549088523
-0.002570277181022956,0.2920917695899169
-0.002569887181022956,0.2905814090600276
-0.002569497181022955,0.2901839457626884
-0.002569107181022956,0.2912968429952362
-0.002568717181022956,0.2897864824653492
-0.002568327181022955,0.2922507549088523
-0.002567937181022955,0.2900249604437569
-0.002567547181022956,0.2923302475683202
-0.002567157181022955,0.2920122769304488
-0.002566767181022955,0.2701517955767666
-0.002566377181022956,0.2564790581483222
-0.002565987181022955,0.2587048526134219
-0.002565597181022955,0.2565585508077892
-0.002565207181022956,0.256081594850983
-0.002564817181022955,0.2563995654888543
-0.002564427181022955,0.2546507269805622
-0.002564037181022956,0.2548892049589653
-0.002563647181022955,0.2515505132613158
-0.002563257181022955,0.2529018884722663
-0.002562867181022956,0.2513120352829123
-0.002562477181022955,0.2512325426234445
-0.002562087181022955,0.2497221820935567
-0.002561697181022956,0.250437616028766
-0.002561307181022955,0.2497221820935554
-0.002560917181022955,0.2486887775204743
-0.002560527181022956,0.2491657334772805
-0.002560137181022955,0.2478143582663271
-0.002559747181022955,0.2467014610337782
-0.002559357181022956,0.2471784169905844
-0.002558967181022955,0.2484502995420699
-0.002558577181022955,0.2471784169905848
-0.002558187181022956,0.2474168949689879
-0.002557797181022955,0.2471784169905844
-0.002557407181022955,0.248370806882602
-0.002557017181022956,0.2467809536932452
-0.002556627181022955,0.2446346518876134
-0.002556237181022955,0.2429653060387886
-0.002555847181022956,0.2402625556168819
-0.002555457181022955,0.2396266143411391
-0.002555067181022955,0.2365264006218932
-0.002554677181022956,0.2381162538112501
-0.002554287181022955,0.236605893281361
-0.002553897181022955,0.2365264006218932
-0.002553507181022956,0.2356519813677469
-0.002553117181022955,0.2354929960488112
-0.002552727181022955,0.2209458393661956
-0.002552337181022956,0.1863665324976832
-0.002551947181022955,0.1961441296122281
-0.002551557181022955,0.1939183351471284
-0.002551167181022956,0.1949517397202104
-0.002550777181022955,0.1943157984444676
-0.002550387181022955,0.19717753418531
-0.002549997181022956,0.196700578228503
-0.002549607181022955,0.2001187625856203
-0.002549217181022955,0.2007547038613631
-0.002548827181022956,0.2029804983264627
-0.002548437181022955,0.2029010056669949
-0.002548047181022955,0.2017086157749772
-0.002547657181022956,0.2024240497101878
-0.002547267181022956,0.1997212992882811
-0.002546877181022955,0.1998007919477489
-0.002546487181022956,0.1967800708879708
-0.002546097181022956,0.1966210855690351
-0.002545707181022955,0.194633769082339
-0.002545317181022956,0.1933618865308535
-0.002544927181022956,0.1932823938713857
-0.002544537181022955,0.1922489892983037
-0.002544147181022956,0.1922489892983037
-0.002543757181022956,0.1896257315358648
-0.002543367181022955,0.1905001507900111
-0.002542977181022956,0.1889102976006542
-0.002542587181022956,0.1894667462169291
-0.002542197181022955,0.1863665324976832
-0.002541807181022956,0.1879563856870372
-0.002541417181022956,0.1873999370707651
-0.002541027181022955,0.1891487755790577
-0.002540637181022956,0.1897052241953316
-0.002540247181022956,0.1898642095142683
-0.002539857181022955,0.1891487755790577
-0.002539467181022956,0.1870024737734298
-0.002539077181022956,0.1885923269627828
-0.002538687181022955,0.1862075471787475
-0.002538297181022956,0.1939183351471144
-0.002537907181022956,0.1553643953052237
-0.002537517181022955,0.1387504294764442
-0.002537127181022956,0.1404992679847336
-0.002536737181022956,0.1404992679847368
-0.002536347181022955,0.1394658634116548
-0.002535957181022956,0.1381939808601716
-0.002535567181022956,0.1387504294764442
-0.002535177181022955,0.1367631129897481
-0.002534787181022956,0.1370810836276189
-0.002534397181022956,0.1357297084166661
-0.002534007181022955,0.1370810836276194
-0.002533617181022956,0.1346168111841207
-0.002533227181022956,0.1359681863950696
-0.002532837181022955,0.1357297084166661
-0.002532447181022955,0.1359681863950699
-0.002532057181022956,0.1361271717140053
-0.002531667181022955,0.1365246350113445
-0.002531277181022955,0.1360476790545377
-0.002530887181022956,0.1362066643734731
-0.002530497181022955,0.1377170249033622
-0.002530107181022955,0.1354912304382627
-0.002529717181022956,0.1355707230977304
-0.002529327181022955,0.132708987356888
-0.002528937181022955,0.1329474653352889
-0.002528547181022956,0.1315165974648703
-0.002528157181022955,0.1327884800163558
-0.002527767181022955,0.1309601488485939
-0.002527377181022956,0.1301652222539169
-0.002526987181022955,0.1300062369349813
-0.002526597181022955,0.128018920448287
-0.002526207181022956,0.1290523250213671
-0.002525817181022955,0.1273034865130745
-0.002525427181022955,0.1282573984266851
-0.002525037181022956,0.1262700819399926
-0.002524647181022955,0.128098413107753
-0.002524257181022955,0.1254751553452885
-0.002523867181022956,0.1114049546195056
-0.002523477181022955,0.07245355148026167
-0.002523087181022955,0.08040281742705034
-0.002522697181022956,0.08270810455161363
-0.002522307181022955,0.08239013391374227
-0.002521917181022955,0.08246962657321011
-0.002521527181022956,0.0817541926379995
-0.002521137181022955,0.08246962657321011
-0.002520747181022955,0.07968738349183555
-0.002520357181022956,0.0817541926379995
-0.002519967181022955,0.07952839817289985
-0.002519577181022955,0.07936941285396416
-0.002519187181022956,0.0788924568971571
-0.002518797181022955,0.07785905232407511
-0.002518407181022955,0.07793854498354295
-0.002518017181022956,0.07682564775099313
-0.002517627181022955,0.07618970647525038
-0.002517237181022955,0.07563325785897546
-0.002516847181022956,0.07611021381578253
-0.002516457181022955,0.07301000009653659
-0.002516067181022955,0.07388441935068288
-0.002515677181022956,0.07340746339387581
-0.002515287181022955,0.07444086796695779
-0.002514897181022955,0.0735664487128115
-0.002514507181022956,0.07436137530748994
-0.002514117181022955,0.07515630190216839
-0.002513727181022955,0.07515630190216839
-0.002513337181022956,0.075871735837379
-0.002512947181022955,0.07555376519950761
-0.002512557181022955,0.07539477988057193
-0.002512167181022956,0.07301000009653659
-0.002511777181022955,0.07452036062642564
-0.002511387181022955,0.07261253679919737
-0.002510997181022956,0.07261253679919737
-0.002510607181022956,0.07165862488558322
-0.002510217181022955,0.07102268360984047
-0.002509827181022956,0.06998927903675849
-0.002509437181022956,0.05043408480766869
-0.002509047181022955,0.01394695411192796
-0.002508657181022956,0.0209423081450983
-0.002508267181022956,0.02141926410190537
-0.002507877181022955,0.01982941091254847
-0.002507487181022956,0.02006788889095201
-0.002507097181022956,0.01879600633946649
-0.002506707181022955,0.0202268742098877
-0.002506317181022956,0.0199089035720169
-0.002505927181022956,0.02086281548563046
-0.002505537181022955,0.02110129346403399
-0.002505147181022956,0.02181672739924329
-0.002504757181022956,0.02197571271818028
-0.002504367181022955,0.0216577420803089
-0.002503977181022956,0.0213397714424381
-0.002503587181022956,0.02086281548563046
-0.002503197181022955,0.02292962463179442
-0.002502807181022956,0.02030636686936031
-0.002502417181022956,0.02086281548563046
-0.002502027181022955,0.01911397697733787
-0.002501637181022956,0.01847803570159627
-0.002501247181022956,0.01680868985277037
-0.002500857181022955,0.01688818251223822
-0.002500467181022956,0.01537782198235192
-0.002500077181022956,0.01498035868500995
-0.002499687181022955,0.01553680730128486
-0.002499297181022956,0.01299304219831845
-0.002498907181022956,0.01442391006873503
-0.002498517181022955,0.01299304219831383
-0.002498127181022956,0.01394695411192623
-0.002497737181022956,0.01402644677139581
-0.002497347181022955,0.01505985134447779
-0.002496957181022955,0.01466238804713958
-0.002496567181022956,0.01521883666341348
-0.002496177181022955,0.01513934400394563
-0.002495787181022955,0.01315202751725212
-0.002495397181022956,0.01458289538767072
-0.002495007181022955,0.02388353654540856
-0.002494617181022955,-0.02325561051906024
-0.002494227181022956,-0.04352623868332377
-0.002493837181022955,-0.03804124518004248
-0.002493447181022955,-0.04066450294247861
-0.002493057181022956,-0.03915414241259231
-0.002492667181022955,-0.04122095155875627
-0.002492277181022955,-0.04217486347236881
-0.002491887181022956,-0.04130044421822411
-0.002491497181022955,-0.04273131208864532
-0.002491107181022955,-0.04185689283450351
-0.002490717181022956,-0.04432116527800221
-0.002490327181022955,-0.04312877538598454
-0.002489937181022955,-0.04368522400225786
-0.002489547181022956,-0.04281080474811316
-0.002489157181022955,-0.04265181942917748
-0.002488767181022955,-0.04185689283450048
-0.002488377181022956,-0.04265181942917748
-0.002487987181022955,-0.04225435613183826
-0.002487597181022955,-0.04122095155875974
-0.002487207181022956,-0.04312877538598454
-0.002486817181022955,-0.04265181942917748
-0.002486427181022955,-0.04432116527800221
-0.002486037181022956,-0.04408268729959867
-0.002485647181022955,-0.04614949644576265
-0.002485257181022955,-0.04670594506203755
-0.002484867181022956,-0.04837529091086229
-0.002484477181022955,-0.04781884229458738
-0.002484087181022955,-0.04877275420820151
-0.002483697181022956,-0.04996514410021918
-0.002483307181022955,-0.04932920282447643
-0.002482917181022955,-0.05171398260851177
-0.002482527181022956,-0.0498061587812835
-0.002482137181022955,-0.052111445905851
-0.002481747181022955,-0.05203195324638316
-0.002481357181022956,-0.05298586515999729
-0.002480967181022955,-0.05274738718159375
-0.002480577181022955,-0.07548228778939735
-0.002480187181022956,-0.1114129698688632
-0.002479797181022955,-0.1023508066895289
-0.002479407181022955,-0.1021123287111253
-0.002479017181022956,-0.1009199388191077
-0.002478627181022955,-0.1034637039220787
-0.002478237181022955,-0.1023508066895289
-0.002477847181022956,-0.1035431965815465
-0.002477457181022955,-0.1028277626463359
-0.002477067181022955,-0.1052125424303713
-0.002476677181022956,-0.1029867479652716
-0.002476287181022955,-0.1054510204087748
-0.002475897181022955,-0.1065639176413246
-0.002475507181022956,-0.1063254396629211
-0.002475117181022956,-0.1074383368954709
-0.002474727181022955,-0.106881888279196
-0.002474337181022956,-0.1091076827442957
-0.002473947181022956,-0.1083127561496172
-0.002473557181022955,-0.109425653382167
-0.002473167181022956,-0.1093461607226992
-0.002472777181022956,-0.1113334772093953
-0.002472387181022955,-0.1108565212525882
-0.002471997181022956,-0.1100615946579098
-0.002471607181022956,-0.110459057955249
-0.002471217181022955,-0.1091871754037635
-0.002470827181022956,-0.1096641313605697
-0.002470437181022956,-0.1073588442360031
-0.002470047181022955,-0.107915292852278
-0.002469657181022956,-0.1078358001928103
-0.002469267181022956,-0.10894869742536
-0.002468877181022955,-0.1087897121064243
-0.002468487181022956,-0.1095846387011013
-0.002468097181022956,-0.1098231166795063
-0.002467707181022955,-0.1111744918904596
-0.002467317181022956,-0.1116514478472658
-0.002466927181022956,-0.111492462528331
-0.002466537181022955,-0.1122078964635416
-0.002466147181022956,-0.116341514755862
-0.002465757181022956,-0.1664218902206117
-0.002465367181022955,-0.170873479150811
-0.002464977181022956,-0.1692041333019893
-0.002464587181022956,-0.1694426112803898
-0.002464197181022955,-0.1710324644697467
-0.002463807181022956,-0.1715094204265529
-0.002463417181022956,-0.169840074577729
-0.002463027181022955,-0.169840074577729
-0.002462637181022956,-0.1696810892587936
-0.002462247181022956,-0.1694426112803898
-0.002461857181022955,-0.1660244269232725
-0.002461467181022955,-0.168886162664112
-0.002461077181022956,-0.167296309474758
-0.002460687181022955,-0.1681707287289043
-0.002460297181022955,-0.1683297140478404
-0.002459907181022956,-0.1685681920262435
-0.002459517181022955,-0.1697605819182612
-0.002459127181022955,-0.1696810892587982
-0.002458737181022956,-0.1723838396807
-0.002458347181022955,-0.1709529718102788
-0.002457957181022955,-0.1720658690428284
-0.002457567181022956,-0.171906883723893
-0.002457177181022955,-0.1739736928700569
-0.002456787181022955,-0.1729402882969796
-0.002456397181022956,-0.175484053399946
-0.002456007181022955,-0.1740531855295248
-0.002455617181022955,-0.174768619464737
-0.002455227181022956,-0.1756430387188817
-0.002454837181022955,-0.1748481121242032
-0.002454447181022955,-0.1746891268052649
-0.002454057181022956,-0.1732582589348463
-0.002453667181022955,-0.1740531855295248
-0.002453277181022955,-0.1722248543617691
-0.002452887181022956,-0.1748481121242032
