-20250405-BKP/synth-diodes-1f-1r-in-T00-L10-D10/100Hz200mV/scope.csv

#Digilent WaveForms Oscilloscope Acquisition
#Device Name: Discovery3
#Serial Number: SN:210415BD5874
#Date Time: 2025-04-03 16:18:30.315.221.680
#Sample rate: 344828Hz
#Samples: 32768
#Trigger: Source: Channel 1 Type: Edge Condition: Rising Level: 0 V Hyst.: Auto HoldOff: 0 s
#Channel 1: Range: 200 mV/div Offset: 0 V Sample Mode: Average
#Wavegen Channel 1: Running
#Mode: Simple
#Type: Sine
#Frequency: 100 Hz
#Period: 10 ms
#Amplitude: 200 mV
#Offset: 0 V
#Symmetry: 50 %
#Phase: 0 °

Time (s),Channel 1 (V)
-0.03483964854091508,-0.1452768428021662
-0.03483674854091508,-0.1459127840779111
-0.03483384854091508,-0.1477411152456724
-0.03483094854091508,-0.1500464023702377
-0.03482804854091508,-0.1511592996027894
-0.03482514854091508,-0.1533056014084208
-0.03482224854091508,-0.1552134252356472
-0.03481934854091508,-0.1560878444897952
-0.03481644854091508,-0.157916175657561
-0.03481354854091508,-0.1603009554415897
-0.03481064854091508,-0.1608574040578698
-0.03480774854091508,-0.1628447205445668
-0.03480484854091508,-0.1650705150096612
-0.03480194854091508,-0.1658654416043423
-0.03479904854091508,-0.167375802134233
-0.03479614854091508,-0.169363118620924
-0.03479324854091508,-0.1699195672372001
-0.03479034854091508,-0.1707939864913539
-0.03478744854091508,-0.173735214891656
-0.03478454854091508,-0.1744506488268675
-0.03478164854091507,-0.1754045607404871
-0.03477874854091507,-0.1778688331839836
-0.03477584854091507,-0.1785047744597238
-0.03477294854091507,-0.1784252818002646
-0.03477004854091507,-0.1807305689248309
-0.03476714854091507,-0.1827178854115268
-0.03476424854091507,-0.1846257092387548
-0.03476134854091507,-0.1864540404065138
-0.03475844854091509,-0.1878849082769271
-0.03475554854091509,-0.1886003422121391
-0.03475264854091509,-0.1905081660393652
-0.03474974854091509,-0.1917800485908518
-0.03474684854091509,-0.1925749751855312
-0.03474394854091509,-0.1946417843316928
-0.03474104854091509,-0.1959931595426475
-0.03473814854091509,-0.1963906228399891
-0.03473524854091509,-0.1984574319861531
-0.03473234854091509,-0.1995703292187029
-0.03472944854091509,-0.2003652558133814
-0.03472654854091509,-0.2025115576190132
-0.03472364854091509,-0.2037834401704987
-0.03472074854091509,-0.2045783667651772
-0.03471784854091509,-0.2068041612302768
-0.03471494854091509,-0.2076785804844231
-0.03471204854091509,-0.2083940144196337
-0.03470914854091509,-0.2104608235657977
-0.03470624854091509,-0.2116532134578153
-0.03470334854091509,-0.2121301694146224
-0.03470044854091509,-0.2144354565391899
-0.03469754854091509,-0.2156278464312076
-0.03469464854091509,-0.2161842950474825
-0.03469174854091508,-0.2177741482368394
-0.03468884854091508,-0.219522986745132
-0.03468594854091508,-0.2192845087667284
-0.03468304854091508,-0.2209538546155532
-0.03468014854091508,-0.2226232004643779
-0.03467724854091508,-0.2225437078049101
-0.03467434854091508,-0.2244515316321383
-0.03467144854091508,-0.225643921524156
-0.03466854854091508,-0.2262003701404309
-0.03466564854091508,-0.2274722526919164
-0.03466274854091508,-0.2295390618380804
-0.03465984854091508,-0.2298570324759518
-0.03465694854091508,-0.2307314517300981
-0.03465404854091508,-0.2329572461951977
-0.03465114854091508,-0.2332752168330691
-0.03464824854091508,-0.2327187682167942
-0.03464534854091508,-0.2344676067250868
-0.03464244854091508,-0.2360574599144437
-0.03463954854091508,-0.2376473131038006
-0.03463664854091508,-0.2387602103363504
-0.03463374854091508,-0.2399526002283681
-0.03463084854091508,-0.2400320928878359
-0.03462794854091508,-0.2412244827798536
-0.03462504854091508,-0.2428143359692105
-0.03462214854091508,-0.2429733212881461
-0.03461924854091508,-0.2438477405422924
-0.03461634854091508,-0.2462325203263282
-0.03461344854091508,-0.2464709983047329
-0.03461054854091508,-0.2473454175588809
-0.03460764854091508,-0.2491737487266392
-0.03460474854091508,-0.2498096900023818
-0.03460184854091508,-0.2503661386186596
-0.03459894854091508,-0.2525124404242888
-0.03459604854091508,-0.253227874359498
-0.03459314854091508,-0.2531483817000338
-0.03459024854091508,-0.2550562055272613
-0.03458734854091508,-0.2565665660571474
-0.03458444854091508,-0.2564870733976826
-0.03458154854091508,-0.2580769265870388
-0.03457864854091508,-0.2592693164790542
-0.03457574854091508,-0.2591898238195889
-0.03457284854091508,-0.2605411990305427
-0.03456994854091508,-0.2621310522198969
-0.03456704854091508,-0.2622105448793663
-0.03456414854091508,-0.2631644567929809
-0.03456124854091508,-0.2643568466849961
-0.03455834854091508,-0.2641978613660628
-0.03455544854091508,-0.2653902512580821
-0.03455254854091508,-0.2674570604042419
-0.03454964854091508,-0.2672185824258415
-0.03454674854091508,-0.2687289429557309
-0.03454384854091508,-0.2703982888045519
-0.03454094854091508,-0.2700008255072158
-0.03453804854091508,-0.2713522007181693
-0.03453514854091508,-0.2727830685885878
-0.03453224854091508,-0.2727035759291217
-0.03452934854091508,-0.2735779951832701
-0.03452644854091508,-0.2756448043294286
-0.03452354854091508,-0.2746908924158155
-0.03452064854091508,-0.2742934291184818
-0.03451774854091508,-0.2769166868809187
-0.03451484854091508,-0.2785065400702725
-0.03451194854091508,-0.2783475547513401
-0.03450904854091508,-0.2800169006001609
-0.03450614854091508,-0.2795399446433562
-0.03450324854091508,-0.2803348712380359
-0.03450034854091508,-0.2818452317679222
-0.03449744854091508,-0.2818452317679235
-0.03449454854091508,-0.2825606657031409
-0.03449164854091508,-0.2847864601682327
-0.03448874854091508,-0.2848659528277027
-0.03448584854091508,-0.2855018941034509
-0.03448294854091508,-0.2876481959090751
-0.03448004854091508,-0.2877276885685439
-0.03447714854091508,-0.2880456592064213
-0.03447424854091508,-0.2900329756931042
-0.03447134854091508,-0.2883636298442948
-0.03446844854091508,-0.2909073949472609
-0.03446554854091508,-0.2920997848392739
-0.03446264854091508,-0.2920202921798069
-0.03445974854091507,-0.2921792774987495
-0.03445684854091507,-0.2942460866449086
-0.03445394854091507,-0.2949615205801149
-0.03445104854091507,-0.2944845646233138
-0.03444814854091507,-0.2956769545153315
-0.03444524854091507,-0.2968693444073425
-0.03444234854091507,-0.2962334031316062
-0.03443944854091507,-0.2973463003641574
-0.03443654854091509,-0.2988566608940383
-0.03443364854091509,-0.2985386902561701
-0.03443074854091509,-0.2992541241913789
-0.03442784854091509,-0.3010029626996696
-0.03442494854091509,-0.3010824553591405
-0.03442204854091509,-0.3016389039754145
-0.03441914854091509,-0.303387742483705
-0.03441624854091509,-0.3032287571647724
-0.03441334854091509,-0.3037852057810473
-0.03441044854091509,-0.3056135369488078
-0.03440754854091509,-0.3054545516298721
-0.03440464854091509,-0.306011000246147
-0.03440174854091509,-0.3074418681165682
-0.03439884854091509,-0.3067264341813576
-0.03439594854091509,-0.3061699855650827
-0.03439304854091509,-0.3079983167328431
-0.03439014854091509,-0.3096676625816679
-0.03438724854091509,-0.3095086772627322
-0.03438434854091509,-0.3105420818358142
-0.03438144854091509,-0.3103830965168785
-0.03437854854091509,-0.3107805598142177
-0.03437564854091509,-0.3122114276846389
-0.03437274854091509,-0.3118934570467675
-0.03436984854091509,-0.312688383641446
-0.03436694854091508,-0.3141192515118671
-0.03436404854091508,-0.3138807735334636
-0.03436114854091508,-0.3147551927876099
-0.03435824854091508,-0.3165040312959025
-0.03435534854091508,-0.3164245386364347
-0.03435244854091508,-0.3169809872527096
-0.03434954854091508,-0.3184118551231308
-0.03434664854091508,-0.3184913477825986
-0.03434374854091508,-0.3185708404420665
-0.03434084854091508,-0.3201606936314234
-0.03433794854091508,-0.3196837376746163
-0.03433504854091508,-0.3200017083124877
-0.03433214854091508,-0.3213530835234411
-0.03432924854091508,-0.3215120688423767
-0.03432634854091508,-0.3211146055450375
-0.03432344854091508,-0.3225454734154587
-0.03432054854091508,-0.3224659807559909
-0.03431764854091508,-0.3227044587343944
-0.03431474854091508,-0.3241353266048156
-0.03431184854091508,-0.3242943119237513
-0.03430894854091508,-0.3242148192642835
-0.03430604854091508,-0.325963657772576
-0.03430314854091508,-0.3258046724536404
-0.03430024854091508,-0.3260431504320439
-0.03429734854091508,-0.3276330036214008
-0.03429444854091508,-0.3280304669187398
-0.03429154854091508,-0.3279509742592738
-0.03428864854091508,-0.3288253935134202
-0.03428574854091508,-0.3297793054270324
-0.03428284854091508,-0.3296998127675654
-0.03427994854091508,-0.3300972760649064
-0.03427704854091508,-0.3314486512758553
-0.03427414854091508,-0.3303357540433056
-0.03427124854091508,-0.3293023494702294
-0.03426834854091508,-0.3314486512758589
-0.03426544854091508,-0.3323230705300041
-0.03426254854091508,-0.3326410411678761
-0.03425964854091508,-0.3332769824436173
-0.03425674854091508,-0.3330385044652154
-0.03425384854091508,-0.3336744457409591
-0.03425094854091508,-0.3348668356329736
-0.03424804854091508,-0.3343103870167012
-0.03424514854091508,-0.3351053136113809
-0.03424224854091508,-0.3366156741412663
-0.03423934854091508,-0.3360592255249923
-0.03423644854091508,-0.3360592255249955
-0.03423354854091508,-0.3378080640332847
-0.03423064854091508,-0.3377285713738169
-0.03422774854091508,-0.3376490787143518
-0.03422484854091508,-0.3390799465847711
-0.03422194854091508,-0.3394774098821091
-0.03421904854091508,-0.3391594392442401
-0.03421614854091508,-0.3401928438173214
-0.03421324854091508,-0.3408287850930618
-0.03421034854091508,-0.340192843817322
-0.03420744854091508,-0.3411467557309347
-0.03420454854091508,-0.3413057410498698
-0.03420164854091508,-0.341146755730937
-0.03419874854091508,-0.3425776236013565
-0.03419584854091508,-0.3430545795581615
-0.03419294854091508,-0.3424186382824218
-0.03419004854091508,-0.3434520428555035
-0.03418714854091508,-0.3443264621096473
-0.03418424854091508,-0.3438495061528433
-0.03418134854091508,-0.3450418960448592
-0.03417844854091508,-0.3452803740232616
-0.03417554854091508,-0.344882910725925
-0.03417264854091508,-0.3459163152990082
-0.03416974854091508,-0.3467907345531496
-0.03416684854091508,-0.3463137785963483
-0.03416394854091508,-0.3474266758288958
-0.03416104854091508,-0.3479036317856983
-0.03415814854091508,-0.3471087051910282
-0.03415524854091508,-0.3486190657209129
-0.03415234854091508,-0.3489370363587805
-0.03414944854091508,-0.3482216024235679
-0.03414654854091508,-0.3469497198720911
-0.03414364854091508,-0.3480626171046421
-0.03414074854091508,-0.3494934849750581
-0.03413784854091508,-0.3494934849750627
-0.03413494854091507,-0.3507653675265412
-0.03413204854091507,-0.3501294262508014
-0.03412914854091507,-0.3502884115697426
-0.03412624854091507,-0.3519577574185598
-0.03412334854091507,-0.3515602941212215
-0.03412044854091507,-0.3514013088022915
-0.03411754854091507,-0.352832176672709
-0.03411464854091509,-0.353229639970046
-0.03411174854091509,-0.3527526840132406
-0.03410884854091509,-0.3538655812457875
-0.03410594854091509,-0.3544220298620634
-0.03410304854091509,-0.3537860885863228
-0.03410014854091509,-0.3551374637972726
-0.03409724854091509,-0.3551374637972751
-0.03409434854091509,-0.3547400004999358
-0.03409144854091509,-0.3552964491162107
-0.03408854854091509,-0.35569391241355
-0.03408564854091509,-0.3552169564567429
-0.03408274854091509,-0.3557734050730178
-0.03407984854091509,-0.3564888390082284
-0.03407694854091509,-0.3564888390082284
-0.03407404854091509,-0.3572837656029069
-0.03407114854091509,-0.3577607215597139
-0.03406824854091509,-0.357204272943439
-0.03406534854091509,-0.3583966628354567
-0.03406244854091509,-0.3589531114517316
-0.03405954854091509,-0.3580786921975853
-0.03405664854091509,-0.3595095600680065
-0.03405374854091509,-0.35974803804641
-0.03405084854091509,-0.3593505747490708
-0.03404794854091509,-0.3604634719816207
-0.03404504854091508,-0.3603044866626849
-0.03404214854091508,-0.3598275307058779
-0.03403924854091508,-0.3610994132573634
-0.03403634854091508,-0.3610994132573634
-0.03403344854091508,-0.3604634719816207
-0.03403054854091508,-0.3613378912357669
-0.03402764854091508,-0.3618943398520418
-0.03402474854091508,-0.3603839793221528
-0.03402184854091508,-0.3594300674085387
-0.03401894854091508,-0.3613378912357669
-0.03401604854091508,-0.3621328178304454
-0.03401314854091508,-0.3622918031493811
-0.03401024854091508,-0.3637226710198023
-0.03400734854091508,-0.3630072370845916
-0.03400444854091508,-0.362848251765656
-0.03400154854091508,-0.3642791196360772
-0.03399864854091508,-0.3641996269766093
-0.03399574854091508,-0.3636431783603344
-0.03399284854091508,-0.3652330315496913
-0.03398994854091508,-0.3650740462307556
-0.03398704854091508,-0.36491506091182
-0.03398414854091508,-0.3666638994201125
-0.03398124854091508,-0.3660279581443698
-0.03397834854091508,-0.3661074508038376
-0.03397544854091508,-0.3672998406958553
-0.03397254854091508,-0.3665844067606445
-0.03396964854091508,-0.3665049141011789
-0.03396674854091508,-0.367617811333726
-0.03396384854091508,-0.3672203480363876
-0.03396094854091508,-0.3672998406958598
-0.03395804854091508,-0.3697641131393635
-0.03395514854091508,-0.3725463562207346
-0.03395224854091508,-0.3734207754748788
-0.03394934854091508,-0.3731028048370038
-0.03394644854091508,-0.3707975177124386
-0.03394354854091508,-0.369764113139358
-0.03394064854091508,-0.3695256351609512
-0.03393774854091508,-0.367458826014791
-0.03393484854091508,-0.3674588260147912
-0.03393194854091508,-0.3676178113337254
-0.03392904854091508,-0.3669023773985171
-0.03392614854091508,-0.3674588260147933
-0.03392324854091508,-0.3687307085662759
-0.03392034854091508,-0.3684127379284053
-0.03391744854091508,-0.3684922305878764
-0.03391454854091508,-0.3704000544151005
-0.03391164854091508,-0.3700025911177618
-0.03390874854091508,-0.3699230984582972
-0.03390584854091508,-0.3715924443071191
-0.03390294854091508,-0.3716719369665862
-0.03390004854091508,-0.3713539663287144
-0.03389714854091508,-0.3707975177124407
-0.03389424854091508,-0.3709565030313781
-0.03389134854091508,-0.372069400263927
-0.03388844854091508,-0.3726258488802019
-0.03388554854091508,-0.3731822974964746
-0.03388264854091508,-0.3725463562207326
-0.03387974854091508,-0.372307878242331
-0.03387684854091508,-0.3731028048370081
-0.03387394854091508,-0.3731822974964752
-0.03387104854091508,-0.3728643268586053
-0.03386814854091508,-0.3733412828154136
-0.03386524854091508,-0.3745336727074275
-0.03386234854091508,-0.373659253453283
-0.03385944854091508,-0.3737387461127522
-0.03385654854091508,-0.3745336727074275
-0.03385364854091508,-0.3736592534532836
-0.03385074854091508,-0.3740567167506256
-0.03384784854091508,-0.3750106286642339
-0.03384494854091508,-0.3743746873884946
-0.03384204854091508,-0.3746926580263684
-0.03383914854091508,-0.3756465699399761
-0.03383624854091508,-0.3748516433453025
-0.03383334854091508,-0.3754080919615792
-0.03383044854091508,-0.3764414965346539
-0.03382754854091508,-0.3754875846210448
-0.03382464854091508,-0.3758850479183857
-0.03382174854091508,-0.3767594671725253
-0.03381884854091508,-0.3758055552589173
-0.03381594854091508,-0.3765209891941276
-0.03381304854091507,-0.3771569304698654
-0.03381014854091507,-0.3764414965346571
-0.03380724854091507,-0.3763620038751934
-0.03380434854091507,-0.3773954084482687
-0.03380144854091507,-0.3766004818535931
-0.03379854854091507,-0.3766004818535969
-0.03379564854091507,-0.3776338864266719
-0.03379274854091509,-0.3767594671725304
-0.03378984854091509,-0.376441496534658
-0.03378694854091509,-0.3776338864266729
-0.03378404854091509,-0.3769979451509335
-0.03378114854091509,-0.3769979451509323
-0.03377824854091509,-0.3781903350429479
-0.03377534854091509,-0.377395408448273
-0.03377244854091509,-0.3758055552589147
-0.03376954854091509,-0.3770774378104002
-0.03376664854091509,-0.3780313497240143
-0.03376374854091509,-0.3785877983402892
-0.03376084854091509,-0.3786672909997571
-0.03375794854091509,-0.3779518570645465
-0.03375504854091509,-0.3782698277024178
-0.03375214854091509,-0.379223739616032
-0.03374924854091509,-0.3787467836592249
-0.03374634854091509,-0.3782698277024178
-0.03374344854091509,-0.3799391735512426
-0.03374054854091509,-0.379223739616032
-0.03373764854091509,-0.3787467836592249
-0.03373474854091509,-0.3796212029133712
-0.03373184854091509,-0.3793827249349677
-0.03372894854091509,-0.3788262763186928
-0.03372604854091509,-0.380257144189114
-0.03372314854091508,-0.3794622175944355
-0.03372024854091508,-0.3789852616376285
-0.03371734854091508,-0.3804956221675175
-0.03371444854091508,-0.380257144189114
-0.03371154854091508,-0.3797801882323069
-0.03370864854091508,-0.380734100145921
-0.03370574854091508,-0.3806546074864532
-0.03370284854091508,-0.3804161295080496
-0.03369994854091508,-0.3814495340811316
-0.03369704854091508,-0.3809725781243246
-0.03369414854091508,-0.3808135928053889
-0.03369124854091508,-0.3819264900379387
-0.03368834854091508,-0.3812110561027281
-0.03368544854091508,-0.3804956221675175
-0.03368254854091508,-0.3818469973784709
-0.03367964854091508,-0.3809725781243246
-0.03367674854091508,-0.3808930854648567
-0.03367384854091508,-0.3820059826974065
-0.03367094854091508,-0.3808930854648567
-0.03366804854091508,-0.3809725781243246
-0.03366514854091508,-0.381767504719003
-0.03366224854091508,-0.3812110561027281
-0.03365934854091508,-0.3813700414216638
-0.03365644854091508,-0.3826419239731493
-0.03365354854091508,-0.3816880120595352
-0.03365064854091508,-0.3816085194000663
-0.03364774854091508,-0.3810520707837916
-0.03364484854091508,-0.3805751148269871
-0.03364194854091508,-0.3815290267406019
-0.03363904854091508,-0.382880401951553
-0.03363614854091508,-0.3829598946110193
-0.03363324854091508,-0.3821649680163417
-0.03363034854091508,-0.3818469973784731
-0.03362744854091508,-0.3830393872704881
-0.03362454854091508,-0.3828009092920838
-0.03362164854091508,-0.382164968016344
-0.03361874854091508,-0.3831188799299547
-0.03361584854091508,-0.3822444606758101
-0.03361294854091508,-0.3822444606758121
-0.03361004854091508,-0.3833573579083589
-0.03360714854091508,-0.3828009092920848
-0.03360424854091508,-0.3827214166326193
-0.03360134854091508,-0.3839138065246329
-0.03359844854091508,-0.3828804019515532
-0.03359554854091508,-0.3830393872704907
-0.03359264854091508,-0.3842317771625046
-0.03358974854091508,-0.3833573579083599
-0.03358684854091508,-0.3833573579083616
-0.03358394854091508,-0.3843112698219722
-0.03358104854091508,-0.383277865248893
-0.03357814854091508,-0.3837548212057008
-0.03357524854091508,-0.3846292404598443
-0.03357234854091508,-0.3839932991841024
-0.03356944854091508,-0.3838343138651693
-0.03356654854091508,-0.3851061964166503
-0.03356364854091508,-0.3839138065246345
-0.03356074854091508,-0.3837548212057006
-0.03355784854091508,-0.3845497478003759
-0.03355494854091508,-0.3835958358867639
-0.03355204854091508,-0.3838343138651683
-0.03354914854091508,-0.3845497478003764
-0.03354624854091508,-0.3839138065246348
-0.03354334854091508,-0.3839138065246367
-0.03354044854091508,-0.3849472110977156
-0.03353754854091508,-0.3843112698219729
-0.03353464854091508,-0.3836753285462339
-0.03353174854091508,-0.3851061964166519
-0.03352884854091508,-0.3847882257787797
-0.03352594854091508,-0.3839932991841015
-0.03352304854091508,-0.3836753285462308
-0.03352014854091508,-0.3835163432272965
-0.03351724854091508,-0.3837548212057046
-0.03351434854091508,-0.3852651817355882
-0.03351144854091508,-0.385265181735585
-0.03350854854091508,-0.3843907624814424
-0.03350564854091508,-0.3845497478003799
-0.03350274854091508,-0.3851856890761157
-0.03349984854091508,-0.3839138065246345
-0.03349694854091508,-0.3838343138651708
-0.03349404854091508,-0.3848677184382466
-0.03349114854091507,-0.3842317771625065
-0.03348824854091507,-0.3843112698219784
-0.03348534854091507,-0.3855036597139885
-0.03348244854091507,-0.3846292404598463
-0.03347954854091507,-0.3848677184382516
-0.03347664854091507,-0.385583152373457
-0.03347374854091507,-0.3848677184382455
-0.03347084854091509,-0.3839138065246365
-0.03346794854091509,-0.3868550349249398
-0.03346504854091509,-0.3852651817355911
-0.03346214854091509,-0.3850267037571851
