synth-diodes-1f-1r-in-T00-L10-D00/100Hz-2V/scope.csv

#Digilent WaveForms Oscilloscope Acquisition
#Device Name: Discovery3
#Serial Number: SN:210415BD5874
#Date Time: 2025-04-06 19:47:14.769.792.590
#Sample rate: 208333Hz
#Samples: 32768
#Trigger: Source: Channel 1 Type: Edge Condition: Rising Level: 0 V Hyst.: Auto HoldOff: 0 s
#Channel 1: Range: 200 mV/div Offset: 0 V Sample Mode: Average
#Wavegen Channel 1: Running
#Mode: Simple
#Type: Sine
#Frequency: 100 Hz
#Period: 10 ms
#Amplitude: 2 V
#Offset: 0 V
#Symmetry: 50 %
#Phase: 0 °

Time (s),Channel 1 (V)
-0.09149650428800314,-0.3509243528454793
-0.09149170428800314,-0.3514013088022863
-0.09148690428800314,-0.3498909482723973
-0.09148210428800314,-0.35052688954814
-0.09147730428800314,-0.3494934849750581
-0.09147250428800315,-0.3499704409318651
-0.09146770428800315,-0.3487780510398497
-0.09146290428800315,-0.3493344996561214
-0.09145810428800315,-0.3463137785963498
-0.09145330428800315,-0.3475856611478275
-0.09144850428800314,-0.3475061684883596
-0.09144370428800314,-0.346234285936876
-0.09143890428800314,-0.3459958079584713
-0.09143410428800314,-0.3451213887043266
-0.09142930428800314,-0.3449624033853909
-0.09142450428800314,-0.3439289988123089
-0.09141970428800314,-0.3449624033853909
-0.09141490428800314,-0.3436110281744376
-0.09141010428800314,-0.3440879841312446
-0.09140530428800314,-0.3427366089202913
-0.09140050428800314,-0.3430545795581627
-0.09139570428800314,-0.3417032043472093
-0.09139090428800314,-0.3420211749850807
-0.09138610428800314,-0.3402723364767881
-0.09138130428800315,-0.3405108144551916
-0.09137650428800315,-0.3394774098821115
-0.09137170428800315,-0.339636395201045
-0.09136690428800315,-0.3386824832874329
-0.09136210428800313,-0.3382850199900918
-0.09135730428800314,-0.3382055273306221
-0.09135250428800314,-0.3370926300980747
-0.09134770428800314,-0.3373311080764758
-0.09134290428800314,-0.336218210843928
-0.09133810428800314,-0.3364566888223315
-0.09133330428800314,-0.3333564751030856
-0.09132850428800314,-0.3339129237193605
-0.09132370428800314,-0.3342308943572319
-0.09131890428800314,-0.3329590118057464
-0.09131410428800314,-0.333117997124682
-0.09130930428800314,-0.3320050998921322
-0.09130450428800314,-0.3323230705300036
-0.09129970428800314,-0.3312101732974538
-0.09129490428800315,-0.3316871292542609
-0.09129010428800315,-0.3303357540433099
-0.09128530428800315,-0.3302562613838398
-0.09128050428800315,-0.3298587980865011
-0.09127570428800315,-0.3294613347891619
-0.09127090428800314,-0.3280304669187403
-0.09126610428800314,-0.3281894522376737
-0.09126130428800314,-0.3270765550051249
-0.09125650428800314,-0.3265995990483188
-0.09125170428800314,-0.3268380770267224
-0.09124690428800314,-0.325963657772576
-0.09124210428800314,-0.3255661944752368
-0.09123730428800314,-0.324930253199494
-0.09123250428800314,-0.324930253199494
-0.09122770428800314,-0.3238173559669442
-0.09122290428800314,-0.3237378633074764
-0.09121810428800314,-0.3228634440533301
-0.09121330428800314,-0.3224659807559909
-0.09120850428800314,-0.3204786642692947
-0.09120370428800315,-0.3209556202261018
-0.09119890428800315,-0.320637649588231
-0.09119410428800315,-0.320478664269295
-0.09118930428800315,-0.3192067817178116
-0.09118450428800313,-0.3196837376746139
-0.09117970428800314,-0.3184118551231315
-0.09117490428800314,-0.3188093184204678
-0.09117010428800314,-0.3176169285284532
-0.09116530428800314,-0.3180938844852594
-0.09116050428800314,-0.3164245386364347
-0.09115570428800314,-0.3168220019337739
-0.09115090428800314,-0.3153911340633527
-0.09114610428800314,-0.3154706267228206
-0.09114130428800314,-0.3144372221497386
-0.09113650428800314,-0.3144372221497386
-0.09113170428800314,-0.313721788214528
-0.09112690428800314,-0.313165339598253
-0.09112210428800314,-0.3130063542793173
-0.09111730428800315,-0.3123704130035746
-0.09111250428800315,-0.3118934570467684
-0.09110770428800315,-0.3115754864088967
-0.09110290428800315,-0.3111780231115576
-0.09109810428800315,-0.3101446185384768
-0.09109330428800314,-0.3102241111979397
-0.09108850428800314,-0.3085547653491167
-0.09108370428800314,-0.3078393314139067
-0.09107890428800314,-0.3074418681165682
-0.09107410428800314,-0.3083162873707145
-0.09106930428800314,-0.3074418681165682
-0.09106450428800314,-0.307044404819229
-0.09105970428800314,-0.3068854195002933
-0.09105490428800314,-0.3062494782245506
-0.09105010428800314,-0.3066469415218898
-0.09104530428800314,-0.3052160736514686
-0.09104050428800314,-0.3058520149272113
-0.09103570428800314,-0.3038646984405152
-0.09103090428800314,-0.3042621617378544
-0.09102610428800315,-0.3027518012079654
-0.09102130428800315,-0.30259281588903
-0.09101650428800315,-0.3022748452511589
-0.09101170428800315,-0.3021158599322229
-0.09100690428800313,-0.30076448472127
-0.09100210428800314,-0.3011619480186061
-0.09099730428800314,-0.2998900654671235
-0.09099250428800314,-0.3002080361049944
-0.09098770428800314,-0.2990156462129767
-0.09098290428800314,-0.2985386902561696
-0.09097810428800314,-0.2980617342993626
-0.09097330428800314,-0.2969488370668127
-0.09096850428800314,-0.2969488370668127
-0.09096370428800314,-0.2961539104721342
-0.09095890428800314,-0.2948025352611809
-0.09095410428800314,-0.2941665939854382
-0.09094930428800314,-0.2953589838774558
-0.09094450428800314,-0.2940871013259703
-0.09093970428800315,-0.2940871013259703
-0.09093490428800315,-0.2928947114339548
-0.09093010428800315,-0.2935306527096942
-0.09092530428800315,-0.2919407995203414
-0.09092050428800315,-0.2922587701582093
-0.09091570428800314,-0.2908279022877888
-0.09091090428800314,-0.2909073949472551
-0.09090610428800314,-0.2901124683525774
-0.09090130428800314,-0.2897150050552388
-0.09089650428800314,-0.2890790637794961
-0.09089170428800314,-0.2884431225037533
-0.09088690428800314,-0.2886816004821569
-0.09088210428800314,-0.2873302252712035
-0.09087730428800314,-0.2873302252712035
-0.09087250428800314,-0.286058342719718
-0.09086770428800314,-0.2855018941034431
-0.09086290428800314,-0.2842300115519575
-0.09085810428800314,-0.2844684895303611
-0.09085330428800314,-0.2827991436815364
-0.09084850428800315,-0.2834350849572791
-0.09084370428800315,-0.2819247244273928
-0.09083890428800315,-0.2818452317679224
-0.09083410428800315,-0.279778422621762
-0.09082930428800313,-0.2796194373028242
-0.09082450428800314,-0.2804938565569661
-0.09081970428800314,-0.2789834960270798
-0.09081490428800314,-0.2789834960270798
-0.09081010428800314,-0.2777116134755943
-0.09080530428800314,-0.27787059879453
-0.09080050428800314,-0.2762807456051731
-0.09079570428800314,-0.2765987162430444
-0.09079090428800314,-0.2749293703942197
-0.09078610428800314,-0.2750883557131554
-0.09078130428800314,-0.2738959658211377
-0.09077650428800314,-0.2734985025237985
-0.09077170428800314,-0.2728625612480557
-0.09076690428800314,-0.2723061126317808
-0.09076210428800315,-0.2715906786965702
-0.09075730428800315,-0.2710342300802963
-0.09075250428800315,-0.270318796145086
-0.09074770428800315,-0.2695238695504077
-0.09074290428800315,-0.2687289429557293
-0.09073810428800314,-0.2679340163610481
-0.09073330428800314,-0.2672185824258371
-0.09072850428800314,-0.2662646705122237
-0.09072370428800314,-0.2657877145554176
-0.09071890428800314,-0.2649132953012713
-0.09071410428800314,-0.2641978613660607
-0.09070930428800314,-0.2623695301983003
-0.09070450428800314,-0.261972066900961
-0.09069970428800314,-0.2622105448793646
-0.09069490428800314,-0.2612566329657504
-0.09069010428800314,-0.2599847504142649
-0.09068530428800314,-0.2595077944574579
-0.09068050428800314,-0.2578384486086331
-0.09067570428800314,-0.2583154045654402
-0.09067090428800315,-0.2566460587166154
-0.09066610428800315,-0.2568845366950185
-0.09066130428800315,-0.2556921468030035
-0.09065650428800315,-0.2556126541435336
-0.09065170428800313,-0.2540228009541766
-0.09064690428800314,-0.2540228009541732
-0.09064210428800314,-0.2521944697864169
-0.09063730428800314,-0.2525919330837554
-0.09063250428800314,-0.2507636019159949
-0.09062770428800314,-0.2505251239375914
-0.09062290428800314,-0.2489352707482345
-0.09061810428800314,-0.2486173001103631
-0.09061330428800314,-0.2471864322399419
-0.09060850428800314,-0.2470274469210062
-0.09060370428800314,-0.245596579050585
-0.09059890428800314,-0.2452786084127137
-0.09059410428800314,-0.2436092625638889
-0.09058930428800314,-0.2435297699044211
-0.09058450428800315,-0.24098600480145
-0.09057970428800315,-0.240191078206773
-0.09057490428800315,-0.2410654974609163
-0.09057010428800315,-0.2389986883147577
-0.09056530428800315,-0.2386807176768831
-0.09056050428800314,-0.2369318791685901
-0.09055570428800314,-0.2370113718280546
-0.09055090428800314,-0.2352625333197652
-0.09054610428800314,-0.2352625333197652
-0.09054130428800314,-0.2336726801304083
-0.09053650428800314,-0.233831665449344
-0.09053170428800314,-0.2321623196005193
-0.09052690428800314,-0.2318443489626479
-0.09052210428800314,-0.2304929737516945
-0.09051730428800314,-0.2299365251354196
-0.09051250428800314,-0.2285056572649984
-0.09050770428800314,-0.2274722526919164
-0.09050290428800314,-0.2265978334377701
-0.09049810428800314,-0.2258029068430917
-0.09049330428800315,-0.2252464582268168
-0.09048850428800315,-0.2239745756753336
-0.09048370428800315,-0.2236566050374605
-0.09047890428800315,-0.2220667518481059
-0.09047410428800313,-0.2221462445075675
-0.09046930428800314,-0.2203179133398105
-0.09046450428800314,-0.2203974059992736
-0.09045970428800314,-0.2178536408963072
-0.09045490428800314,-0.2172176996205644
-0.09045010428800314,-0.2170587143016288
-0.09044530428800314,-0.2161048023880146
-0.09044050428800314,-0.2141174859013185
-0.09043570428800314,-0.2144354565391899
-0.09043090428800314,-0.2123686473930259
-0.09042610428800314,-0.2125276327119616
-0.09042130428800314,-0.2106198088847334
-0.09041650428800314,-0.2105403162252655
-0.09041170428800314,-0.2090299556953765
-0.09040690428800315,-0.2083145217601658
-0.09040210428800315,-0.2068836538897472
-0.09039730428800315,-0.2060887272950676
-0.09039250428800315,-0.2041809034678414
-0.09038770428800315,-0.2034654695326286
-0.09038290428800314,-0.2021935869811397
-0.09037810428800314,-0.2010011970891227
-0.09037330428800314,-0.2002062704944427
-0.09036850428800314,-0.1985369246456209
-0.09036370428800314,-0.1981394613482817
-0.09035890428800314,-0.1962316375210535
-0.09035410428800314,-0.1959136668831821
-0.09034930428800314,-0.1937673650775503
-0.09034450428800314,-0.1932904091207432
-0.09033970428800314,-0.1912235999745792
-0.09033490428800314,-0.1892362834878831
-0.09033010428800314,-0.187248967001187
-0.09032530428800314,-0.1874874449795905
-0.09032050428800315,-0.1860565771091693
-0.09031570428800315,-0.1835923046656661
-0.09031090428800315,-0.1831948413683276
-0.09030610428800315,-0.1808100615842959
-0.09030130428800315,-0.1797766570112115
-0.09029650428800313,-0.1777893405245112
-0.09029170428800314,-0.1765174579730253
-0.09028690428800314,-0.175086590102603
-0.09028210428800314,-0.1730197809564428
-0.09027730428800314,-0.1717478984049573
-0.09027250428800314,-0.1693631186209219
-0.09026770428800314,-0.1673758021342258
-0.09026290428800314,-0.1660244269232725
-0.09025810428800314,-0.1637986324581728
-0.09025330428800314,-0.161652330652541
-0.09024850428800314,-0.1603009554415877
-0.09024370428800314,-0.1575187123602131
-0.09023890428800314,-0.1563263224681954
-0.09023410428800314,-0.1535440793868209
-0.09022930428800315,-0.1520337188569318
-0.09022450428800315,-0.1490924904566269
-0.09021970428800315,-0.1477411152456707
-0.09021490428800315,-0.144084452910154
-0.09021010428800313,-0.1419381511045093
-0.09020530428800314,-0.1385199667473979
-0.09020050428800314,-0.1383609814284573
-0.09019570428800314,-0.1354992456876147
-0.09019090428800314,-0.1325580172873098
-0.09018610428800314,-0.1309681640979529
-0.09018130428800314,-0.1276294724003035
-0.09017650428800314,-0.1260396192109466
-0.09017170428800314,-0.1227009275132971
-0.09016690428800314,-0.1206341183671331
-0.09016210428800314,-0.1173749193289515
-0.09015730428800314,-0.1153876028422554
-0.09015250428800314,-0.1115719551877988
-0.09014770428800314,-0.1093461607226992
-0.09014290428800315,-0.1060074690250497
-0.09013810428800315,-0.1038611672194179
-0.09013330428800315,-0.1003634902028391
-0.09012850428800315,-0.09766073978093093
-0.09012370428800315,-0.09448103340221801
-0.09011890428800313,-0.09130132702349308
-0.09011410428800314,-0.08836009862318227
-0.09010930428800314,-0.08510089958500092
-0.09010450428800314,-0.08200068586576061
-0.09009970428800314,-0.07786706757343269
-0.09009490428800314,-0.0746873611947189
-0.09009010428800314,-0.07087171354026235
-0.09008530428800314,-0.06785099248048425
-0.09008050428800314,-0.06268396961507434
-0.09007570428800314,-0.06165056504199236
-0.09007090428800314,-0.05688100547392168
-0.09006610428800314,-0.05362180643574005
-0.09006130428800314,-0.04964717346234782
-0.09005650428800314,-0.04630848176469833
-0.09005170428800315,-0.04201587815343472
-0.09004690428800315,-0.03859769379632361
-0.09004210428800315,-0.03430509018506158
-0.09003730428800315,-0.03009197923326567
-0.09003250428800313,-0.02611734625985782
-0.09002770428800314,-0.02174524998912665
-0.09002290428800314,-0.01753213903733103
-0.09001810428800314,-0.01339852074500454
-0.09001330428800314,-0.01005982904736114
-0.09000850428800314,-0.004892806181951233
-0.09000370428800314,-0.001395129165366066
-0.08999890428800314,0.003533415721640306
-0.08999410428800314,0.007349063376096853
-0.08998930428800314,0.01235710092257107
-0.08998450428800314,0.0163317338959633
-0.08997970428800314,0.02126027878296968
-0.08997490428800314,0.02523491175636191
-0.08997010428800314,0.02968650068656122
-0.08996530428800315,0.03389961163835699
-0.08996050428800315,0.03858967854695983
-0.08995570428800315,0.04351822343395724
-0.08995090428800315,0.0457440178990618
-0.08994610428800315,0.04987763619138626
-0.08994130428800313,0.05401125448372806
-0.08993650428800314,0.05750893150031424
-0.08993170428800314,0.06156305713317303
-0.08992690428800314,0.06490174883081642
-0.08992210428800314,0.0689558744636765
-0.08991730428800314,0.07229456616132598
-0.08991250428800314,0.07611021381578253
-0.08990770428800314,0.07952839817289985
-0.08990290428800314,0.08262861189214579
-0.08989810428800314,0.08676223018447372
-0.08989330428800314,0.0893854879469126
-0.08988850428800314,0.09343961357977268
-0.08988370428800314,0.09669881261795431
-0.08987890428800314,0.1001964896345395
-0.08987410428800315,0.1032967033537854
-0.08986930428800315,0.1067148877108965
-0.08986450428800315,0.1097356087706754
-0.08985970428800315,0.1133922711061951
-0.08985490428800313,0.1160950215281144
-0.08985010428800314,0.1193542205662951
-0.08984530428800314,0.1221364636476704
-0.08984050428800314,0.1253161700263842
-0.08983570428800314,0.1284958764050922
-0.08983090428800314,0.1324705093784845
-0.08982610428800314,0.1338218845894378
-0.08982130428800314,0.1363656496924088
-0.08981650428800314,0.1402607900063332
-0.08981170428800314,0.142407091811965
-0.08980690428800314,0.1461432468069537
-0.08980210428800314,0.1482895486125856
-0.08979730428800314,0.151628240310235
-0.08979250428800314,0.1536155567969311
-0.08978770428800315,0.1563977998783057
-0.08978290428800315,0.1589415649812767
-0.08977810428800315,0.1620417787005171
-0.08977330428800315,0.1640290951872152
-0.08976850428800315,0.1634726465709449
-0.08976370428800313,0.1664138749712627
-0.08975890428800314,0.1711039418798651
-0.08975410428800314,0.1755555308100637
-0.08974930428800314,0.1796096564429164
-0.08974450428800314,0.1831073334595015
-0.08973970428800314,0.1851741426056655
-0.08973490428800314,0.1877974003681044
-0.08973010428800314,0.1885923269627828
-0.08972530428800314,0.1908976140873503
-0.08972050428800314,0.192090003979368
-0.08971570428800314,0.1947132617418069
-0.08971090428800314,0.1958261589743567
-0.08970610428800314,0.1998802846072168
-0.08970130428800314,0.1994033286504097
-0.08969650428800315,0.2033779616238019
-0.08969170428800315,0.205206292791559
-0.08968690428800315,0.2084654918297381
-0.08968210428800315,0.2105323009759042
-0.08967730428800313,0.2125196174626084
-0.08967250428800314,0.2149043972466415
-0.08966770428800314,0.2160172944791947
-0.08966290428800314,0.2190380155389688
-0.08965810428800314,0.2198329421336458
-0.08965330428800314,0.2224561998960847
-0.08964850428800314,0.2237280824475702
-0.08964370428800314,0.226351340210009
-0.08963890428800314,0.2279411933993659
-0.08963410428800314,0.230484958502337
-0.08962930428800314,0.2326312603079688
-0.08962450428800314,0.2350160400920041
-0.08961970428800314,0.2370033565787003
-0.08961490428800314,0.2384342244491215
-0.08961010428800315,0.2405805262547533
-0.08960530428800315,0.2416139308278352
-0.08960050428800315,0.2440782032713339
-0.08959570428800315,0.2447936372065477
-0.08959090428800315,0.2474168949689831
-0.08958610428800313,0.2487682701799483
-0.08958130428800314,0.2526634104938638
-0.08957650428800314,0.2516300059207896
-0.08957170428800314,0.2548892049589653
-0.08956690428800314,0.256081594850983
-0.08956210428800314,0.2585458672944861
-0.08955730428800314,0.2592613012296968
-0.08955250428800314,0.2610896323974572
-0.08954770428800314,0.2618845589921356
-0.08954290428800314,0.2640308607977674
-0.08953810428800314,0.2646668020735102
-0.08953330428800314,0.2668925965386099
-0.08952850428800314,0.2676080304738205
-0.08952370428800314,0.2699133175983879
-0.08951890428800315,0.2711852001498735
-0.08951410428800315,0.2732520092960337
-0.08950930428800315,0.2747623698259238
-0.08950450428800315,0.2765907009936836
-0.08949970428800313,0.2777830908857063
-0.08949490428800314,0.2787370027993226
-0.08949010428800314,0.2808833046049514
-0.08948530428800314,0.2813602605617618
-0.08948050428800314,0.2836655476863251
-0.08947570428800314,0.2843014889620679
-0.08947090428800314,0.2866862687461032
-0.08946610428800314,0.2871632247029103
-0.08946130428800314,0.2897069898058813
-0.08945650428800314,0.2918532916115131
-0.08945170428800314,0.2924892328872559
-0.08944690428800314,0.2931251741629986
-0.08944210428800314,0.2950329979902269
-0.08943730428800314,0.2955099539470339
-0.08943250428800315,0.2972587924553265
-0.08942770428800315,0.2977357484121336
-0.08942290428800315,0.2993256016014876
-0.08941810428800315,0.3000410355366998
-0.08941330428800315,0.3015513960665874
-0.08940850428800313,0.302028352023401
-0.08940370428800314,0.3040951611695625
-0.08939890428800314,0.3048105951047751
-0.08939410428800314,0.3066389262725322
-0.08938930428800314,0.3077518235050821
-0.08938450428800314,0.3084672574402926
-0.08937970428800314,0.3095801546728425
-0.08937490428800314,0.3106930519053923
-0.08937010428800314,0.31188544179741
-0.08936530428800314,0.3126008757326206
-0.08936050428800314,0.3139522509435739
-0.08935570428800314,0.3149856555166559
-0.08935090428800314,0.3160985527492057
-0.08934610428800314,0.3169729720033521
-0.08934130428800315,0.3184833325332411
-0.08933650428800315,0.3191192738089827
-0.08933170428800315,0.3224579655066273
-0.08932690428800315,0.3205501416794085
-0.08932210428800313,0.3226964434850373
-0.08931730428800314,0.3229349214634434
-0.08931250428800314,0.3246042673122655
-0.08930770428800314,0.3248427452906713
-0.08930290428800314,0.3262736131610899
-0.08929810428800314,0.326750569117897
-0.08929330428800314,0.3279429590099146
-0.08928850428800314,0.328260929647786
-0.08928370428800314,0.3299302754966107
-0.08927890428800314,0.3301687534750142
-0.08927410428800314,0.3317586066643711
-0.08926930428800314,0.3320765773022425
-0.08926450428800314,0.3335074451726637
-0.08925970428800314,0.3335869378321316
-0.08925490428800315,0.3352562836809563
-0.08925010428800315,0.335335776340424
-0.08924530428800315,0.3366076588919074
-0.08924050428800315,0.3366871515513774
-0.08923570428800315,0.3380385267623284
-0.08923090428800314,0.3388334533570102
-0.08922610428800314,0.3393104093138191
-0.08922130428800314,0.3408207698437067
-0.08921650428800314,0.341536203778916
-0.08921170428800314,0.3429670716493373
-0.08920690428800314,0.3441594615413549
-0.08920210428800314,0.3442389542008228
