-20250405-BKP/synth-diodes-1f-1r-in-T10-L10-D00/100Hz200mV/scope.csv

#Digilent WaveForms Oscilloscope Acquisition
#Device Name: Discovery3
#Serial Number: SN:210415BD5874
#Date Time: 2025-04-03 16:21:33.104.322.430
#Sample rate: 344828Hz
#Samples: 32768
#Trigger: Source: Channel 1 Type: Edge Condition: Rising Level: 0 V Hyst.: Auto HoldOff: 0 s
#Channel 1: Range: 200 mV/div Offset: 0 V Sample Mode: Average
#Wavegen Channel 1: Running
#Mode: Simple
#Type: Sine
#Frequency: 100 Hz
#Period: 10 ms
#Amplitude: 200 mV
#Offset: 0 V
#Symmetry: 50 %
#Phase: 0 °

Time (s),Channel 1 (V)
-0.03484031312424841,0.01219811560363538
-0.03483741312424841,0.00830297528971099
-0.03483451312424841,0.01132369634948909
-0.03483161312424841,0.01076724773321418
-0.03482871312424841,0.009972321138535729
-0.03482581312424841,0.009574857841196506
-0.03482291312424841,0.008541453268114525
-0.03482001312424841,0.009177394543857281
-0.03481711312424841,0.01068775507374633
-0.03481421312424841,0.01100572571161771
-0.03481131312424841,0.00798500465183961
-0.03480841312424841,0.005520732208336425
-0.03480551312424841,0.006236166143547027
-0.03480261312424841,0.006236166143547027
-0.03479971312424841,0.007826019332903921
-0.03479681312424841,0.01060826241427849
-0.03479391312424841,0.006474644121950561
-0.03479101312424841,0.007031092738225474
-0.03478811312424841,0.007031092738225474
-0.03478521312424841,0.006633629440886251
-0.03478231312424841,0.006236166143547027
-0.03477941312424841,0.005759210186739958
-0.03477651312424841,0.005997688165145517
-0.03477361312424841,0.007110585397694331
-0.03477071312424841,0.007667034013962303
-0.03476781312424841,0.004407834975783996
-0.03476491312424841,0.002976967105366695
-0.03476201312424841,0.003692401040576141
-0.03475911312424842,0.003771893700043696
-0.03475621312424842,0.005520732208333243
-0.03475331312424842,0.006474644121948826
-0.03475041312424842,0.002738489126968656
-0.03474751312424842,0.00353341572163886
-0.03474461312424842,0.004328342316317308
-0.03474171312424842,0.003930879018980253
-0.03473881312424842,0.001307621256540655
-0.03473591312424842,0.0007511726402657415
-0.03473301312424842,0.0009101579592014309
-0.03473011312424842,0.0005921873213300521
-0.03472721312424842,0.002658996467494015
-0.03472431312424842,0.0001152313645229838
-0.03472141312424842,-0.000520709911219774
-0.03471851312424842,0.001943562532283412
-0.03471561312424842,0.001546099234944189
-0.03471271312424842,0.002102547851219102
-0.03470981312424842,0.005600224867804269
-0.03470691312424842,-0.0004412172517519292
-0.03470401312424842,-0.001395129165366066
-0.03470111312424842,0.0001152313645229838
-0.03469821312424842,0.0005921873213300521
-0.03469531312424842,0.0004332020023943626
-0.03469241312424842,0.001546099234944189
-0.03468951312424842,0.00122812859707281
-0.03468661312424842,0.001387113916008499
-0.03468371312424842,0.002897474445897549
-0.03468081312424841,0.001784577213347723
-0.03467791312424841,-0.0002027392733483951
-0.03467501312424841,0.001705084553879878
-0.03467211312424841,0.001546099234944189
-0.03466921312424841,0.00122812859707281
-0.03466631312424841,0.001705084553879878
-0.03466341312424841,0.003374430402704617
-0.03466051312424841,0.003215445083768927
-0.03465761312424841,0.003056459764833238
-0.03465471312424841,0.004169356997383064
-0.03465181312424841,0.002261533170154791
-0.03464891312424841,0.001546099234944189
-0.03464601312424841,0.003374430402704617
-0.03464311312424841,0.003453923062172462
-0.03464021312424841,0.004010371678447375
-0.03463731312424841,0.003851386359511685
-0.03463441312424841,-0.0006002025706876187
-0.03463151312424841,-0.001315636505898221
-0.03462861312424841,0.0005126946618622074
-0.03462571312424841,0.0002742166834586732
-0.03462281312424841,-0.003302952992594339
-0.03461991312424841,-0.004177372246740631
-0.03461701312424841,-0.003541430970997295
-0.03461411312424841,-0.00322346033312447
-0.03461121312424841,-0.002110563100571607
-0.03460831312424841,0.0006716799807882088
-0.03460541312424841,-0.004654328203544807
-0.03460251312424841,-0.003064475014191094
-0.03459961312424841,-0.003223460333127507
-0.03459671312424842,-0.003779908949400395
-0.03459381312424842,-0.004177372246739908
-0.03459091312424842,-0.005528747457691533
-0.03458801312424842,-0.004972298841420091
-0.03458511312424842,-0.001474621824840273
-0.03458221312424842,-0.001713099803237011
-0.03457931312424842,-0.006959615328115196
-0.03457641312424842,-0.007436571284922264
-0.03457351312424842,-0.006721137349711662
-0.03457061312424842,-0.007675049263325798
-0.03456771312424842,-0.006403166711840283
-0.03456481312424842,-0.007834034582261487
-0.03456191312424842,-0.01109323362044312
-0.03455901312424842,-0.01005982904736114
-0.03455611312424842,-0.009344395112150537
-0.03455321312424842,-0.009821351068957606
-0.03455031312424842,-0.009980336387893295
-0.03454741312424842,-0.01037779968523252
-0.03454451312424842,-0.0106957703231039
-0.03454161312424842,-0.01005982904736114
-0.03453871312424842,-0.008787946495875625
-0.03453581312424842,-0.01228562351246079
-0.03453291312424842,-0.01180866755565372
-0.03453001312424842,-0.009503380431086226
-0.03452711312424842,-0.009264902452682692
-0.03452421312424842,-0.009662365750021917
-0.03452131312424842,-0.006403166711840283
-0.03451841312424841,-0.01268308680980001
-0.03451551312424841,-0.013716491382882
-0.03451261312424841,-0.01284207212873571
-0.03450971312424841,-0.01260359415033217
-0.03450681312424841,-0.01785010967520992
-0.03450391312424841,-0.01713467573999932
-0.03450101312424841,-0.01570380786957811
-0.03449811312424841,-0.01626025648585303
-0.03449521312424841,-0.0151473592533032
-0.03449231312424841,-0.01403446202075338
-0.03448941312424841,-0.01713467573999932
-0.03448651312424841,-0.01594228584798165
-0.03448361312424841,-0.01506786659383536
-0.03448071312424841,-0.01530634457223889
-0.03447781312424841,-0.01959894818350251
-0.03447491312424841,-0.01904249956722759
-0.03447201312424841,-0.01943996286456682
-0.03446911312424841,-0.0174526463778707
-0.03446621312424841,-0.01761163169680639
-0.03446331312424841,-0.01800909499414561
-0.03446041312424841,-0.02079133807552018
-0.03445751312424841,-0.01959894818350251
-0.03445461312424841,-0.02142727935126308
-0.03445171312424841,-0.02150677201073772
-0.03444881312424841,-0.02532241966518689
-0.03444591312424841,-0.02508394168678292
-0.03444301312424841,-0.02460698572997571
-0.03444011312424841,-0.02405053711369921
-0.03443721312424842,-0.02261966924328321
-0.03443431312424842,-0.02643531689773021
-0.03443141312424842,-0.02524292700572165
-0.03442851312424842,-0.02341459583796238
-0.03442561312424842,-0.02293763988115285
-0.03442271312424842,-0.02373256647582898
-0.03441981312424842,-0.02214271328647643
-0.03441691312424842,-0.02436850775157319
-0.03441401312424842,-0.02413002977316965
-0.03441111312424842,-0.02309662520008767
-0.03440821312424842,-0.02238119126487707
-0.03440531312424842,-0.02834314072496542
-0.03440241312424842,-0.02746872147081913
-0.03439951312424842,-0.02603785360039793
-0.03439661312424842,-0.02643531689773715
-0.03439371312424842,-0.02691227285454422
-0.03439081312424842,-0.02524292700571948
-0.03438791312424842,-0.0242095224326375
-0.03438501312424842,-0.02428901509210534
-0.03438211312424842,-0.0234940884974269
-0.03437921312424842,-0.02293763988115198
-0.03437631312424842,-0.02643531689773715
-0.03437341312424842,-0.02436850775157319
-0.03437051312424842,-0.0234940884974269
-0.03436761312424842,-0.02381205913529828
-0.03436471312424842,-0.02190423530807
-0.03436181312424842,-0.02190423530807
-0.03435891312424841,-0.02738922881135129
-0.03435601312424841,-0.02699176551401206
-0.03435311312424841,-0.02548140498412301
-0.03435021312424841,-0.02556089764359086
-0.03434731312424841,-0.0279456774276262
-0.03434441312424841,-0.02627633157880146
-0.03434151312424841,-0.02715075083294775
-0.03433861312424841,-0.02738922881135129
-0.03433571312424841,-0.02611734625986577
-0.03433281312424841,-0.02834314072496542
-0.03432991312424841,-0.02778669210869051
-0.03432701312424841,-0.02579937562199439
-0.03432411312424841,-0.02611734625986577
-0.03432121312424841,-0.02643531689773715
-0.03431831312424841,-0.02945603795751525
-0.03431541312424841,-0.03056893519006508
-0.03431251312424841,-0.02977400859538663
-0.03430961312424841,-0.02834314072496542
-0.03430671312424841,-0.03033045721166154
-0.03430381312424841,-0.0348615388013287
-0.03430091312424841,-0.03271523699569688
-0.03429801312424841,-0.03319219295250395
-0.03429511312424841,-0.03279472965516024
-0.03429221312424841,-0.03033045721166921
-0.03428931312424841,-0.03454356816345949
-0.03428641312424841,-0.03573595805547238
-0.03428351312424841,-0.03430509018505435
-0.03428061312424841,-0.03462306082292964
-0.03427771312424841,-0.0370873332664334
-0.03427481312424842,-0.03986957634779786
-0.03427191312424842,-0.0389951570936582
-0.03426901312424842,-0.03883617177472122
-0.03426611312424842,-0.03708733326643152
-0.03426321312424842,-0.03692834794749295
-0.03426031312424842,-0.04122095155874846
-0.03425741312424842,-0.04082348826141705
-0.03425451312424842,-0.03963109836939938
-0.03425161312424842,-0.03931312773152799
-0.03424871312424842,-0.04082348826141705
-0.03424581312424842,-0.04392370198066299
-0.03424291312424842,-0.04416217995906652
-0.03424001312424842,-0.04296979006704885
-0.03423711312424842,-0.04161841485609549
-0.03423421312424842,-0.03788225986110678
-0.03423131312424842,-0.04106196623982059
-0.03422841312424842,-0.04114145889928843
-0.03422551312424842,-0.04169790751556333
-0.03422261312424842,-0.04169790751556333
-0.03421971312424842,-0.04296979006704885
-0.03421681312424842,-0.04781884229458738
-0.03421391312424842,-0.04694442304044109
-0.03421101312424842,-0.04479812123480928
-0.03420811312424842,-0.04281080474811316
-0.03420521312424842,-0.04551355517001988
-0.03420231312424842,-0.04567254048895557
-0.03419941312424842,-0.04384420932119515
-0.03419651312424841,-0.04432116527800221
-0.03419361312424841,-0.04408268729959867
-0.03419071312424841,-0.04145942953715981
-0.03418781312424841,-0.04440065793747006
-0.03418491312424841,-0.04471862857534144
-0.03418201312424841,-0.04296979006704885
-0.03417911312424841,-0.04336725336438807
-0.03417621312424841,-0.04543406251055204
-0.03417331312424841,-0.04495710655374498
-0.03417041312424841,-0.04352623868332377
-0.03416751312424841,-0.04400319464013083
-0.03416461312424841,-0.04296979006704885
-0.03416171312424841,-0.04352623868332377
-0.03415881312424841,-0.04567254048895557
-0.03415591312424841,-0.0451955845321485
-0.03415301312424841,-0.04392370198066299
-0.03415011312424841,-0.0444801505969379
-0.03414721312424841,-0.04599051112682695
-0.03414431312424841,-0.04551355517001988
-0.03414141312424841,-0.04511609187268066
-0.03413851312424841,-0.04471862857534144
-0.03413561312424841,-0.04352623868332377
-0.03413271312424841,-0.04360573134280043
-0.03412981312424841,-0.04845478357032825
-0.03412691312424841,-0.04742137899724816
-0.03412401312424841,-0.04742137899724642
-0.03412111312424841,-0.0464674670836385
-0.03411821312424841,-0.04893173952714155
-0.03411531312424842,-0.05131651931116821
-0.03411241312424842,-0.05044210005702785
-0.03410951312424842,-0.04885224686767225
-0.03410661312424842,-0.04869326154873396
-0.03410371312424842,-0.04750087165671817
-0.03410081312424842,-0.05004463675968241
-0.03409791312424842,-0.05076007069489633
-0.03409501312424842,-0.05099854867330117
-0.03409211312424842,-0.04948818814341212
-0.03408921312424842,-0.05179347526797962
-0.03408631312424842,-0.05139601197064039
-0.03408341312424842,-0.04893173952713721
-0.03408051312424842,-0.04932920282447643
-0.03407761312424842,-0.05004463675968704
-0.03407471312424842,-0.05234992388425452
-0.03407181312424842,-0.05417825505201496
-0.03406891312424842,-0.05378079175467573
-0.03406601312424842,-0.05187296792744746
-0.03406311312424842,-0.05171398260851177
-0.03406021312424842,-0.04901123218660505
-0.03405731312424842,-0.05489368898722556
-0.03405441312424842,-0.05521165962509694
-0.03405151312424842,-0.05529115228456478
-0.03404861312424842,-0.05378079175467573
-0.03404571312424842,-0.05862984398221426
-0.03404281312424842,-0.06045817514997469
-0.03403991312424842,-0.05902730727955348
-0.03403701312424842,-0.05775542472806797
-0.03403411312424841,-0.05807339536593935
-0.03403121312424841,-0.06006071185263546
-0.03402831312424841,-0.06149157972305667
-0.03402541312424841,-0.0617300577014602
-0.03402251312424841,-0.06093513110678175
-0.03401961312424841,-0.05966324855529624
-0.03401671312424841,-0.06514824205857753
-0.03401381312424841,-0.06514824205857753
-0.03401091312424841,-0.06371737418815633
-0.03400801312424841,-0.06363788152868848
-0.03400511312424841,-0.06339940355028495
-0.03400221312424841,-0.05934527791742486
-0.03399931312424841,-0.06339940355028495
-0.03399641312424841,-0.06411483748549555
-0.03399351312424841,-0.0626044769556065
-0.03399061312424841,-0.06196853567986374
-0.03398771312424841,-0.06538672003698107
-0.03398481312424841,-0.06387635950709201
-0.03398191312424841,-0.06316092557188141
-0.03397901312424841,-0.06324041823134925
-0.03397611312424841,-0.06363788152868848
-0.03397321312424841,-0.06602266131272484
-0.03397031312424841,-0.06657910992899786
-0.03396741312424841,-0.06610215397219052
-0.03396451312424841,-0.06546621269644848
-0.03396161312424841,-0.06522773471804162
-0.03395871312424841,-0.06316092557188445
-0.03395581312424841,-0.06483027142070616
-0.03395291312424842,-0.06483027142070616
-0.03395001312424842,-0.06522773471804466
-0.03394711312424842,-0.06427382280443297
-0.03394421312424842,-0.06634063195059144
-0.03394131312424842,-0.06586367599378901
-0.03393841312424842,-0.06522773471804653
-0.03393551312424842,-0.06331991089082058
-0.03393261312424842,-0.06379686684762417
-0.03392971312424842,-0.069520338329309
-0.03392681312424842,-0.06856642641569485
-0.03392391312424842,-0.06800997779941995
-0.03392101312424842,-0.06824845577782347
-0.03391811312424842,-0.06657910992899874
-0.03391521312424842,-0.06276346227454219
-0.03391231312424842,-0.06872541173463055
-0.03390941312424842,-0.06785099248048425
-0.03390651312424842,-0.06713555854527364
-0.03390361312424842,-0.06745352918314503
-0.03390071312424842,-0.06959983098877684
-0.03389781312424842,-0.06777149982101641
-0.03389491312424842,-0.06824845577782347
-0.03389201312424842,-0.0670560658858058
-0.03388911312424842,-0.06665860258846658
-0.03388621312424842,-0.0723820740701514
-0.03388331312424842,-0.07031526492398744
-0.03388041312424842,-0.06920236769143762
-0.03387751312424842,-0.06944084566984114
-0.03387461312424841,-0.06840744109675917
-0.03387171312424841,-0.07134866949706942
-0.03386881312424841,-0.07341547864323338
-0.03386591312424841,-0.07214359609174786
-0.03386301312424841,-0.07198461077281218
-0.03386011312424841,-0.07285903002695847
-0.03385721312424841,-0.07325649332429769
-0.03385431312424841,-0.07301801534589415
-0.03385141312424841,-0.07254105938908709
-0.03384851312424841,-0.07190511811334434
-0.03384561312424841,-0.06975881630771252
-0.03384271312424841,-0.07365395662163692
-0.03383981312424841,-0.07603873640567226
-0.03383691312424841,-0.07460786853525106
-0.03383401312424841,-0.07365395662163692
-0.03383111312424841,-0.07500533183259028
-0.03382821312424841,-0.07627721438407579
-0.03382531312424841,-0.07564127310833303
-0.03382241312424841,-0.07421040523791184
-0.03381951312424841,-0.07349497130270123
-0.03381661312424841,-0.0738129419405726
-0.03381371312424841,-0.0761182290651401
-0.03381081312424841,-0.07492583917312344
-0.03380791312424841,-0.07548228778939778
-0.03380501312424841,-0.07572076576780044
-0.03380211312424841,-0.07548228778940183
-0.03379921312424841,-0.07794656023289792
-0.03379631312424841,-0.076515692362477
-0.03379341312424842,-0.07524380981099613
-0.03379051312424842,-0.07508482449205842
-0.03378761312424842,-0.07484634651365502
-0.03378471312424842,-0.0754822877893962
-0.03378181312424842,-0.07627721438407435
-0.03377891312424842,-0.07611822906514039
-0.03377601312424842,-0.07492583917312459
-0.03377311312424842,-0.07580025842726873
-0.03377021312424842,-0.07762858959502915
-0.03376731312424842,-0.07556178044886519
-0.03376441312424842,-0.07500533183259028
-0.03376151312424842,-0.07556178044886519
-0.03375861312424842,-0.07436939055684752
-0.03375571312424842,-0.07365395662163692
-0.03375281312424842,-0.07373344928110476
-0.03374991312424842,-0.07365395662163692
-0.03374701312424842,-0.07349497130270123
-0.03374411312424842,-0.07492583917312243
-0.03374121312424842,-0.07580025842726873
-0.03373831312424842,-0.07460786853525106
-0.03373541312424842,-0.07492583917312243
-0.03373251312424842,-0.07436939055684752
-0.03372961312424842,-0.06999729428611606
-0.03372671312424842,-0.07651569236247932
-0.03372381312424842,-0.0784235161897076
-0.03372091312424842,-0.07715163363822208
-0.03371801312424842,-0.07715163363822208
-0.03371511312424842,-0.07977489140066096
-0.03371221312424841,-0.0791389501249182
-0.03370931312424841,-0.07746960427609347
-0.03370641312424841,-0.07746960427609347
-0.03370351312424841,-0.07643619970301148
-0.03370061312424841,-0.07746960427609347
-0.03369771312424841,-0.07691315565981854
-0.03369481312424841,-0.07460786853525106
-0.03369191312424841,-0.07548228778939735
-0.03368901312424841,-0.07595924374620441
-0.03368611312424841,-0.07548228778939735
-0.03368321312424841,-0.07786706757343269
-0.03368031312424841,-0.07770808225449699
-0.03367741312424841,-0.0768336630003507
-0.03367451312424841,-0.07667467768141502
-0.03367161312424841,-0.07731061895715777
-0.03366871312424841,-0.07691315565981854
-0.03366581312424841,-0.0761182290651401
-0.03366291312424841,-0.07691315565981854
-0.03366001312424841,-0.07564127310833303
-0.03365711312424841,-0.07643619970301148
-0.03365421312424841,-0.07834402353023975
-0.03365131312424841,-0.07707214097875192
-0.03364841312424841,-0.07580025842727017
-0.03364551312424841,-0.07659518502194659
-0.03364261312424841,-0.07627721438407334
-0.03363971312424841,-0.07492583917312272
-0.03363681312424841,-0.07508482449205856
-0.03363391312424841,-0.07532330247045992
-0.03363101312424842,-0.07436939055684925
-0.03362811312424842,-0.07484634651365371
-0.03362521312424842,-0.07524380981099309
-0.03362231312424842,-0.0736539566216398
-0.03361941312424842,-0.07325649332429841
-0.03361651312424842,-0.07413091257844238
-0.03361361312424842,-0.07397192725950859
-0.03361071312424842,-0.07301801534589415
-0.03360781312424842,-0.07317700066482985
-0.03360491312424842,-0.07277953736749063
-0.03360201312424842,-0.07126917683760157
-0.03359911312424842,-0.07246156672961925
-0.03359621312424842,-0.07150765481600511
-0.03359331312424842,-0.07079222088079451
-0.03359041312424842,-0.07198461077281218
-0.03358751312424842,-0.07158714747547296
-0.03358461312424842,-0.06785099248048425
-0.03358171312424842,-0.07182562545387648
-0.03357881312424842,-0.07270004470802278
-0.03357591312424842,-0.07198461077281218
-0.03357301312424842,-0.07309750800536201
-0.03357011312424842,-0.07373344928110476
-0.03356721312424842,-0.07262055204855493
-0.03356431312424842,-0.07301801534589415
-0.03356141312424842,-0.07301801534589415
-0.03355851312424842,-0.07190511811334434
-0.03355561312424842,-0.07460786853525106
-0.03355271312424842,-0.07532330247046165
-0.03354981312424841,-0.07405141991897614
-0.03354691312424841,-0.07508482449205812
-0.03354401312424841,-0.07532330247046165
-0.03354111312424841,-0.07405141991897614
-0.03353821312424841,-0.0746873611947189
-0.03353531312424841,-0.07460786853525106
-0.03353241312424841,-0.07333598598376553
-0.03352951312424841,-0.07325649332429769
-0.03352661312424841,-0.0739719272595083
-0.03352371312424841,-0.07285903002695847
-0.03352081312424841,-0.07222308875121571
-0.03351791312424841,-0.07349497130270123
-0.03351501312424841,-0.07333598598376553
-0.03351211312424841,-0.07317700066482985
-0.03350921312424841,-0.07389243460004045
-0.03350631312424841,-0.07277953736749063
-0.03350341312424841,-0.07214359609174786
-0.03350051312424841,-0.07317700066482985
-0.03349761312424841,-0.07277953736749063
