-20250406-BKP/real-diodes-in-T00-L10-D00/100Hz-1V/scope.csv

#Digilent WaveForms Oscilloscope Acquisition
#Device Name: Discovery3
#Serial Number: SN:210415BD5874
#Date Time: 2025-04-06 20:53:40.414.246.770
#Sample rate: 200000Hz
#Samples: 32768
#Trigger: Source: Channel 1 Type: Edge Condition: Rising Level: 0 V Hyst.: Auto HoldOff: 0 s
#Average: 1
#Channel 1: Range: 500 mV/div Offset: 0 V Sample Mode: Average
#Wavegen Channel 1: Running
#Mode: Simple
#Type: Sine
#Frequency: 100 Hz
#Period: 10 ms
#Amplitude: 1 V
#Offset: 0 V
#Symmetry: 50 %
#Phase: 0 °

Time (s),Channel 1 (V)
0.067205,-0.9433036511998583
0.06721000000000001,-0.9436875425797295
0.06721500000000001,-0.9443176673194121
0.06722,-0.9447752348226904
0.06722500000000001,-0.945446075314786
0.06723000000000001,-0.9458823155191809
0.067235,-0.9463108003421683
0.06724000000000001,-0.9469758242982029
0.06724500000000001,-0.9473732875955427
0.06725,-0.9476660532438257
0.06725500000000001,-0.9481042322935769
0.06726000000000001,-0.9485850659410887
0.06726500000000001,-0.949048449980427
0.06727000000000001,-0.9495486720814659
0.067275,-0.9495738770710539
0.06728000000000001,-0.9499073584717493
0.06728500000000001,-0.9504638070880242
0.06729,-0.9509853564879462
0.06729500000000001,-0.9514972116611062
0.06730000000000001,-0.9520536602773818
0.067305,-0.9525054112446002
0.06731000000000001,-0.9527186842334157
0.06731500000000001,-0.9530424714073478
0.06732,-0.9533992189522744
0.06732500000000001,-0.9534690173849782
0.06733,-0.953802498785673
0.06733500000000001,-0.9543240481855966
0.06734000000000001,-0.9545567096279401
0.067345,-0.9547215114829356
0.06735000000000001,-0.9550588705743353
0.06735500000000001,-0.9552178558932709
0.06736,-0.9554117404285585
0.06736500000000001,-0.9557200168396658
0.06737000000000001,-0.9559778832715977
0.067375,-0.9561620735801211
0.06738000000000001,-0.9564451450016405
0.06738500000000001,-0.9566487237636926
0.06739000000000001,-0.9569473059480356
0.06739500000000001,-0.9572148666067311
0.0674,-0.9573195642557866
0.06740500000000001,-0.9575929414505422
0.06741000000000001,-0.9577364160066539
0.067415,-0.9577965202125936
0.06742000000000001,-0.9580698974073494
0.06742500000000001,-0.9583878680452209
0.06743,-0.9585662418176842
0.06743500000000001,-0.9586360402503882
0.06744000000000001,-0.9586554287039161
0.067445,-0.9586709394667401
0.06745000000000001,-0.9588047197960878
0.067455,-0.958769820579736
0.06746000000000001,-0.9588997232183797
0.06746500000000001,-0.9590528920012553
0.06747,-0.9590684027640795
0.06747500000000001,-0.9590974854443712
0.06748000000000001,-0.9591382011967834
0.067485,-0.959221571546955
0.06749000000000001,-0.9590431977744913
0.06749500000000001,-0.9590431977744914
0.0675,-0.9591129962071951
0.06750500000000001,-0.9590974854443712
0.06751000000000001,-0.9588939066823196
0.06751500000000001,-0.9588047197960878
0.06752000000000001,-0.9587698205797359
0.067525,-0.9588299247856756
0.06753000000000001,-0.9588241082496158
0.06753500000000001,-0.9585061376117443
0.06754,-0.9583975622719848
0.06754500000000001,-0.9583471522928086
0.06755000000000001,-0.9581338793039931
0.067555,-0.9580543866445252
0.06756000000000001,-0.9582191884995209
0.06756500000000001,-0.9583122530764561
0.06757000000000001,-0.9579496889954695
0.06757500000000001,-0.9575968191412462
0.06758,-0.9574785495747227
0.06758500000000001,-0.9573680353896066
0.06759000000000001,-0.9570209820714433
0.067595,-0.9569763886283275
0.06760000000000001,-0.9567669933302159
0.06760500000000001,-0.956534331887872
0.06761,-0.9563346308165246
0.06761500000000001,-0.9558828798493055
0.06762000000000001,-0.9556696068604899
0.067625,-0.9555901142010221
0.06763000000000001,-0.9554059238924983
0.067635,-0.9550181548219239
0.06764000000000001,-0.954645896514172
0.06764500000000001,-0.9543376201030646
0.06765,-0.9541146528874854
0.06765500000000001,-0.9538354591566696
0.06766000000000001,-0.9533391147463346
0.067665,-0.9532654386229268
0.06767000000000001,-0.9531898236541628
0.06767500000000001,-0.9526430692646508
0.06768,-0.9520769264216129
0.06768500000000001,-0.9518093657629174
0.06769000000000001,-0.951669768897509
0.06769500000000001,-0.9512471006105826
0.06770000000000001,-0.9507953496433634
0.067705,-0.9504773790054926
0.06771000000000001,-0.9501245091512687
0.06771500000000001,-0.9496572474212256
0.06772,-0.9492403956703593
0.06772500000000001,-0.9490368169083069
0.06773000000000001,-0.9487033355076107
0.067735,-0.9482515845403925
0.06774000000000001,-0.9478289162534653
0.06774500000000001,-0.9472375684208372
0.06775,-0.9466365263614475
0.06775500000000001,-0.9459753800961168
0.06776,-0.9453200503668474
0.06776500000000001,-0.944877993626391
0.06777000000000001,-0.9444805303290518
0.067775,-0.9440132685990095
0.06778000000000001,-0.9434917191990857
0.06778500000000001,-0.9430147632422785
0.06779,-0.9425378072854715
0.06779500000000001,-0.9419561536796087
0.06780000000000001,-0.9412756189607488
0.067805,-0.9406745769013591
0.06781000000000001,-0.9402228259341401
0.06781500000000001,-0.939695459998156
0.06782000000000001,-0.9391099287015903
0.06782500000000001,-0.938687260414663
0.06783,-0.9380610133656855
0.06783500000000001,-0.9373455794304737
0.06784000000000001,-0.9363858509807994
0.067845,-0.9356025574582425
0.06785000000000001,-0.9353039752738976
0.06785500000000001,-0.9346525232353292
0.06786,-0.9337432047648326
0.06786500000000001,-0.9328590912839224
0.06787000000000001,-0.9322735599873546
0.067875,-0.9317461940513725
0.06788000000000001,-0.9308814690239903
0.067885,-0.9302067508411928
0.06789000000000001,-0.9295746872561528
0.06789500000000001,-0.9286110811157746
0.0679,-0.9278064602943338
0.06790500000000001,-0.9271608247918255
0.06791000000000001,-0.926394980877439
0.067915,-0.925361576304357
0.06792000000000001,-0.9244677685966828
0.06792500000000001,-0.9237872338778227
0.06793,-0.9229767965203217
0.06793500000000001,-0.9219084927308878
0.06794000000000001,-0.9212492853109119
0.06794500000000001,-0.9205067075407585
0.06795000000000001,-0.9193705441639768
0.067955,-0.9186395994659435
0.06796000000000001,-0.9178252844177358
0.06796500000000001,-0.9171544439256412
0.06797,-0.9163343123413762
0.06797500000000001,-0.9154501988604644
0.06798000000000001,-0.9145156754003764
0.067985,-0.9134725766005323
0.06799000000000001,-0.9124488662542143
0.06799500000000001,-0.9116151627524789
0.068,-0.9110335091466171
0.06800500000000001,-0.9101435791296468
0.06801,-0.9091004803298027
0.06801500000000001,-0.9081116691998348
0.06802000000000001,-0.9070433654104009
0.068025,-0.9061049642596123
0.06803000000000001,-0.9052848326753442
0.06803500000000001,-0.9042611223290241
0.06804,-0.9031133258801245
0.06804500000000001,-0.9019209359881069
0.06805000000000001,-0.9009379413941989
0.068055,-0.8999433137281747
0.06806000000000001,-0.898836233031685
0.06806500000000001,-0.897866810355245
0.06807000000000001,-0.8969187149776927
0.06807500000000001,-0.8958290838893747
0.06808,-0.894438931771368
0.06808500000000001,-0.8933706279819316
0.06809000000000001,-0.8922228315330298
0.068095,-0.8910304416410143
0.06810000000000001,-0.8899427493980503
0.06810500000000001,-0.8888841398353784
0.06811,-0.8877615483760665
0.06811500000000001,-0.8865536477212248
0.06812000000000001,-0.8851576790671535
0.068125,-0.8839807999379619
0.06813000000000001,-0.8827825935098841
0.068135,-0.8815165274944611
0.06814000000000001,-0.8804579179317888
0.06814500000000001,-0.8791957296070672
0.06815,-0.87791415282882
0.06815500000000001,-0.8767217629368
0.06816000000000001,-0.8754246753957241
0.068165,-0.8740985051743612
0.06817000000000001,-0.8728363168496396
0.06817500000000001,-0.871519840855036
0.06818,-0.8702828575199046
0.06818500000000001,-0.869090467627887
0.06819,-0.8679678761685752
0.06819500000000001,-0.8668646731627874
0.06820000000000001,-0.8655675856217138
0.068205,-0.8641367177512952
0.06821000000000001,-0.8630199428280388
0.06821500000000001,-0.8618508190802531
0.06822,-0.8602066782210193
0.06822500000000001,-0.858801015340183
0.06823000000000001,-0.857598931221399
0.068235,-0.8562766386907399
0.06824000000000001,-0.8547565839340869
0.06824500000000001,-0.8533257160636629
0.06825000000000001,-0.8518250497605406
0.06825500000000001,-0.8503747934365915
0.06826,-0.8491378101014602
0.06826500000000001,-0.8477011256949767
0.06827000000000001,-0.8461616824847957
0.068275,-0.8448549007169607
0.06828000000000001,-0.8433988278569491
0.06828500000000001,-0.8419485715329974
0.06829,-0.8405719913324586
0.06829500000000001,-0.8390616308025696
0.06830000000000001,-0.8375512702726782
0.068305,-0.8362154058245512
0.06831000000000001,-0.8348931132938897
0.068315,-0.8333381593208876
0.06832000000000001,-0.8318277987909957
0.06832500000000001,-0.8301778413956988
0.06833,-0.8285589055260532
0.06833500000000001,-0.8271377318823929
0.06834000000000001,-0.8256622705688557
0.068345,-0.8241965034820853
0.06835000000000001,-0.8227559413848975
0.06835500000000001,-0.8213347677412371
0.06836,-0.8196848103459433
0.06836500000000001,-0.8181705721253505
0.06837000000000001,-0.8167435819456299
0.06837500000000001,-0.8149850492105766
0.06838000000000001,-0.8133855017944558
0.068385,-0.8118751412645694
0.06839000000000001,-0.8103647807346777
0.06839500000000001,-0.8087148233393808
0.0684,-0.807095887469735
0.06840500000000001,-0.805570016177019
0.06841000000000001,-0.8039607745341312
0.068415,-0.8023205113656013
0.06842000000000001,-0.8004824859710769
0.06842500000000001,-0.7988383451118375
0.06843,-0.797397783014655
0.06843500000000001,-0.7960115085873497
0.06844,-0.7944410438515236
0.06844500000000001,-0.7925526084778203
0.06845000000000001,-0.7907649930624719
0.068455,-0.789124729893942
0.06846000000000001,-0.7873216037157666
0.06846500000000001,-0.7856522578669419
0.06847,-0.7838433151527094
0.06847500000000001,-0.7818908978823653
0.06848000000000001,-0.7800528724878376
0.068485,-0.7783040339795482
0.06849000000000001,-0.7765202962549038
0.06849500000000001,-0.7748664611688997
0.06850000000000001,-0.7730866011349624
0.06850500000000001,-0.7711748996170302
0.06851,-0.7695249422217364
0.06851500000000001,-0.7677664094866768
0.06852000000000001,-0.7659923659887964
0.068525,-0.7641892398106271
0.06853000000000001,-0.7624151963127432
0.06853500000000001,-0.7605422717018637
0.06854,-0.7587488397504585
0.06854500000000001,-0.756930202809462
0.06855000000000001,-0.7551270766312863
0.068555,-0.7533530331334091
0.06856000000000001,-0.7515499069552365
0.068565,-0.7497758634573591
0.06857000000000001,-0.7479727372791835
0.06857500000000001,-0.7460241976995432
0.06858,-0.7439632050894431
0.06858500000000001,-0.7421445681484429
0.06859000000000001,-0.7403065427539185
0.068595,-0.7384181073802182
0.06860000000000001,-0.7363512982340542
0.06860500000000001,-0.7343542875205905
0.06861,-0.7323766652606619
0.06861500000000001,-0.7303098561144978
0.06862000000000001,-0.7283477446173864
0.06862500000000001,-0.7264496150169255
0.06863000000000001,-0.7243925000975255
0.068635,-0.7223159967246013
0.06864000000000001,-0.7205380755360131
0.06864500000000001,-0.7187834204916606
0.06865,-0.7166817121291484
0.06865500000000001,-0.7146401079725686
0.06866000000000001,-0.7128020825780407
0.068665,-0.710878747987992
0.06867000000000001,-0.7088371438314159
0.06867500000000001,-0.7068595215714801
0.06868,-0.7048276116416717
0.06868500000000001,-0.7028053959386236
0.06869,-0.7007036875761116
0.06869500000000001,-0.6985573857704759
0.06870000000000001,-0.6966204792629558
0.068705,-0.6946370404669673
0.06871000000000001,-0.692426756764688
0.06871500000000001,-0.690369641845284
0.06872,-0.6881884408233043
0.06872500000000001,-0.6860673440072604
0.06873000000000001,-0.6840102290878568
0.068735,-0.6820035241476363
0.06874000000000001,-0.6799657976817644
0.06874500000000001,-0.677765208206249
0.06875000000000001,-0.6757332982764406
0.06875500000000001,-0.6736063849243368
0.06876,-0.6714406946651809
0.06876500000000001,-0.6693137813130732
0.06877000000000001,-0.6671829902702653
0.068775,-0.6650657711449293
0.06878000000000001,-0.6627856890099459
0.06878500000000001,-0.6606044879879582
0.06879,-0.6584833911719183
0.06879500000000001,-0.6564611754688703
0.06880000000000001,-0.6544641647554064
0.06880500000000001,-0.6523818448464221
0.06881000000000001,-0.6500416585055028
0.068815,-0.6477615763705272
0.06882000000000001,-0.6455803753485394
0.06882500000000001,-0.6434592785324956
0.06883,-0.6412276675313401
0.06883500000000001,-0.6388583985101246
0.06884000000000001,-0.636677197488137
0.068845,-0.634556100672097
0.06885000000000001,-0.6323244896709374
0.06885500000000001,-0.6298156237843139
0.06886,-0.6274560489898708
0.06886500000000001,-0.6252302545247712
0.06887,-0.623178956141435
0.06887500000000001,-0.6210714312428554
0.06888000000000001,-0.618711856448408
0.068885,-0.6164162635506086
0.06889000000000001,-0.6139965845502171
0.06889500000000001,-0.6114974128903621
0.0689,-0.6091630430855068
0.06890500000000001,-0.606921737857579
0.06891000000000001,-0.6043178685486637
0.068915,-0.6018497184144609
0.06892000000000001,-0.5995386147538333
0.06892500000000001,-0.5971247522895021
0.06893000000000001,-0.5950133497002262
0.06893500000000001,-0.5929116413377102
0.06894,-0.5906606418830268
0.06894500000000001,-0.5882060636662836
0.06895000000000001,-0.5858018954287203
0.068955,-0.5834365040982171
0.06896000000000001,-0.5809974366442976
0.06896500000000001,-0.578552552654318
0.06897,-0.5761735894063471
0.06897500000000001,-0.5738624857457195
0.06898000000000001,-0.571413724065036
0.068985,-0.569048332734533
0.06899000000000001,-0.5666441644969697
0.068995,-0.5643136723828184
0.06900000000000001,-0.5619540975883668
0.06900500000000001,-0.5595189078251556
0.06901,-0.5569557542686613
0.06901500000000001,-0.5544662768355654
0.06902000000000001,-0.5520175151548863
0.069025,-0.549512526958971
0.06903000000000001,-0.5469648841652961
0.06903500000000001,-0.5446091870615479
0.06904,-0.5420557277318176
0.06904500000000001,-0.5397659513700742
0.06905000000000001,-0.5374548477094421
0.06905500000000001,-0.5349362875960636
0.06906000000000001,-0.5325515078120282
0.069065,-0.5300969295952935
0.06907000000000001,-0.5276229629250219
0.06907500000000001,-0.5252032839246347
0.06908,-0.5225645153993765
0.06908500000000001,-0.519877275740289
0.06909000000000001,-0.5174130032967814
0.069095,-0.5149836300696345
0.06910000000000001,-0.5126686487183031
0.06910500000000001,-0.5101636605223829
0.06911,-0.5074415216469532
0.06911500000000001,-0.5048977565439822
0.06912,-0.5023888906573677
0.06912500000000001,-0.4998897189975081
0.06913000000000001,-0.497311054678185
0.069135,-0.4947575953484548
0.06914000000000001,-0.492258423688595
0.06914500000000001,-0.4897146585856239
0.06915,-0.4869963974008931
0.06915500000000001,-0.4840900682169348
0.06916000000000001,-0.4814377277741994
0.069165,-0.4788784519084091
0.06917000000000001,-0.4760613096106825
0.06917500000000001,-0.473548566033355
0.06918000000000001,-0.4710978655073242
0.06918500000000001,-0.4683660324051256
0.06919,-0.4658319615289231
0.06919500000000001,-0.4631738045501277
0.06920000000000001,-0.460505953344573
0.069205,-0.4579175947984908
0.06921000000000001,-0.4553389304791631
0.06921500000000001,-0.4528203703657752
0.06922,-0.4502261952836329
0.06922500000000001,-0.4474342579754944
0.06923000000000001,-0.4447315075535828
0.069235,-0.442028757131681
0.06924000000000001,-0.4392213090607185
0.069245,-0.4364894759585249
0.06925000000000001,-0.433850707433257
0.06925500000000001,-0.4310587701251185
0.06926,-0.4282862212705129
0.06926500000000001,-0.4255291831787212
0.06927000000000001,-0.4230106230653337
0.069275,-0.4205211456322471
0.06928000000000001,-0.4178280894371043
0.06928500000000001,-0.4149760479230209
0.06929,-0.4122442148208272
0.06929500000000001,-0.4094658494301566
0.06930000000000001,-0.4065304375659016
0.06930500000000001,-0.4039420790198194
0.06931000000000001,-0.4012238178350888
0.069315,-0.398247690218432
0.06932000000000001,-0.3953665660240562
0.06932500000000001,-0.3926289163857976
0.06933,-0.3898466733044281
0.06933500000000001,-0.3871691278721042
0.06934000000000001,-0.3845206651200724
0.069345,-0.3818082204714067
0.06935000000000001,-0.379080265059912
0.06935500000000001,-0.3762883277517685
0.06936,-0.3735855773298667
0.06936500000000001,-0.3709526253406639
0.06937,-0.3681994649395862
0.06937500000000001,-0.3651787438798031
0.06938000000000001,-0.3623325189017847
0.069385,-0.359604563490295
0.06939000000000001,-0.3568475253985034
0.06939500000000001,-0.3540846707706518
0.0694,-0.3513179384521062
0.06940500000000001,-0.3485996772673755
0.06941000000000001,-0.345588650434356
0.069415,-0.3426280335805232
0.06942000000000001,-0.3399155889318525
0.06942500000000001,-0.3370829358712966
0.06943000000000001,-0.3341223190174638
0.06943500000000001,-0.3314447735851451
0.06944,-0.3287265124004193
0.06944500000000001,-0.3257503847837522
0.06945000000000001,-0.322764562940326
0.069455,-0.3198931329727248
0.06946000000000001,-0.3172155875404009
0.06946500000000001,-0.3144275279229608
0.06947,-0.3114320118527761
0.06947500000000001,-0.3086749737609895
0.06948000000000001,-0.3059470183494895
0.06948500000000001,-0.3029805849595966
0.06949000000000001,-0.3000897665384623
0.069495,-0.2973967103433245
0.06950000000000001,-0.2946493664782969
0.06950500000000001,-0.2918419184073344
0.06951,-0.2888657907906776
0.06951500000000001,-0.2858450697308941
0.06952000000000001,-0.2828592478874627
0.069525,-0.2799529187035096
0.06953000000000001,-0.2773005782607789
0.06953500000000001,-0.2745668063132188
0.06954,-0.2716313944489739
0.06954500000000001,-0.2688685398211272
0.06955,-0.2659971098535261
0.06955500000000001,-0.2631450683394424
0.06956000000000001,-0.2602736383718361
0.069565,-0.2574215968577628
0.06957000000000001,-0.2545152676737993
0.06957500000000001,-0.2516884311493088
0.06958,-0.2487665912025318
0.06958500000000001,-0.2457012766996325
0.06959000000000001,-0.2425758579907931
0.069595,-0.2395260542507286
0.06960000000000001,-0.2367089119530021
0.06960500000000001,-0.2338122769958025
0.06961000000000001,-0.2309059478118494
0.06961500000000001,-0.228044212071007
0.06962,-0.2251475771138179
0.06962500000000001,-0.2221365502807985
0.06963000000000001,-0.2191410342106084
0.069635,-0.2163141976861231
0.06964000000000001,-0.2133923577393356
0.06964500000000001,-0.2104317408854922
0.06965,-0.207579699371419
0.06965500000000001,-0.2045686725384049
0.06966000000000001,-0.2016429549009132
0.069665,-0.1986959099645483
0.06967000000000001,-0.1956112070081264
0.069675,-0.1927145720509373
0.06968000000000001,-0.1898082428669737
0.06968500000000001,-0.1868418094770755
0.06969,-0.183811394190539
0.06969500000000001,-0.1808701657902232
0.06970000000000001,-0.1778242397408571
0.069705,-0.1747841302275511
0.06971000000000001,-0.1719572937030606
0.06971500000000001,-0.1693495467034416
0.06972,-0.1670694645684662
0.06972500000000001,-0.1644694729502592
0.06973000000000001,-0.1613246657878917
0.06973500000000001,-0.1582244520686514
0.06974000000000001,-0.1551940367821094
0.069745,-0.1522179091654526
0.06975000000000001,-0.1492669865383729
0.06975500000000001,-0.1463005531484747
0.06976,-0.14330503707829
0.06976500000000001,-0.1404782005537941
0.06977000000000001,-0.1374865621743022
0.069775,-0.134366960001534
0.06978000000000001,-0.1314606308175757
0.06978500000000001,-0.1284941974276718
0.06979,-0.1253939837084315
0.06979500000000001,-0.1222937699891856
0.0698,-0.1192284554862972
0.06980500000000001,-0.1161379359938096
0.06981000000000001,-0.1132374233459114
0.069815,-0.1104144645121299
0.06982000000000001,-0.1074092542151707
0.06982500000000001,-0.1044874142683884
0.06983,-0.1013523013327905
0.06983500000000001,-0.09827729260313253
0.06984000000000001,-0.09519646733740909
0.069845,-0.09221646203004839
0.06985000000000001,-0.08934890975314595
0.06985500000000001,-0.08634369945618642
0.06986000000000001,-0.08335206107670565
0.06986500000000001,-0.08019755968757983
0.06987,-0.07714193941145536
0.06987500000000001,-0.07414642334125968
0.06988000000000001,-0.07121488916771339
0.069885,-0.06829886575699641
