-20250406-BKP/real-diodes-in-T00-L10-D00/100Hz-2V/scope.csv

#Digilent WaveForms Oscilloscope Acquisition
#Device Name: Discovery3
#Serial Number: SN:210415BD5874
#Date Time: 2025-04-06 20:54:17.334.245.600
#Sample rate: 200000Hz
#Samples: 32768
#Trigger: Source: Channel 1 Type: Edge Condition: Rising Level: 0 V Hyst.: Auto HoldOff: 0 s
#Average: 1
#Channel 1: Range: 500 mV/div Offset: 0 V Sample Mode: Average
#Wavegen Channel 1: Running
#Mode: Simple
#Type: Sine
#Frequency: 100 Hz
#Period: 10 ms
#Amplitude: 2 V
#Offset: 0 V
#Symmetry: 50 %
#Phase: 0 °

Time (s),Channel 1 (V)
0.067205,-1.867803280810892
0.06721000000000001,-1.868171740029777
0.06721500000000001,-1.869044010833667
0.06722,-1.870182689469285
0.06722500000000001,-1.871322442330036
0.06723000000000001,-1.872645887687662
0.067235,-1.874024118526814
0.06724000000000001,-1.875059671550153
0.06724500000000001,-1.875881453773031
0.06725,-1.876571106305169
0.06725500000000001,-1.877207047580912
0.06726000000000001,-1.878211448075541
0.06726500000000001,-1.87919328984248
0.06727000000000001,-1.880067709096627
0.067275,-1.880889491319502
0.06728000000000001,-1.881421232757836
0.06728500000000001,-1.882029244180252
0.06729,-1.882692041084192
0.06729500000000001,-1.883275345328667
0.06730000000000001,-1.88409497910129
0.067305,-1.885048891014902
0.06731000000000001,-1.88505533636567
0.06731500000000001,-1.885420572909173
0.06732,-1.886426047628926
0.06732500000000001,-1.887486307830207
0.06733,-1.888256527246941
0.06733500000000001,-1.888787194460147
0.06734000000000001,-1.889264150416954
0.067345,-1.889635832311222
0.06735000000000001,-1.890111714042902
0.06735500000000001,-1.8904576145341
0.06736,-1.891011914700119
0.06736500000000001,-1.891569437541522
0.06737000000000001,-1.891835845373253
0.067375,-1.892310652879803
0.06738000000000001,-1.892841320093007
0.06738500000000001,-1.89294981683093
0.06739000000000001,-1.892870324171462
0.06739500000000001,-1.893264564793417
0.0674,-1.893900506069159
0.06740500000000001,-1.894378536251095
0.06741000000000001,-1.894618088454626
0.067415,-1.894987621898638
0.06742000000000001,-1.895411940824177
0.06742500000000001,-1.895704130058978
0.06743,-1.895837333974843
0.06743500000000001,-1.896180011790657
0.06744000000000001,-1.896341145559848
0.067445,-1.896025323372233
0.06745000000000001,-1.896232648821926
0.067455,-1.896578549313123
0.06746000000000001,-1.896238019947566
0.06746500000000001,-1.896444271172131
0.06747,-1.896817027291527
0.06747500000000001,-1.897002868238661
0.06748000000000001,-1.896635483244905
0.067485,-1.896736460406931
0.06749000000000001,-1.896371223863431
0.06749500000000001,-1.896102667581445
0.0675,-1.896155304612714
0.06750500000000001,-1.896234797272182
0.06751000000000001,-1.896103741806573
0.06751500000000001,-1.896444271172131
0.06752000000000001,-1.896238019947566
0.067525,-1.896181086015785
0.06753000000000001,-1.895945830712765
0.06753500000000001,-1.895837333974843
0.06754,-1.895811552571772
0.06754500000000001,-1.895100415537073
0.06755000000000001,-1.894961840495568
0.067555,-1.894858714883286
0.06756000000000001,-1.89485656643303
0.06756500000000001,-1.89469972956435
0.06757000000000001,-1.894434395957748
0.06757500000000001,-1.893880095791729
0.06758,-1.893006750762712
0.06758500000000001,-1.892579209161789
0.06759000000000001,-1.892578134936661
0.067595,-1.892394442439783
0.06760000000000001,-1.89218174586445
0.06760500000000001,-1.891759575389167
0.06761,-1.891361037866701
0.06761500000000001,-1.890464059884868
0.06762000000000001,-1.890061225461888
0.067625,-1.889903314368081
0.06763000000000001,-1.889243740139524
0.067635,-1.888527231979186
0.06764000000000001,-1.88804920179725
0.06764500000000001,-1.888072834750064
0.06765,-1.887627031321969
0.06765500000000001,-1.886937378789828
0.06766000000000001,-1.886459348607893
0.067665,-1.885903974216747
0.06767000000000001,-1.885373307003542
0.06767500000000001,-1.884580528859118
0.06768,-1.883837165070582
0.06768500000000001,-1.88314858676357
0.06769000000000001,-1.882643700953436
0.06769500000000001,-1.88208832656229
0.06770000000000001,-1.881189200130201
0.067705,-1.880366343682197
0.06771000000000001,-1.879650909746985
0.06771500000000001,-1.879146023936851
0.06772,-1.87827482735809
0.06772500000000001,-1.877530389344424
0.06773000000000001,-1.876342296352916
0.067735,-1.875147758010645
0.06774000000000001,-1.874219627500101
0.06774500000000001,-1.873082023089607
0.06775,-1.872073325694469
0.06775500000000001,-1.871672639721746
0.06776,-1.870724098933774
0.06776500000000001,-1.869425360754088
0.06777000000000001,-1.86831138929641
0.067775,-1.867488532848406
0.06778000000000001,-1.866667824850656
0.06778500000000001,-1.865477583408894
0.06779,-1.864547304448094
0.06779500000000001,-1.863831870512884
0.06780000000000001,-1.862747977358787
0.067805,-1.86173927996365
0.06781000000000001,-1.860601675553157
0.06781500000000001,-1.8592771559704
0.06782000000000001,-1.857978417790718
0.06782500000000001,-1.856759172270502
0.06783,-1.855408871284679
0.06783500000000001,-1.854557010758217
0.06784000000000001,-1.853632102923057
0.067845,-1.852413931627972
0.06785000000000001,-1.850878863920137
0.06785500000000001,-1.849630614321464
0.06786,-1.8482287505295
0.06786500000000001,-1.846691534371412
0.06787000000000001,-1.845444358997866
0.067875,-1.843910365515166
0.06788000000000001,-1.842898445444642
0.067885,-1.841578222762402
0.06789000000000001,-1.840119425038652
0.06789500000000001,-1.838768049827698
0.0679,-1.837206126491671
0.06790500000000001,-1.83574732876792
0.06791000000000001,-1.834290679494428
0.067915,-1.832411859745655
0.06792000000000001,-1.830608235755837
0.06792500000000001,-1.829202075063356
0.06793,-1.827614370324258
0.06793500000000001,-1.825918168847234
0.06794000000000001,-1.824564645186022
0.06794500000000001,-1.82316170716893
0.06795000000000001,-1.821546072576503
0.067955,-1.820139911884027
0.06796000000000001,-1.818289021988577
0.06796500000000001,-1.816616453464369
0.06797,-1.81518558559395
0.06797500000000001,-1.813438895535911
0.06798000000000001,-1.811794256865026
0.067985,-1.81023125930387
0.06799000000000001,-1.80822030986436
0.06799500000000001,-1.806257700555603
0.068,-1.804429369387846
0.06800500000000001,-1.802390490095009
0.06801,-1.800665284539533
0.06801500000000001,-1.798733827759488
0.06802000000000001,-1.796850711110202
0.068025,-1.794943961508105
0.06803000000000001,-1.793114556115213
0.06803500000000001,-1.79115516948184
0.06804,-1.789193634398218
0.06804500000000001,-1.787022625414644
0.06805000000000001,-1.784875249383881
0.068055,-1.783282173519143
0.06806000000000001,-1.781351790964228
0.06806500000000001,-1.779178633530394
0.06807000000000001,-1.777084968756035
0.06807500000000001,-1.775176070703679
0.06808,-1.772926643285769
0.06808500000000001,-1.770672918967338
0.06809000000000001,-1.768631891224245
0.068095,-1.766539300675014
0.06810000000000001,-1.764235087775571
0.06810500000000001,-1.761745033928993
0.06811,-1.759675002107449
0.06811500000000001,-1.757636122814612
0.06812000000000001,-1.755542458040245
0.068125,-1.753370374831547
0.06813000000000001,-1.750828758178832
0.068135,-1.748389192913276
0.06814000000000001,-1.745978631726165
0.06814500000000001,-1.743830181470277
0.06815,-1.741474405764701
0.06815500000000001,-1.739246462849341
0.06816000000000001,-1.737074379640634
0.068165,-1.734585400019193
0.06817000000000001,-1.732014779288023
0.06817500000000001,-1.729471014185048
0.06818,-1.727190434238427
0.06818500000000001,-1.724938858370257
0.06819,-1.722580934214424
0.06819500000000001,-1.720090880367847
0.06820000000000001,-1.717757663389952
0.068205,-1.714952861580896
0.06821000000000001,-1.71222110708053
0.06821500000000001,-1.709414156821213
0.06822,-1.706841387639792
0.06822500000000001,-1.704456607855752
0.06823000000000001,-1.702387650259327
0.068235,-1.70005873018195
0.06824000000000001,-1.69740969101644
0.06824500000000001,-1.694759577625798
0.06825000000000001,-1.692241593925902
0.06825500000000001,-1.689566773357322
0.06826,-1.686731893244684
0.06826500000000001,-1.684080705628913
0.06827000000000001,-1.681221118338327
0.068275,-1.678358308372361
0.06828000000000001,-1.675576065290981
0.06828500000000001,-1.672583274084525
0.06829,-1.6697988825529
0.06829500000000001,-1.666965076665384
0.06830000000000001,-1.664339670452684
0.068305,-1.661506938790301
0.06831000000000001,-1.658591491793061
0.068315,-1.655835030114763
0.06832000000000001,-1.652869094536504
0.06832500000000001,-1.649926791911066
0.06833,-1.64701241913896
0.06833500000000001,-1.644176464801183
0.06834000000000001,-1.641131036563462
0.068345,-1.638319789403638
0.06835000000000001,-1.63527543539104
0.06835500000000001,-1.632121510415392
0.06836,-1.629021296696151
0.06836500000000001,-1.625973720008175
0.06837000000000001,-1.622742450823314
0.06837500000000001,-1.619824855375824
0.06838000000000001,-1.617016830891379
0.068385,-1.61426036921308
0.06839000000000001,-1.611189159572283
0.06839500000000001,-1.60803523459664
0.0684,-1.604777109783593
0.06840500000000001,-1.601491055117207
0.06841000000000001,-1.598389767172827
0.068415,-1.595421683144324
0.06842000000000001,-1.592322543650206
0.06842500000000001,-1.589142837271486
0.06843,-1.585857856830239
0.06843500000000001,-1.582624439195128
0.06844,-1.579339458753882
0.06844500000000001,-1.575842855962419
0.06845000000000001,-1.572581508473982
0.068455,-1.569428657723472
0.06846000000000001,-1.566196314313483
0.06846500000000001,-1.562989752306571
0.06847,-1.559494223740242
0.06847500000000001,-1.556100746561067
0.06848000000000001,-1.552578362366533
0.068485,-1.549184885187364
0.06849000000000001,-1.545925686149183
0.06849500000000001,-1.542508576017187
0.06850000000000001,-1.539063536031878
0.06850500000000001,-1.53564535167476
0.06851,-1.532121893255111
0.06851500000000001,-1.52864999764159
0.06852000000000001,-1.525231813284473
0.068525,-1.521655717833554
0.06853000000000001,-1.518156966591834
0.06853500000000001,-1.514633508172172
0.06854,-1.510898427402318
0.06854500000000001,-1.507082779747861
0.06855000000000001,-1.503214495062129
0.068555,-1.499582539904557
0.06856000000000001,-1.495926951794165
0.068565,-1.492453981955528
0.06857000000000001,-1.488694194007719
0.06857500000000001,-1.484772198065596
0.06858,-1.4813507910331
0.06858500000000001,-1.478171084654381
0.06859000000000001,-1.474570282025513
0.068595,-1.470912545464864
0.06860000000000001,-1.467124827663734
0.06860500000000001,-1.463229687349804
0.06861,-1.45970300625477
0.06861500000000001,-1.455995855338236
0.06862000000000001,-1.452153352055574
0.06862500000000001,-1.448390341432394
0.06863000000000001,-1.444864734562482
0.068635,-1.441130728017756
0.06864000000000001,-1.437446135828901
0.06864500000000001,-1.433342595840156
0.06865,-1.429549506913393
0.06865500000000001,-1.425788644740455
0.06866000000000001,-1.421630319270177
0.068665,-1.417706174877805
0.06867000000000001,-1.413812108789009
0.06867500000000001,-1.40978483878434
0.06868,-1.405625439088949
0.06868500000000001,-1.401570239230961
0.06869,-1.397648243288845
0.06869500000000001,-1.393805740006183
0.06870000000000001,-1.389937455320457
0.068705,-1.385673855787656
0.06871000000000001,-1.381327540919987
0.06871500000000001,-1.377403396527601
0.06872,-1.373404056376273
0.06872500000000001,-1.369375712146484
0.06873000000000001,-1.365137894016738
0.068735,-1.360976345871091
0.06874000000000001,-1.356606398050616
0.06874500000000001,-1.352601686773633
0.06875000000000001,-1.348444435528498
0.06875500000000001,-1.34386179113269
0.06876,-1.339329635317903
0.06876500000000001,-1.334878046387695
0.06877000000000001,-1.331058101832727
0.068775,-1.327086691534726
0.06878000000000001,-1.322926217614192
0.06878500000000001,-1.318845236353125
0.06879,-1.314422651501389
0.06879500000000001,-1.310022625377331
0.06880000000000001,-1.305519473640982
0.06880500000000001,-1.301172084548201
0.06881000000000001,-1.296958973596405
0.068815,-1.292640588582079
0.06882000000000001,-1.288005307154994
0.06882500000000001,-1.283604206805808
0.06883,-1.279285821791481
0.06883500000000001,-1.274861088489473
0.06884000000000001,-1.270620047684342
0.068845,-1.266012696110599
0.06885000000000001,-1.261532103101945
0.06885500000000001,-1.257239499490673
0.06886,-1.252578436660533
0.06886500000000001,-1.248308391776956
0.06887,-1.243912662553418
0.06887500000000001,-1.239617910491891
0.06888000000000001,-1.235063195949409
0.068885,-1.230240999350078
0.06889000000000001,-1.225655132278877
0.06889500000000001,-1.221203543348677
0.0689,-1.216594043324679
0.06890500000000001,-1.212061887509875
0.06891000000000001,-1.207505024517129
0.068915,-1.20305236136181
0.06892000000000001,-1.198259168840925
0.06892500000000001,-1.19340904238825
0.06893000000000001,-1.188902667976534
0.06893500000000001,-1.184320023580725
0.06894,-1.179735230734669
0.06894500000000001,-1.175256786176263
0.06895000000000001,-1.170542012089718
0.068955,-1.165850870955995
0.06896000000000001,-1.161135022644314
0.06896500000000001,-1.156418100107504
0.06897,-1.151780670230178
0.06897500000000001,-1.147117458949774
0.06898000000000001,-1.142322117978624
0.068985,-1.137630976844902
0.06899000000000001,-1.132546669314344
0.068995,-1.127536483317623
0.06900000000000001,-1.122845342183883
0.06900500000000001,-1.118182130903479
0.06901,-1.113334152901077
0.06901500000000001,-1.108300333951523
0.06902000000000001,-1.103370714839389
0.069025,-1.09857429964312
0.06903000000000001,-1.09375210304378
0.06903500000000001,-1.088850413784963
0.06904,-1.083763957804158
0.06904500000000001,-1.078912757126363
0.06905000000000001,-1.074170053186483
0.06905500000000001,-1.069611041743497
0.06906000000000001,-1.06500154171949
0.069065,-1.059679830435667
0.06907000000000001,-1.054509584894863
0.06907500000000001,-1.049423128914049
0.06908,-1.044624565267532
0.06908500000000001,-1.039750805862043
0.06909000000000001,-1.034584857221751
0.069095,-1.029338341696883
0.06910000000000001,-1.024618196484697
0.06910500000000001,-1.019745511304335
0.06911,-1.014394795942056
0.06911500000000001,-1.009067713532583
0.06912,-1.003873835038984
0.06912500000000001,-0.9988647232673717
0.06913000000000001,-0.9940940894741731
0.069135,-0.9890882003779641
0.06914000000000001,-0.9840264515750835
0.06914500000000001,-0.9787552288722632
0.06915,-0.9737181872473342
0.06915500000000001,-0.9685533128321804
0.06916000000000001,-0.9634378527729022
0.069165,-0.9582719041326297
0.06917000000000001,-0.9531306626702905
0.06917500000000001,-0.9479904954330698
0.06918000000000001,-0.9428761095989384
0.06918500000000001,-0.9375253942366504
0.06919,-0.9323035858897246
0.06919500000000001,-0.9271107816212347
0.06920000000000001,-0.9218116290650877
0.069205,-0.9165908949432902
0.06921000000000001,-0.9113712350466014
0.06921500000000001,-0.9062826306155219
0.06922,-0.9011166819752494
0.06922500000000001,-0.8956596183252948
0.06923000000000001,-0.8901477691938052
0.069235,-0.8848206867843413
0.06924000000000001,-0.8794688971969251
0.069245,-0.8738002111967759
0.06925000000000001,-0.8685236173683051
0.06925500000000001,-0.8632523946654849
0.06926,-0.8577942567904121
0.06926500000000001,-0.8524145373496592
0.06927000000000001,-0.8470885291653039
0.069275,-0.8416572469184298
0.06928000000000001,-0.8362248904464176
0.06928500000000001,-0.8308720266338639
0.06929,-0.8257565665746047
0.06929500000000001,-0.8204327068405153
0.06930000000000001,-0.8152635355248391
0.06930500000000001,-0.8097817646969518
0.06931000000000001,-0.8043214783716133
0.069315,-0.7990481072185464
0.06932000000000001,-0.7936436805998515
0.06932500000000001,-0.7882113241278395
0.06933,-0.7825952751589593
0.06933500000000001,-0.7771349888336103
0.06934000000000001,-0.771598432524178
0.069345,-0.7661650018270478
0.06935000000000001,-0.7604705344238176
0.06935500000000001,-0.755009173873341
0.06936,-0.7496047472546656
0.06936500000000001,-0.7439618426575766
0.06937,-0.7383962822697095
0.06937500000000001,-0.7325954665788028
0.06938000000000001,-0.7268967022750605
0.069385,-0.7214901272061289
0.06939000000000001,-0.7162167560530427
0.06939500000000001,-0.7105491442780012
0.0694,-0.7050351466962752
0.06940500000000001,-0.6992880422617759
0.06941000000000001,-0.6939577371769086
0.069415,-0.6887391515053671
0.06942000000000001,-0.6830973211334062
0.06942500000000001,-0.6776628162111279
0.06943000000000001,-0.672100478498645
0.06943500000000001,-0.6666401921733063
0.06944,-0.6609457247700865
0.06944500000000001,-0.655168542031994
0.06945000000000001,-0.64939243351904
0.069455,-0.6436947434404361
0.06946000000000001,-0.638103401649478
0.06946500000000001,-0.6324336414241803
0.06947,-0.6268680810363132
0.06947500000000001,-0.6210146283141474
0.06948000000000001,-0.6153416454134655
0.06948500000000001,-0.6096461037851177
0.06949000000000001,-0.6040010507377727
0.069495,-0.5980154683248806
0.06950000000000001,-0.5924993222928776
0.06950500000000001,-0.5868059291147756
0.06951,-0.5810018907485054
0.06951500000000001,-0.5751731452042717
0.06952000000000001,-0.5693433254349103
0.069525,-0.5638561834813829
0.06953000000000001,-0.5580564420156144
0.06953500000000001,-0.5523308220836637
0.06954,-0.5468716099834628
0.06954500000000001,-0.5410976499207649
0.06955,-0.5353462485857639
0.06955500000000001,-0.5295443586697288
0.06956000000000001,-0.5236619018691083
0.069565,-0.5178320820997676
0.06957000000000001,-0.5119238438960659
0.06957500000000001,-0.5060671684985161
0.06958,-0.5001589302948356
0.06958500000000001,-0.4942496178660057
0.06959000000000001,-0.4884197980966441
0.069595,-0.4827747450493094
0.06960000000000001,-0.4769470737302142
0.06960500000000001,-0.4710377613013846
0.06961000000000001,-0.465260578563313
0.06961500000000001,-0.459484470050359
0.06962,-0.4538394170030242
0.06962500000000001,-0.448064382715188
0.06963000000000001,-0.4422345629458367
0.069635,-0.4363263247421564
0.06964000000000001,-0.4305749234071341
0.06964500000000001,-0.4248783075536378
0.06965,-0.4193127471657707
0.06965500000000001,-0.4135119314748741
0.06966000000000001,-0.4074973449835055
0.069665,-0.4014559028639603
0.06967000000000001,-0.3955723718382118
0.069675,-0.3898220447283388
0.06968000000000001,-0.3838880251215667
0.06968500000000001,-0.3778465830020105
0.06969,-0.3720156890075417
0.06969500000000001,-0.3660816694007695
0.06970000000000001,-0.3600928643124824
0.069705,-0.3541835518836633
0.06971000000000001,-0.3483010950830428
0.06971500000000001,-0.3423133642198736
0.06972,-0.3366403813192122
0.06972500000000001,-0.3307869285970464
0.06973000000000001,-0.3249033975712868
0.06973500000000001,-0.3188372482737991
0.06974000000000001,-0.3127947319291149
0.069745,-0.3068854195003065
0.06975000000000001,-0.3008976886371368
0.06975500000000001,-0.294961520580119
0.06976,-0.2888158786231636
0.06976500000000001,-0.2826938696190004
0.06977000000000001,-0.2768629756245102
0.069775,-0.2709289560177593
0.06978000000000001,-0.2648875138982031
0.06978500000000001,-0.2589513458411746
0.06979,-0.2530162520092957
0.06979500000000001,-0.2471069395804765
0.0698,-0.2409612976235211
0.06980500000000001,-0.2350498367444347
0.06981000000000001,-0.229115817137673
0.069815,-0.2230743750181278
0.06982000000000001,-0.217138206961099
0.06982500000000001,-0.2111504760979401
0.06983,-0.2048984858533071
0.06983500000000001,-0.198907532314764
0.06984000000000001,-0.1931572052048692
0.069845,-0.1869600004417727
0.06985000000000001,-0.1809948283063003
0.06985500000000001,-0.175113445730797
0.06986000000000001,-0.1691514962707195
0.06986500000000001,-0.1627684505604774
0.06987,-0.1565390190435421
0.06987500000000001,-0.1503923028614362
0.06988000000000001,-0.1444024235480211
0.069885,-0.1383094186223348
0.06989000000000001,-0.1324248133714472
0.06989500000000001,-0.1266487048584821
0.0699,-0.1205825555609944
0.06990500000000001,-0.1144347651537717
0.06991000000000001,-0.1085770155310829
0.069915,-0.1025903588930629
0.06992000000000001,-0.09678524630165411
0.069925,-0.09098335638564004
0.06993000000000001,-0.08483771442866291
0.06993500000000001,-0.07871570542451081
0.06994,-0.07277953736750385
