synth-diodes-out/100Hz5V/scope.csv

#Digilent WaveForms Oscilloscope Acquisition
#Device Name: Discovery3
#Serial Number: SN:210415BD5874
#Date Time: 2025-04-03 12:13:23.137.528.960
#Sample rate: 352113Hz
#Samples: 32768
#Trigger: Source: Channel 1 Type: Edge Condition: Rising Level: 0 V Hyst.: Auto HoldOff: 0 s
#Channel 1: Range: 200 mV/div Offset: 0 V Sample Mode: Average
#Wavegen Channel 1: Running
#Mode: Simple
#Type: Sine
#Frequency: 100 Hz
#Period: 10 ms
#Amplitude: 5 V
#Offset: 0 V
#Symmetry: 50 %
#Phase: 0 °

Time (s),Channel 1 (V)
-0.01320254653746845,-0.6153964308949986
-0.01319970653746845,-0.6150784602571273
-0.01319686653746845,-0.6114217979216064
-0.01319402653746845,-0.6139655630245774
-0.01319118653746845,-0.6149194749381915
-0.01318834653746845,-0.6107858566458774
-0.01318550653746845,-0.6183376592953089
-0.01318266653746845,-0.6195300491873243
-0.01317982653746845,-0.6153169382355308
-0.01317698653746845,-0.6184966446142446
-0.01317414653746845,-0.6273203298151754
-0.01317130653746845,-0.6235046821607189
-0.01316846653746845,-0.6200070051441335
-0.01316562653746845,-0.6199275124846658
-0.01316278653746845,-0.6185761372737149
-0.01315994653746845,-0.619848019825198
-0.01315710653746845,-0.6222327996092333
-0.01315426653746845,-0.6193710638683909
-0.01315142653746845,-0.6202454831225371
-0.01314858653746845,-0.6226302629065729
-0.01314574653746845,-0.6227892482255082
-0.01314290653746845,-0.6208019317388157
-0.01314006653746845,-0.6233456968417831
-0.01313722653746845,-0.622868740884976
-0.01313438653746845,-0.6193710638683909
-0.01313154653746845,-0.6220738142902976
-0.01312870653746845,-0.6233456968417854
-0.01312586653746845,-0.6246175793932687
-0.01312302653746845,-0.6250945353500749
-0.01312018653746845,-0.6262869252420934
-0.01311734653746845,-0.6234251895012509
-0.01311450653746845,-0.6254125059879471
-0.01311166653746845,-0.6343951765078135
-0.01310882653746845,-0.6273203298151754
-0.01310598653746845,-0.6284332270477252
-0.01310314653746845,-0.630897499491224
-0.01310030653746845,-0.6281152564098538
-0.01309746653746845,-0.6339182205510064
-0.01309462653746845,-0.6312154701290997
-0.01309178653746845,-0.6303410508749534
-0.01308894653746845,-0.6291486609829358
-0.01308610653746845,-0.6339977132104743
-0.01308326653746845,-0.6235841748201851
-0.01308042653746845,-0.6227097555660404
-0.01307758653746845,-0.6246175793932652
-0.01307474653746845,-0.6248560573716722
-0.01307190653746845,-0.6215968583334905
-0.01306906653746845,-0.6187351225926481
-0.01306622653746845,-0.6157938941923379
-0.01306338653746845,-0.6113423052621428
-0.01306054653746845,-0.6136475923867061
-0.01305770653746845,-0.6149989675976569
-0.01305486653746845,-0.6107063639863958
-0.01305202653746845,-0.6173837473816948
-0.01304918653746845,-0.623902145458058
-0.01304634653746845,-0.6209609170577478
-0.01304350653746845,-0.6183376592953229
-0.01304066653746845,-0.6260484472636898
-0.01303782653746845,-0.6258894619447545
-0.01303498653746845,-0.6287511976855965
-0.01303214653746845,-0.6299435875776143
-0.01302930653746845,-0.6281152564098538
-0.01302646653746845,-0.6244585940743329
-0.01302362653746845,-0.6185761372737059
-0.01302078653746845,-0.6149989675976594
-0.01301794653746845,-0.6168272987654165
-0.01301510653746845,-0.6179401959979697
-0.01301226653746845,-0.6128526657920276
-0.01300942653746845,-0.6194505565278587
-0.01300658653746845,-0.6213583803550869
-0.01300374653746845,-0.6188941079115809
-0.01300090653746845,-0.6173042547222269
-0.01299806653746845,-0.6265254032204801
-0.01299522653746845,-0.627002359177304
-0.01299238653746845,-0.6253330133284792
-0.01298954653746845,-0.628512719707193
-0.01298670653746845,-0.6273203298151754
-0.01298386653746845,-0.6267638811989042
-0.01298102653746845,-0.6288306903450644
-0.01297818653746845,-0.6270023591773073
-0.01297534653746845,-0.6263664179015612
-0.01297250653746845,-0.6294666316208072
-0.01296966653746845,-0.6221533069497655
-0.01296682653746845,-0.6187351225926481
-0.01296398653746845,-0.6219148289713597
-0.01296114653746845,-0.6207224390793442
-0.01295830653746845,-0.6181786739763778
-0.01295546653746845,-0.6211993950361513
-0.01295262653746845,-0.6209609170577478
-0.01294978653746845,-0.6180196886574375
-0.01294694653746845,-0.619848019825198
-0.01294410653746845,-0.6208814243982765
-0.01294126653746845,-0.6189736005710517
-0.01293842653746845,-0.6295461242802558
-0.01293558653746845,-0.629546124280275
-0.01293274653746845,-0.6264459105610291
-0.01292990653746845,-0.6273998224746432
-0.01292706653746845,-0.6297846022586785
-0.01292422653746845,-0.627002359177304
-0.01292138653746845,-0.627479315134111
-0.01291854653746845,-0.6252535206690154
-0.01291570653746845,-0.6232662041823153
-0.01291286653746845,-0.6225507702471047
-0.01291002653746845,-0.6193710638683909
-0.01290718653746845,-0.6196095418467944
-0.01290434653746845,-0.6161913574896771
-0.01290150653746845,-0.6170657767438233
-0.01289866653746845,-0.6196890345062781
-0.01289582653746845,-0.6284332270477252
-0.01289298653746845,-0.6289896756640001
-0.01289014653746845,-0.6306590215128248
-0.01288730653746845,-0.629546124280275
-0.01288446653746845,-0.6273998224746432
-0.01288162653746845,-0.6260484472636898
-0.01287878653746845,-0.6245380867337937
-0.01287594653746845,-0.6207224390793442
-0.01287310653746845,-0.623186711522843
-0.01287026653746845,-0.6242201160959294
-0.01286742653746845,-0.6090370181375711
-0.01286458653746845,-0.6093549887754425
-0.01286174653746845,-0.6102294080295887
-0.01285890653746845,-0.6075266576076859
-0.01285606653746845,-0.6096729594133138
-0.01285322653746845,-0.616509328127536
-0.01285038653746845,-0.6176222253600983
-0.01284754653746845,-0.6201659904630693
-0.01284470653746845,-0.621835336311894
-0.01284186653746845,-0.6195300491873266
-0.01283902653746845,-0.630261558215506
-0.01283618653746845,-0.6414700232004518
-0.01283334653746845,-0.6364619856539866
-0.01283050653746845,-0.6386082874596093
-0.01282766653746845,-0.641311037881516
-0.01282482653746845,-0.6385287948001415
-0.01282198653746845,-0.6281947490693216
-0.01281914653746845,-0.6301025728965476
-0.01281630653746845,-0.6288306903450644
-0.01281346653746845,-0.6266843885394365
-0.01281062653746845,-0.6135680997272382
-0.01280778653746845,-0.6022006494233364
-0.01280494653746845,-0.5987824650662191
-0.01280210653746845,-0.6021211567638686
-0.01279926653746845,-0.6084010768618336
-0.01279642653746845,-0.6113423052621386
-0.01279358653746845,-0.6120577391973478
-0.01279074653746845,-0.6124552024946884
-0.01278790653746845,-0.6122167245162848
-0.01278506653746845,-0.6124552024946884
-0.01278222653746845,-0.6262869252420934
-0.01277938653746845,-0.6372569122486503
-0.01277654653746845,-0.63415669852941
-0.01277370653746845,-0.6367004636323763
-0.01277086653746845,-0.6371774195891881
-0.01276802653746845,-0.6300230802370821
-0.01276518653746845,-0.6308974994912284
-0.01276234653746845,-0.6299435875776143
-0.01275950653746845,-0.6267638811989048
-0.01275666653746845,-0.6291486609829358
-0.01275382653746845,-0.6281152564098557
-0.01275098653746845,-0.6214378730145549
-0.01274814653746845,-0.6237431601391223
-0.01274530653746845,-0.6236636674796545
-0.01274246653746845,-0.6213583803550869
-0.01273962653746845,-0.624140623436473
-0.01273678653746845,-0.6304205435344213
-0.01273394653746845,-0.6262869252421009
-0.01273110653746845,-0.6289896756640001
-0.01272826653746845,-0.6312154701290997
-0.01272542653746845,-0.6289896756640001
-0.01272258653746845,-0.6263664179015612
-0.01271974653746845,-0.6277972857719825
-0.01271690653746845,-0.6229482335444438
-0.01271406653746845,-0.6241406234364669
-0.01271122653746845,-0.6270818518367718
-0.01270838653746845,-0.6245380867338007
-0.01270554653746845,-0.6226302629065725
-0.01270270653746845,-0.6252535206690114
-0.01269986653746845,-0.6250150426906078
-0.01269702653746845,-0.6222327996092333
-0.01269418653746845,-0.6289896756640004
-0.01269134653746845,-0.6291486609829358
-0.01268850653746845,-0.6267638811989048
-0.01268566653746845,-0.6289101830045323
-0.01268282653746845,-0.6294666316208072
-0.01267998653746845,-0.6226302629065725
-0.01267714653746845,-0.6241406234364616
-0.01267430653746845,-0.6310564848101584
-0.01267146653746845,-0.6279562710909181
-0.01266862653746845,-0.6263664179015641
-0.01266578653746845,-0.6262869252420934
-0.01266294653746845,-0.6235841748201867
-0.01266010653746845,-0.6258099692852863
-0.01265726653746845,-0.6270818518367718
-0.01265442653746845,-0.6235841748201948
-0.01265158653746845,-0.6280357637503859
-0.01264874653746845,-0.6316924260859001
-0.01264590653746845,-0.6273203298151754
-0.01264306653746845,-0.6289101830045323
-0.01264022653746845,-0.6305000361938892
-0.01263738653746845,-0.6240611307769938
-0.01263454653746845,-0.6217558436524294
-0.01263170653746845,-0.6235046821607189
-0.01262886653746845,-0.6211993950361555
-0.01262602653746845,-0.620801931738812
-0.01262318653746845,-0.6211199023766835
-0.01262034653746845,-0.6134886070677704
-0.01261750653746845,-0.6112628126026707
-0.01261466653746845,-0.6146809969597896
-0.01261182653746845,-0.6155554162139343
-0.01260898653746845,-0.6135680997272419
-0.01260614653746845,-0.616747806105952
-0.01260330653746845,-0.6173042547222269
-0.01260046653746845,-0.6133296217488347
-0.01259762653746845,-0.6151579529165951
-0.01259478653746845,-0.6238226527986031
-0.01259194653746845,-0.6308974994912284
-0.01258910653746845,-0.6316129334264377
-0.01258626653746845,-0.6333617719347315
-0.01258342653746845,-0.6318514114048425
-0.01258058653746845,-0.627002359177304
-0.01257774653746845,-0.6432188617087443
-0.01257490653746845,-0.6398801700110933
-0.01257206653746845,-0.6390852434164164
-0.01256922653746845,-0.6421854571356567
-0.01256638653746845,-0.6408340819247089
-0.01256354653746845,-0.6240611307769938
-0.01256070653746845,-0.6269228665178361
-0.01255786653746845,-0.6272408371557076
-0.01255502653746845,-0.6247765647122109
-0.01255218653746845,-0.6283537343882574
-0.01254934653746845,-0.6146015043003452
-0.01254650653746845,-0.6138065777056417
-0.01254366653746845,-0.6103883933485245
-0.01254082653746845,-0.6095139740943781
-0.01253798653746845,-0.6076061502671498
-0.01253514653746845,-0.6173042547222269
-0.01253230653746845,-0.6202454831225371
-0.01252946653746845,-0.6169862840843614
-0.01252662653746845,-0.6166683134464842
-0.01252378653746845,-0.6186556299331802
-0.01252094653746845,-0.6355875663998312
-0.01251810653746845,-0.6285922123666609
-0.01251526653746845,-0.6312154701290997
-0.01251242653746845,-0.6318514114048425
-0.01250958653746845,-0.6278767784314474
-0.01250674653746845,-0.6262869252420934
-0.01250390653746845,-0.634315683848331
-0.01250106653746845,-0.6320898893832461
-0.01249822653746845,-0.6350311177835563
-0.01249538653746845,-0.6359850296971704
-0.01249254653746845,-0.6306590215128248
-0.01248970653746845,-0.6266843885394361
-0.01248686653746845,-0.6285922123666609
-0.01248402653746845,-0.6255714913068882
-0.01248118653746845,-0.6246175793932687
-0.01247834653746845,-0.6186556299331802
-0.01247550653746845,-0.6110243346242672
-0.01247266653746845,-0.6102294080295887
-0.01246982653746845,-0.6131706364298936
-0.01246698653746845,-0.6101499153701209
-0.01246414653746845,-0.6146015043003121
-0.01246130653746845,-0.6217558436524262
-0.01245846653746845,-0.6204044684414729
-0.01245562653746845,-0.6172247620627591
-0.01245278653746845,-0.6195300491873266
-0.01244994653746845,-0.6245380867338149
-0.01244710653746845,-0.6323283673616495
-0.01244426653746845,-0.6320898893832465
-0.01244142653746845,-0.6348721324646206
-0.01243858653746845,-0.6332822792752637
-0.01243574653746845,-0.632646337999521
-0.01243290653746845,-0.6363030003350418
-0.01243006653746845,-0.6353490884214243
-0.01242722653746845,-0.6335207572536672
-0.01242438653746845,-0.6423444424545819
-0.01242154653746845,-0.6352695957619598
-0.01241870653746845,-0.6154759235544665
-0.01241586653746845,-0.6148399822787237
-0.01241302653746845,-0.6149989675976594
-0.01241018653746845,-0.6142835336624608
-0.01240734653746845,-0.62088142439828
-0.01240450653746845,-0.618735122592652
-0.01240166653746845,-0.6165093281275484
-0.01239882653746845,-0.6196890345062622
-0.01239598653746845,-0.6186556299331802
-0.01239314653746845,-0.6134091144083025
-0.01239030653746845,-0.6322488747021818
-0.01238746653746845,-0.6323283673616495
-0.01238462653746845,-0.6273998224746522
-0.01238178653746845,-0.6294666316208072
-0.01237894653746845,-0.6312949627885676
-0.01237610653746845,-0.6299435875776143
-0.01237326653746845,-0.629546124280275
-0.01237042653746845,-0.6325668453400521
-0.01236758653746845,-0.6320103967237782
-0.01236474653746845,-0.6306590215128273
-0.01236190653746845,-0.6243791014148651
-0.01235906653746845,-0.621835336311894
-0.01235622653746845,-0.6185761372737124
-0.01235338653746845,-0.6209609170577478
-0.01235054653746845,-0.6223917849281689
-0.01234770653746845,-0.6134091144083025
-0.01234486653746845,-0.6153169382355274
-0.01234202653746845,-0.6155554162139343
-0.01233918653746845,-0.6126141878136241
-0.01233634653746845,-0.6151579529165951
-0.01233350653746845,-0.6283537343882574
-0.01233066653746845,-0.6216763509929584
-0.01232782653746845,-0.6221533069497655
-0.01232498653746845,-0.6242201160959251
-0.01232214653746845,-0.621835336311894
-0.01231930653746845,-0.6308974994912284
-0.01231646653746845,-0.6360645223566382
-0.01231362653746845,-0.6213583803550869
-0.01231078653746845,-0.6191325858899873
-0.01230794653746845,-0.6245380867338007
-0.01230510653746845,-0.6226302629065776
-0.01230226653746845,-0.6254125059879471
-0.01229942653746845,-0.6377338682054405
-0.01229658653746845,-0.6425829204330016
-0.01229374653746845,-0.6378133608649309
-0.01229090653746845,-0.6281152564098538
-0.01228806653746845,-0.6260484472636898
-0.01228522653746845,-0.624458594074329
-0.01228238653746845,-0.6223122922687011
-0.01227954653746845,-0.6249355500311352
-0.01227670653746845,-0.6227892482255082
-0.01227386653746845,-0.6175427327006304
-0.01227102653746845,-0.6187351225926481
-0.01226818653746845,-0.6177017180195662
-0.01226534653746845,-0.6132501290893844
-0.01226250653746845,-0.622868740884976
-0.01225966653746845,-0.632964308637374
-0.01225682653746845,-0.6282742417287895
-0.01225398653746845,-0.6304205435344213
-0.01225114653746845,-0.6328053233184566
-0.01224830653746845,-0.6318514114048425
-0.01224546653746845,-0.6358260443782356
-0.01224262653746845,-0.6363030003350418
-0.01223978653746845,-0.6327258306589953
-0.01223694653746845,-0.6343951765078135
-0.01223410653746845,-0.6346336544862171
-0.01223126653746845,-0.6189736005710517
-0.01222842653746845,-0.6185761372737124
-0.01222558653746845,-0.6210404097172126
-0.01222274653746845,-0.6193710638683909
-0.01221990653746845,-0.6118987538784271
-0.01221706653746845,-0.6261279399231576
-0.01221422653746845,-0.6254125059879471
-0.01221138653746845,-0.621914828971362
-0.01220854653746845,-0.6233456968417831
-0.01220570653746845,-0.6343156838483468
-0.01220286653746845,-0.6349516251240884
-0.01220002653746845,-0.6372569122486518
-0.01219718653746845,-0.6391647360758842
-0.01219434653746845,-0.6367799562918489
-0.01219150653746845,-0.63821082416227
-0.01218866653746845,-0.6345541618267492
-0.01218582653746845,-0.6324078600211159
-0.01218298653746845,-0.631612933426439
-0.01218014653746845,-0.6345541618267438
-0.01217730653746845,-0.6336002499131351
-0.01217446653746845,-0.6254919986474149
-0.01217162653746845,-0.6301820655560177
-0.01216878653746845,-0.6258099692852863
-0.01216594653746845,-0.6198480198252052
-0.01216310653746845,-0.6238226527985902
-0.01216026653746845,-0.624140623436461
-0.01215742653746845,-0.620801931738812
-0.01215458653746845,-0.6225507702471047
-0.01215174653746845,-0.6235046821607189
-0.01214890653746845,-0.619848019825198
-0.01214606653746845,-0.6215173656740227
-0.01214322653746845,-0.6238226527985902
-0.01214038653746845,-0.619689034506265
-0.01213754653746845,-0.6211993950361513
-0.01213470653746845,-0.6234251895012509
-0.01213186653746845,-0.6261279399231576
-0.01212902653746845,-0.6154759235544665
-0.01212618653746845,-0.6169067914248877
-0.01212334653746845,-0.6169862840843555
-0.01212050653746845,-0.6134886070677643
-0.01211766653746845,-0.6101499153701209
-0.01211482653746845,-0.6215968583334697
-0.01211198653746845,-0.6174632400411626
-0.01210914653746845,-0.6184966446142446
-0.01210630653746845,-0.6199275124846658
-0.01210346653746845,-0.6204044684414729
-0.01210062653746845,-0.6223917849281786
-0.01209778653746845,-0.6277177931125145
-0.01209494653746845,-0.6193710638684061
-0.01209210653746845,-0.62088142439828
-0.01208926653746845,-0.6258894619447541
-0.01208642653746845,-0.6253330133284792
-0.01208358653746845,-0.6261279399231576
-0.01208074653746845,-0.6281152564098481
-0.01207790653746845,-0.6250150426906078
-0.01207506653746845,-0.6313744554480238
-0.01207222653746845,-0.6343951765078135
-0.01206938653746845,-0.6304205435344213
-0.01206654653746845,-0.6302615582154856
-0.01206370653746845,-0.6334412645941994
-0.01206086653746845,-0.626525403220495
-0.01205802653746845,-0.6254919986474149
-0.01205518653746845,-0.6269228665178336
-0.01205234653746845,-0.6240611307769938
-0.01204950653746845,-0.6299435875776143
-0.01204666653746845,-0.6324078600211174
-0.01204382653746845,-0.6267638811989005
-0.01204098653746845,-0.620404468441482
-0.01203814653746845,-0.6254125059879471
-0.01203530653746845,-0.625968954604221
-0.01203246653746845,-0.6221533069497655
-0.01202962653746845,-0.6321693820427139
-0.01202678653746845,-0.6302615582154856
-0.01202394653746845,-0.6269228665178361
-0.01202110653746845,-0.6280357637503896
-0.01201826653746845,-0.6300230802370821
-0.01201542653746845,-0.6279562710909219
-0.01201258653746845,-0.6282742417287895
-0.01200974653746845,-0.6298640949181464
-0.01200690653746845,-0.6273203298151754
-0.01200406653746845,-0.6250150426906078
-0.01200122653746845,-0.6277972857719786
-0.01199838653746845,-0.6256509839663507
-0.01199554653746845,-0.6237431601391258
-0.01199270653746845,-0.6263664179015612
-0.01198986653746845,-0.6256509839663507
-0.01198702653746845,-0.6061752823967287
-0.01198418653746845,-0.6111833199432029
-0.01198134653746845,-0.6106268713269226
-0.01197850653746845,-0.6076856429266178
-0.01197566653746845,-0.6092754961159718
-0.01197282653746845,-0.6145220116408524
-0.01196998653746845,-0.6020416641044007
-0.01196714653746845,-0.603472531974822
-0.01196430653746845,-0.6053008631425824
-0.01196146653746845,-0.6025981127206756
-0.01195862653746845,-0.6093549887754425
-0.01195578653746845,-0.6211993950361298
-0.01195294653746845,-0.6175427327006304
-0.01195010653746845,-0.6193710638683909
-0.01194726653746845,-0.6205634537604086
-0.01194442653746845,-0.620801931738812
-0.01194158653746845,-0.627002359177304
-0.01193874653746845,-0.6281152564098538
-0.01193590653746845,-0.6242996087554001
-0.01193306653746845,-0.6258894619447541
-0.01193022653746845,-0.6313744554480254
-0.01192738653746845,-0.6273998224746432
-0.01192454653746845,-0.6351106104430241
-0.01192170653746845,-0.6364619856539775
-0.01191886653746845,-0.6286717050261287
-0.01191602653746845,-0.6250150426906022
-0.01191318653746845,-0.621914828971362
-0.01191034653746845,-0.6185761372737185
-0.01190750653746845,-0.6199275124846658
-0.01190466653746845,-0.6224712775876369
-0.01190182653746845,-0.6142835336624488
-0.01189898653746845,-0.6105473786674601
-0.01189614653746845,-0.6129321584514925
-0.01189330653746845,-0.6112628126026707
-0.01189046653746845,-0.6106268713269291
-0.01188762653746845,-0.6175427327006304
-0.01188478653746845,-0.6192915712089231
-0.01188194653746845,-0.6175427327006304
-0.01187910653746845,-0.6192120785494551
-0.01187626653746845,-0.6179401959979671
-0.01187342653746845,-0.6165093281275484
-0.01187058653746845,-0.6277972857719619
-0.01186774653746845,-0.6252535206690114
-0.01186490653746845,-0.6233456968417831
-0.01186206653746845,-0.6250945353500758
-0.01185922653746845,-0.6242201160959294
-0.01185638653746845,-0.6216763509929628
-0.01185354653746845,-0.6241406234364616
