synth-diodes-out/-bkp-20250402/100Hz1V/scope.csv

#Digilent WaveForms Oscilloscope Acquisition
#Device Name: Discovery3
#Serial Number: SN:210415BD5874
#Date Time: 2025-04-01 16:51:57.356.731.800
#Sample rate: 299401Hz
#Samples: 32768
#Trigger: Source: Channel 1 Type: Edge Condition: Rising Level: 0 V Hyst.: Auto HoldOff: 0 s
#Channel 1: Range: 100 mV/div Offset: 0 V Sample Mode: Average
#Wavegen Channel 1: Running
#Mode: Simple
#Type: Sine
#Frequency: 100 Hz
#Period: 10 ms
#Amplitude: 1 V
#Offset: 0 V
#Symmetry: 50 %
#Phase: 0 °

Time (s),Channel 1 (V)
-0.0547213075,-0.09146031234243414
-0.05471796749999999,-0.09153980500190198
-0.05471462749999999,-0.09360661414806594
-0.0547112875,-0.09074487840722353
-0.05470794749999999,-0.09130132702349844
-0.0547046075,-0.0919372682992412
-0.0547012675,-0.09185777563977336
-0.05469792749999999,-0.09400407744540516
-0.0546945875,-0.09575291595369775
-0.0546912475,-0.09940957828921861
-0.05468790749999999,-0.1017148654137861
-0.0546845675,-0.1038611672194179
-0.05468122749999999,-0.1037816745599508
-0.05467788749999999,-0.1041791378572893
-0.0546745475,-0.103304718603143
-0.05467120749999999,-0.1052125424303713
-0.05466786749999999,-0.1026687773274002
-0.0546645275,-0.1009994314785755
-0.05466118749999999,-0.1041791378572893
-0.0546578475,-0.1056894983871783
-0.0546545075,-0.1059279763655819
-0.05465116749999999,-0.1066434103007925
-0.0546478275,-0.1057689910466462
-0.0546444875,-0.1110949992309821
-0.05464114749999999,-0.1114129698688632
-0.0546378075,-0.1085512341280207
-0.05463446749999999,-0.1107770285931216
-0.05463112749999999,-0.1114129698688632
-0.0546277875,-0.1116514478472667
-0.05462444749999999,-0.1124463744419451
-0.05462110749999999,-0.1112539845499275
-0.0546177675,-0.1130823157176879
-0.05461442749999999,-0.1134797790150271
-0.0546110875,-0.110459057955249
-0.0546077475,-0.1119694184851381
-0.05460440749999999,-0.1112539845499275
-0.0546010675,-0.1090281900848278
-0.0545977275,-0.1167389780531947
-0.05459438749999999,-0.1146721689070448
-0.0545910475,-0.1164210074153374
-0.05458770749999999,-0.1227804201727584
-0.05458436749999999,-0.1192032504967119
-0.0545810275,-0.1205546257076653
-0.05457768749999999,-0.1198391917724547
-0.0545743475,-0.1199186844319225
-0.0545710075,-0.1206341183671331
-0.05456766749999999,-0.1237343320863791
-0.0545643275,-0.1252446926162681
-0.0545609875,-0.1277089650597713
-0.05455764749999999,-0.1273909944218999
-0.0545543075,-0.1271525164434964
-0.0545509675,-0.1279474430381734
-0.05454762749999999,-0.1321605539899706
-0.0545442875,-0.1336709145198597
-0.05454094749999999,-0.1305707008006137
-0.05453760749999999,-0.1308091787790173
-0.0545342675,-0.1323990319683742
-0.05453092749999999,-0.130411715481678
-0.0545275875,-0.1302527301627423
-0.0545242475,-0.1291398329301925
-0.05452090749999999,-0.1265960678272215
-0.0545175675,-0.1362146796228307
-0.0545142275,-0.1328759879251873
-0.05451088749999999,-0.1338298998387953
-0.0545075475,-0.1361351869633629
-0.05450420749999999,-0.1362941722822998
-0.05450086749999999,-0.1370096062175091
-0.0544975275,-0.1364531576012342
-0.05449418749999999,-0.1347838117524095
-0.05449084749999999,-0.1438459749317438
-0.0544875075,-0.1409842391909014
-0.05448416749999999,-0.1400303272772872
-0.0544808275,-0.1410637318503692
-0.0544774875,-0.1431305409965332
-0.05447414749999999,-0.1457537987589721
-0.0544708075,-0.144243438229083
-0.0544674675,-0.1440049602506799
-0.05446412749999999,-0.1459127840779078
-0.0544607875,-0.1440049602506795
-0.05445744749999999,-0.1444024235480194
-0.05445410749999999,-0.1447998868453579
-0.0544507675,-0.1489335051376859
-0.05444742749999999,-0.1521927041758675
-0.05444408749999999,-0.1523516894948032
-0.0544407475,-0.1539415426841601
-0.05443740749999999,-0.1544184986409671
-0.0544340675,-0.1514772702406569
-0.0544307275,-0.1513182849217212
-0.05442738749999999,-0.1522721968353353
-0.0544240475,-0.1471051739699254
-0.0544207075,-0.1546569766193569
-0.05441736749999999,-0.1560878444897919
-0.0544140275,-0.1544184986409671
-0.05441068749999999,-0.1555313958735138
-0.05440734749999999,-0.1537825573652244
-0.0544040075,-0.1544184986409671
-0.05440066749999999,-0.1540210353436279
-0.0543973275,-0.1521132115163996
-0.0543939875,-0.1603009554415877
-0.05439064749999999,-0.1590290728901021
-0.0543873075,-0.1590290728901021
-0.0543839675,-0.1610163893767982
-0.05438062749999999,-0.1595060288469092
-0.0543772875,-0.1623677645877516
-0.05437394749999999,-0.1603009554415852
-0.05437060749999999,-0.1589495802306343
-0.0543672675,-0.1629242132040265
-0.05436392749999999,-0.1655474709664654
-0.05436058749999999,-0.1634806618203014
-0.0543572475,-0.1649115296907226
-0.05435390749999999,-0.1636396471392371
-0.0543505675,-0.1634806618203014
-0.0543472275,-0.1647525443717869
-0.05434388749999999,-0.1626062425661551
-0.0543405475,-0.1665808755395474
-0.0543372075,-0.1678527580910306
-0.05433386749999999,-0.1678527580910329
-0.0543305275,-0.1706350011724075
-0.05432718749999999,-0.1661834122422248
-0.05432384749999999,-0.1753250680810103
-0.0543205075,-0.1755635460594138
-0.05431716749999999,-0.1757225313783495
-0.05431382749999999,-0.1766764432919637
-0.0543104875,-0.1741326781889926
-0.05430714749999999,-0.1736557222321856
-0.0543038075,-0.1758020240378174
-0.0543004675,-0.1743711561673962
-0.05429712749999999,-0.1736557222321856
-0.0542937875,-0.1746096341457997
-0.0542904475,-0.1740531855295258
-0.05428710749999999,-0.1734967369132499
-0.0542837675,-0.1781868038218527
-0.05428042749999999,-0.1757225313783544
-0.05427708749999999,-0.1784252818002562
-0.0542737475,-0.1773918772271743
-0.05427040749999999,-0.1773123845677064
-0.05426706749999999,-0.1788227450975955
-0.0542637275,-0.178027818502917
-0.05426038749999999,-0.1791407157354668
-0.0542570475,-0.1812870175410987
-0.0542537075,-0.18160498817897
-0.05425036749999999,-0.1831153487088591
-0.0542470275,-0.1837512899846018
-0.0542436875,-0.1822409294547155
-0.05424034749999999,-0.1833538266872626
-0.0542370075,-0.1809690469032273
-0.05423366749999999,-0.1820819441357807
-0.05423032749999999,-0.1840692606224732
-0.0542269875,-0.1868515037038478
-0.05422364749999999,-0.1862950550875729
-0.0542203075,-0.1864540404065086
-0.0542169675,-0.1868515037038478
-0.05421362749999999,-0.1879644009363976
-0.0542102875,-0.1868515037038478
-0.0542069475,-0.1896337467852224
-0.05420360749999999,-0.1898722247636259
-0.0542002675,-0.1875669376390584
-0.05419692749999999,-0.1883618642337394
-0.05419358749999999,-0.189792732104158
-0.0541902475,-0.191859541250322
-0.05418690749999999,-0.1829563633899234
-0.05418356749999999,-0.1910646146556436
-0.0541802275,-0.1926544678450005
-0.05417688749999999,-0.1938468577370181
-0.0541735475,-0.191859541250322
-0.0541702075,-0.1925749751855326
-0.05416686749999999,-0.19082613667724
-0.0541635275,-0.191859541250322
-0.0541601875,-0.1962316375210455
-0.05415684749999999,-0.194403306353293
-0.0541535075,-0.1952777256074393
-0.05415016749999999,-0.1975035200725385
-0.05414682749999999,-0.1972650420941354
-0.0541434875,-0.1972650420941354
-0.05414014749999999,-0.1955162035858428
-0.05413680749999999,-0.1955162035858428
-0.0541334675,-0.1980599686888139
-0.05413012749999999,-0.2001267778349778
-0.0541267875,-0.1997293145376386
-0.0541234475,-0.2006037337917849
-0.05412010749999999,-0.1995703292187029
-0.0541167675,-0.2011601824080598
-0.0541134275,-0.1994908365592381
-0.05411008749999999,-0.1985369246456209
-0.0541067475,-0.2013986603864634
-0.05410340749999999,-0.2049758300625139
-0.05410006749999999,-0.203624454851563
-0.0540967275,-0.2045783667651772
-0.05409338749999999,-0.2044193814462415
-0.0540900475,-0.2070426392086803
-0.0540867075,-0.2060092346355984
-0.05408336749999999,-0.2049758300625164
-0.0540800275,-0.2068041612302768
-0.0540766875,-0.2041014108083701
-0.05407334749999999,-0.2105403162252655
-0.0540700075,-0.2096658969711192
-0.0540666675,-0.2125276327119564
-0.05406332749999999,-0.213879007922915
-0.0540599875,-0.2088709703764408
-0.05405664749999999,-0.2086324923980372
-0.05405330749999999,-0.2103813309063298
-0.0540499675,-0.2094274189927157
-0.05404662749999999,-0.2102223455873941
-0.0540432875,-0.2091094483548443
-0.0540399475,-0.2078375658033588
-0.05403660749999999,-0.2097453896305871
-0.0540332675,-0.2168202363232252
-0.0540299275,-0.2131635739877044
-0.05402658749999999,-0.2146739345175934
-0.0540232475,-0.2149919051554648
-0.05401990749999999,-0.2180921188747113
-0.05401656749999999,-0.2184100895125821
-0.0540132275,-0.2165022656853539
-0.05400988749999999,-0.2182511041936464
-0.05400654749999999,-0.2197614647235355
-0.0540032075,-0.2161048023880146
-0.05399986749999999,-0.2158663244096111
-0.0539965275,-0.2180126262152429
-0.0539931875,-0.2211128399344889
-0.05398984749999999,-0.221033347275021
-0.0539865075,-0.2206358839776818
-0.0539831675,-0.2196819720640694
-0.05397982749999999,-0.2230206637617171
-0.0539764875,-0.2223052298265065
-0.05397314749999999,-0.2210333472750266
-0.05396980749999999,-0.224133560994267
-0.0539664675,-0.2244515316321383
-0.05396312749999999,-0.2239745756753313
-0.05395978749999999,-0.2234976197185242
-0.0539564475,-0.2213513179128924
-0.05395310749999999,-0.2225437078049101
-0.0539497675,-0.224133560994267
-0.0539464275,-0.2263593554593666
-0.05394308749999999,-0.2298570324759518
-0.0539397475,-0.2325597828978585
-0.0539364075,-0.2348650700224218
-0.05393306749999999,-0.2320828269410514
-0.0539297275,-0.2326392755573263
-0.05392638749999999,-0.2312879003463776
-0.05392304749999999,-0.233831665449344
-0.0539197075,-0.2324802902383906
-0.05391636749999999,-0.2319238416221157
-0.0539130275,-0.2332752168330691
-0.0539096875,-0.2377268057632684
-0.05390634749999999,-0.2393961516120931
-0.0539030075,-0.2367728938496542
-0.0538996675,-0.2362164452333793
-0.05389632749999999,-0.2425758579908069
-0.0538929875,-0.2413834680987892
-0.0538896475,-0.2409065121419831
-0.05388630749999999,-0.24098600480145
-0.0538829675,-0.2392371662931574
-0.05387962749999999,-0.2410654974609179
-0.05387628749999999,-0.2411449901203857
-0.0538729475,-0.2397141222499645
-0.05386960749999999,-0.2387602103363504
-0.0538662675,-0.2450401304343101
-0.0538629275,-0.2442452038396317
-0.05385958749999999,-0.2454375937316493
-0.0538562475,-0.2444041891585673
-0.0538529075,-0.2477428808562168
-0.05384956749999999,-0.2483788221319596
-0.0538462275,-0.2456760717100529
-0.05384288749999999,-0.246709476283135
-0.05383954749999999,-0.2467889689426027
-0.0538362075,-0.2457555643695207
-0.05383286749999999,-0.2469479542615384
-0.05382952749999999,-0.2442452038396317
-0.0538261875,-0.2517970064890769
-0.05382284749999999,-0.2507636019159949
-0.0538195075,-0.2490942560671702
-0.0538161675,-0.2531483817000303
-0.05381282749999999,-0.2515585285106734
-0.0538094875,-0.2477428808562168
-0.0538061475,-0.2504456312781186
-0.05380280749999999,-0.2487762854292988
-0.0537994675,-0.2526714257432232
-0.05379612749999999,-0.2567255513760811
-0.05379278749999999,-0.2555331614840656
-0.0537894475,-0.2564870733976797
-0.05378610749999999,-0.256884536695019
-0.05378276749999999,-0.2549767128677907
-0.0537794275,-0.2563280880787441
-0.05377608749999999,-0.2544202642515158
-0.0537727475,-0.2574409853112939
-0.0537694075,-0.2599052577547971
-0.05376606749999999,-0.2576794632896974
-0.0537627275,-0.258951345841183
-0.0537593875,-0.2577589559491674
-0.05375604749999999,-0.2575999706302296
-0.0537527075,-0.2586333752033115
-0.05374936749999999,-0.2563280880787455
-0.05374602749999999,-0.2571230146734225
-0.0537426875,-0.258394897224908
-0.05373934749999999,-0.2571230146734225
-0.0537360075,-0.2595872871169257
-0.0537326675,-0.2585538825438437
-0.05372932749999999,-0.2544997569109836
-0.0537259875,-0.264038876047125
-0.0537226475,-0.261972066900961
-0.05371930749999999,-0.2627669934956395
-0.0537159675,-0.2627669934956395
-0.0537126275,-0.261813081582027
-0.05370928749999999,-0.2635619200903179
-0.0537059475,-0.2612566329657504
-0.05370260749999999,-0.2661851778527568
-0.05369926749999999,-0.2665031484906282
-0.0536959275,-0.2649132953012713
-0.05369258749999999,-0.2703187961450847
-0.0536892475,-0.2696033622098741
-0.0536859075,-0.2645953246633999
-0.05368256749999999,-0.267139089766371
-0.0536792275,-0.2680930016799851
-0.0536758875,-0.2693648842314683
-0.05367254749999999,-0.2744524144374126
-0.0536692075,-0.2726240832696522
-0.05366586749999999,-0.2736574878427333
-0.05366252749999999,-0.2731805318859271
-0.0536591875,-0.2711137227397632
-0.05365584749999999,-0.272226619972313
-0.05365250749999999,-0.2710342300802953
-0.0536491675,-0.2714316933776346
-0.05364582749999999,-0.2706367667829561
-0.0536424875,-0.2688879282746635
-0.0536391475,-0.2711137227397632
-0.05363580749999999,-0.2710342300802953
-0.0536324675,-0.275326833691559
-0.0536291275,-0.274531907096882
-0.05362578749999999,-0.2739754584806056
-0.0536224475,-0.2742139364590091
-0.05361910749999999,-0.2770756721998475
-0.05361576749999999,-0.2748498777347519
-0.0536124275,-0.2762012529457052
-0.05360908749999999,-0.2780295841134657
-0.05360574749999999,-0.275326833691559
-0.0536024075,-0.2752473410320911
-0.05359906749999999,-0.2757242969888982
-0.0535957275,-0.2754063263510268
-0.0535923875,-0.2749293703942197
-0.05358904749999999,-0.2781090767729335
-0.0535857075,-0.2785065400702728
-0.0535823675,-0.2799374079406913
-0.05357902749999999,-0.2776321208161264
-0.0535756875,-0.27787059879453
-0.05357234749999999,-0.2781885694324013
-0.05356900749999999,-0.2781885694324013
-0.0535656675,-0.2826401583626006
-0.05356232749999999,-0.2809708125137759
-0.0535589875,-0.2782680620918692
-0.0535556475,-0.2819247244273901
-0.05355230749999999,-0.2818452317679222
-0.0535489675,-0.2885226151632212
-0.0535456275,-0.285024938146636
-0.05354228749999999,-0.2837530555951505
-0.0535389475,-0.2855018941034431
-0.05353560749999999,-0.2856608794223717
-0.05353226749999999,-0.2817657391084544
-0.0535289275,-0.2827196510220685
-0.05352558749999999,-0.2831171143194077
-0.05352224749999999,-0.2855018941034431
-0.0535189075,-0.2872507326117357
-0.05351556749999999,-0.2851839234655717
-0.0535122275,-0.2863763133575893
-0.0535088875,-0.2889995711200282
-0.05350554749999999,-0.2856608794223788
-0.0535022075,-0.2862968206981215
-0.0534988675,-0.2892380490984264
-0.05349552749999999,-0.2926562334555491
-0.0534921875,-0.2939281160070346
-0.05348884749999999,-0.2918613068608715
-0.05348550749999999,-0.2923382628176777
-0.0534821675,-0.2944845646233095
-0.05347882749999999,-0.2918613068608706
-0.05347548749999999,-0.2915433362229993
-0.0534721475,-0.2913048582445957
-0.05346880749999999,-0.2918613068608706
-0.0534654675,-0.2922587701582099
-0.0534621275,-0.2889200784605604
-0.05345878749999999,-0.2902714536715137
-0.0534554475,-0.2920202921798064
-0.0534521075,-0.2883636298442921
-0.05344876749999999,-0.2947230426017131
-0.0534454275,-0.2944845646233095
-0.05344208749999999,-0.2983797049372394
-0.05343874749999999,-0.301400425997012
-0.0534354075,-0.29631289579107
-0.05343206749999999,-0.2982207196182982
-0.0534287275,-0.2981412269588304
-0.0534253875,-0.2975052856830877
-0.05342204749999999,-0.2985386902561696
-0.0534187075,-0.2953589838774558
-0.0534153675,-0.2963923884505378
-0.05341202749999999,-0.3027518012079654
-0.0534086875,-0.2990951388724445
-0.0534053475,-0.2993336168508476
-0.05340200749999999,-0.2994131095103159
-0.0533986675,-0.2989361535535088
-0.05339532749999999,-0.299890065467118
-0.05339198749999999,-0.2971873150452162
-0.0533886475,-0.2975847783425555
-0.05338530749999999,-0.2998105728076551
-0.0533819675,-0.2990951388724445
-0.0533786275,-0.301400425997012
-0.05337528749999999,-0.3012414406780763
-0.0533719475,-0.3002875287644622
-0.0533686075,-0.3006849920618014
-0.05336526749999999,-0.3009234700402049
-0.0533619275,-0.2979822416398947
-0.05335858749999999,-0.2997310801481981
-0.05335524749999999,-0.3056930296082757
-0.0533519075,-0.302433830570094
-0.05334856749999999,-0.3032287571647724
-0.05334522749999999,-0.3029107865269011
-0.0533418875,-0.3032287571647724
-0.05333854749999999,-0.3030697718458368
-0.0533352075,-0.3013209333375442
-0.0533318675,-0.3033082498242403
-0.05332852749999999,-0.3030697718458368
-0.0533251875,-0.3022748452511583
-0.0533218475,-0.3035467278026415
-0.05331850749999999,-0.304977595673065
-0.0533151675,-0.3133243249171887
-0.05331182749999999,-0.3115754864088882
-0.05330848749999999,-0.3072033901381647
-0.0533051475,-0.3083957800301824
-0.05330180749999999,-0.3103036038574106
-0.05329846749999999,-0.3081573020517788
-0.0532951275,-0.3083957800301824
-0.05329178749999999,-0.3078393314139075
-0.0532884475,-0.3065674488624219
-0.0532851075,-0.308554765349118
-0.05328176749999999,-0.3069649121597611
-0.0532784275,-0.3045801323757258
-0.0532750875,-0.3038646984405165
-0.05327174749999999,-0.3103830965168785
-0.0532684075,-0.3103036038574106
-0.05326506749999999,-0.3112575157710225
-0.05326172749999999,-0.3099856332195393
-0.0532583875,-0.3129268616198495
-0.05325504749999999,-0.3122909203441067
-0.0532517075,-0.3100651258790071
-0.0532483675,-0.3114165010899604
-0.05324502749999999,-0.3107805598142177
-0.0532416875,-0.3104625891763463
-0.0532383475,-0.3114165010899604
-0.05323500749999999,-0.3095086772627322
-0.0532316675,-0.310621574495282
-0.0532283275,-0.3099856332195404
-0.05322498749999999,-0.3091112139653929
-0.0532216475,-0.3098266479006035
-0.05321830749999999,-0.3133243249171887
-0.05321496749999999,-0.3141192515118671
-0.0532116275,-0.3140397588523993
-0.05320828749999999,-0.3128473689603817
-0.0532049475,-0.3153116414038848
-0.0532016075,-0.3148346854470778
-0.05319826749999999,-0.3155501193822884
-0.0531949275,-0.3170604799121775
-0.0531915875,-0.3183323624636629
-0.05318824749999999,-0.3174579432095166
-0.0531849075,-0.3156296120417562
-0.05318156749999999,-0.3150731634254813
-0.05317822749999999,-0.3150731634254813
-0.0531748875,-0.3157885973606919
-0.05317154749999999,-0.313721788214528
-0.05316820749999999,-0.3149141781065456
-0.0531648675,-0.3138012808739958
-0.05316152749999999,-0.3133243249171887
-0.0531581875,-0.314198744171335
-0.0531548475,-0.3126088909819781
-0.05315150749999999,-0.3124499056630424
-0.0531481675,-0.3163450459769668
-0.0531448275,-0.3163450459769668
-0.05314148749999999,-0.3187298257610022
-0.0531381475,-0.3193657670367449
-0.05313480749999999,-0.317298957890585
-0.05313146749999999,-0.3195247523556806
-0.0531281275,-0.3183323624636629
-0.05312478749999999,-0.3178554065068559
-0.05312144749999999,-0.3186503331015343
-0.0531181075,-0.3163450459769668
-0.05311476749999999,-0.3176169285284524
-0.0531114275,-0.3178554065068559
-0.0531080875,-0.3161065679985633
-0.05310474749999999,-0.3180143918257916
-0.0531014075,-0.3157885973606919
-0.0530980675,-0.3170604799121751
-0.05309472749999999,-0.3175374358689845
-0.0530913875,-0.3148346854470778
-0.05308804749999999,-0.3167425092743094
-0.05308470749999999,-0.3185708404420665
-0.0530813675,-0.3175374358689845
-0.05307802749999999,-0.3255661944752368
-0.0530746875,-0.3222275027775873
-0.0530713475,-0.3220685174586516
-0.05306800749999999,-0.3266790917077866
-0.0530646675,-0.3246122825616227
-0.0530613275,-0.3221480101181195
-0.05305798749999999,-0.3227044587343944
-0.0530546475,-0.3215915615018446
-0.0530513075,-0.3227044587343924
-0.05304796749999999,-0.3207171422476983
-0.0530446275,-0.3207966349071661
-0.05304128749999999,-0.3217505468207802
-0.05303794749999999,-0.3189683037394057
-0.0530346075,-0.3196837376746163
-0.05303126749999999,-0.3199222156530198
-0.0530279275,-0.3189683037394057
-0.0530245875,-0.3205581569287626
-0.05302124749999999,-0.3199222156530198
-0.0530179075,-0.3196837376746163
-0.0530145675,-0.3207171422476964
-0.05301122749999999,-0.3087137506680537
-0.0530078875,-0.324930253199494
-0.05300454749999999,-0.3224659807559928
-0.05300120749999999,-0.3234993853290729
-0.0529978675,-0.3246122825616227
-0.05299452749999999,-0.3215915615018446
-0.05299118749999999,-0.3227044587343944
-0.0529878475,-0.3220685174586516
-0.05298450749999999,-0.3219890247991838
-0.0529811675,-0.3226249660749266
-0.0529778275,-0.3210351128855697
