real-diodes-in-T00-L10-D00/100Hz1V/scope.csv

#Digilent WaveForms Oscilloscope Acquisition
#Device Name: Discovery3
#Serial Number: SN:210415BD5874
#Date Time: 2025-04-03 16:13:50.505.236.250
#Sample rate: 344828Hz
#Samples: 32768
#Trigger: Source: Channel 1 Type: Edge Condition: Rising Level: 0 V Hyst.: Auto HoldOff: 0 s
#Channel 1: Range: 200 mV/div Offset: 0 V Sample Mode: Average
#Wavegen Channel 1: Running
#Mode: Simple
#Type: Sine
#Frequency: 100 Hz
#Period: 10 ms
#Amplitude: 1 V
#Offset: 0 V
#Symmetry: 50 %
#Phase: 0 °

Time (s),Channel 1 (V)
-0.03483993285464057,0.2005957185424274
-0.03483703285464057,0.2011521671587023
-0.03483413285464057,0.2006752112018952
-0.03483123285464057,0.198767387374667
-0.03482833285464057,0.1995623139693454
-0.03482543285464057,0.199244343331474
-0.03482253285464057,0.1975749974826493
-0.03481963285464057,0.1989263726936026
-0.03481673285464057,0.1984494167367956
-0.03481383285464057,0.1970980415258422
-0.03481093285464057,0.1974955048231814
-0.03480803285464057,0.1974160121637136
-0.03480513285464057,0.1969390562069065
-0.03480223285464057,0.1951107250391461
-0.03479933285464057,0.1959851442932924
-0.03479643285464057,0.1945542764228712
-0.03479353285464057,0.1942363057849998
-0.03479063285464057,0.1969390562069065
-0.03478773285464057,0.1947927544012747
-0.03478483285464057,0.1928054379145786
-0.03478193285464057,0.1930439158929821
-0.03477903285464057,0.1917720333414966
-0.03477613285464057,0.1916925406820296
-0.03477323285464057,0.1921694966388337
-0.03477033285464057,0.1909771067468154
-0.03476743285464057,0.1894667462169309
-0.03476453285464057,0.190420658130543
-0.03476163285464057,0.1902616728116042
-0.03475873285464057,0.1884333416438504
-0.03475583285464057,0.1894667462169272
-0.03475293285464057,0.1889102976006552
-0.03475003285464057,0.187638415049171
-0.03474713285464057,0.1881153710059749
-0.03474423285464057,0.1870024737734279
-0.03474133285464057,0.1854921132435396
-0.03473843285464057,0.1866050104760867
-0.03473553285464057,0.1858895765408761
-0.03473263285464057,0.1840612453731157
-0.03472973285464057,0.1846971866488584
-0.03472683285464057,0.1846971866488584
-0.03472393285464057,0.1824713921837588
-0.03472103285464057,0.1827893628216302
-0.03471813285464057,0.1831868261189694
-0.03471523285464057,0.1815174802701446
-0.03471233285464057,0.1811995096322733
-0.03470943285464057,0.1819944362269517
-0.03470653285464057,0.1801661050591913
-0.03470363285464057,0.1806430610159983
-0.03470073285464057,0.1809610316538697
-0.03469783285464057,0.1796096564429164
-0.03469493285464057,0.1790532078266414
-0.03469203285464057,0.1794506711239807
-0.03468913285464057,0.1783377738914309
-0.03468623285464057,0.1774633546372845
-0.03468333285464057,0.1805635683565305
-0.03468043285464057,0.1831073334595015
-0.03467753285464057,0.1821534215458874
-0.03467463285464057,0.1815969729296125
-0.03467173285464057,0.1780198032535595
-0.03466883285464057,0.175714516128992
-0.03466593285464057,0.1787352371887701
-0.03466303285464057,0.1785762518698344
-0.03466013285464057,0.17468111155591
-0.03465723285464057,0.17468111155591
-0.03465433285464057,0.1756350234695241
-0.03465143285464057,0.1738066923017637
-0.03464853285464057,0.1735682143233602
-0.03464563285464057,0.1733297363449566
-0.03464273285464057,0.1715014051771962
-0.03463983285464057,0.1715014051771962
-0.03463693285464057,0.1713424198582605
-0.03463403285464057,0.1694345960310323
-0.03463113285464057,0.1695140886905001
-0.03462823285464057,0.1692756107120965
-0.03462533285464057,0.1674472795443361
-0.03462243285464057,0.1679242355011432
-0.03461953285464057,0.1688781474147573
-0.03461663285464057,0.1710244492203916
-0.03461373285464057,0.1723758244313431
-0.03461083285464057,0.1726937950692071
-0.03460793285464057,0.1689576400742194
-0.03460503285464057,0.1657779336955111
-0.03460213285464057,0.165618948376577
-0.03459923285464057,0.1663343823117856
-0.03459633285464057,0.1659369190144478
-0.03459343285464057,0.1646650364629638
-0.03459053285464057,0.1653009777387031
-0.03458763285464057,0.1649035144413658
-0.03458473285464057,0.1629161979546726
-0.03458183285464057,0.1635521392304106
-0.03457893285464057,0.1632341685925404
-0.03457603285464057,0.1606904034895693
-0.03457313285464057,0.1606109108301015
-0.03457023285464057,0.1607698961490372
-0.03456733285464057,0.1589415649812767
-0.03456443285464057,0.1583851163650018
-0.03456153285464057,0.1589415649812767
-0.03455863285464057,0.1577491750892591
-0.03455573285464057,0.1566362778567092
-0.03455283285464057,0.1606904034895693
-0.03454993285464057,0.1625187346573297
-0.03454703285464057,0.1610878667869085
-0.03454413285464057,0.1603724328516979
-0.03454123285464057,0.1587825796623411
-0.03453833285464057,0.1569542484945806
-0.03453543285464057,0.1561593218999022
-0.03453253285464057,0.1556028732836273
-0.03452963285464057,0.1551259173268202
-0.03452673285464057,0.1552849026457559
-0.03452383285464057,0.1557618586025629
-0.03452093285464057,0.1540130200942704
-0.03451803285464057,0.1534565714779955
-0.03451513285464057,0.1530591081806562
-0.03451223285464057,0.1509922990344923
-0.03450933285464057,0.1502768650992817
-0.03450643285464057,0.1502768650992817
-0.03450353285464057,0.1482895486125856
-0.03450063285464057,0.1482100559531177
-0.03449773285464057,0.1482100559531177
-0.03449483285464057,0.1467791880826965
-0.03449193285464057,0.1466202027637608
-0.03448903285464057,0.1466202027637608
-0.03448613285464057,0.1453483202122753
-0.03448323285464057,0.1448713642554682
-0.03448033285464057,0.1451098422338717
-0.03447743285464057,0.1438379596823862
-0.03447453285464057,0.1435199890445149
-0.03447163285464057,0.1441559303202576
-0.03446873285464057,0.1432020184066435
-0.03446583285464057,0.1421686138335615
-0.03446293285464057,0.1428045551093043
-0.03446003285464057,0.1415326725578187
-0.03445713285464057,0.1408172386226081
-0.03445423285464057,0.1413736872388804
-0.03445133285464057,0.1399428193684598
-0.03444843285464057,0.1388299221359132
-0.03444553285464057,0.1394658634116529
-0.03444263285464057,0.1384324588385703
-0.03443973285464057,0.1370810836276203
-0.03443683285464057,0.1375580395844256
-0.03443393285464057,0.1364451423518787
-0.03443103285464057,0.135570723097732
-0.03442813285464057,0.1358886937356012
-0.03442523285464057,0.1351732598003925
-0.03442233285464057,0.1376375322438899
-0.03441943285464057,0.1405787606441992
-0.03441653285464057,0.1418506431956901
-0.03441363285464057,0.1378760102222979
-0.03441073285464057,0.1339808699083735
-0.03440783285464057,0.1334244212920986
-0.03440493285464057,0.1328679726758237
-0.03440203285464057,0.1333449286326307
-0.03439913285464057,0.1332654359731629
-0.03439623285464057,0.1311986268269989
-0.03439333285464057,0.1311191341675311
-0.03439043285464057,0.1308806561891276
-0.03438753285464057,0.1283368910861565
-0.03438463285464057,0.1276214571509459
-0.03438173285464057,0.1274624718320102
-0.03437883285464057,0.1251571847074427
-0.03437593285464057,0.1242032727938286
-0.03437303285464057,0.1245212434317
-0.03437013285464057,0.1226134196044717
-0.03436723285464057,0.1211030590745826
-0.03436433285464057,0.1215005223719219
-0.03436143285464057,0.1199901618420328
-0.03435853285464057,0.1185592939716116
-0.03435563285464057,0.1191157425878865
-0.03435273285464057,0.1176848747174653
-0.03434983285464057,0.1159360362091727
-0.03434693285464057,0.1164129921659798
-0.03434403285464057,0.1160950215281084
-0.03434113285464057,0.1139487197224766
-0.03433823285464057,0.1138692270630088
-0.03433533285464057,0.1128358224899268
-0.03433243285464057,0.1104510427058914
-0.03432953285464057,0.1107690133437628
-0.03432663285464057,0.1094971307922773
-0.03432373285464057,0.1072713363271777
-0.03432083285464057,0.1070328583487741
-0.03431793285464057,0.1056814831378208
-0.03431503285464057,0.1036146739916568
-0.03431213285464057,0.1032172106943176
-0.03430923285464057,0.1017863428238964
-0.03430633285464057,0.09924257772092535
-0.03430343285464057,0.0984476511262469
-0.03430053285464057,0.09749373921263275
-0.03429763285464057,0.09463200347179035
-0.03429473285464057,0.09518845208807278
-0.03429183285464057,0.09932207038039247
-0.03428893285464057,0.09892460708304962
-0.03428603285464057,0.09653982729900878
-0.03428313285464057,0.09113432645519824
-0.03428023285464057,0.08731867880074545
-0.03427733285464057,0.08556984029245547
-0.03427443285464057,0.08525186965458526
-0.03427153285464057,0.08294658253002136
-0.03426863285464057,0.07984636881077686
-0.03426573285464057,0.07913093487556193
-0.03426283285464057,0.07618970647525572
-0.03425993285464057,0.07253304413973616
-0.03425703285464057,0.07086369829090478
-0.03425413285464057,0.06768399191219099
-0.03425123285464057,0.06394783691720229
-0.03424833285464057,0.06227849106837755
-0.03424543285464057,0.05886030671126023
-0.03424253285464057,0.05528313703520722
-0.03423963285464057,0.05329582054851111
-0.03423673285464057,0.0501161141697973
-0.03423383285464057,0.04637995917480861
-0.03423093285464057,0.0449490913043874
-0.03422803285464057,0.04184887758514146
-0.03422513285464057,0.03755627397387784
-0.03422223285464057,0.0353304795087782
-0.03421933285464057,0.03207128047059656
-0.03421643285464057,0.0284146181350757
-0.03421353285464057,0.0262683163294439
-0.03421063285464057,0.02308860995073011
-0.03420773285464057,0.01943194761520925
-0.03420483285464057,0.01712666049064175
-0.03420193285464057,0.0134699981551209
-0.03419903285464057,0.01013130645747142
-0.03419613285464057,0.00798500465183961
-0.03419323285464057,0.004407834975786598
-0.03419033285464057,0.00122812859707281
-0.03418743285464057,-0.0007591878896233081
-0.03418453285464057,-0.004256864906208475
-0.03418163285464057,-0.007595556603857954
-0.03417873285464057,-0.009821351068957606
-0.03417583285464057,-0.01268308680980001
-0.03417293285464057,-0.01641924180478872
-0.03417003285464057,-0.01792960233467777
-0.03416713285464057,-0.01983742616190604
-0.03416423285464057,-0.02087083073498802
-0.03416133285464057,-0.02023488945924526
-0.03415843285464057,-0.0242095224326375
-0.03415553285464057,-0.02730973615188344
-0.03415263285464057,-0.0331127002930361
-0.03414973285464057,-0.03629240667174989
-0.03414683285464057,-0.03915414241259231
-0.03414393285464057,-0.04257232676970962
-0.03414103285464057,-0.04416217995906652
-0.03413813285464057,-0.04781884229458738
-0.03413523285464057,-0.05099854867330117
-0.03413233285464057,-0.05282687984106898
-0.03412943285464057,-0.0568810054739279
-0.03412653285464057,-0.06029918983104363
-0.03412363285464057,-0.06284295493401654
-0.03412073285464057,-0.06642012461006869
-0.03411783285464057,-0.06952033832931233
-0.03411493285464057,-0.07134866949706609
-0.03411203285464057,-0.07436939055684202
-0.03410913285464057,-0.07762858959502322
-0.03410623285464057,-0.07890047214651236
-0.03410333285464057,-0.08255713448202888
-0.03410043285464057,-0.08565734820127584
-0.03409753285464057,-0.08724720139063548
-0.03409463285464057,-0.09026792245041647
-0.03409173285464057,-0.09368610680753378
-0.03408883285464057,-0.09503748201848715
-0.03408593285464057,-0.09766073978092601
-0.03408303285464057,-0.1009994314785755
-0.03408013285464057,-0.1030662406247395
-0.03407723285464057,-0.1050535571114356
-0.03407433285464057,-0.1086307267874886
-0.03407143285464057,-0.1103795652957812
-0.03406853285464057,-0.1124463744419451
-0.03406563285464057,-0.116103036777466
-0.03406273285464057,-0.1178518752857586
-0.03405983285464057,-0.1194417284751155
-0.03405693285464057,-0.123257376129572
-0.03405403285464057,-0.1251651999568003
-0.03405113285464057,-0.1266755604866893
-0.03404823285464057,-0.1297757742059353
-0.03404533285464057,-0.1321605539899706
-0.03404243285464057,-0.1323990319683742
-0.03403953285464057,-0.134545333774006
-0.03403663285464057,-0.1378045328121876
-0.03403373285464057,-0.1393148933420766
-0.03403083285464057,-0.1383609814284625
-0.03402793285464057,-0.1401893125962229
-0.03402503285464057,-0.141699673126112
-0.03402213285464057,-0.1477411152456682
-0.03401923285464057,-0.1525106748137389
-0.03401633285464057,-0.1533850940678851
-0.03401343285464057,-0.1546569766193707
-0.03401053285464057,-0.1581546536359558
-0.03400763285464057,-0.1605394334199912
-0.03400473285464057,-0.1617318233120089
-0.03400183285464057,-0.1650705150096583
-0.03399893285464057,-0.1679322507505007
-0.03399603285464057,-0.1691246406425184
-0.03399313285464057,-0.1723838396807
-0.03399023285464057,-0.1755635460594138
-0.03398733285464057,-0.1763584726540923
-0.03398443285464057,-0.1791407157354668
-0.03398153285464057,-0.1820024514763093
-0.03397863285464057,-0.1833538266872626
-0.03397573285464057,-0.1853411431739587
-0.03397283285464057,-0.1885208495526728
-0.03396993285464057,-0.1886798348716046
-0.03396703285464057,-0.1866925183849153
-0.03396413285464057,-0.1884413568932063
-0.03396123285464057,-0.189315776147358
-0.03395833285464057,-0.1932109164612852
-0.03395543285464057,-0.198616417305092
-0.03395253285464057,-0.2003652558133782
-0.03394963285464057,-0.2007627191107199
-0.03394673285464057,-0.2029885135758162
-0.03394383285464057,-0.2061682199545283
-0.03394093285464057,-0.2062477126140017
-0.03393803285464057,-0.2084735070790975
-0.03393513285464057,-0.2116532134578095
-0.03393223285464057,-0.2126866180308973
-0.03392933285464057,-0.2145944418581256
-0.03392643285464057,-0.2180126262152429
-0.03392353285464057,-0.2192050161072606
-0.03392063285464057,-0.2207948692966175
-0.03391773285464057,-0.2229411711022493
-0.03391483285464057,-0.2228616784427814
-0.03391193285464057,-0.2245310242916062
-0.03390903285464057,-0.2297775398164839
-0.03390613285464057,-0.2300955104543553
-0.03390323285464057,-0.2279492086487235
-0.03390033285464057,-0.2276312380108521
-0.03389743285464057,-0.2289031205623376
-0.03389453285464057,-0.2310494223679694
-0.03389163285464057,-0.2362959378928472
-0.03388873285464057,-0.2399526002283681
-0.03388583285464057,-0.2401910782067716
-0.03388293285464057,-0.2408270194825143
-0.03388003285464057,-0.2434502772449532
-0.03387713285464057,-0.2449606377748423
-0.03387423285464057,-0.2454375937316493
-0.03387133285464057,-0.2484583147914274
-0.03386843285464057,-0.2503661386186557
-0.03386553285464057,-0.2513995431917377
-0.03386263285464057,-0.2541817862731123
-0.03385973285464057,-0.2566460587166154
-0.03385683285464057,-0.2574409853112939
-0.03385393285464057,-0.2593488091385222
-0.03385103285464057,-0.2620515595604289
-0.03384813285464057,-0.2622900375388324
-0.03384523285464057,-0.2635619200903179
-0.03384233285464057,-0.2665031484906282
-0.03383943285464057,-0.2657082218959497
-0.03383653285464057,-0.2633234421119144
-0.03383363285464057,-0.2646748173228677
-0.03383073285464057,-0.2653902512580784
-0.03382783285464057,-0.2697623475288098
-0.03382493285464057,-0.2737369805022021
-0.03382203285464057,-0.2746908924158162
-0.03381913285464057,-0.2740549511400734
-0.03381623285464057,-0.2767577015619802
-0.03381333285464057,-0.2776321208161264
-0.03381043285464057,-0.2778705987945337
-0.03380753285464057,-0.2799374079406965
-0.03380463285464057,-0.2813682758111196
-0.03380173285464057,-0.283832548254622
-0.03379883285464057,-0.2858198647413178
-0.03379593285464057,-0.2876481959090741
-0.03379303285464057,-0.2872507326117364
-0.03379013285464057,-0.2878071812280096
-0.03378723285464057,-0.2905099316499123
-0.03378433285464057,-0.2932126820718191
-0.03378143285464057,-0.2944050719638395
-0.03377853285464057,-0.2963128957910665
-0.03377563285464057,-0.2959154324937315
-0.03377273285464057,-0.2939281160070346
-0.03376983285464057,-0.2938486233475668
-0.03376693285464057,-0.2946435499422452
-0.03376403285464057,-0.2968693444073449
-0.03376113285464057,-0.3017978892943513
-0.03375823285464057,-0.3040236837594509
-0.03375533285464057,-0.3032287571647724
-0.03375243285464057,-0.3044211470567901
-0.03374953285464057,-0.3069649121597611
-0.03374663285464057,-0.3071238974786968
-0.03374373285464057,-0.3079983167328431
-0.03374083285464057,-0.3108600524736855
-0.03373793285464057,-0.3111780231115569
-0.03373503285464057,-0.3123704130035746
-0.03373213285464057,-0.3156296120417562
-0.03372923285464057,-0.3164245386364347
-0.03372633285464057,-0.3171399725716453
-0.03372343285464057,-0.3195247523556806
-0.03372053285464057,-0.3206376495882304
-0.03371763285464057,-0.3206376495882304
-0.03371473285464057,-0.3231019220317336
-0.03371183285464057,-0.3234993853290729
-0.03370893285464057,-0.3219890247991838
-0.03370603285464057,-0.3205581569287626
-0.03370313285464057,-0.3207966349071661
-0.03370023285464057,-0.3212735908639732
-0.03369733285464057,-0.3258046724536404
-0.03369443285464057,-0.3289048861728863
-0.03369153285464057,-0.3293023494702255
-0.03368863285464057,-0.3291433641512898
-0.03368573285464057,-0.3310511879785181
-0.03368283285464057,-0.3319256072326644
-0.03367993285464057,-0.3320050998921322
-0.03367703285464057,-0.3344693723356354
-0.03367413285464057,-0.3359002402060566
-0.03367123285464057,-0.3366156741412673
-0.03366833285464057,-0.3383645126495598
-0.03366543285464057,-0.3376490787143492
-0.03366253285464057,-0.3390004539253026
-0.03365963285464057,-0.3430545795581627
-0.03365673285464057,-0.3439289988123089
-0.03365383285464057,-0.3437700134933733
-0.03365093285464057,-0.3448034180664583
-0.03364803285464057,-0.3464727639152787
-0.03364513285464057,-0.3457573299800646
-0.03364223285464057,-0.3431340722176299
-0.03363933285464057,-0.3428161015797589
-0.03363643285464057,-0.3427366089202971
-0.03363353285464057,-0.3459163152990137
-0.03363063285464057,-0.3506858748670671
-0.03362773285464057,-0.3505268895481403
-0.03362483285464057,-0.3509243528454786
-0.03362193285464057,-0.3527526840132364
-0.03361903285464057,-0.3528321766727074
-0.03361613285464057,-0.3537065959268522
-0.03361323285464057,-0.3560913757108848
-0.03361033285464057,-0.3560913757108892
-0.03360743285464057,-0.3569657949650355
-0.03360453285464057,-0.3599865160248136
-0.03360163285464057,-0.3603044866626849
-0.03359873285464057,-0.3606224573005563
-0.03359583285464057,-0.3630867297440595
-0.03359293285464057,-0.3634841930413987
-0.03359003285464057,-0.3638021636792701
-0.03358713285464057,-0.365392016868627
-0.03358423285464057,-0.3660279581443698
-0.03358133285464057,-0.3662664361227733
-0.03357843285464057,-0.3653125242091592
-0.03357553285464057,-0.3626892664467203
-0.03357263285464057,-0.3626097737872525
-0.03356973285464057,-0.3644381049550129
-0.03356683285464057,-0.3696846204798906
-0.03356393285464057,-0.3702410690961656
-0.03356103285464057,-0.3707180250529726
-0.03355813285464057,-0.3719104149449903
-0.03355523285464057,-0.3719104149449903
-0.03355233285464057,-0.3727848341991365
-0.03354943285464057,-0.3745336727074292
-0.03354653285464057,-0.3745336727074292
-0.03354363285464057,-0.3751696139831719
-0.03354073285464057,-0.3755670772805111
-0.03353783285464057,-0.3764414965346574
-0.03353493285464057,-0.3786672909997571
-0.03353203285464057,-0.3806546074864532
-0.03352913285464057,-0.3816085194000673
-0.03352623285464057,-0.3810520707837924
-0.03352333285464057,-0.3818469973784709
-0.03352043285464057,-0.3834368505678278
-0.03351753285464057,-0.3835958358867634
-0.03351463285464057,-0.3824829386542136
-0.03351173285464057,-0.3804956221675175
-0.03350883285464057,-0.3804956221675175
-0.03350593285464057,-0.3800981588701783
-0.03350303285464057,-0.3837548212056991
-0.03350013285464057,-0.3867755422654772
-0.03349723285464057,-0.3881269174764306
-0.03349433285464057,-0.3868550349249451
-0.03349143285464057,-0.3879679321574949
-0.03348853285464057,-0.3897962633252551
-0.03348563285464057,-0.3896372780063206
-0.03348273285464057,-0.390193726622599
-0.03347983285464057,-0.3926579990660972
-0.03347693285464057,-0.3923400284282281
-0.03347403285464057,-0.3932939403418446
-0.03347113285464057,-0.3955197348069361
-0.03346823285464057,-0.3951222715096017
-0.03346533285464057,-0.3954402421474718
-0.03346243285464057,-0.397109587996294
-0.03345953285464057,-0.3973480659747001
-0.03345663285464057,-0.3972685733152329
-0.03345373285464057,-0.3992558898019253
