-20250406-BKP/synth-diodes-4f-1r-in-T10-L10-D00/100Hz-2V/scope.csv

#Digilent WaveForms Oscilloscope Acquisition
#Device Name: Discovery3
#Serial Number: SN:210415BD5874
#Date Time: 2025-04-06 20:09:22.769.569.720
#Sample rate: 208333Hz
#Samples: 32768
#Trigger: Source: Channel 1 Type: Edge Condition: Rising Level: 0 V Hyst.: Auto HoldOff: 0 s
#Channel 1: Range: 200 mV/div Offset: 0 V Sample Mode: Average
#Wavegen Channel 1: Running
#Mode: Simple
#Type: Sine
#Frequency: 100 Hz
#Period: 10 ms
#Amplitude: 2 V
#Offset: 0 V
#Symmetry: 50 %
#Phase: 0 °

Time (s),Channel 1 (V)
-0.0914949705670729,-0.1037021819004822
-0.0914901705670729,-0.1011584167975112
-0.0914853705670729,-0.09893262233241154
-0.0914805705670729,-0.1064049323223889
-0.0914757705670729,-0.1153081101827876
-0.0914709705670729,-0.1119694184851381
-0.0914661705670729,-0.1025892846679494
-0.0914613705670729,-0.1028277626463355
-0.0914565705670729,-0.1064844249818501
-0.0914517705670729,-0.1035431965815519
-0.0914469705670729,-0.1040996451978204
-0.09144217056707291,-0.1042586305167568
-0.09143737056707291,-0.1044176158356925
-0.09143257056707291,-0.1037021819004835
-0.09142777056707291,-0.1036226892410145
-0.09142297056707291,-0.09599139393211516
-0.09141817056707291,-0.0985351590350677
-0.09141337056707291,-0.108948697425341
-0.09140857056707291,-0.1141952129502186
-0.09140377056707291,-0.1039406598789231
-0.09139897056707291,-0.1005224755217809
-0.09139417056707291,-0.1049740644519515
-0.09138937056707291,-0.1036226892410193
-0.09138457056707291,-0.1040201525383522
-0.09137977056707292,-0.1027482699868727
-0.09137497056707292,-0.103304718603141
-0.09137017056707292,-0.1021123287111297
-0.09136537056707292,-0.1025892846679307
-0.09136057056707289,-0.1008404461596443
-0.09135577056707289,-0.1033047186031392
-0.09135097056707289,-0.1012379094569815
-0.09134617056707289,-0.1025892846679327
-0.09134137056707289,-0.1027482699868681
-0.09133657056707289,-0.1020328360516575
-0.0913317705670729,-0.1025892846679324
-0.0913269705670729,-0.09988653424602567
-0.0913221705670729,-0.1015558800948504
-0.0913173705670729,-0.1017148654137861
-0.0913125705670729,-0.1017943580732539
-0.0913077705670729,-0.1003634902028327
-0.0913029705670729,-0.1026687773274002
-0.0912981705670729,-0.09996602690549351
-0.0912933705670729,-0.09789921775932955
-0.0912885705670729,-0.09901211499187736
-0.0912837705670729,-0.1109360139120344
-0.0912789705670729,-0.115467095501715
-0.0912741705670729,-0.1064049323224054
-0.0912693705670729,-0.1014763874353915
-0.09126457056707291,-0.103225225943672
-0.09125977056707291,-0.1051330497709
-0.09125497056707291,-0.1022713140300662
-0.09125017056707291,-0.1018738507327225
-0.09124537056707291,-0.1016353727543187
-0.09124057056707291,-0.1011584167975121
-0.09123577056707291,-0.1003634902028342
-0.09123097056707291,-0.1011584167975083
-0.09122617056707291,-0.09678632052679563
-0.09122137056707291,-0.09813769573772818
-0.09121657056707291,-0.09948907094868154
-0.09121177056707291,-0.1019533433921807
-0.09120697056707291,-0.1025892846679301
-0.09120217056707292,-0.1036226892410106
-0.09119737056707292,-0.1029072553058064
-0.09119257056707292,-0.1022713140300633
-0.09118777056707292,-0.1037816745599446
-0.09118297056707289,-0.101714865413789
-0.09117817056707289,-0.1033047186031392
-0.09117337056707289,-0.1012379094569748
-0.09116857056707289,-0.09893262233240503
-0.09116377056707289,-0.09535545265635853
-0.09115897056707289,-0.09670682786731188
-0.0911541705670729,-0.1060074690250497
-0.0911493705670729,-0.1120489111446059
-0.0911445705670729,-0.1098231166795063
-0.0911397705670729,-0.09384509212646948
-0.0911349705670729,-0.09646834988890834
-0.0911301705670729,-0.09591190127263344
-0.0911253705670729,-0.09344762882913026
-0.0911205705670729,-0.09289118021285533
-0.0911157705670729,-0.09519646733742283
-0.0911109705670729,-0.09519646733742283
-0.0911061705670729,-0.09432204808327814
-0.0911013705670729,-0.09622987191050135
-0.0910965705670729,-0.09416306276434461
-0.0910917705670729,-0.09662733520783956
-0.09108697056707291,-0.09702479850518254
-0.09108217056707291,-0.09758124712145716
-0.09107737056707291,-0.09678632052678117
-0.09107257056707291,-0.09559393063476422
-0.09106777056707291,-0.09384509212647266
-0.09106297056707291,-0.09495798935901728
-0.09105817056707291,-0.0922552389371175
-0.09105337056707291,-0.09185777563977481
-0.09104857056707291,-0.09209625361817601
-0.09104377056707291,-0.09209625361817689
-0.09103897056707291,-0.09169879032083911
-0.09103417056707291,-0.08994995181255144
-0.09102937056707291,-0.09058589308828552
-0.09102457056707292,-0.0978197250998354
-0.09101977056707292,-0.1098231166794626
-0.09101497056707292,-0.0988531296729836
-0.09101017056707292,-0.0925732095750068
-0.09100537056707289,-0.09376559946700654
-0.09100057056707289,-0.09646834988890458
-0.09099577056707289,-0.09440154074274294
-0.09099097056707289,-0.09360661414806594
-0.09098617056707289,-0.08971147383414155
-0.09098137056707289,-0.09042690776935215
-0.0909765705670729,-0.0912218343640306
-0.0909717705670729,-0.09233473159658043
-0.0909669705670729,-0.09201676095870905
-0.0909621705670729,-0.09448103340221223
-0.0909573705670729,-0.09026792245041647
-0.0909525705670729,-0.09026792245041647
-0.0909477705670729,-0.09153980500190198
-0.0909429705670729,-0.09050640042881999
-0.0909381705670729,-0.09153980500190198
-0.0909333705670729,-0.09138081968296657
-0.0909285705670729,-0.0910628490450955
-0.0909237705670729,-0.09090386372615951
-0.0909189705670729,-0.09090386372615922
-0.09091417056707291,-0.08907553255840213
-0.09090937056707291,-0.0908243710666882
-0.09090457056707291,-0.08843959128266038
-0.09089977056707291,-0.08565734820128654
-0.09089497056707291,-0.09567342329421168
-0.09089017056707291,-0.1037816745599353
-0.09088537056707291,-0.09392458478595525
-0.09088057056707291,-0.08684973809331201
-0.09087577056707291,-0.08708821607170179
-0.09087097056707291,-0.08677024543383245
-0.09086617056707291,-0.08740618670957173
-0.09086137056707291,-0.08828060596371716
-0.09085657056707291,-0.08963198117466879
-0.09085177056707291,-0.08875756192053059
-0.09084697056707292,-0.08796263532585186
-0.09084217056707292,-0.08438546564980898
-0.09083737056707292,-0.08239814916310706
-0.09083257056707292,-0.08684973809328295
-0.09082777056707289,-0.09328864351020091
-0.09082297056707289,-0.09678632052675673
-0.09081817056707289,-0.08414698767138735
-0.09081337056707289,-0.08136474459001786
-0.09080857056707289,-0.0837495243740532
-0.09080377056707289,-0.08390850969298888
-0.0907989705670729,-0.08080829597374294
-0.0907941705670729,-0.08279561246043905
-0.0907893705670729,-0.08168271522788924
-0.0907845705670729,-0.0821596711846963
-0.0907797705670729,-0.08120575927108216
-0.0907749705670729,-0.08096728129267863
-0.0907701705670729,-0.0792979354438539
-0.0907653705670729,-0.08684973809329914
-0.0907605705670729,-0.09368610680753378
-0.0907557705670729,-0.08859857660160098
-0.0907509705670729,-0.08184170054683722
-0.0907461705670729,-0.08025184735747092
-0.0907413705670729,-0.08287510511990213
-0.09073657056707291,-0.082318656503633
-0.09073177056707291,-0.08279561246043818
-0.09072697056707291,-0.07993387671960185
-0.09072217056707291,-0.08231865650362764
-0.09071737056707291,-0.0808877886332134
-0.09071257056707291,-0.08064931065480768
-0.09070777056707291,-0.07746960427609925
-0.09070297056707291,-0.08025184735746296
-0.09069817056707291,-0.09074487840718536
-0.09069337056707291,-0.09344762882912042
-0.09068857056707291,-0.08351104639568581
-0.09068377056707291,-0.07842351618972611
-0.09067897056707291,-0.08406749501190404
-0.09067417056707291,-0.08088778863322237
-0.09066937056707292,-0.08025184735747035
-0.09066457056707292,-0.07842351618971424
-0.09065977056707292,-0.0771516336382267
-0.09065497056707292,-0.07635670704354652
-0.09065017056707289,-0.07786706757343066
-0.09064537056707289,-0.0767541703408765
-0.09064057056707289,-0.07325649332431287
-0.09063577056707289,-0.08160322256842138
-0.09063097056707289,-0.0912218343640306
-0.09062617056707289,-0.08804212798531681
-0.0906213705670729,-0.08049032533587157
-0.0906165705670729,-0.08112626661161432
-0.0906117705670729,-0.08319307575777828
-0.0906069705670729,-0.08406749501192458
-0.0906021705670729,-0.08041083267640371
-0.0905973705670729,-0.08184170054682492
-0.0905925705670729,-0.08096728129267863
-0.0905877705670729,-0.08072880331427509
-0.0905829705670729,-0.07921844278438604
-0.0905781705670729,-0.08104677395214314
-0.0905733705670729,-0.07492583917313356
-0.0905685705670729,-0.08653176745540665
-0.0905637705670729,-0.09320915085071457
-0.09055897056707291,-0.0847829289471505
-0.09055417056707291,-0.07937742810333157
-0.09054937056707291,-0.08343155373617445
-0.09054457056707291,-0.08351104639564952
-0.09053977056707291,-0.08176220788736026
-0.09053497056707291,-0.07937742810332608
-0.09053017056707291,-0.07731061895716153
-0.09052537056707291,-0.07826453087077018
-0.09052057056707291,-0.07746960427609635
-0.09051577056707291,-0.0745283758757939
-0.09051097056707291,-0.06999729428613255
-0.09050617056707291,-0.08009286203849561
-0.09050137056707291,-0.09082437106665234
-0.09049657056707291,-0.08653176745544337
-0.09049177056707292,-0.07603873640571043
-0.09048697056707292,-0.07468736119472381
-0.09048217056707292,-0.07826453087075889
-0.09047737056707292,-0.07746960427609635
-0.09047257056707289,-0.07635670704354176
-0.09046777056707289,-0.07532330247046397
-0.09046297056707289,-0.07659518502194414
-0.09045817056707289,-0.07492583917312243
-0.09045337056707289,-0.07619772172460795
-0.09044857056707289,-0.07301801534589415
-0.0904437705670729,-0.07484634651365459
-0.0904389705670729,-0.08581633352021716
-0.0904341705670729,-0.08883705457999526
-0.0904293705670729,-0.08056981799533941
-0.0904245705670729,-0.07341547864323338
-0.0904197705670729,-0.07150765481600511
-0.0904149705670729,-0.07254105938908709
-0.0904101705670729,-0.07087171354026235
-0.0904053705670729,-0.06848693375622701
-0.0904005705670729,-0.0675330218426146
-0.0903957705670729,-0.07270004470801339
-0.0903909705670729,-0.06721505120475148
-0.0903861705670729,-0.06602266131272599
-0.09038137056707291,-0.06387635950709591
-0.09037657056707291,-0.06991780162663723
-0.09037177056707291,-0.08025184735744922
-0.09036697056707291,-0.08009286203853264
-0.09036217056707291,-0.07023577226453752
-0.09035737056707291,-0.06896388971303639
-0.09035257056707291,-0.07341547864322528
-0.09034777056707291,-0.07174613279441168
-0.09034297056707291,-0.07118968417813576
-0.09033817056707291,-0.06904338237250973
-0.09033337056707291,-0.06824845577782636
-0.09032857056707291,-0.0692818603509017
-0.09032377056707291,-0.07007678694558102
-0.09031897056707291,-0.06697657322634924
-0.09031417056707292,-0.06840744109675397
-0.09030937056707292,-0.06522773471805696
-0.09030457056707292,-0.06021969717158938
-0.09029977056707292,-0.06125310174464937
-0.09029497056707289,-0.06634063195059245
-0.09029017056707289,-0.06483027142071267
-0.09028537056707289,-0.06840744109676178
-0.09028057056707289,-0.06983830896718037
-0.09027577056707289,-0.07071272822132667
-0.09027097056707289,-0.07174613279440864
-0.0902661705670729,-0.07047425024292313
-0.0902613705670729,-0.06586367599378813
-0.0902565705670729,-0.06530722737751322
-0.0902517705670729,-0.05886832196061779
-0.0902469705670729,-0.06212752099879942
-0.0902421705670729,-0.07317700066482985
-0.0902373705670729,-0.07357446396216907
-0.0902325705670729,-0.064909764080174
-0.0902277705670729,-0.06204802833933158
-0.0902229705670729,-0.06689708056686129
-0.0902181705670729,-0.05990172653371251
-0.0902133705670729,-0.06093513110677987
-0.0902085705670729,-0.06101462376624946
-0.09020377056707291,-0.061173609085185
-0.09019897056707291,-0.0606966531283791
-0.09019417056707291,-0.06236599897719992
-0.09018937056707291,-0.06180955036092907
-0.09018457056707291,-0.06149157972305725
-0.09017977056707291,-0.05831187334434867
-0.09017497056707291,-0.05672202015498889
-0.09017017056707291,-0.05831187334433999
-0.09016537056707291,-0.055609122922446
-0.09016057056707291,-0.05688100547391705
-0.09015577056707291,-0.05767593206859723
-0.09015097056707291,-0.05815288802540546
-0.09014617056707291,-0.05537064494404275
-0.09014137056707291,-0.05513216696562997
-0.09013657056707292,-0.05330383579787532
-0.09013177056707292,-0.05338332845733622
-0.09012697056707292,-0.05234992388425828
-0.09012217056707292,-0.04463913591590165
-0.09011737056707289,-0.04686493038098871
-0.09011257056707289,-0.05537064494402901
-0.09010777056707289,-0.05338332845731959
-0.09010297056707289,-0.04408268729959867
-0.09009817056707289,-0.04161841485609549
-0.09009337056707289,-0.0377232745421711
-0.0900885705670729,-0.03597443603387852
-0.0900837705670729,-0.03589494337441067
-0.0900789705670729,-0.03263574433622904
-0.0900741705670729,-0.03454356816345731
-0.0900693705670729,-0.0348615388013287
-0.0900645705670729,-0.03247675901729336
-0.0900597705670729,-0.03215878837942197
-0.0900549705670729,-0.02953553061698309
-0.0900501705670729,-0.02460698572997672
-0.0900453705670729,-0.02571988296252452
-0.0900405705670729,-0.02611734625986505
-0.0900357705670729,-0.01856554361043426
-0.0900309705670729,-0.01888351424829133
-0.09002617056707291,-0.0142729399991653
-0.09002137056707291,-0.009264902452691803
-0.09001657056707291,-0.01013932170682739
-0.09001177056707291,-0.005290269479299277
-0.09000697056707291,0.001069143278125553
-0.09000217056707291,-0.0003617245922814818
-0.08999737056707291,0.006395151462470426
-0.08999257056707291,0.01450340272818813
-0.08998777056707291,0.01331101283618955
-0.08998297056707291,0.004487327635286545
-0.08997817056707291,0.008382467949164663
-0.08997337056707291,0.01458289538764817
-0.08996857056707291,0.02730172090247961
-0.08996377056707291,0.02682476494572054
-0.08995897056707292,0.02507592643743259
-0.08995417056707292,0.03278671440577911
-0.08994937056707292,0.04065648769309516
-0.08994457056707292,0.03660236206027846
-0.08993977056707289,0.04359771609343983
-0.08993497056707289,0.04677742247214479
-0.08993017056707289,0.04510807662333944
-0.08992537056707289,0.05409074714318955
-0.08992057056707289,0.05393176182425385
-0.08991577056707289,0.050275099488733
-0.0899109705670729,0.0570319755434998
-0.0899061705670729,0.06084762319795635
-0.0899013705670729,0.05758842415977472
-0.0898965705670729,0.06990978637729064
-0.0898917705670729,0.06927384510154788
-0.0898869705670729,0.06990978637729064
-0.0898821705670729,0.07897194955662494
-0.0898773705670729,0.08080028072438537
-0.0898725705670729,0.0780180376430108
-0.0898677705670729,0.09208823836879372
-0.0898629705670729,0.09208823836881931
-0.0898581705670729,0.09041889251999762
-0.0898533705670729,0.09518845208805658
-0.08984857056707291,0.09010092188213245
-0.08984377056707291,0.095188452088056
-0.08983897056707291,0.1138692270629748
-0.08983417056707291,0.1084637262192052
-0.08982937056707291,0.1071918436677121
-0.08982457056707291,0.1226134196044436
-0.08981977056707291,0.121739000350327
-0.08981497056707291,0.1213415370529869
-0.08981017056707291,0.1353322451192759
-0.08980537056707291,0.1309601488486113
-0.08980057056707291,0.1308806561891278
-0.08979577056707291,0.1412147019199098
-0.08979097056707291,0.1375580395844398
-0.08978617056707291,0.1380349955412318
-0.08978137056707292,0.1486075192504185
-0.08977657056707292,0.1459842614880276
-0.08977177056707292,0.1455073055312127
-0.08976697056707292,0.1594185209380332
-0.08976217056707289,0.1555233806241679
-0.08975737056707289,0.1602134475327779
-0.08975257056707289,0.1687986547552841
-0.08974777056707289,0.1658574263549792
-0.08974297056707289,0.1678447428416753
-0.08973817056707289,0.1792121931455772
-0.0897333705670729,0.176747920702074
-0.0897285705670729,0.1841407380325835
-0.0897237705670729,0.1825508848432266
-0.0897189705670729,0.1714219125177284
-0.0897141705670729,0.1851741426056655
-0.0897093705670729,0.1955081883364853
-0.0897045705670729,0.1894667462169291
-0.0896997705670729,0.1973365195042457
-0.0896949705670729,0.2045703515158196
-0.0896901705670729,0.1979724607800005
-0.0896853705670729,0.2069551312998386
-0.0896805705670729,0.2120426615057878
-0.0896757705670729,0.2079885358729443
-0.08967097056707291,0.2213433026635105
-0.08966617056707291,0.2249204723395813
-0.08966137056707291,0.2176071476685594
-0.08965657056707291,0.2288951053129595
-0.08965177056707291,0.2289745979724478
-0.08964697056707291,0.2222972145771611
-0.08964217056707291,0.2373213272165443
-0.08963737056707291,0.2381957464707163
-0.08963257056707291,0.2315183630754432
-0.08962777056707291,0.2424883500819416
-0.08962297056707291,0.2454295784822811
-0.08961817056707291,0.2383547317896793
-0.08961337056707291,0.2546507269805025
-0.08960857056707291,0.2526634104938729
-0.08960377056707292,0.2519479765586576
-0.08959897056707292,0.2684824497279066
-0.08959417056707292,0.2568765214457037
-0.08958937056707292,0.2459065344391388
-0.08958457056707289,0.2648257873924502
-0.08957977056707289,0.2672105671764692
-0.08957497056707289,0.2606126764406708
-0.08957017056707289,0.2719801267445519
-0.08956537056707289,0.2673695524954169
-0.08956057056707289,0.2625999929273463
-0.0895557705670729,0.2736494725933767
-0.0895509705670729,0.2685619423874346
-0.0895461705670729,0.2676080304738205
-0.0895413705670729,0.2725365753608268
-0.0895365705670729,0.2672900598359491
-0.0895317705670729,0.2621230369705392
-0.0895269705670729,0.2677670157927561
-0.0895221705670729,0.2597382571865038
-0.0895173705670729,0.2552866682563045
-0.0895125705670729,0.2550481902779014
-0.0895077705670729,0.2496426894340974
-0.0895029705670729,0.2428063207198654
-0.0894981705670729,0.2427268280603852
-0.08949337056707291,0.2362879226435013
-0.08948857056707291,0.2305644511618152
-0.08948377056707291,0.2249999649990658
-0.08947897056707291,0.22174076596088
-0.08947417056707291,0.2153813532034581
-0.08946937056707291,0.2128375881004801
-0.08946457056707291,0.2032984689643514
-0.08945977056707291,0.19272594525513
-0.08945497056707291,0.1949517397202023
-0.08945017056707291,0.1972570268447695
-0.08944537056707291,0.1907386287684383
-0.08944057056707291,0.1866845031355693
-0.08943577056707291,0.1840612453731252
-0.08943097056707291,0.1804840756970757
-0.08942617056707292,0.1788942225077115
-0.08942137056707292,0.1754760381506009
-0.08941657056707292,0.1751580675127182
-0.08941177056707292,0.1719783611340149
-0.08940697056707289,0.1699910446472921
-0.08940217056707289,0.1617238080626483
-0.08939737056707289,0.1600544622138159
-0.08939257056707289,0.1541720054132061
-0.08938777056707289,0.1542514980726739
-0.08938297056707289,0.1513897623318315
-0.0893781705670729,0.1504358504182174
-0.0893733705670729,0.1456662908501467
-0.0893685705670729,0.1442354229797255
-0.0893637705670729,0.1411352092604795
-0.0893589705670729,0.1415326725578187
-0.0893541705670729,0.1415326725578187
-0.0893493705670729,0.1412147019199474
-0.0893445705670729,0.1370810836276194
-0.0893397705670729,0.1380349955412336
-0.0893349705670729,0.1345373185246548
-0.0893301705670729,0.133583406611036
-0.0893253705670729,0.1323115240595511
-0.0893205705670729,0.1328679726758227
-0.08931577056707291,0.1326294946974206
-0.08931097056707291,0.1331064506542264
-0.08930617056707291,0.1308806561891316
-0.08930137056707291,0.131039641508063
-0.08929657056707291,0.1293702956592415
-0.08929177056707291,0.1293702956592385
-0.08928697056707291,0.1279394277888199
-0.08928217056707291,0.1282573984266881
-0.08927737056707291,0.1242032727938433
-0.08927257056707291,0.1215005223719317
-0.08926777056707291,0.120228639820441
-0.08926297056707291,0.1211030590745795
-0.08925817056707291,0.1217390003503231
-0.08925337056707291,0.1205466104583121
-0.08924857056707292,0.1231698682207371
-0.08924377056707292,0.1232493608802142
-0.08923897056707292,0.1242032727938251
-0.08923417056707292,0.1221364636476721
-0.08922937056707289,0.1240442874748899
-0.08922457056707289,0.1223749416260674
-0.08921977056707289,0.1219774783287272
-0.08921497056707289,0.1210235664151148
-0.08921017056707289,0.1230108829018109
