-20250405-BKP/real-diodes-out/1kHz5V/scope.csv

#Digilent WaveForms Oscilloscope Acquisition
#Device Name: Discovery3
#Serial Number: SN:210415BD5874
#Date Time: 2025-04-03 19:58:01.194.308.270
#Sample rate: 3.22581e+06Hz
#Samples: 32768
#Trigger: Source: Channel 1 Type: Edge Condition: Rising Level: 0 V Hyst.: Auto HoldOff: 0 s
#Channel 1: Range: 200 mV/div Offset: 0 V Sample Mode: Average
#Wavegen Channel 1: Running
#Mode: Simple
#Type: Sine
#Frequency: 1 kHz
#Period: 1 ms
#Amplitude: 5 V
#Offset: 0 V
#Symmetry: 50 %
#Phase: 0 °

Time (s),Channel 1 (V)
-0.001567547510588617,0.6060877744879033
-0.001567237510588617,0.6049748772553535
-0.001566927510588617,0.6006027809846219
-0.001566617510588617,0.605372340552684
-0.001566307510588616,0.6032260387470564
-0.001565997510588616,0.6007617663035636
-0.001565687510588617,0.6040209653417393
-0.001565377510588617,0.6007617663035577
-0.001565067510588617,0.6009207516224934
-0.001564757510588617,0.6030670534281252
-0.001564447510588617,0.5983769865195223
-0.001564137510588617,0.6017156782171657
-0.001563827510588617,0.6017951708766396
-0.001563517510588616,0.5980590158816553
-0.001563207510588617,0.6004437956656863
-0.001562897510588617,0.5989334351357972
-0.001562587510588617,0.5965486553517619
-0.001562277510588617,0.5992514057736686
-0.001561967510588617,0.5965486553517619
-0.001561657510588617,0.5963896700328265
-0.001561347510588617,0.5987744498168572
-0.001561037510588616,0.5948793095029383
-0.001560727510588617,0.5955152507786799
-0.001560417510588617,0.5955947434381478
-0.001560107510588617,0.5926535150378375
-0.001559797510588617,0.594481846205598
-0.001559487510588617,0.5936074269514516
-0.001559177510588617,0.5924150370594362
-0.001558867510588617,0.5930509783351756
-0.001558557510588616,0.5913021398268846
-0.001558247510588617,0.5915406178052877
-0.001557937510588617,0.5926535150378375
-0.001557627510588617,0.5894738086591237
-0.001557317510588617,0.5905072132322057
-0.001557007510588617,0.5916996031242234
-0.001556697510588617,0.5893943159996559
-0.001556387510588617,0.5894738086591236
-0.001556077510588616,0.5893148233401877
-0.001555767510588617,0.5891558380212523
-0.001555457510588617,0.5890763453617845
-0.001555147510588617,0.5871685215345562
-0.001554837510588617,0.5877249701508311
-0.001554527510588617,0.5874864921724277
-0.001554217510588617,0.5851017123883923
-0.001553907510588617,0.586771058237214
-0.001553597510588616,0.585737653664133
-0.001553287510588617,0.5846247564315851
-0.001552977510588617,0.5845452637721174
-0.001552667510588617,0.5843067857937139
-0.001552357510588617,0.5841478004747781
-0.001552047510588617,0.582637439944889
-0.001551737510588617,0.5823989619664856
-0.001551427510588617,0.5836708445179687
-0.001551117510588616,0.5817630206907409
-0.001550807510588616,0.5807296161176631
-0.001550497510588617,0.5819220060096785
-0.001550187510588617,0.5808091087771287
-0.001549877510588617,0.5812860647339357
-0.001549567510588617,0.5812065720744679
-0.001549257510588617,0.5790602702688361
-0.001548947510588617,0.580411645479787
-0.001548637510588617,0.5789012849499031
-0.001548327510588616,0.5781063583552266
-0.001548017510588617,0.580650123458193
-0.001547707510588617,0.5773114317605434
-0.001547397510588617,0.5767549831442685
-0.001547087510588617,0.5791397629283039
-0.001546777510588617,0.5750856372954438
-0.001546467510588617,0.5764370125063948
-0.001546157510588617,0.5763575198469294
-0.001545847510588616,0.5730188281492828
-0.001545537510588617,0.5746881739981046
-0.001545227510588617,0.5745291886791689
-0.001544917510588617,0.5715084676193908
-0.001544607510588617,0.5743702033602333
-0.001544297510588617,0.5727803501708764
-0.001543987510588617,0.5703955703868453
-0.001543677510588617,0.5729393354898074
-0.001543367510588616,0.569282673154291
-0.001543057510588617,0.5692031804948233
-0.001542747510588617,0.5705545557057767
-0.001542437510588617,0.5658644887971739
-0.001542127510588617,0.5680107906028057
-0.001541817510588617,0.568328761240677
-0.001541507510588617,0.564195142948349
-0.001541197510588617,0.5673748493270571
-0.001540887510588616,0.5672158640081186
-0.001540577510588617,0.5625257970995243
-0.001540267510588617,0.566261952094513
-0.001539957510588617,0.564274635607817
-0.001539647510588617,0.5622873191211208
-0.001539337510588617,0.5651490548619632
-0.001539027510588617,0.5609359439101674
-0.001538717510588617,0.5616513778453768
-0.001538407510588616,0.5634797090131275
-0.001538097510588617,0.5574382668935896
-0.001537787510588617,0.5614128998669745
-0.001537477510588617,0.5609359439101674
-0.001537167510588617,0.5548945017906113
-0.001536857510588617,0.5595050760397463
-0.001536547510588617,0.5574382668935823
-0.001536237510588617,0.5544970384932774
-0.001535927510588616,0.5575177595530429
-0.001535617510588616,0.5535431265796565
-0.001535307510588617,0.5528276926444473
-0.001534997510588617,0.5546560238122077
-0.001534687510588617,0.5486940743521194
-0.001534377510588617,0.5520327660497688
-0.001534067510588617,0.5512378394550904
-0.001533757510588617,0.5457528459518192
-0.001533447510588617,0.5494890009467911
-0.001533137510588616,0.5472632064816918
-0.001532827510588617,0.543765529465113
-0.001532517510588617,0.5463092945680841
-0.001532207510588617,0.5432090808488381
-0.001531897510588617,0.5424936469136274
-0.001531587510588617,0.5443219780813879
-0.001531277510588617,0.5402678524485351
-0.001530967510588617,0.5416192276594788
-0.001530657510588616,0.5416987203189404
-0.001530347510588617,0.5369291607508784
-0.001530037510588617,0.5389164772375745
-0.001529727510588617,0.5376445946860889
-0.001529417510588617,0.5341469176695038
-0.001529107510588617,0.5361342341561999
-0.001528797510588617,0.5339084396911042
-0.001528487510588617,0.5321596011828109
-0.001528177510588616,0.533351991074818
-0.001527867510588617,0.5292978654419652
-0.001527557510588617,0.5281849682094154
-0.001527247510588617,0.5289798948040939
-0.001526937510588617,0.5257206957659123
-0.001526627510588617,0.525323232468573
-0.001526317510588617,0.5245283058738945
-0.001526007510588617,0.5224614967277345
-0.001525697510588616,0.5213485994951771
-0.001525387510588617,0.5193612830084847
-0.001525077510588617,0.5169765032244493
-0.001524767510588617,0.5168175179055137
-0.001524457510588617,0.5139557821646712
-0.001524147510588617,0.5122864363158465
-0.001523837510588617,0.5114120170617003
-0.001523527510588617,0.508550281320863
-0.001523217510588616,0.5062449941962907
-0.001522907510588617,0.5064039795152213
-0.001522597510588617,0.5038602144122549
-0.001522287510588617,0.5024293465418338
-0.001521977510588617,0.5003625373956698
-0.001521667510588617,0.4987726842063129
-0.001521357510588617,0.4969443530385524
-0.001521047510588617,0.4934466760219737
-0.001520737510588616,0.491697837513672
-0.001520427510588617,0.4901874769837796
-0.001520117510588617,0.4868487852861362
-0.001519807510588617,0.484384512842633
-0.001519497510588617,0.4819202403991298
-0.001519187510588617,0.4796944459340302
-0.001518877510588617,0.4757993056201058
-0.001518567510588617,0.4728580772198008
-0.001518257510588616,0.4704732974357518
-0.001517947510588616,0.4658627231866199
-0.001517637510588617,0.4629214947863149
-0.001517327510588617,0.4605367150022796
-0.001517017510588617,0.4555286774558054
-0.001516707510588617,0.451633537141881
-0.001516397510588617,0.4478178894874245
-0.001516087510588617,0.4417764473678792
-0.001515777510588617,0.4377223217350155
-0.001515467510588616,0.4332707328047977
-0.001515157510588617,0.4271497980257848
-0.001514847510588617,0.4238905989876032
-0.001514537510588617,0.4159413330408187
-0.001514227510588617,0.4095024276239233
-0.001513917510588617,0.4060047506073381
-0.001513607510588617,0.3960681681738756
-0.001513297510588617,0.3905036820111185
-0.001512987510588616,0.3843827472320657
-0.001512677510588617,0.3741281941607324
-0.001512367510588617,0.3688021859763868
-0.001512057510588617,0.3610913980080058
-0.001511747510588617,0.3513932935529288
-0.001511437510588617,0.3454313440928404
-0.001511127510588617,0.3362101955945704
-0.001510817510588617,0.3252402085880278
-0.001510507510588616,0.3200731857225774
-0.001510197510588617,0.3087852280781641
-0.001509887510588617,0.2990076309636192
-0.001509577510588617,0.2920122769304488
-0.001509267510588617,0.2792139587561258
-0.001508957510588617,0.2718211414256163
-0.001508647510588617,0.2641103534572353
-0.001508337510588617,0.2510735573045325
-0.001508027510588616,0.2456680564606782
-0.001507717510588617,0.236287922643465
-0.001507407510588617,0.222774170533956
-0.001507097510588617,0.218720044901096
-0.001506787510588617,0.2065576680025157
-0.001506477510588617,0.1952697103580818
-0.001506167510588617,0.1893077608979934
-0.001505857510588617,0.1761914720858229
-0.001505547510588616,0.1669703235875147
-0.001505237510588617,0.1591005503001885
-0.001504927510588617,0.145984261488018
-0.001504617510588617,0.1411352092604795
-0.001504307510588617,0.1320730460811452
-0.001503997510588617,0.116810455463319
-0.001503687510588617,0.1118819105763127
-0.001503377510588617,0.1015478648455116
-0.001503067510588616,0.08819309805488508
-0.001502757510588616,0.08278759721105849
-0.001502447510588617,0.07014826435569417
-0.001502137510588617,0.06013218926274574
-0.001501827510588617,0.05289835725117188
-0.001501517510588617,0.0397820684389775
-0.001501207510588617,0.0337406263194213
-0.001500897510588617,0.02571186771318359
-0.001500587510588617,0.01084674039270906
-0.001500277510588616,0.004646312954172203
-0.001499967510588617,-0.005210776819822612
-0.001499657510588617,-0.0188835142482919
-0.001499347510588617,-0.02397104445423397
-0.001499037510588617,-0.03589494337441067
-0.001498727510588617,-0.04734188633778032
-0.001498417510588617,-0.05393977707359941
-0.001498107510588617,-0.06673809524791113
-0.001497797510588616,-0.07436939055685937
-0.001497487510588617,-0.08088778863321079
-0.001497177510588617,-0.09456052606168008
-0.001496867510588617,-0.1013968947759147
-0.001496557510588617,-0.1108565212525882
-0.001496247510588617,-0.1238138247458469
-0.001495937510588617,-0.1307296861195368
-0.001495627510588617,-0.1413022098287535
-0.001495317510588616,-0.1528286454516222
-0.001495007510588617,-0.1594265361874413
-0.001494697510588617,-0.1721453617022965
-0.001494387510588617,-0.1814460028600343
-0.001494077510588617,-0.187248967001187
-0.001493767510588617,-0.1999677925160422
-0.001493457510588617,-0.2086324923980372
-0.001493147510588617,-0.2167407436637427
-0.001492837510588616,-0.2290621058812871
-0.001492527510588617,-0.2366139085307186
-0.001492217510588617,-0.2460735350073921
-0.001491907510588617,-0.2564075807382119
-0.001491597510588617,-0.2647543099823356
-0.001491287510588617,-0.2759627749673017
-0.001490977510588617,-0.2844684895303611
-0.001490667510588617,-0.2910663802661802
-0.001490357510588616,-0.3020363672727703
-0.001490047510588617,-0.310542081835828
-0.001489737510588617,-0.3181733771447273
-0.001489427510588617,-0.3278714815998043
-0.001489117510588617,-0.3359002402060566
-0.001488807510588617,-0.3436905208339054
-0.001488497510588617,-0.3518782647590934
-0.001488187510588617,-0.3599865160247988
-0.001487877510588616,-0.3680152746310781
-0.001487567510588616,-0.3747721506858441
-0.001487257510588617,-0.3810520707837924
-0.001486947510588617,-0.388444888114302
-0.001486637510588617,-0.3934529256607762
-0.001486327510588617,-0.3998918310776716
-0.001486017510588617,-0.4059332731972278
-0.001485707510588617,-0.4120542079762407
-0.001485397510588617,-0.417062245522717
-0.001485087510588616,-0.4210368784961299
-0.001484777510588617,-0.4273962912535459
-0.001484467510588617,-0.4320068655026809
-0.001484157510588617,-0.4343916452867162
-0.001483847510588617,-0.4392406975142548
-0.001483537510588617,-0.4432948231471148
-0.001483227510588617,-0.4450436616554043
-0.001482917510588617,-0.4506876404776141
-0.001482607510588616,-0.4533108982400669
-0.001482297510588617,-0.4552982147267594
-0.001481987510588617,-0.4604652375921693
-0.001481677510588617,-0.4614191495057834
-0.001481367510588617,-0.4645193632250293
-0.001481057510588617,-0.4691299374741644
-0.001480747510588617,-0.4681760255605519
-0.001480437510588617,-0.4731840631070153
-0.001480127510588616,-0.4755688428910592
-0.001479817510588617,-0.4752508722531884
-0.001479507510588617,-0.480576880437534
-0.001479197510588617,-0.4810538363943411
-0.001478887510588617,-0.4823257189458266
-0.001478577510588617,-0.4878902051085757
-0.001478267510588617,-0.4866183225570902
-0.001477957510588617,-0.4886851317032504
-0.001477647510588616,-0.493931647228128
-0.001477337510588617,-0.4917853454225001
-0.001477027510588617,-0.4954420077580209
-0.001476717510588617,-0.4983037434988634
-0.001476407510588617,-0.4963164270121673
-0.001476097510588617,-0.5012449718991736
-0.001475787510588617,-0.5017219278559807
-0.001475477510588617,-0.5012449718991745
-0.001475167510588616,-0.5070479360403223
-0.001474857510588617,-0.5048221415752282
-0.001474547510588617,-0.505696560829373
-0.001474237510588617,-0.5103866277379758
-0.001473927510588617,-0.5075248919971334
-0.001473617510588617,-0.5099096717811687
-0.001473307510588617,-0.5130098855004146
-0.001472997510588617,-0.5107045983758514
-0.001472687510588616,-0.514122782732966
-0.001472377510588616,-0.5149177093276409
-0.001472067510588617,-0.5138048120950931
-0.001471757510588617,-0.5177794450684853
-0.001471447510588617,-0.5166665478359355
-0.001471137510588617,-0.5161100992196606
-0.001470827510588617,-0.5216745853824097
-0.001470517510588617,-0.518653864322637
-0.001470207510588617,-0.5197667615551794
-0.001469897510588616,-0.5249337844205865
-0.001469587510588617,-0.5222310339986846
-0.001469277510588617,-0.5246953064421879
-0.001468967510588617,-0.5278750128209017
-0.001468657510588617,-0.5256492183558019
-0.001468347510588617,-0.5296238513291942
-0.001468037510588617,-0.5298623293075972
-0.001467727510588617,-0.5293058806913238
-0.001467417510588616,-0.53367797696205
-0.001467107510588617,-0.5312931971780189
-0.001466797510588617,-0.530736748561744
-0.001466487510588617,-0.5366986980218323
-0.001466177510588617,-0.5332805136647151
-0.001465867510588617,-0.5344729035567327
-0.001465557510588617,-0.5382885512111822
-0.001465247510588617,-0.5349498595135459
-0.001464937510588616,-0.538288551211193
-0.001464627510588617,-0.5403553603573532
-0.001464317510588617,-0.5382090585517214
-0.001464007510588617,-0.5430581107792599
-0.001463697510588617,-0.5416272429088388
-0.001463387510588617,-0.5409118089736281
-0.001463077510588617,-0.5449659346064882
-0.001462767510588617,-0.5430581107792634
-0.001462457510588616,-0.5428991254603306
-0.001462147510588617,-0.5463968024769095
-0.001461837510588617,-0.5436145593955348
-0.001461527510588617,-0.5459198465201024
-0.001461217510588617,-0.5473507143905235
-0.001460907510588617,-0.5449659346064882
-0.001460597510588617,-0.5484636116230734
-0.001460287510588617,-0.5487815822609442
-0.001459977510588616,-0.5476686850284019
-0.001459667510588617,-0.5514843326828507
-0.001459357510588617,-0.5510868693855123
-0.001459047510588617,-0.5510073767260444
-0.001458737510588617,-0.5529152005532727
-0.001458427510588617,-0.5521202739585942
-0.001458117510588617,-0.553312663850612
-0.001457807510588617,-0.5545050537426274
-0.001457497510588616,-0.5526767225748759
-0.001457187510588617,-0.5563333849103885
-0.001456877510588617,-0.5555384583157116
-0.001456567510588617,-0.5541870831047582
-0.001456257510588617,-0.5568898335266649
-0.001455947510588617,-0.5575257748024077
-0.001455637510588617,-0.5568103408671971
-0.001455327510588617,-0.5576052674618741
-0.001455017510588616,-0.5583207013970879
-0.001454707510588616,-0.5592746133106998
-0.001454397510588617,-0.5590361353322968
-0.001454087510588617,-0.5589566426728289
-0.001453777510588617,-0.5615004077757999
-0.001453467510588617,-0.5603080178837823
-0.001453157510588617,-0.5612619297973964
-0.001452847510588617,-0.5624543196894118
-0.001452537510588617,-0.5616593930947371
-0.001452227510588616,-0.5632492462840917
-0.001451917510588617,-0.5627722903272855
-0.001451607510588617,-0.563010768305689
-0.001451297510588617,-0.564521128835578
-0.001450987510588617,-0.5634082316030282
-0.001450677510588617,-0.5661109820249349
-0.001450367510588617,-0.5673828645764181
-0.001450057510588617,-0.5650775774518572
-0.001449747510588616,-0.5680188058521628
-0.001449437510588617,-0.5677803278737596
-0.001449127510588617,-0.5669854012790813
-0.001448817510588617,-0.5700061223388593
-0.001448507510588617,-0.5691317030847131
-0.001448197510588617,-0.5692111957441809
-0.001447887510588617,-0.571675468187684
-0.001447577510588617,-0.5688137324468469
-0.001447267510588616,-0.5704035856362023
-0.001446957510588617,-0.5724703947823625
-0.001446647510588617,-0.5693701810631165
-0.001446337510588617,-0.5731063360581052
-0.001446027510588617,-0.5723114094634268
-0.001445717510588617,-0.5703240929767307
-0.001445407510588617,-0.5740602479717194
-0.001445097510588617,-0.5723909021228977
-0.001444787510588616,-0.5717549608471587
-0.001444477510588617,-0.5754911158421357
-0.001444167510588617,-0.5727883654202339
-0.001443857510588617,-0.5738217699933159
-0.001443547510588617,-0.5774784323288367
-0.001443237510588617,-0.5733448140365088
-0.001442927510588617,-0.5761270571178834
-0.001442617510588617,-0.5770014763720281
-0.001442307510588616,-0.574219233290663
-0.001441997510588617,-0.5785913295613831
-0.001441687510588617,-0.5766835057341583
-0.001441377510588617,-0.5758090864800119
-0.001441067510588617,-0.5811350946643575
-0.001440757510588617,-0.5766835057341583
-0.001440447510588617,-0.5766835057341583
-0.001440137510588617,-0.5805786460480755
-0.001439827510588616,-0.575888579139483
-0.001439517510588616,-0.5776374176477771
-0.001439207510588617,-0.5801811827507435
-0.001438897510588617,-0.5759680717989477
-0.001438587510588617,-0.5799427047723399
-0.001438277510588617,-0.5788298075397901
-0.001437967510588617,-0.5764450277557547
-0.001437657510588617,-0.5807376313670106
-0.001437347510588617,-0.578193866264052
-0.001437037510588616,-0.5766835057341694
-0.001436727510588617,-0.5828044405131824
-0.001436417510588617,-0.577319447009901
-0.001436107510588617,-0.5789887928587257
-0.001435797510588617,-0.5823274845563753
-0.001435487510588617,-0.578352851582983
-0.001435177510588617,-0.5817710359400942
-0.001434867510588617,-0.582645455194245
-0.001434557510588616,-0.579545241475007
-0.001434247510588617,-0.5830429184915858
-0.001433937510588617,-0.5816915432806324
-0.001433627510588617,-0.5806581387075505
-0.001433317510588617,-0.5852687129566855
-0.001433007510588617,-0.5821684992374395
-0.001432697510588617,-0.5828839331726489
-0.001432387510588617,-0.5869380588055029
-0.001432077510588616,-0.5831224111510571
-0.001431767510588617,-0.585030234978282
-0.001431457510588617,-0.5879714633785922
-0.001431147510588617,-0.5844737863620071
-0.001430837510588617,-0.5885279119948671
-0.001430527510588617,-0.5882894340164636
-0.001430217510588617,-0.5862226248702996
-0.001429907510588617,-0.59035624316262
-0.001429597510588616,-0.5884484193353983
-0.001429287510588617,-0.5878919707191244
-0.001428977510588617,-0.5913101550762417
-0.001428667510588617,-0.5899587798652883
-0.001428357510588617,-0.5902767505031598
-0.001428047510588617,-0.5921050816709201
-0.001427737510588617,-0.5893228385895456
-0.001427427510588617,-0.5909921844383673
-0.001427117510588616,-0.5924230523087858
-0.001426807510588617,-0.5892433459300832
-0.001426497510588617,-0.5922640669898558
-0.001426187510588617,-0.592184574330388
-0.001425877510588617,-0.5907537064599668
-0.001425567510588617,-0.5929000082655986
-0.001425257510588617,-0.5928205156061307
-0.001424947510588617,-0.5916281257141153
-0.001424637510588616,-0.5935359495413391
-0.001424327510588616,-0.5923435596493261
-0.001424017510588617,-0.5936154422008092
-0.001423707510588617,-0.5934564568818735
-0.001423397510588617,-0.592661530287195
-0.001423087510588617,-0.594728339433359
-0.001422777510588617,-0.5955232660280375
-0.001422467510588617,-0.5944103687954896
-0.001422157510588617,-0.5955232660280355
