synth-diodes-out/1kHz1V/scope.csv

#Digilent WaveForms Oscilloscope Acquisition
#Device Name: Discovery3
#Serial Number: SN:210415BD5874
#Date Time: 2025-04-03 12:17:22.628.626.850
#Sample rate: 2.5641e+06Hz
#Samples: 32768
#Trigger: Source: Channel 1 Type: Edge Condition: Rising Level: 0 V Hyst.: Auto HoldOff: 0 s
#Channel 1: Range: 200 mV/div Offset: 0 V Sample Mode: Average
#Wavegen Channel 1: Running
#Mode: Simple
#Type: Sine
#Frequency: 1 kHz
#Period: 1 ms
#Amplitude: 1 V
#Offset: 0 V
#Symmetry: 50 %
#Phase: 0 °

Time (s),Channel 1 (V)
-0.0026361712041322,0.1195132058852258
-0.002635781204132199,0.1169694407822547
-0.002635391204132199,0.1195132058852224
-0.0026350012041322,0.1176848747174653
-0.002634611204132199,0.1196721912041614
-0.002634221204132199,0.119910669182567
-0.0026338312041322,0.1210235664151148
-0.002633441204132199,0.1200696545015007
-0.002633051204132199,0.1202286398204378
-0.0026326612041322,0.1210235664151148
-0.002632271204132199,0.1221364636476646
-0.002631881204132199,0.1216595076908509
-0.0026314912041322,0.1180028453553367
-0.002631101204132199,0.1187182792905473
-0.002630711204132199,0.1177643673769329
-0.0026303212041322,0.1176053820579975
-0.002629931204132199,0.1166514701443833
-0.002629541204132199,0.1167309628038505
-0.0026291512041322,0.116333499506512
-0.002628761204132199,0.1152206022739621
-0.002628371204132199,0.1118819105763127
-0.0026279812041322,0.1129153151493946
-0.002627591204132199,0.1155385729118335
-0.002627201204132199,0.1138692270630088
-0.0026268112041322,0.08715969348181295
-0.002626421204132199,0.1017863428238964
-0.002626031204132199,0.1079867702623883
-0.0026256412041322,0.1069533656893063
-0.002625251204132199,0.1082252482407918
-0.002624861204132199,0.107589306965049
-0.0026244712041322,0.1067148877109027
-0.002624081204132199,0.1100535794085522
-0.002623691204132199,0.1080662629218561
-0.0026233012041322,0.1072713363271777
-0.002622911204132199,0.1056019904783529
-0.002622521204132199,0.10607894643516
-0.0026221312041322,0.105045541862078
-0.002621741204132199,0.1049660492026102
-0.002621351204132199,0.1038531519700603
-0.0026209612041322,0.103535181332189
-0.002620571204132199,0.1021043134617678
-0.002620181204132199,0.1005939529318787
-0.0026197912041322,0.1002759822940073
-0.002619401204132199,0.1009914162292179
-0.002619011204132199,0.1016273575049607
-0.0026186212041322,0.1005939529318787
-0.002618231204132199,0.1018658354833642
-0.002617841204132199,0.1010709088886858
-0.0026174512041322,0.1025812694185748
-0.002617061204132199,0.1032172106943176
-0.002616671204132199,0.1062379317540957
-0.0026162812041322,0.1053635124999494
-0.002615891204132199,0.1047275712242066
-0.002615501204132199,0.107112351008242
-0.0026151112041322,0.1048070638836745
-0.002614721204132199,0.1044890932458031
-0.002614331204132199,0.1034556886727211
-0.0026139412041322,0.1048070638836745
-0.002613551204132199,0.1009914162292179
-0.002613161204132199,0.1017068501644285
-0.0026127712041322,0.1022632987807024
-0.002612381204132199,0.1244417507722321
-0.002611991204132199,0.09820917314784336
-0.0026116012041322,0.09399606219605525
-0.002611211204132199,0.09455251081232251
-0.002610821204132199,0.09526794474753311
-0.0026104312041322,0.09630134932061321
-0.002610041204132199,0.09518845208806526
-0.002609651204132199,0.09606287134221156
-0.0026092612041322,0.09669881261795316
-0.002608871204132199,0.09868612910465042
-0.002608481204132199,0.09852714378571474
-0.0026080912041322,0.100037504315601
-0.002607701204132199,0.09876562176411827
-0.002607311204132199,0.1006734455913465
-0.0026069212041322,0.1013888795265558
-0.002606531204132199,0.09948105569932887
-0.002606141204132199,0.1005939529318787
-0.0026057512041322,0.09789120250997689
-0.002605361204132199,0.09820917314784336
-0.002604971204132199,0.09646033463955078
-0.0026045812041322,0.09797069516943707
-0.002604191204132199,0.09566540804487234
-0.002603801204132199,0.09646033463955078
-0.002603411204132199,0.09479098879072083
-0.002603021204132199,0.09192925304988363
-0.002602631204132199,0.09423454017445113
-0.002602241204132199,0.09439352549338841
-0.0026018512041322,0.09526794474753311
-0.002601461204132199,0.09391656953657974
-0.002601071204132199,0.09606287134220881
-0.0026006812041322,0.09455251081232251
-0.002600291204132199,0.09717576857476137
-0.002599901204132199,0.09566540804487725
-0.0025995112041322,0.09836815846677904
-0.002599121204132199,0.09749373921263275
-0.002598731204132199,0.0992425777209265
-0.0025983412041322,0.09987851899666809
-0.002597951204132199,0.0675250065932553
-0.002597561204132199,0.08731867880074964
-0.0025971712041322,0.08787512741702355
-0.002596781204132199,0.08771614209808785
-0.002596391204132199,0.08588781093033163
-0.0025960012041322,0.08819309805489492
-0.002595611204132199,0.08556984029245605
-0.002595221204132199,0.08692121550340333
-0.0025948312041322,0.08358252380575994
-0.002594441204132199,0.08294658253001717
-0.002594051204132199,0.08469542103830774
-0.0025936612041322,0.08358252380575994
-0.002593271204132199,0.08421846508150269
-0.002592881204132199,0.08350303114629208
-0.0025924912041322,0.08485440635724545
-0.002592101204132199,0.08382100178416346
-0.002591711204132199,0.08556984029245605
-0.0025913212041322,0.08549034763298821
-0.002590931204132199,0.08843157603329846
-0.002590541204132199,0.08731867880074863
-0.0025901512041322,0.09169077507148009
-0.002589761204132199,0.08843157603329846
-0.002589371204132199,0.08843157603329846
-0.0025889812041322,0.08755715677915217
-0.002588591204132199,0.08541085497352036
-0.002588201204132199,0.08700070816287725
-0.0025878112041322,0.08509288433564899
-0.002587421204132199,0.0862057815681988
-0.002587031204132199,0.08429795774097054
-0.0025866412041322,0.08541085497352036
-0.002586251204132199,0.08087977338385322
-0.002585861204132199,0.0839004944436313
-0.0025854712041322,0.08318506050842071
-0.002585081204132199,0.08231064125427441
-0.002584691204132199,0.08254911923267795
-0.0025843012041322,0.08135672934066028
-0.002583911204132199,0.08223114859480657
-0.002583521204132199,0.05734994618137118
-0.0025831312041322,0.07762057434567157
-0.002582741204132199,0.07913093487556062
-0.002582351204132199,0.07913093487556062
-0.0025819612041322,0.07913093487556062
-0.002581571204132199,0.08366201646522778
-0.002581181204132199,0.08143622200012812
-0.0025807912041322,0.08159520731906382
-0.002580401204132199,0.0817541926379995
-0.002580011204132199,0.08191317795693519
-0.0025796212041322,0.08302607518948502
-0.002579231204132199,0.08008484678917477
-0.002578841204132199,0.08191317795693519
-0.0025784512041322,0.07921042753502848
-0.002578061204132199,0.08087977338385322
-0.002577671204132199,0.07603072115631468
-0.0025772812041322,0.07833600828087799
-0.002576891204132199,0.07770006700513943
-0.002576501204132199,0.07770006700513943
-0.0025761112041322,0.07666666243205932
-0.002575721204132199,0.07507680924270055
-0.002575331204132199,0.07634869179418606
-0.0025749412041322,0.07555376519950906
-0.002574551204132199,0.07690514041046098
-0.002574161204132199,0.07444086796695779
-0.0025737712041322,0.07563325785897329
-0.002573381204132199,0.07595122849684684
-0.002572991204132199,0.0773026037078002
-0.0025726012041322,0.07563325785897849
-0.002572211204132199,0.0764281844536539
-0.002571821204132199,0.07857448625928572
-0.0025714312041322,0.07785905232407642
-0.002571041204132199,0.0796078908323677
-0.002570651204132199,0.07809753030247865
-0.0025702612041322,0.07936941285396185
-0.002569871204132199,0.07746158902673589
-0.002569481204132199,0.07770006700513943
-0.0025690912041322,0.1004349676129017
-0.002568701204132199,0.0689558744636765
-0.002568311204132199,0.06506073414975211
-0.002567921204132199,0.0659351534038974
-0.002567531204132199,0.06537870478762349
-0.002567141204132199,0.06259646170624893
-0.002566751204132199,0.06140407181422489
-0.0025663612041322,0.05790639479764609
-0.002565971204132199,0.05822436543551747
-0.002565581204132199,0.05591907831095128
-0.0025651912041322,0.05663451224616058
-0.002564801204132199,0.05734994618137118
-0.002564411204132199,0.05711146820296403
-0.0025640212041322,0.05512415171627152
-0.002563631204132199,0.05790639479764609
-0.002563241204132199,0.05774740947870997
-0.0025628512041322,0.05750893150030686
-0.002562461204132199,0.05893979937072807
-0.002562071204132199,0.05909878468966853
-0.0025616812041322,0.06172204245210264
-0.002561291204132199,0.05997320394381006
-0.002560901204132199,0.06076813053848952
-0.0025605112041322,0.06132457915476341
-0.002560121204132199,0.06402732957667014
-0.002559731204132199,0.06299392500359104
-0.0025593412041322,0.06458377819294504
-0.002558951204132199,0.06482225617134858
-0.002558561204132199,0.06458377819294374
-0.0025581712041322,0.06386834425773444
-0.002557781204132199,0.06315291032252383
-0.002557391204132199,0.06370935893879875
-0.0025570012041322,0.06076813053848851
-0.002556611204132199,0.06283493968465247
-0.002556221204132199,0.06037066724114928
-0.0025558312041322,0.05957574064647084
-0.002555441204132199,0.05719096086243548
-0.002555051204132199,0.05782690213817825
-0.0025546612041322,0.02754019888092941
-0.002554271204132199,0.05075205544554007
-0.002553881204132199,0.05385226916478601
-0.0025534912041322,0.05321632788904325
-0.002553101204132199,0.05520364437573937
-0.002552711204132199,0.05353429852691463
-0.0025523212041322,0.05297784991063972
-0.002551931204132199,0.0518649526780899
-0.002551541204132199,0.05536262969467506
-0.0025511512041322,0.05162647469968636
-0.002550761204132199,0.05194444533755774
-0.002550371204132199,0.0517059673591542
-0.0025499812041322,0.05234190863489696
-0.002549591204132199,0.05234190863489696
-0.002549201204132199,0.05099053342394361
-0.0025488112041322,0.05059307012660438
-0.002548421204132199,0.04773133438576196
-0.002548031204132199,0.05234190863489696
-0.0025476412041322,0.04948017289405456
-0.002547251204132199,0.0501161141697973
-0.002546861204132199,0.04765184172629412
-0.0025464712041322,0.04995712885086162
-0.002546081204132199,0.04717488576948706
-0.002545691204132199,0.04908270959671533
-0.0025453012041322,0.04979814353192594
-0.002544911204132199,0.05083154810500791
-0.002544521204132199,0.05067256278607223
-0.0025441312041322,0.0501161141697973
-0.002543741204132199,0.05059307012660438
-0.002543351204132199,0.05083154810500791
-0.0025429612041322,0.05234190863489696
-0.002542571204132199,0.05210343065649342
-0.002542181204132199,0.05265987927276834
-0.0025417912041322,0.05035459214820504
-0.002541401204132199,0.05250089395383266
-0.002541011204132199,0.05107002608341145
-0.0025406212041322,0.04987763619139595
-0.002540231204132199,0.04812879768310119
-0.002539841204132199,0.03874866386589551
-0.0025394512041322,0.04224634088247432
-0.002539061204132199,0.03954359046057396
-0.002538671204132199,0.03914612716323473
-0.0025382812041322,0.03890764918483165
-0.002537891204132199,0.04025902439578456
-0.002537501204132199,0.03827170790908845
-0.0025371112041322,0.03994105375791014
-0.002536721204132199,0.03922561982270259
-0.002536331204132199,0.04184887758514146
-0.0025359412041322,0.04184887758514146
-0.002535551204132199,0.04176938492567361
-0.002535161204132199,0.04248481886088422
-0.0025347712041322,0.04375670141236742
-0.002534381204132199,0.0442336573691768
-0.002533991204132199,0.04367720875290189
-0.0025336012041322,0.04264380417982178
-0.002533211204132199,0.04248481886088422
-0.002532821204132199,0.04399517939077327
-0.002532431204132199,0.04161039960674039
-0.002532041204132199,0.04296177481769128
-0.002531651204132199,0.04121293630939871
-0.002531261204132199,0.04232583354194955
-0.0025308712041322,0.04288228215822344
-0.002530481204132199,0.04025902439578456
-0.002530091204132199,0.03954359046057324
-0.0025297012041322,0.03914612716323473
-0.002529311204132199,0.03994105375791318
-0.002528921204132199,0.03906663450376791
-0.0025285312041322,0.03962308312004181
-0.002528141204132199,0.03843069322802414
-0.002527751204132199,0.04033851705525023
-0.0025273612041322,0.03914612716323473
-0.002526971204132199,0.04025902439578456
-0.002526581204132199,0.04248481886088494
-0.0025261912041322,0.04288228215822344
-0.002525801204132199,0.01021079911693926
-0.002525411204132199,0.0325482364274045
-0.0025250212041322,0.0330251923842107
-0.002524631204132199,0.03135584653538595
-0.002524241204132199,0.03358164100048243
-0.0025238512041322,0.03183280249219303
-0.002523461204132199,0.032866207065275
-0.002523071204132199,0.03079939791911538
-0.0025226812041322,0.03318417770314638
-0.002522291204132199,0.03079939791911104
-0.002521901204132199,0.03119686121645027
-0.0025215112041322,0.02960700802709337
-0.002521121204132199,0.03143533919485381
-0.002520731204132199,0.03095838323804673
-0.0025203412041322,0.02968650068656122
-0.002519951204132199,0.0307199052596432
-0.002519561204132199,0.02936853004868984
-0.0025191712041322,0.03087889057857889
-0.002518781204132199,0.02952751536762553
-0.002518391204132199,0.03048142728123967
-0.0025180012041322,0.0307199052596432
-0.002517611204132199,0.03405859695729267
-0.002517221204132199,0.03382011897888915
-0.0025168312041322,0.03429707493569621
-0.002516441204132199,0.03461504557356759
-0.002516051204132199,0.03382011897888915
-0.0025156612041322,0.03501250887090682
-0.002515271204132199,0.03278671440580716
-0.002514881204132199,0.03397910429782483
-0.0025144912041322,0.03191229515166087
-0.002514101204132199,0.03644337674132801
-0.002513711204132199,0.03159432451378949
-0.0025133212041322,0.03119686121645027
-0.002512931204132199,0.03024294930283613
-0.002512541204132199,0.02897106675135062
-0.0025121512041322,0.03048142728123967
-0.002511761204132199,0.0307199052596432
-0.002511371204132199,0.08008484678917477
-0.0025109812041322,0.01808057240425589
-0.002510591204132199,0.0193524549557414
-0.002510201204132199,0.01704716783117391
-0.0025098112041322,0.02030636686935554
-0.002509421204132199,0.02102180080456614
-0.002509031204132199,0.02205520537764813
-0.0025086412041322,0.02285013197232657
-0.002508251204132199,0.02364505856700502
-0.002507861204132199,0.02340658058860149
-0.0025074712041322,0.02253216133445519
-0.002507081204132199,0.02412201452381209
-0.002506691204132199,0.02277063931285873
-0.0025063012041322,0.02308860995072953
-0.002505911204132199,0.02118078612350183
-0.002505521204132199,0.02523491175636191
-0.0025051312041322,0.01967042559362291
-0.002504741204132199,0.02014738155041985
-0.002504351204132199,0.01959093293414494
-0.0025039612041322,0.01903448431787104
-0.002503571204132199,0.01982941091254847
-0.002503181204132199,0.01736513846904529
-0.0025027912041322,0.01823955772318999
-0.002502401204132199,0.01498035868500995
-0.002502011204132199,0.01744463112851313
-0.0025016212041322,0.01466238804714363
-0.002501231204132199,0.01816006506372373
-0.002500841204132199,0.0186370210205308
-0.0025004512041322,0.0193524549557401
-0.002500061204132199,0.01982941091254847
-0.002499671204132199,0.02054484484775907
-0.0024992812041322,0.02118078612350068
-0.002498891204132199,0.01998839623148416
-0.002498501204132199,0.0209423081450983
-0.0024981112041322,0.0199089035720182
-0.002497721204132199,0.02133977144243752
-0.002497331204132199,0.02221419069658382
-0.002496941204132199,0.00989282847905675
-0.002496551204132199,0.003771893700043841
-0.002496161204132199,0.00393087901897953
-0.002495771204132199,0.003453923062171739
-0.002495381204132199,0.003056459764833238
-0.002494991204132199,0.003771893700043841
-0.002494601204132199,0.002500011148559916
-0.0024942112041322,0.003374430402704617
-0.002493821204132199,0.002897474445897549
-0.002493431204132199,0.003771893700039358
-0.0024930412041322,0.001307621256540655
-0.002492651204132199,0.003215445083768927
-0.002492261204132199,0.003374430402708232
-0.0024918712041322,0.005361746889400735
-0.002491481204132199,0.004487327635254443
-0.002491091204132199,0.005997688165145372
-0.0024907012041322,0.007031092738225474
-0.002490311204132199,0.007190078057161164
-0.002489921204132199,0.008938916565450566
-0.0024895312041322,0.007190078057161164
-0.002489141204132199,0.008859423905985903
-0.002488751204132199,0.008143989970773853
-0.0024883612041322,0.007349063376096853
-0.002487971204132199,0.005918195505675648
-0.002487581204132199,0.006713122100353372
-0.0024871912041322,0.006315658803014872
-0.002486801204132199,0.005123268910997201
-0.002486411204132199,0.004407834975786598
-0.0024860212041322,0.003692401040575996
-0.002485631204132199,0.004407834975786598
-0.002485241204132199,0.002817981786429704
-0.0024848512041322,0.001943562532283412
-0.002484461204132199,0.001387113916008499
-0.002484071204132199,0.003453923062172462
-0.0024836812041322,0.002817981786429704
-0.002483291204132199,0.003374430402704617
-0.002482901204132199,-0.0002822319328162398
-0.0024825112041322,-0.05028311473809056
-0.002482121204132199,-0.006164688733436749
-0.002481731204132199,-0.005051791500886923
-0.0024813412041322,-0.006800630009179506
-0.002480951204132199,-0.007675049263325798
-0.002480561204132199,-0.005528747457693991
-0.0024801712041322,-0.005926210755033214
-0.002479781204132199,-0.00735707862545442
-0.002479391204132199,-0.008152005220132867
-0.0024790012041322,-0.006959615328115196
-0.002478611204132199,-0.009423887771618383
-0.002478221204132199,-0.009264902452682692
-0.0024778312041322,-0.007913527241729333
-0.002477441204132199,-0.008787946495875625
-0.002477051204132199,-0.009105917133747003
-0.0024766612041322,-0.01093424830150743
-0.002476271204132199,-0.01284207212873571
-0.002475881204132199,-0.0114112042583145
-0.0024754912041322,-0.01045729234470036
-0.002475101204132199,-0.01117272627991097
-0.002474711204132199,-0.009105917133747003
-0.0024743212041322,-0.01029830702576467
-0.002473931204132199,-0.009344395112150537
-0.002473541204132199,-0.007516063944390109
-0.0024731512041322,-0.007516063944390109
-0.002472761204132199,-0.005767225436097525
-0.002472371204132199,-0.007039107987583041
-0.0024719812041322,-0.002905489695255115
-0.002471591204132199,-0.006641644690243817
-0.002471201204132199,-0.007754541922793643
-0.0024708112041322,-0.007913527241729043
-0.002470421204132199,-0.008469975858004245
-0.002470031204132199,-0.008946931814811314
-0.0024696412041322,-0.008469975858005113
-0.002469251204132199,-0.009662365750021917
-0.002468861204132199,-0.01053678500416821
-0.0024684712041322,-0.006323674052380102
-0.002468081204132199,0.01029029177640711
-0.002467691204132199,-0.02293763988115198
-0.0024673012041322,-0.02095032339445948
-0.002466911204132199,-0.01983742616190604
-0.002466521204132199,-0.0204733674376488
-0.0024661312041322,-0.0199169188213749
-0.002465741204132199,-0.01792960233467777
-0.002465351204132199,-0.01943996286456682
-0.0024649612041322,-0.01769112435627741
-0.002464571204132199,-0.01689619776159578
-0.002464181204132199,-0.01411395468022122
-0.0024637912041322,-0.01578330052904292
-0.002463401204132199,-0.01236511617192864
-0.002463011204132199,-0.01610127116691734
-0.0024626212041322,-0.01562431521011114
-0.002462231204132199,-0.01633974914532087
-0.002461841204132199,-0.01626025648585303
-0.002461451204132199,-0.0175321390373397
-0.002461061204132199,-0.0181680803130813
-0.002460671204132199,-0.01641924180478872
-0.002460281204132199,-0.01888351424828974
-0.002459891204132199,-0.01769112435627423
-0.002459501204132199,-0.02214271328647354
-0.002459111204132199,-0.02023488945924598
-0.0024587212041322,-0.02063235275658449
-0.002458331204132199,-0.01951945552403466
-0.002457941204132199,-0.01991691882137273
-0.0024575512041322,-0.01928097754563113
-0.002457161204132199,-0.01936047020509897
-0.002456771204132199,-0.01951945552403321
-0.0024563812041322,-0.01872452892935621
-0.002455991204132199,-0.01951945552403466
-0.002455601204132199,-0.01808858765361027
-0.0024552112041322,-0.01633974914532087
-0.002454821204132199,-0.01427293999915691
-0.002454431204132199,-0.01713467573999802
-0.0024540412041322,-0.01641924180478872
-0.002453651204132199,-0.01681670510212794
-0.002453261204132199,-0.01697569042112017
