-20250405-BKP/real-diodes-in-T00-L10-D10/1kHz5V/scope.csv

#Digilent WaveForms Oscilloscope Acquisition
#Device Name: Discovery3
#Serial Number: SN:210415BD5874
#Date Time: 2025-04-03 15:52:23.704.260.020
#Sample rate: 3.33333e+06Hz
#Samples: 32768
#Trigger: Source: Channel 1 Type: Edge Condition: Rising Level: 0 V Hyst.: Auto HoldOff: 0 s
#Channel 1: Range: 200 mV/div Offset: 0 V Sample Mode: Average
#Wavegen Channel 1: Running
#Mode: Simple
#Type: Sine
#Frequency: 1 kHz
#Period: 1 ms
#Amplitude: 200 mV
#Offset: 0 V
#Symmetry: 50 %
#Phase: 0 °

Time (s),Channel 1 (V)
0.002654610309030903,-0.4641218999276902
0.002654910309030903,-0.4637244366303509
0.002655210309030903,-0.4629295100356725
0.002655510309030903,-0.4613396568463156
0.002655810309030903,-0.4607832082300407
0.002656110309030903,-0.4598292963164266
0.002656410309030903,-0.4581599504676048
0.002656710309030903,-0.4581599504676018
0.002657010309030903,-0.4568085752566509
0.002657310309030903,-0.4551392294078268
0.002657610309030904,-0.4541853174942075
0.002657910309030904,-0.4530724202616571
0.002658210309030904,-0.4516415523912381
0.002658510309030904,-0.451403074412835
0.002658810309030903,-0.4500516992018816
0.002659110309030903,-0.449336265266671
0.002659410309030903,-0.4481438753746534
0.002659710309030903,-0.447825904736782
0.002660010309030903,-0.4465540221852964
0.002660310309030903,-0.4450436616554074
0.002660610309030903,-0.4437717791039219
0.002660910309030903,-0.443215330487647
0.002661210309030903,-0.4427383745308399
0.002661510309030903,-0.441148521341483
0.002661810309030903,-0.4405125800657403
0.002662110309030903,-0.4400356241089341
0.002662410309030903,-0.4393996828331916
0.002662710309030903,-0.4386842488979811
0.002663010309030904,-0.4382867856006396
0.002663310309030904,-0.4377303369843638
0.002663610309030904,-0.4366969324112823
0.002663910309030904,-0.4359020058166044
0.002664210309030903,-0.4354250498597982
0.002664510309030903,-0.4338351966704413
0.002664810309030903,-0.432960777416295
0.002665110309030903,-0.4316888948648095
0.002665410309030903,-0.4307349829511954
0.002665710309030903,-0.4298605636970491
0.002666010309030903,-0.4285091884860957
0.002666310309030903,-0.4272373059346102
0.002666610309030903,-0.4266013646588674
0.002666910309030903,-0.4257269454047212
0.002667210309030903,-0.4239781068964286
0.002667510309030903,-0.4235011509396224
0.002667810309030903,-0.4219907904097352
0.002668110309030903,-0.4217523124313294
0.002668410309030903,-0.4212753564745227
0.002668710309030904,-0.4200829665825023
0.002669010309030904,-0.4190495620094216
0.002669310309030904,-0.4187315913715485
0.002669610309030904,-0.4174597088200653
0.002669910309030903,-0.4161878262685798
0.002670210309030903,-0.4161083336091119
0.002670510309030903,-0.4148364510576264
0.002670810309030903,-0.4144389877602872
0.002671110309030903,-0.4139620318034801
0.002671410309030903,-0.4123721786141232
0.002671710309030903,-0.4122926859546554
0.002672010309030903,-0.411497759359977
0.002672310309030903,-0.410464354786895
0.002672610309030903,-0.4101463841490236
0.002672910309030903,-0.4099079061706201
0.002673210309030903,-0.408079575002863
0.002673510309030903,-0.4077616043649888
0.002673810309030903,-0.4064102291540374
0.002674110309030904,-0.4053768245809518
0.002674410309030904,-0.4047408833052082
0.002674710309030904,-0.4037074787321254
0.002675010309030904,-0.4021971182022379
0.002675310309030903,-0.4014816842670285
0.002675610309030903,-0.399176397142461
0.002675910309030903,-0.3983814705477826
0.002676210309030903,-0.398142992569379
0.002676510309030903,-0.3969506026773614
0.002676810309030903,-0.3967916173584257
0.002677110309030903,-0.3959966907637472
0.002677410309030903,-0.3947248082122617
0.002677710309030903,-0.3939298816175832
0.002678010309030903,-0.3939298816175832
0.002678310309030903,-0.3919425651308872
0.002678610309030903,-0.3915451018335486
0.002678910309030903,-0.3910681458767418
0.002679210309030903,-0.3901142339631284
0.002679510309030903,-0.3893193073684497
0.002679810309030904,-0.3887628587521716
0.002680110309030904,-0.387808946838559
0.002680410309030904,-0.3877294541790889
0.002680710309030904,-0.386378078968138
0.002681010309030903,-0.3859011230113309
0.002681310309030903,-0.3859011230113309
0.002681610309030903,-0.3846292404598454
0.002681910309030903,-0.3839932991841027
0.002682210309030903,-0.3836753285462313
0.002682510309030903,-0.3823239533352779
0.002682810309030903,-0.3812110561027281
0.002683110309030903,-0.3808135928053889
0.002683410309030903,-0.3789057689781606
0.002683710309030903,-0.3786672909997571
0.002684010309030903,-0.3779518570645465
0.002684310309030903,-0.3763620038751925
0.002684610309030903,-0.375726062599448
0.002684910309030903,-0.375408091961576
0.002685210309030904,-0.3734207754748786
0.002685510309030904,-0.3730233121775389
0.002685810309030904,-0.3723873709017947
0.002686110309030904,-0.3709565030313761
0.002686410309030903,-0.3713539663287154
0.002686710309030903,-0.370002591117762
0.002687010309030903,-0.3684127379284051
0.002687310309030903,-0.3685717232473408
0.002687610309030903,-0.3672203480363874
0.002687910309030903,-0.3655510021875627
0.002688210309030903,-0.3650740462307556
0.002688510309030903,-0.3637226710198023
0.002688810309030903,-0.362848251765656
0.002689110309030903,-0.3622123104899132
0.002689410309030903,-0.3611789059168312
0.002689710309030903,-0.3603044866626866
0.002690010309030903,-0.3604634719816204
0.002690310309030903,-0.3595095600680082
0.002690610309030903,-0.3591915894301357
0.002690910309030904,-0.3587941261327949
0.002691210309030904,-0.3582376775165198
0.002691510309030904,-0.3576017362407768
0.002691810309030904,-0.3568068096460998
0.002692110309030903,-0.3555349270946143
0.002692410309030903,-0.3552169564567429
0.002692710309030903,-0.3543425372025966
0.002693010309030903,-0.3529116693321754
0.002693310309030903,-0.3528321766727076
0.002693610309030903,-0.3516397867806899
0.002693910309030903,-0.3508448601860114
0.002694210309030903,-0.3502884115697365
0.002694510309030903,-0.3502884115697365
0.002694810309030903,-0.3489370363587831
0.002695110309030903,-0.3484600804019761
0.002695410309030903,-0.348221602423573
0.002695710309030903,-0.3479831244451695
0.002696010309030903,-0.3475856611478305
0.002696310309030904,-0.3472676905099571
0.002696610309030904,-0.3465522565747461
0.002696910309030904,-0.3455983446611327
0.002697210309030904,-0.3450418960448587
0.002697510309030903,-0.3445649400880517
0.002697810309030903,-0.3429750868986948
0.002698110309030903,-0.3428161015797591
0.002698410309030903,-0.3414647263688058
0.002698710309030903,-0.3405108144551916
0.002699010309030903,-0.3401928438173202
0.002699310309030903,-0.3393979172226418
0.002699610309030903,-0.3391594392442382
0.002699910309030903,-0.3388414686063669
0.002700210309030903,-0.3381260346711563
0.002700510309030903,-0.3374106007359457
0.002700810309030903,-0.337331108076478
0.002701110309030903,-0.3361387181844623
0.002701410309030903,-0.335661762227654
0.002701710309030903,-0.3351053136113792
0.002702010309030904,-0.3338334310598915
0.002702310309030904,-0.333197489784148
0.002702610309030904,-0.3321640852110658
0.002702910309030904,-0.3309716953190502
0.002703210309030903,-0.3303357540433075
0.002703510309030903,-0.3294613347891612
0.002703810309030903,-0.3282689448971435
0.002704110309030903,-0.32803046691874
0.002704410309030903,-0.3274740183024651
0.002704710309030903,-0.3264406137293831
0.002705010309030903,-0.3258841651131082
0.002705310309030903,-0.3246122825616227
0.002705610309030903,-0.3233404000101371
0.002705910309030903,-0.3231019220317336
0.002706210309030903,-0.3227839513938622
0.002706510309030903,-0.3225454734154591
0.002706810309030903,-0.321671054161314
0.002707110309030903,-0.3208761275666354
0.002707410309030904,-0.3203991716098283
0.002707710309030904,-0.3211940982045022
0.002708010309030904,-0.3194452596962118
0.002708310309030904,-0.3188888110799378
0.002708610309030903,-0.3190477963988735
0.002708910309030903,-0.3176169285284524
0.002709210309030903,-0.3175374358689845
0.002709510309030903,-0.3176964211879202
0.002709810309030903,-0.3161065679985633
0.002710110309030903,-0.3161065679985633
0.002710410309030903,-0.3151526560849491
0.002710710309030903,-0.3135628028955922
0.002711010309030903,-0.3138012808739958
0.002711310309030903,-0.3130858469387852
0.002711610309030903,-0.3117344717278318
0.002711910309030903,-0.3113370084304933
0.002712210309030903,-0.310701067154751
0.002712510309030903,-0.3094291846032667
0.002712810309030903,-0.3092701992843289
0.002713110309030904,-0.3081573020517774
0.002713410309030904,-0.3073623754570998
0.002713710309030904,-0.307044404819227
0.002714010309030904,-0.3059315075866791
0.002714310309030903,-0.3051365809920007
0.002714610309030903,-0.3048186103541293
0.002714910309030903,-0.3044211470567901
0.002715210309030903,-0.3037057131215795
0.002715510309030903,-0.302433830570094
0.002715810309030903,-0.3021158599322226
0.002716110309030903,-0.3025133232295618
0.002716410309030903,-0.3016389039754155
0.002716710309030903,-0.3009234700402049
0.002717010309030903,-0.3009234700402049
0.002717310309030903,-0.3006849920618014
0.002717610309030903,-0.3002080361049952
0.002717910309030903,-0.2992541241913819
0.002718210309030903,-0.2994131095103156
0.002718510309030904,-0.2983797049372334
0.002718810309030904,-0.2980617342993608
0.002719110309030904,-0.2971078223857475
0.002719410309030904,-0.2966308664289413
0.002719710309030903,-0.295756447174795
0.002720010309030903,-0.2956769545153272
0.002720310309030903,-0.2947230426017131
0.002720610309030903,-0.2936101453691632
0.002720910309030903,-0.2933716673907597
0.002721210309030903,-0.2922587701582099
0.002721510309030903,-0.291702321541935
0.002721810309030903,-0.2913843509040636
0.002722110309030903,-0.2901919610120459
0.002722410309030903,-0.2889200784605604
0.002722710309030903,-0.2892380490984318
0.002723010309030903,-0.2888405858010933
0.002723310309030903,-0.2874892105901417
0.002723610309030903,-0.2874892105901392
0.002723910309030903,-0.2863763133575913
0.002724210309030904,-0.2856608794223795
0.002724510309030904,-0.2860583427197158
0.002724810309030904,-0.2848659528276993
0.002725110309030904,-0.2843095042114254
0.002725410309030903,-0.2839120409140862
0.002725710309030903,-0.2833555922978113
0.002726010309030903,-0.2835940702762148
0.002726310309030903,-0.2831171143194077
0.002726610309030903,-0.2820837097463257
0.002726910309030903,-0.2826401583626006
0.002727210309030903,-0.2820042170868579
0.002727510309030903,-0.2807323345353724
0.002727810309030903,-0.2812092904921795
0.002728110309030903,-0.2802553785785653
0.002728410309030903,-0.278904003367612
0.002728710309030903,-0.2796194373028213
0.002729010309030903,-0.2781885694324039
0.002729310309030903,-0.2769166868809182
0.002729610309030904,-0.2775526281566551
0.002729910309030904,-0.2756448043294298
0.002730210309030904,-0.2753268336915591
0.002730510309030904,-0.2754063263510268
0.002730810309030903,-0.2738959658211377
0.002731110309030903,-0.2734190098643307
0.002731410309030903,-0.2735779951832664
0.002731710309030903,-0.2723856052912487
0.002732010309030903,-0.2716701713560381
0.002732310309030903,-0.2715111860371024
0.002732610309030903,-0.2699213328477455
0.002732910309030903,-0.2703187961450847
0.002733210309030903,-0.2700803181666812
0.002733510309030903,-0.2687289429557279
0.002733810309030903,-0.2692853915720028
0.002734110309030903,-0.2683314796583903
0.002734410309030903,-0.2671390897663731
0.002734710309030903,-0.2673775677447741
0.002735010309030904,-0.2673775677447729
0.002735310309030904,-0.2665031484906287
0.002735610309030904,-0.2668211191284983
0.002735910309030904,-0.2661056851932877
0.002736210309030904,-0.2653902512580784
0.002736510309030903,-0.2659466998743533
0.002736810309030903,-0.2644363393444642
0.002737110309030903,-0.2637209054092536
0.002737410309030903,-0.2648338026418035
0.002737710309030903,-0.2624490228577681
0.002738010309030903,-0.2624490228577681
0.002738310309030903,-0.2620515595604289
0.002738610309030903,-0.2608591696684112
0.002738910309030903,-0.2605411990305398
0.002739210309030903,-0.2606206916900077
0.002739510309030903,-0.2591103311601186
0.002739810309030903,-0.2591103311601186
0.002740110309030903,-0.2587923605222478
0.002740410309030903,-0.2572819999923609
0.002740710309030904,-0.2571230146734214
0.002741010309030904,-0.2564870733976777
0.002741310309030904,-0.2553741761651299
0.002741610309030904,-0.2553741761651299
0.002741910309030903,-0.2543407715920479
0.002742210309030903,-0.2533868596784338
0.002742510309030903,-0.2535458449973695
0.002742810309030903,-0.252273962445884
0.002743110309030903,-0.2523534551053518
0.002743410309030903,-0.2524329477648197
0.002743710309030903,-0.2510020798943985
0.002744010309030903,-0.2508430945754628
0.002744310309030903,-0.2515585285106734
0.002744610309030903,-0.2501276606402522
0.002744910309030903,-0.2499686753213165
0.002745210309030903,-0.2502866459591873
0.002745510309030903,-0.2492532413861078
0.002745810309030903,-0.2492532413861059
0.002746110309030904,-0.2486173001103615
0.002746410309030904,-0.2477428808562171
0.002746710309030904,-0.2479018661751509
0.002747010309030904,-0.2470274469210048
0.002747310309030904,-0.2462325203263278
0.002747610309030903,-0.2464709983047313
0.002747910309030903,-0.2454375937316493
0.002748210309030903,-0.2442452038396317
0.002748510309030903,-0.2443246964990995
0.002748810309030903,-0.2432117992665497
0.002749110309030903,-0.2424168726718712
0.002749410309030903,-0.2425758579908069
0.002749710309030903,-0.2408270194825143
0.002750010309030903,-0.2402705708662394
0.002750310309030903,-0.2404295561851751
0.002750610309030903,-0.2398731075689002
0.002750910309030903,-0.2390781809742232
0.002751210309030903,-0.2392371662931572
0.002751510309030903,-0.2381242690606097
0.002751810309030904,-0.2386012250174135
0.002752110309030904,-0.2379652837416699
0.002752410309030904,-0.2368523865091227
0.002752710309030904,-0.2371703571469935
0.002753010309030903,-0.2368523865091221
0.002753310309030903,-0.2358189819360401
0.002753610309030903,-0.2360574599144437
0.002753910309030903,-0.2347855773629581
0.002754210309030903,-0.2347060847034903
0.002754510309030903,-0.2347855773629581
0.002754810309030903,-0.2339906507682797
0.002755110309030903,-0.2341496360872154
0.002755410309030903,-0.233831665449344
0.002755710309030903,-0.2334342021520048
0.002756010309030903,-0.2331162315141334
0.002756310309030903,-0.2336726801304073
0.002756610309030903,-0.2324802902383928
0.002756910309030903,-0.2319238416221167
0.002757210309030904,-0.2318443489626454
0.002757510309030904,-0.2304929737516931
0.002757810309030904,-0.2296980471570149
0.002758110309030904,-0.2290621058812725
0.002758410309030903,-0.2285851499244662
0.002758710309030903,-0.2289826132218055
0.002759010309030903,-0.2273927600324486
0.002759310309030903,-0.226677326097238
0.002759610309030903,-0.2262798627998988
0.002759910309030903,-0.2260413848214952
0.002760210309030903,-0.2254849362052203
0.002760510309030903,-0.2253259508862846
0.002760810309030903,-0.2243720389726705
0.002761110309030903,-0.2240540683347991
0.002761410309030903,-0.2239745756753313
0.002761710309030903,-0.2229411711022493
0.002762010309030903,-0.2232591417401201
0.002762310309030903,-0.2225437078049114
0.002762610309030903,-0.2219077665291685
0.002762910309030904,-0.2223052298265054
0.002763210309030904,-0.2216692885507632
0.002763510309030904,-0.2213513179128928
0.002763810309030904,-0.2215897958912959
0.002764110309030903,-0.2213513179128924
0.002764410309030903,-0.2211128399344889
0.002764710309030903,-0.2212718252534245
0.002765010309030903,-0.2205563913182139
0.002765310309030903,-0.2197614647235355
0.002765610309030903,-0.2196819720640676
0.002765910309030903,-0.2185690748315178
0.002766210309030903,-0.2180126262152429
0.002766510309030903,-0.2184100895125821
0.002766810309030903,-0.2173766849395002
0.002767110309030903,-0.2167407436637574
0.002767410309030903,-0.2160253097285481
0.002767710309030903,-0.214912412495999
0.002768010309030903,-0.2152303831338677
0.002768310309030904,-0.2145149491986562
0.002768610309030904,-0.2136405299445123
0.002768910309030904,-0.2141174859013166
0.002769210309030904,-0.2130840813282367
0.002769510309030903,-0.2131635739877044
0.002769810309030903,-0.2124481400524938
0.002770110309030903,-0.2116532134578153
0.002770410309030903,-0.2109377795226047
0.002770710309030903,-0.211335242819944
0.002771010309030903,-0.2105403162252655
0.002771310309030903,-0.2103813309063298
0.002771610309030903,-0.210778794203669
0.002771910309030903,-0.2106993015442012
0.002772210309030903,-0.2108582868631369
0.002772510309030903,-0.2100633602684584
0.002772810309030903,-0.2096658969711192
0.002773110309030903,-0.2098248822900546
0.002773410309030903,-0.209268433673781
0.002773710309030903,-0.2087914777169738
0.002774010309030904,-0.2084735070791008
0.002774310309030904,-0.2080760437817607
0.002774610309030904,-0.2072016245276162
0.002774910309030904,-0.2072811171870839
0.002775210309030903,-0.2063272052734697
0.002775510309030903,-0.2058502493166627
0.002775810309030903,-0.2058502493166627
0.002776110309030903,-0.2048963374030485
0.002776410309030903,-0.2040219181489022
0.002776710309030903,-0.2040219181489022
0.002777010309030903,-0.2033064842136916
0.002777310309030903,-0.2022730796406096
0.002777610309030903,-0.2020346016622061
0.002777910309030903,-0.2019551090027383
0.002778210309030903,-0.2013191677269955
0.002778510309030903,-0.2012396750675278
0.002778810309030903,-0.2006037337917861
0.002779110309030903,-0.2002857631539141
0.002779410309030904,-0.1999677925160413
0.002779710309030904,-0.1994908365592355
0.002780010309030904,-0.199729314537638
0.002780310309030904,-0.1994113438997668
0.002780610309030903,-0.1991728659213637
0.002780910309030903,-0.1991728659213637
0.002781210309030903,-0.199013880602428
0.002781510309030903,-0.1986164173050888
0.002781810309030903,-0.1984574319861531
0.002782110309030903,-0.1981394613482817
0.002782410309030903,-0.1980599686888139
0.002782710309030903,-0.1978214907104104
0.002783010309030903,-0.1970265641157319
0.002783310309030903,-0.1969470714562641
0.002783610309030903,-0.1968675787967962
0.002783910309030903,-0.1962316375210535
0.002784210309030903,-0.1957546815642472
0.002784510309030903,-0.1953572182669079
0.002784810309030903,-0.1948802623101009
0.002785110309030904,-0.1946417843316954
0.002785410309030904,-0.1940058430559535
0.002785710309030904,-0.1938468577370167
0.002786010309030904,-0.1930519311423397
0.002786310309030903,-0.1924954825260647
0.002786610309030903,-0.1922570045476612
0.002786910309030903,-0.1913030926340471
0.002787210309030903,-0.1913825852935149
0.002787510309030903,-0.1909056293367078
0.002787810309030903,-0.1899517174230937
0.002788110309030903,-0.1905081660393686
0.002788410309030903,-0.189792732104158
0.002788710309030903,-0.1892362834878831
0.002789010309030903,-0.1894747614662867
0.002789310309030903,-0.1886798348716082
0.002789610309030903,-0.188202878914802
0.002789910309030903,-0.1888388201905427
0.002790210309030903,-0.1882028789148023
0.002790510309030904,-0.1874079523201233
0.002790810309030904,-0.1877259229579942
0.002791110309030904,-0.1878054156174599
0.002791410309030904,-0.186692518384914
0.002791710309030903,-0.1877259229579941
0.002792010309030903,-0.1868515037038478
0.002792310309030903,-0.1867720110443799
0.002792610309030903,-0.1871694743417192
0.002792910309030903,-0.1860565771091693
0.002793210309030903,-0.1860565771091693
0.002793510309030903,-0.1857386064712979
0.002793810309030903,-0.1846257092387481
0.002794110309030903,-0.1846257092387481
0.002794410309030903,-0.1844667239198124
0.002794710309030903,-0.1835128120061983
0.002795010309030903,-0.1832743340277952
0.002795310309030903,-0.1823204221141824
0.002795610309030903,-0.180889554243762
0.002795910309030903,-0.1814460028600333
0.002796210309030904,-0.181446002860032
0.002796510309030904,-0.1801741203085498
0.002796810309030904,-0.1807305689248223
0.002797110309030904,-0.1799356423301453
