synth-diodes-2f-1r-in-T00-L10-D00/100Hz-1V/scope.csv

#Digilent WaveForms Oscilloscope Acquisition
#Device Name: Discovery3
#Serial Number: SN:210415BD5874
#Date Time: 2025-04-06 20:00:19.979.711.910
#Sample rate: 208333Hz
#Samples: 32768
#Trigger: Source: Channel 1 Type: Edge Condition: Rising Level: 0 V Hyst.: Auto HoldOff: 0 s
#Channel 1: Range: 200 mV/div Offset: 0 V Sample Mode: Average
#Wavegen Channel 1: Running
#Mode: Simple
#Type: Sine
#Frequency: 100 Hz
#Period: 10 ms
#Amplitude: 1 V
#Offset: 0 V
#Symmetry: 50 %
#Phase: 0 °

Time (s),Channel 1 (V)
-0.09149666056707291,-0.3682537526094694
-0.09149186056707291,-0.367458826014791
-0.09148706056707291,-0.3676973039931945
-0.09148226056707291,-0.3673793333553231
-0.09147746056707291,-0.366425421441709
-0.09147266056707291,-0.3648355682523521
-0.09146786056707291,-0.3656304948470291
-0.09146306056707292,-0.3665049141011752
-0.09145826056707292,-0.3649945535712905
-0.09145346056707292,-0.3652330315496909
-0.0914486605670729,-0.3641996269766101
-0.0914438605670729,-0.3645970902739473
-0.09143906056707291,-0.363881656338738
-0.09143426056707291,-0.363881656338738
-0.09142946056707291,-0.363881656338738
-0.09142466056707291,-0.3636431783603344
-0.09141986056707291,-0.3630072370845916
-0.09141506056707291,-0.3630867297440595
-0.09141026056707291,-0.3630072370845916
-0.09140546056707291,-0.3616558618736383
-0.09140066056707291,-0.3622123104899132
-0.09139586056707291,-0.3610994132573634
-0.09139106056707291,-0.3614173838952348
-0.09138626056707291,-0.3605429646410885
-0.09138146056707291,-0.3608609352789598
-0.09137666056707291,-0.3601455013437506
-0.09137186056707292,-0.3602249940032169
-0.09136706056707292,-0.3599070233653463
-0.0913622605670729,-0.3598275307058774
-0.0913574605670729,-0.3595890527274739
-0.0913526605670729,-0.3593505747490672
-0.09134786056707291,-0.3573632582623766
-0.09134306056707291,-0.3583966628354567
-0.09133826056707291,-0.3579197068786496
-0.09133346056707291,-0.357204272943439
-0.09132866056707291,-0.356727316986632
-0.09132386056707291,-0.3568068096460998
-0.09131906056707291,-0.3561708683703571
-0.09131426056707291,-0.3565683316676962
-0.09130946056707291,-0.35569391241355
-0.09130466056707291,-0.3561708683703571
-0.09129986056707291,-0.3550579711378072
-0.09129506056707291,-0.3560118830514213
-0.09129026056707291,-0.3547400004999381
-0.09128546056707292,-0.3550579711378066
-0.09128066056707292,-0.353786088586324
-0.09127586056707292,-0.3540245665647248
-0.0912710605670729,-0.3528321766727081
-0.0912662605670729,-0.3531501473105778
-0.09126146056707291,-0.3525142060348362
-0.09125666056707291,-0.3525142060348362
-0.09125186056707291,-0.3519577574185613
-0.09124706056707291,-0.3516397867806899
-0.09124226056707291,-0.3514013088022863
-0.09123746056707291,-0.3509243528454793
-0.09123266056707291,-0.3510833381644149
-0.09122786056707291,-0.3502089189102687
-0.09122306056707291,-0.349016529018251
-0.09121826056707291,-0.3488575436993153
-0.09121346056707291,-0.3493344996561224
-0.09120866056707291,-0.347983124445169
-0.09120386056707291,-0.3483805877425082
-0.09119906056707291,-0.347108705191025
-0.09119426056707292,-0.3478241391262321
-0.09118946056707292,-0.347108705191024
-0.0911846605670729,-0.3468702272126192
-0.0911798605670729,-0.3468702272126185
-0.0911750605670729,-0.3464727639152793
-0.09117026056707291,-0.34607530061794
-0.09116546056707291,-0.3456778373206015
-0.09116066056707291,-0.3449624033853909
-0.09115586056707291,-0.3441674767907125
-0.09115106056707291,-0.3439289988123089
-0.09114626056707291,-0.3436905208339054
-0.09114146056707291,-0.343372550196034
-0.09113666056707291,-0.3424186382824199
-0.09113186056707291,-0.3424186382824199
-0.09112706056707291,-0.3416237116877414
-0.09112226056707291,-0.3420211749850807
-0.09111746056707291,-0.3410672630714665
-0.09111266056707291,-0.3416237116877404
-0.09110786056707292,-0.3401133511578551
-0.09110306056707292,-0.3403518291362555
-0.09109826056707292,-0.337410600735951
-0.0910934605670729,-0.3390004539253013
-0.0910886605670729,-0.3382850199900913
-0.09108386056707291,-0.3378875566927524
-0.09107906056707291,-0.3377285713738171
-0.09107426056707291,-0.3367746594602029
-0.09106946056707291,-0.3370131374386064
-0.09106466056707291,-0.3361387181844602
-0.09105986056707291,-0.3366156741412673
-0.09105506056707291,-0.3355027769087174
-0.09105026056707291,-0.3358207475465887
-0.09104546056707291,-0.3343103870166997
-0.09104066056707291,-0.3340719090382962
-0.09103586056707291,-0.3331974897841499
-0.09103106056707291,-0.333117997124682
-0.09102626056707291,-0.3324025631894715
-0.09102146056707291,-0.3316871292542621
-0.09101666056707292,-0.3318461145731962
-0.09101186056707292,-0.3308922026595841
-0.0910070605670729,-0.3312101732974514
-0.0910022605670729,-0.3299382907459694
-0.0909974605670729,-0.3305742320217084
-0.09099266056707291,-0.3291433641512898
-0.09098786056707291,-0.3292228568107577
-0.09098306056707291,-0.3285074228755471
-0.09097826056707291,-0.3281099595782078
-0.09097346056707291,-0.3263611210699153
-0.09096866056707291,-0.3267585843672545
-0.09096386056707291,-0.3275535109619329
-0.09095906056707291,-0.325963657772576
-0.09095426056707291,-0.3265995990483188
-0.09094946056707291,-0.3254072091563011
-0.09094466056707291,-0.3262816284104474
-0.09093986056707291,-0.324930253199494
-0.09093506056707291,-0.3251687311778971
-0.09093026056707292,-0.3242148192642852
-0.09092546056707292,-0.3243738045832188
-0.09092066056707292,-0.3231019220317359
-0.0909158605670729,-0.3234993853290719
-0.0909110605670729,-0.3229429367127971
-0.09090626056707291,-0.3224659807559897
-0.09090146056707291,-0.3218300394802481
-0.09089666056707291,-0.3216710541613124
-0.09089186056707291,-0.3209556202261018
-0.09088706056707291,-0.320876127566634
-0.09088226056707291,-0.3207171422476983
-0.09087746056707291,-0.3196837376746163
-0.09087266056707291,-0.3200017083124877
-0.09086786056707291,-0.3182528698041951
-0.09086306056707291,-0.3187298257610022
-0.09085826056707291,-0.3175374358689845
-0.09085346056707291,-0.3180938844852594
-0.09084866056707291,-0.315232148744417
-0.09084386056707291,-0.3163450459769648
-0.09083906056707292,-0.3169014945932407
-0.09083426056707292,-0.3153911340633554
-0.0908294605670729,-0.3158680900201573
-0.0908246605670729,-0.3145167148092071
-0.0908198605670729,-0.3149141781065439
-0.09081506056707291,-0.3139602661929315
-0.09081026056707291,-0.3138012808739958
-0.09080546056707291,-0.313165339598253
-0.09080066056707291,-0.3130063542793173
-0.09079586056707291,-0.3126088909819781
-0.09079106056707291,-0.3118139643872997
-0.09078626056707291,-0.3121319350251711
-0.09078146056707291,-0.3107010671547498
-0.09077666056707291,-0.3112575157710248
-0.09077186056707291,-0.3099856332195393
-0.09076706056707291,-0.310621574495282
-0.09076226056707291,-0.3092701992843286
-0.09075746056707291,-0.3098266479006025
-0.09075266056707292,-0.3081573020517819
-0.09074786056707292,-0.3083957800301819
-0.09074306056707292,-0.3070444048192315
-0.0907382605670729,-0.3076803460949689
-0.0907334605670729,-0.3060904929056159
-0.09072866056707291,-0.3066469415218848
-0.09072386056707291,-0.3039441910999831
-0.09071906056707291,-0.3047391176946615
-0.09071426056707291,-0.3042621617378544
-0.09070946056707291,-0.3042621617378544
-0.09070466056707291,-0.3030697718458368
-0.09069986056707291,-0.3031492645053046
-0.09069506056707291,-0.3014799186564799
-0.09069026056707291,-0.3017978892943513
-0.09068546056707291,-0.3006849920618014
-0.09068066056707291,-0.3008439773807371
-0.09067586056707291,-0.2994926021697837
-0.09067106056707291,-0.299890065467123
-0.09066626056707291,-0.2983797049372366
-0.09066146056707292,-0.2987771682345724
-0.09065666056707292,-0.2972668077046868
-0.0906518605670729,-0.2975847783425528
-0.0906470605670729,-0.2960744178126664
-0.0906422605670729,-0.2960744178126635
-0.09063746056707291,-0.2944845646233095
-0.09063266056707291,-0.2943255793043738
-0.09062786056707291,-0.2934511600502275
-0.09062306056707291,-0.2927357261150169
-0.09061826056707291,-0.292179277498742
-0.09061346056707291,-0.2913843509040636
-0.09060866056707291,-0.2909073949472565
-0.09060386056707291,-0.2898739903741746
-0.09059906056707291,-0.2882046445253498
-0.09059426056707291,-0.2880456592064141
-0.09058946056707291,-0.2884431225037533
-0.09058466056707291,-0.2868532693143964
-0.09057986056707291,-0.2862173280386549
-0.09057506056707292,-0.2849454454871705
-0.09057026056707292,-0.284468489530362
-0.09056546056707292,-0.2835940702762164
-0.0905606605670729,-0.2831966069788734
-0.0905558605670729,-0.2820042170868572
-0.09055106056707291,-0.2816067537895161
-0.09054626056707291,-0.2801758859190975
-0.09054146056707291,-0.2798579152812261
-0.09053666056707291,-0.2784270474108049
-0.09053186056707291,-0.2782680620918692
-0.09052706056707291,-0.2765987162430444
-0.09052226056707291,-0.2760422676267695
-0.09051746056707291,-0.2741344437995413
-0.09051266056707291,-0.2739754584806056
-0.09050786056707291,-0.2719086493344416
-0.09050306056707291,-0.2717496640155059
-0.09049826056707291,-0.2702393034856169
-0.09049346056707291,-0.2700008255072133
-0.09048866056707291,-0.2681724943394563
-0.09048386056707292,-0.2678545237015821
-0.09047906056707292,-0.2656287292364859
-0.0904742605670729,-0.2640388760471218
-0.0904694605670729,-0.2622900375388331
-0.0904646605670729,-0.2626875008361676
-0.09045986056707291,-0.260461706371072
-0.09045506056707291,-0.2590308385006508
-0.09045026056707291,-0.2583154045654402
-0.09044546056707291,-0.2564075807382119
-0.09044066056707291,-0.2559306247814048
-0.09043586056707291,-0.2537048303163052
-0.09043106056707291,-0.2531483817000303
-0.09042626056707291,-0.251240557872802
-0.09042146056707291,-0.2503661386186557
-0.09041666056707291,-0.2482993294724918
-0.09041186056707291,-0.2467889689426027
-0.09040706056707291,-0.2446426671369709
-0.09040226056707291,-0.2428938286286815
-0.09039746056707292,-0.2417014387366628
-0.09039266056707292,-0.2391576736336943
-0.09038786056707292,-0.238521732357948
-0.0903830605670729,-0.2359779672549733
-0.0903782605670729,-0.2346265920440184
-0.09037346056707291,-0.2324007975789199
-0.09036866056707291,-0.2308109443895659
-0.09036386056707291,-0.2289031205623376
-0.09035906056707291,-0.2268363114161737
-0.09035426056707291,-0.2251669655673489
-0.09034946056707291,-0.2218282738696994
-0.09034466056707291,-0.2200794353614069
-0.09033986056707291,-0.2189665381288571
-0.09033506056707291,-0.2165022656853539
-0.09033026056707291,-0.2139585005823828
-0.09032546056707291,-0.2125276327119616
-0.09032066056707291,-0.2098248822900549
-0.09031586056707291,-0.2086324923980372
-0.09031106056707291,-0.2057707566572
-0.09030626056707292,-0.2044988741057116
-0.09030146056707292,-0.2013191677270013
-0.0902966605670729,-0.1996498218781652
-0.0902918605670729,-0.1965496081589215
-0.0902870605670729,-0.1947212769911588
-0.09028226056707291,-0.1916210632719185
-0.09027746056707291,-0.1895542541257545
-0.09027266056707291,-0.1866130257254442
-0.09026786056707291,-0.1844667239198124
-0.09026306056707291,-0.1812870175410987
-0.09025826056707291,-0.1797766570112096
-0.09025346056707291,-0.1763584726540923
-0.09024866056707291,-0.1747686194647354
-0.09024386056707291,-0.1717478984049573
-0.09023906056707291,-0.1694426112803898
-0.09023426056707291,-0.1663423975611438
-0.09022946056707291,-0.1634806618203014
-0.09022466056707291,-0.1590290728901102
-0.09021986056707292,-0.1568032784250065
-0.09021506056707292,-0.1545774839599069
-0.0902102605670729,-0.1519542261974573
-0.0902054605670729,-0.1482975638619388
-0.0902006605670729,-0.1459127840779021
-0.09019586056707291,-0.1428125703586573
-0.09019106056707291,-0.1403482979151586
-0.09018626056707291,-0.1366916355796378
-0.09018146056707291,-0.134545333774006
-0.09017666056707291,-0.1305707008006137
-0.09017186056707291,-0.1282654136760462
-0.09016706056707291,-0.1239728100647826
-0.09016226056707291,-0.1211905669834081
-0.09015746056707291,-0.1175339046478872
-0.09015266056707291,-0.1147516615665126
-0.09014786056707291,-0.1113334772093953
-0.09014306056707291,-0.107915292852278
-0.09013826056707291,-0.1052125424303713
-0.09013346056707291,-0.1012379094569863
-0.09012866056707292,-0.09861465169454493
-0.09012386056707292,-0.09448103340221975
-0.0901190605670729,-0.0920167609587008
-0.0901142605670729,-0.08748567936903698
-0.0901094605670729,-0.08478292894712608
-0.09010466056707291,-0.07977489140066096
-0.09009986056707291,-0.0761182290651401
-0.09009506056707291,-0.07174613279440864
-0.09009026056707291,-0.07047425024292313
-0.09008546056707291,-0.06546621269644891
-0.09008066056707291,-0.06228650631773512
-0.09007586056707291,-0.05807339536593935
-0.09007106056707291,-0.05457571834935418
-0.09006626056707291,-0.05131651931117255
-0.09006146056707291,-0.04686493038097324
-0.09005666056707291,-0.04368522400225945
-0.09005186056707291,-0.03907464975312445
-0.09004706056707291,-0.03589494337441645
-0.09004226056707292,-0.03080741316847786
-0.09003746056707292,-0.0279456774276314
-0.0900326605670729,-0.02317611785954915
-0.0900278605670729,-0.01967844084296182
-0.0900230605670729,-0.01498837393436187
-0.09001826056707291,-0.01188816021511289
-0.09001346056707291,-0.007118600647050885
-0.09000866056707291,-0.003700416289933563
-0.09000386056707291,0.00106914327813712
-0.08999906056707291,0.004169356997383064
-0.08999426056707291,0.009415872522260815
-0.08998946056707291,0.01299304219831383
-0.08998466056707291,0.01808057240425589
-0.08997986056707291,0.02157824942084106
-0.08997506056707291,0.02777867685933294
-0.08997026056707291,0.03135584653538595
-0.08996546056707291,0.03501250887090682
-0.08996066056707291,0.03922561982270259
-0.08995586056707292,0.0443131500286354
-0.08995106056707292,0.04765184172628805
-0.08994626056707292,0.05321632788903313
-0.0899414605670729,0.05671400490563825
-0.0899366605670729,0.06211950574944865
-0.0899318605670729,0.06585566074444067
-0.08992706056707291,0.0714201469071797
-0.08992226056707291,0.07507680924270055
-0.08991746056707291,0.07992586147023907
-0.08991266056707291,0.08437745040043838
-0.08990786056707291,0.08882903933063768
-0.08990306056707291,0.09391656953657974
-0.08989826056707291,0.09805018782890768
-0.08989346056707291,0.1032172106943176
-0.08988866056707291,0.1067943803703706
-0.08988386056707291,0.1122793738736519
-0.08987906056707291,0.1164129921659798
-0.08987426056707291,0.1221364636476646
-0.08986946056707291,0.1261905892805173
-0.08986466056707292,0.131675582783796
-0.08985986056707292,0.1357297084166587
-0.0898550605670729,0.1410557166010211
-0.0898502605670729,0.1462227394664326
-0.0898454605670729,0.1522641815859826
-0.08984066056707291,0.1548874393484269
-0.08983586056707291,0.1605314181706336
-0.08983106056707291,0.1655394557171078
-0.08982626056707291,0.1705474932635821
-0.08982146056707291,0.1752375601721849
-0.08981666056707291,0.1804045830375948
-0.08981186056707291,0.1852536352651333
-0.08980706056707291,0.1902616728116076
-0.08980226056707291,0.1951107250391461
-0.08979746056707291,0.2005957185424274
-0.08979266056707291,0.2052062927915624
-0.08978786056707291,0.2108502716137793
-0.08978306056707291,0.21561983118185
-0.08977826056707292,0.2208663467067182
-0.08977346056707292,0.2261923548910637
-0.08976866056707292,0.2311208997780708
-0.0897638605670729,0.2362879226434989
-0.0897590605670729,0.2413754528494417
-0.0897542605670729,0.2468604463527224
-0.08974946056707291,0.2520274692181229
-0.08974466056707291,0.257114999424065
-0.08973986056707291,0.2617255736731999
-0.08973506056707291,0.2670515818575456
-0.08973026056707291,0.2720596194040198
-0.08972546056707291,0.2781010615235759
-0.08972066056707291,0.2836655476863251
-0.08971586056707291,0.2865272834271675
-0.08971106056707291,0.2929661888440629
-0.08970626056707291,0.2971792997958587
-0.08970146056707291,0.303141249255947
-0.08969666056707291,0.3073543602077428
-0.08969186056707291,0.3131573243488849
-0.08968706056707292,0.3170524646628128
-0.08968226056707292,0.3225374581660912
-0.0896774605670729,0.326750569117907
-0.0896726605670729,0.3322355626211853
-0.0896678605670729,0.336130702935112
-0.08966306056707291,0.3412977258005209
-0.08965826056707291,0.3459083000496475
-0.08965346056707291,0.3501214110014433
-0.08964866056707291,0.3550499558884497
-0.08964386056707291,0.3590245888618419
-0.08963906056707291,0.3645095823651232
-0.08963426056707291,0.3679277667222405
-0.08962946056707291,0.3731742822471182
-0.08962466056707291,0.3765924666042356
-0.08961986056707291,0.3816799968101776
-0.08961506056707291,0.3851776738267628
-0.08961026056707291,0.3902652040327049
-0.08960546056707291,0.3936833883898222
-0.08960066056707292,0.3990093965741581
-0.08959586056707292,0.4035404781638267
-0.08959106056707292,0.4060842432668014
-0.0895862605670729,0.4102973542186099
-0.0895814605670729,0.4147489431488091
-0.0895766605670729,0.4192005320790056
-0.08957186056707291,0.4221417604793106
-0.08956706056707291,0.4264343640905742
-0.08956226056707291,0.4300910264260951
-0.08955746056707291,0.4335887034426802
-0.08955266056707291,0.4376428290755403
-0.08954786056707291,0.440345579497447
-0.08954306056707291,0.444479197789775
-0.08953826056707291,0.4478973821468923
-0.08953346056707291,0.4521104930986881
-0.08952866056707291,0.4551312141584661
-0.08952386056707291,0.4593443251102619
-0.08951906056707291,0.4626830168079114
-0.08951426056707291,0.4668961277596995
-0.08950946056707292,0.4692014148842705
-0.08950466056707292,0.4736530038144658
-0.0894998605670729,0.4758787982795807
-0.0894950605670729,0.479773938593503
-0.0894902605670729,0.4824766890154114
-0.08948546056707291,0.4861333513509301
-0.08948066056707291,0.4885976237944288
-0.08947586056707291,0.4930492127246281
-0.08947106056707291,0.4964673970817454
-0.08946626056707291,0.4987726842063129
-0.08946146056707291,0.5024293465418338
-0.08945666056707291,0.5061655015368225
-0.08945186056707291,0.5085502813208578
-0.08944706056707291,0.5114915097211681
-0.08944226056707291,0.5142737528025426
-0.08943746056707291,0.5169765032244493
-0.08943266056707291,0.5199972242842275
-0.08942786056707291,0.5226204820466663
-0.08942306056707292,0.5254822177875035
-0.08941826056707292,0.5282644608688781
-0.08941346056707292,0.5314441672475914
-0.0894086605670729,0.5337494543721707
-0.0894038605670729,0.5370881460698197
-0.0893990605670729,0.540188359789064
-0.08939426056707291,0.5424141542541596
-0.08938946056707291,0.5453553826544699
-0.08938466056707291,0.547819655097973
-0.08937986056707291,0.5501249422225406
-0.08937506056707291,0.5529071853039151
-0.08937026056707291,0.5548150091311435
-0.08936546056707291,0.5573587742341145
-0.08936066056707291,0.5597435540181498
-0.08935586056707291,0.5628437677373958
-0.08935106056707291,0.5651490548619632
-0.08934626056707291,0.5696801364516304
-0.08934146056707291,0.5692826731542912
-0.08933666056707291,0.5731778134682084
-0.08933186056707292,0.5747676666575695
-0.08932706056707292,0.5777883877173451
-0.0893222605670729,0.5795372262256469
-0.0893174605670729,0.581604035371811
-0.0893126605670729,0.5838298298369101
-0.08930786056707291,0.5856581610046715
-0.08930306056707291,0.5880429407887026
-0.08929826056707291,0.5896327939780595
-0.08929346056707291,0.5928919930162411
-0.08928866056707291,0.5943228608866622
-0.08928386056707291,0.5973435819464403
-0.08927906056707291,0.5986154644979259
-0.08927426056707291,0.6013977075793004
-0.08926946056707291,0.6026695901307859
-0.08926466056707291,0.6050543699148213
-0.08925986056707291,0.6063262524663068
-0.08925506056707291,0.6090290028882135
-0.08925026056707291,0.6100624074612936
-0.08924546056707292,0.6131626211805358
-0.08924066056707292,0.6137985624562831
-0.08923586056707292,0.6167397908565891
-0.0892310605670729,0.6181706587270208
-0.0892262605670729,0.6209529018083945
-0.0892214605670729,0.6232581889329581
-0.08921666056707291,0.6234966669113613
-0.08921186056707291,0.6254839833980573
-0.08920706056707291,0.6268353586090107
-0.08920226056707291,0.6289021677551747
-0.08919746056707291,0.6298560796687889
-0.08919266056707291,0.6323998447717599
