synth-diodes-in-T00-L10-D10/1kHz1V/scope.csv

#Digilent WaveForms Oscilloscope Acquisition
#Device Name: Discovery3
#Serial Number: SN:210415BD5874
#Date Time: 2025-04-03 15:26:39.272.435.690
#Sample rate: 3.33333e+06Hz
#Samples: 32768
#Trigger: Source: Channel 1 Type: Edge Condition: Rising Level: 0 V Hyst.: Auto HoldOff: 0 s
#Channel 1: Range: 200 mV/div Offset: 0 V Sample Mode: Average
#Wavegen Channel 1: Running
#Mode: Simple
#Type: Sine
#Frequency: 1 kHz
#Period: 1 ms
#Amplitude: 1 V
#Offset: 0 V
#Symmetry: 50 %
#Phase: 0 °

Time (s),Channel 1 (V)
0.002654728404268999,-0.07746960427609347
0.002655028404268999,-0.07739011161662562
0.002655328404268999,-0.07707214097875424
0.002655628404268999,-0.07723112629768993
0.002655928404268999,-0.0768336630003507
0.002656228404268999,-0.07731061895715777
0.002656528404268999,-0.07786706757343168
0.002656828404268998,-0.07707214097875568
0.002657128404268998,-0.07802605289236664
0.002657428404268998,-0.07826453087077148
0.002657728404268999,-0.07810554555183664
0.002658028404268999,-0.07834402353023946
0.002658328404268999,-0.07818503821130436
0.002658628404268999,-0.07834402353023975
0.002658928404268999,-0.0792979354438539
0.002659228404268999,-0.0784235161897076
0.002659528404268999,-0.07866199416811114
0.002659828404268999,-0.07890047214651467
0.002660128404268999,-0.07834402353023975
0.002660428404268999,-0.07834402353023975
0.002660728404268999,-0.07897996480598252
0.002661028404268999,-0.07794656023290053
0.002661328404268999,-0.07762858959502915
0.002661628404268999,-0.07866199416811114
0.002661928404268999,-0.07786706757343269
0.002662228404268998,-0.07794656023290039
0.002662528404268998,-0.07834402353023903
0.002662828404268998,-0.07770808225449814
0.002663128404268999,-0.07786706757343456
0.002663428404268999,-0.07890047214651222
0.002663728404268999,-0.07754909693556376
0.002664028404268999,-0.07890047214651454
0.002664328404268999,-0.07882097948704682
0.002664628404268999,-0.07850300884917544
0.002664928404268999,-0.07802605289236837
0.002665228404268999,-0.07810554555183621
0.002665528404268999,-0.07810554555183621
0.002665828404268999,-0.07961590608172527
0.002666128404268999,-0.07850300884917544
0.002666428404268999,-0.07945692076278958
0.002666728404268999,-0.08025184735746803
0.002667028404268999,-0.07969539874119312
0.002667328404268999,-0.07993387671959665
0.002667628404268998,-0.08096728129267676
0.002667928404268998,-0.07937742810332463
0.002668228404268998,-0.07961590608172484
0.002668528404268998,-0.07945692076278987
0.002668828404268999,-0.07905945746545108
0.002669128404268999,-0.07945692076278929
0.002669428404268999,-0.07929793544385302
0.002669728404268999,-0.07882097948704682
0.002670028404268999,-0.07945692076278958
0.002670328404268999,-0.07961590608172527
0.002670628404268999,-0.07866199416811114
0.002670928404268999,-0.07945692076278958
0.002671228404268999,-0.07905945746545036
0.002671528404268999,-0.0784235161897076
0.002671828404268999,-0.07969539874119312
0.002672128404268999,-0.07905945746545036
0.002672428404268999,-0.0792979354438539
0.002672728404268999,-0.07953641342225742
0.002673028404268999,-0.07937742810332174
0.002673328404268998,-0.08017235469799874
0.002673628404268998,-0.079695398741194
0.002673928404268998,-0.07953641342225772
0.002674228404268999,-0.07961590608172468
0.002674528404268999,-0.07929793544385505
0.002674828404268999,-0.07993387671959824
0.002675128404268999,-0.08080829597374251
0.002675428404268999,-0.08056981799533941
0.002675728404268999,-0.08064931065480725
0.002676028404268999,-0.08104677395214648
0.002676328404268999,-0.08056981799533941
0.002676628404268999,-0.08104677395214648
0.002676928404268999,-0.08128525193055001
0.002677228404268999,-0.08104677395214648
0.002677528404268999,-0.08096728129267863
0.002677828404268999,-0.08136474459001786
0.002678128404268999,-0.08017235469800019
0.002678428404268999,-0.08064931065480725
0.002678728404268998,-0.07993387671959795
0.002679028404268998,-0.07945692076279046
0.002679328404268998,-0.08009286203853119
0.002679628404268998,-0.08001336937906463
0.002679928404268999,-0.07985438406012939
0.002680228404268999,-0.08017235469800005
0.002680528404268999,-0.08009286203853162
0.002680828404268999,-0.07969539874119312
0.002681128404268999,-0.08041083267640371
0.002681428404268999,-0.07953641342225742
0.002681728404268999,-0.08033134001693587
0.002682028404268999,-0.08064931065480725
0.002682328404268999,-0.08001336937906449
0.002682628404268999,-0.08033134001693587
0.002682928404268999,-0.08041083267640371
0.002683228404268999,-0.08009286203853234
0.002683528404268999,-0.08112626661161432
0.002683828404268999,-0.08128525193055001
0.002684128404268999,-0.08128525193055001
0.002684428404268998,-0.08184170054682391
0.002684728404268998,-0.08056981799534173
0.002685028404268998,-0.08049032533587171
0.002685328404268999,-0.0816032225684208
0.002685628404268999,-0.08128525193055001
0.002685928404268999,-0.08128525193055132
0.002686228404268999,-0.08200068586576061
0.002686528404268999,-0.08049032533587157
0.002686828404268999,-0.08088778863321079
0.002687128404268999,-0.08184170054682492
0.002687428404268999,-0.08025184735746803
0.002687728404268999,-0.08041083267640371
0.002688028404268999,-0.08041083267640371
0.002688328404268999,-0.08056981799533941
0.002688628404268999,-0.08072880331427509
0.002688928404268999,-0.08033134001693587
0.002689228404268999,-0.08056981799533941
0.002689528404268999,-0.08049032533587157
0.002689828404268998,-0.08088778863321007
0.002690128404268998,-0.08041083267640459
0.002690428404268998,-0.08120575927108072
0.002690728404268998,-0.08064931065480826
0.002691028404268999,-0.08120575927108317
0.002691328404268999,-0.08176220788735535
0.002691628404268999,-0.08080829597374366
0.002691928404268999,-0.08120575927108216
0.002692228404268999,-0.08192119320629276
0.002692528404268999,-0.08120575927108216
0.002692828404268999,-0.08168271522788924
0.002693128404268999,-0.08279561246043905
0.002693428404268999,-0.08112626661161432
0.002693728404268999,-0.08152372990895354
0.002694028404268999,-0.08239814916309983
0.002694328404268999,-0.08096728129267863
0.002694628404268999,-0.08120575927108216
0.002694928404268999,-0.08120575927108216
0.002695228404268999,-0.08056981799533941
0.002695528404268998,-0.08096728129267791
0.002695828404268998,-0.08104677395214634
0.002696128404268998,-0.08001336937906636
0.002696428404268999,-0.08096728129267849
0.002696728404268999,-0.08088778863320978
0.002697028404268999,-0.08033134001693702
0.002697328404268999,-0.08096728129267863
0.002697628404268999,-0.08072880331427509
0.002697928404268999,-0.08049032533587157
0.002698228404268999,-0.08136474459001786
0.002698528404268999,-0.08096728129267863
0.002698828404268999,-0.08104677395214648
0.002699128404268999,-0.08136474459001786
0.002699428404268999,-0.08049032533587157
0.002699728404268999,-0.08064931065480725
0.002700028404268999,-0.08200068586576061
0.002700328404268999,-0.08056981799533941
0.002700628404268999,-0.08088778863321079
0.002700928404268998,-0.08136474459001698
0.002701228404268998,-0.08104677395214706
0.002701528404268998,-0.08152372990895267
0.002701828404268998,-0.08223916384416284
0.002702128404268999,-0.081444237249487
0.002702428404268999,-0.08215967118469601
0.002702728404268999,-0.08200068586575887
0.002703028404268999,-0.08104677395214648
0.002703328404268999,-0.08200068586576061
0.002703628404268999,-0.08168271522788924
0.002703928404268999,-0.08128525193055001
0.002704228404268999,-0.08168271522788924
0.002704528404268999,-0.0814442372494857
0.002704828404268999,-0.08112626661161432
0.002705128404268999,-0.08120575927108216
0.002705428404268999,-0.08033134001693587
0.002705728404268999,-0.08064931065480725
0.002706028404268999,-0.08017235469800019
0.002706328404268999,-0.08064931065480725
0.002706628404268998,-0.08041083267640414
0.002706928404268998,-0.08041083267640371
0.002707228404268998,-0.08049032533587143
0.002707528404268999,-0.08080829597374323
0.002707828404268999,-0.08096728129267719
0.002708128404268999,-0.08017235469800033
0.002708428404268999,-0.08025184735746803
0.002708728404268999,-0.08056981799533941
0.002709028404268999,-0.08056981799533941
0.002709328404268999,-0.07961590608172527
0.002709628404268999,-0.08096728129267863
0.002709928404268999,-0.08104677395214648
0.002710228404268999,-0.08104677395214648
0.002710528404268999,-0.0814442372494857
0.002710828404268999,-0.08152372990895354
0.002711128404268999,-0.08136474459001786
0.002711428404268999,-0.08208017852522846
0.002711728404268999,-0.08152372990895354
0.002712028404268998,-0.08112626661161504
0.002712328404268998,-0.08192119320629132
0.002712628404268998,-0.08192119320629276
0.002712928404268998,-0.08152372990895426
0.002713228404268999,-0.08184170054682362
0.002713528404268999,-0.0811262666116136
0.002713828404268999,-0.08072880331427654
0.002714128404268999,-0.08152372990895354
0.002714428404268999,-0.08128525193055001
0.002714728404268999,-0.08001336937906449
0.002715028404268999,-0.08072880331427509
0.002715328404268999,-0.08033134001693587
0.002715628404268999,-0.07969539874119312
0.002715928404268999,-0.08088778863321079
0.002716228404268999,-0.07993387671959665
0.002716528404268999,-0.07937742810332174
0.002716828404268999,-0.08104677395214648
0.002717128404268999,-0.07993387671959665
0.002717428404268999,-0.0792979354438539
0.002717728404268998,-0.0806493106548048
0.002718028404268998,-0.08009286203853336
0.002718328404268998,-0.07969539874119384
0.002718628404268999,-0.08033134001693472
0.002718928404268999,-0.07969539874119456
0.002719228404268999,-0.08049032533587186
0.002719528404268999,-0.08064931065480725
0.002719828404268999,-0.08001336937906449
0.002720128404268999,-0.08072880331427509
0.002720428404268999,-0.08168271522788924
0.002720728404268999,-0.08041083267640371
0.002721028404268999,-0.08112626661161432
0.002721328404268999,-0.08128525193055001
0.002721628404268999,-0.08049032533587157
0.002721928404268999,-0.08096728129267863
0.002722228404268999,-0.07977489140066096
0.002722528404268999,-0.07961590608172527
0.002722828404268999,-0.0814442372494857
0.002723128404268998,-0.08025184735747019
0.002723428404268998,-0.08041083267640342
0.002723728404268998,-0.08001336937906521
0.002724028404268998,-0.0795364134222583
0.002724328404268999,-0.0792979354438539
0.002724628404268999,-0.07929793544385419
0.002724928404268999,-0.07945692076278958
0.002725228404268999,-0.07945692076278958
0.002725528404268999,-0.07921844278438604
0.002725828404268999,-0.07945692076278958
0.002726128404268999,-0.07961590608172527
0.002726428404268999,-0.07890047214651467
0.002726728404268999,-0.07866199416811114
0.002727028404268999,-0.08017235469800019
0.002727328404268999,-0.07905945746545036
0.002727628404268999,-0.0791389501249182
0.002727928404268999,-0.08049032533587157
0.002728228404268999,-0.07969539874119312
0.002728528404268999,-0.07921844278438604
0.002728828404268998,-0.08041083267640155
0.002729128404268998,-0.08033134001693601
0.002729428404268998,-0.08072880331427437
0.002729728404268999,-0.08112626661161317
0.002730028404268999,-0.08049032533587143
0.002730328404268999,-0.08041083267640371
0.002730628404268999,-0.08041083267640371
0.002730928404268999,-0.08001336937906449
0.002731228404268999,-0.07993387671959665
0.002731528404268999,-0.08033134001693587
0.002731828404268999,-0.0792979354438539
0.002732128404268999,-0.07905945746545036
0.002732428404268999,-0.07953641342225742
0.002732728404268999,-0.07882097948704682
0.002733028404268999,-0.07953641342225742
0.002733328404268999,-0.0791389501249182
0.002733628404268999,-0.07802605289236837
0.002733928404268999,-0.07921844278438604
0.002734228404268998,-0.07874148682757985
0.002734528404268998,-0.07850300884917587
0.002734828404268998,-0.07913895012491705
0.002735128404268999,-0.07874148682757956
0.002735428404268999,-0.07905945746545151
0.002735728404268999,-0.07969539874119225
0.002736028404268999,-0.07921844278438561
0.002736328404268999,-0.07897996480598252
0.002736628404268999,-0.07977489140066096
0.002736928404268999,-0.07985438406012881
0.002737228404268999,-0.08025184735746803
0.002737528404268999,-0.08041083267640371
0.002737828404268999,-0.07977489140066096
0.002738128404268999,-0.08025184735746803
0.002738428404268999,-0.07985438406012881
0.002738728404268999,-0.07953641342225742
0.002739028404268999,-0.0791389501249182
0.002739328404268999,-0.07921844278438604
0.002739628404268999,-0.07866199416811114
0.002739928404268998,-0.07874148682757884
0.002740228404268998,-0.07913895012491748
0.002740528404268998,-0.07897996480598281
0.002740828404268999,-0.07874148682757941
0.002741128404268999,-0.07897996480598164
0.002741428404268999,-0.0785030088491753
0.002741728404268999,-0.0784235161897076
0.002742028404268999,-0.07826453087077191
0.002742328404268999,-0.07858250150864329
0.002742628404268999,-0.07739011161662562
0.002742928404268999,-0.07834402353023975
0.002743228404268999,-0.07850300884917544
0.002743528404268999,-0.07770808225449699
0.002743828404268999,-0.07905945746545036
0.002744128404268999,-0.07890047214651467
0.002744428404268999,-0.07866199416811114
0.002744728404268999,-0.07937742810332174
0.002745028404268999,-0.0791389501249182
0.002745328404268998,-0.0787414868275797
0.002745628404268998,-0.07937742810332059
0.002745928404268998,-0.07929793544385404
0.002746228404268999,-0.07866199416811273
0.002746528404268999,-0.07953641342225627
0.002746828404268999,-0.07890047214651424
0.002747128404268999,-0.07866199416811157
0.002747428404268999,-0.07890047214651467
0.002747728404268999,-0.07818503821130407
0.002748028404268999,-0.07818503821130407
0.002748328404268999,-0.0784235161897076
0.002748628404268999,-0.07826453087077191
0.002748928404268999,-0.07810554555183621
0.002749228404268999,-0.07834402353023975
0.002749528404268999,-0.07731061895715777
0.002749828404268999,-0.07754909693556131
0.002750128404268999,-0.07794656023290053
0.002750428404268999,-0.07778757491396485
0.002750728404268999,-0.0784235161897076
0.002751028404268998,-0.0785030088491753
0.002751328404268998,-0.07707214097875685
0.002751628404268998,-0.07675417034088344
0.002751928404268999,-0.07739011161662519
0.002752228404268999,-0.0771516336382231
0.002752528404268999,-0.07770808225449598
0.002752828404268999,-0.07715163363822208
0.002753128404268999,-0.0768336630003507
0.002753428404268999,-0.07818503821130407
0.002753728404268999,-0.07770808225449699
0.002754028404268999,-0.07770808225449699
0.002754328404268999,-0.07802605289236837
0.002754628404268999,-0.07826453087077191
0.002754928404268999,-0.07818503821130407
0.002755228404268999,-0.07874148682757898
0.002755528404268999,-0.07818503821130407
0.002755828404268999,-0.07786706757343269
0.002756128404268999,-0.07810554555183621
0.002756428404268998,-0.07739011161662693
0.002756728404268998,-0.07739011161662562
0.002757028404268998,-0.07723112629769022
0.002757328404268999,-0.07691315565981868
0.002757628404268999,-0.07699264831928582
0.002757928404268999,-0.07667467768141488
0.002758228404268999,-0.07659518502194819
0.002758528404268999,-0.07715163363822208
0.002758828404268999,-0.07707214097875424
0.002759128404268999,-0.07580025842726873
0.002759428404268999,-0.07635670704354364
0.002759728404268999,-0.07587975108673657
0.002760028404268999,-0.07587975108673657
0.002760328404268999,-0.07715163363822208
0.002760628404268999,-0.07580025842726873
0.002760928404268999,-0.0761182290651401
0.002761228404268999,-0.07707214097875424
0.002761528404268999,-0.0761182290651401
0.002761828404268999,-0.07651569236247932
0.002762128404268998,-0.07739011161662403
0.002762428404268998,-0.07659518502194862
0.002762728404268998,-0.07715163363822107
0.002763028404268999,-0.07707214097875265
0.002763328404268999,-0.0761977217246091
0.002763628404268999,-0.07683366300035056
0.002763928404268999,-0.07675417034088286
0.002764228404268999,-0.07643619970301148
0.002764528404268999,-0.07715163363822208
0.002764828404268999,-0.07691315565981854
0.002765128404268999,-0.07627721438407579
0.002765428404268999,-0.07643619970301148
0.002765728404268999,-0.07643619970301148
0.002766028404268999,-0.07595924374620441
0.002766328404268999,-0.07603873640567226
0.002766628404268999,-0.07587975108673657
0.002766928404268999,-0.07500533183259028
0.002767228404268999,-0.07476685385418674
0.002767528404268998,-0.07341547864323583
0.002767828404268998,-0.07301801534589487
0.002768128404268998,-0.07405141991897427
0.002768428404268999,-0.07317700066482971
0.002768728404268999,-0.0730975080053623
0.002769028404268999,-0.07325649332429755
0.002769328404268999,-0.07317700066482999
0.002769628404268999,-0.07325649332429769
0.002769928404268999,-0.07277953736749063
0.002770228404268999,-0.07365395662163692
0.002770528404268999,-0.07301801534589415
0.002770828404268999,-0.07341547864323338
0.002771128404268999,-0.07373344928110476
0.002771428404268999,-0.07357446396216907
0.002771728404268999,-0.07421040523791184
0.002772028404268999,-0.07405141991897614
0.002772328404268999,-0.07365395662163692
0.002772628404268999,-0.07428989789737968
0.002772928404268999,-0.07460786853525106
0.002773228404268998,-0.07524380981099266
0.002773528404268998,-0.07564127310833231
0.002773828404268998,-0.07627721438407464
0.002774128404268999,-0.07580025842726801
0.002774428404268999,-0.07540279512993023
0.002774728404268999,-0.07580025842726729
0.002775028404268999,-0.07500533183259028
0.002775328404268999,-0.07508482449205812
0.002775628404268999,-0.07580025842726873
0.002775928404268999,-0.07476685385418674
0.002776228404268999,-0.07484634651365459
0.002776528404268999,-0.0745283758757832
0.002776828404268999,-0.07333598598376553
0.002777128404268999,-0.07389243460004045
0.002777428404268999,-0.07357446396216907
0.002777728404268999,-0.07254105938908709
0.002778028404268999,-0.07277953736749063
0.002778328404268999,-0.07293852268642631
0.002778628404268998,-0.07293852268642631
0.002778928404268998,-0.07317700066482942
0.002779228404268998,-0.07301801534589444
0.002779528404268999,-0.07262055204855522
0.002779828404268999,-0.07277953736749063
0.002780128404268999,-0.0727795373674899
0.002780428404268999,-0.072382074070153
0.002780728404268999,-0.07325649332429769
0.002781028404268999,-0.07270004470802278
0.002781328404268999,-0.07333598598376553
0.002781628404268999,-0.07365395662163692
0.002781928404268999,-0.07325649332429769
0.002782228404268999,-0.07325649332429769
0.002782528404268999,-0.07349497130270123
0.002782828404268999,-0.07309750800536201
0.002783128404268999,-0.0738129419405726
0.002783428404268999,-0.07301801534589415
0.002783728404268999,-0.07270004470802278
0.002784028404268999,-0.07357446396216907
0.002784328404268998,-0.07270004470802438
0.002784628404268998,-0.07262055204855507
0.002784928404268998,-0.07301801534589343
0.002785228404268999,-0.0718256254538775
0.002785528404268999,-0.07238207407015199
0.002785828404268999,-0.07270004470802033
0.002786128404268999,-0.07134866949706942
0.002786428404268999,-0.07174613279440864
0.002786728404268999,-0.07198461077281218
0.002787028404268999,-0.07095120619973019
0.002787328404268999,-0.07230258141068356
0.002787628404268999,-0.07174613279440864
0.002787928404268999,-0.07103069885919804
0.002788228404268999,-0.07158714747547296
0.002788528404268999,-0.07142816215653726
0.002788828404268999,-0.07079222088079451
0.002789128404268999,-0.07198461077281218
0.002789428404268999,-0.07063323556185881
0.002789728404268998,-0.07071272822132653
0.002790028404268998,-0.07198461077280986
0.002790328404268998,-0.07055374290239358
0.002790628404268999,-0.07103069885920049
0.002790928404268999,-0.0723820740701501
0.002791228404268999,-0.07166664013494008
0.002791528404268999,-0.07126917683760403
0.002791828404268999,-0.07262055204855493
0.002792128404268999,-0.07134866949706942
0.002792428404268999,-0.07150765481600511
0.002792728404268999,-0.07270004470802278
0.002793028404268999,-0.07142816215653726
0.002793328404268999,-0.07134866949706942
0.002793628404268999,-0.0716666401349408
0.002793928404268999,-0.07015627960505175
