-20250405-BKP/synth-diodes-1f-1r-in-T00-L10-D10/100Hz5V/scope.csv

#Digilent WaveForms Oscilloscope Acquisition
#Device Name: Discovery3
#Serial Number: SN:210415BD5874
#Date Time: 2025-04-03 16:20:12.466.691.190
#Sample rate: 344828Hz
#Samples: 32768
#Trigger: Source: Channel 1 Type: Edge Condition: Rising Level: 0 V Hyst.: Auto HoldOff: 0 s
#Channel 1: Range: 200 mV/div Offset: 0 V Sample Mode: Average
#Wavegen Channel 1: Running
#Mode: Simple
#Type: Sine
#Frequency: 100 Hz
#Period: 10 ms
#Amplitude: 5 V
#Offset: 0 V
#Symmetry: 50 %
#Phase: 0 °

Time (s),Channel 1 (V)
-0.03483948742980397,0.07507680924270287
-0.03483658742980397,0.07444086796695894
-0.03483368742980397,0.0753947798805702
-0.03483078742980397,0.07515630190216882
-0.03482788742980397,0.07483833126429759
-0.03482498742980397,0.07547427254003862
-0.03482208742980397,0.07523579456163666
-0.03481918742980397,0.07483833126429773
-0.03481628742980397,0.07563325785897401
-0.03481338742980397,0.07571275051844317
-0.03481048742980397,0.0750768092427017
-0.03480758742980397,0.07587173583737755
-0.03480468742980397,0.0761102138157821
-0.03480178742980397,0.07563325785897633
-0.03479888742980397,0.07642818445365246
-0.03479598742980397,0.07777955966460481
-0.03479308742980397,0.07706412572939797
-0.03479018742980397,0.07626919913471966
-0.03478728742980397,0.07650767711312133
-0.03478438742980397,0.07587173583738015
-0.03478148742980397,0.0765871697725883
-0.03477858742980397,0.0768256477509927
-0.03477568742980397,0.07579224317791303
-0.03477278742980397,0.07666666243205585
-0.03476988742980397,0.07682564775099283
-0.03476698742980397,0.07579224317791303
-0.03476408742980397,0.07634869179418505
-0.03476118742980397,0.07658716977258917
-0.03475828742980397,0.07595122849684799
-0.03475538742980397,0.07618970647524995
-0.03475248742980397,0.07658716977258888
-0.03474958742980397,0.07603072115631569
-0.03474668742980397,0.07642818445365318
-0.03474378742980397,0.07666666243205701
-0.03474088742980397,0.07603072115631583
-0.03473798742980397,0.07634869179418606
-0.03473508742980397,0.07698463306992882
-0.03473218742980397,0.07595122849684684
-0.03472928742980397,0.07626919913471822
-0.03472638742980397,0.07674615509152528
-0.03472348742980397,0.07571275051844331
-0.03472058742980397,0.07626919913471822
-0.03471768742980397,0.07650767711312176
-0.03471478742980397,0.075871735837379
-0.03471188742980397,0.07634869179418606
-0.03470898742980397,0.07650767711312176
-0.03470608742980397,0.07571275051844331
-0.03470318742980397,0.07579224317791115
-0.03470028742980397,0.0764281844536539
-0.03469738742980397,0.07626919913471822
-0.03469448742980397,0.07579224317791115
-0.03469158742980397,0.0764281844536539
-0.03468868742980397,0.07618970647525038
-0.03468578742980397,0.07603072115631468
-0.03468288742980397,0.07682564775099313
-0.03467998742980397,0.07666666243205744
-0.03467708742980397,0.07595122849684684
-0.03467418742980397,0.0764281844536539
-0.03467128742980397,0.07770006700513943
-0.03466838742980397,0.07738209636726805
-0.03466548742980397,0.07666666243205744
-0.03466258742980396,0.0764281844536539
-0.03465968742980396,0.07595122849684684
-0.03465678742980396,0.0764281844536539
-0.03465388742980396,0.07690514041046098
-0.03465098742980396,0.07626919913471822
-0.03464808742980396,0.07634869179418606
-0.03464518742980396,0.07666666243205744
-0.03464228742980396,0.07611021381578253
-0.03463938742980396,0.07618970647525038
-0.03463648742980396,0.0765871697725896
-0.03463358742980396,0.07595122849684684
-0.03463068742980396,0.07571275051844331
-0.03462778742980396,0.07650767711312176
-0.03462488742980396,0.0764281844536539
-0.03462198742980396,0.075871735837379
-0.03461908742980396,0.07634869179418606
-0.03461618742980396,0.07626919913471721
-0.03461328742980396,0.07571275051844403
-0.03461038742980396,0.07611021381578267
-0.03460748742980396,0.07618970647524893
-0.03460458742980396,0.07539477988057308
-0.03460168742980396,0.07603072115631526
-0.03459878742980396,0.07634869179418446
-0.03459588742980398,0.07547427254004295
-0.03459298742980398,0.07571275051844244
-0.03459008742980398,0.07579224317791086
-0.03458718742980398,0.07539477988057337
-0.03458428742980398,0.07595122849684481
-0.03458138742980398,0.07563325785897661
-0.03457848742980398,0.07523579456163768
-0.03457558742980398,0.07563325785897401
-0.03457268742980397,0.0753947798805728
-0.03456978742980397,0.07531528722110438
-0.03456688742980397,0.07595122849684452
-0.03456398742980397,0.07595122849684684
-0.03456108742980397,0.07475883860483351
-0.03455818742980397,0.0752357945616345
-0.03455528742980397,0.07507680924270113
-0.03455238742980397,0.07420238998855744
-0.03454948742980397,0.07428188264802181
-0.03454658742980397,0.07571275051843811
-0.03454368742980397,0.07459985328589754
-0.03454078742980397,0.07340746339388016
-0.03453788742980397,0.0731689854154727
-0.03453498742980397,0.07245355148026297
-0.03453208742980397,0.07237405882079397
-0.03452918742980397,0.07245355148026153
-0.03452628742980397,0.07126116158824616
-0.03452338742980397,0.0716586248855825
-0.03452048742980397,0.07213558084238941
-0.03451758742980397,0.07086369829090709
-0.03451468742980397,0.07110217626930788
-0.03451178742980397,0.07213558084238841
-0.03450888742980397,0.0718176102045195
-0.03450598742980397,0.07149963956664812
-0.03450308742980397,0.07221507350185684
-0.03450018742980397,0.07181761020451964
-0.03449728742980397,0.07245355148026052
-0.03449438742980397,0.07388441935068027
-0.03449148742980397,0.07396391201015058
-0.03448858742980397,0.07388441935068302
-0.03448568742980397,0.07420238998855368
-0.03448278742980397,0.07412289732908656
-0.03447988742980397,0.07388441935068331
-0.03447698742980397,0.07483833126429527
-0.03447408742980397,0.07467934594536162
-0.03447118742980397,0.07380492669121663
-0.03446828742980397,0.07467934594535973
-0.03446538742980397,0.07420238998855513
-0.03446248742980397,0.07380492669121576
-0.03445958742980397,0.07452036062642434
-0.03445668742980397,0.07436137530749024
-0.03445378742980397,0.07404340466961915
-0.03445088742980397,0.07459985328589247
-0.03444798742980397,0.07507680924269967
-0.03444508742980397,0.07444086796695894
-0.03444218742980397,0.07444086796695779
-0.03443928742980397,0.0745203606264255
-0.03443638742980397,0.07380492669121634
-0.03443348742980397,0.07428188264802123
-0.03443058742980397,0.07452036062642521
-0.03442768742980397,0.07340746339387784
-0.03442478742980397,0.07404340466961741
-0.03442188742980397,0.07571275051844027
-0.03441898742980397,0.0750768092427017
-0.03441608742980397,0.07444086796695779
-0.03441318742980397,0.0742818826480221
-0.03441028742980397,0.07396391201015072
-0.03440738742980397,0.07452036062642564
-0.03440448742980397,0.07507680924270055
-0.03440158742980397,0.0742818826480221
-0.03439868742980397,0.07515630190216839
-0.03439578742980397,0.075871735837379
-0.03439288742980397,0.07539477988057193
-0.03438998742980397,0.07491782392376486
-0.03438708742980397,0.07523579456163623
-0.03438418742980397,0.07452036062642564
-0.03438128742980397,0.07396391201015072
-0.03437838742980397,0.07475883860482917
-0.03437548742980397,0.07499731658323271
-0.03437258742980397,0.07412289732908642
-0.03436968742980397,0.07404340466961856
-0.03436678742980397,0.07475883860482917
-0.03436388742980397,0.07420238998855426
-0.03436098742980397,0.0742818826480221
-0.03435808742980397,0.07467934594536133
-0.03435518742980397,0.0742818826480221
-0.03435228742980397,0.07348695605334365
-0.03434938742980397,0.07420238998855426
-0.03434648742980397,0.0742818826480221
-0.03434358742980397,0.07380492669121504
-0.03434068742980396,0.07452036062642564
-0.03433778742980396,0.07444086796695779
-0.03433488742980396,0.07380492669121504
-0.03433198742980396,0.07444086796695779
-0.03432908742980396,0.07388441935068288
-0.03432618742980396,0.07229456616132598
-0.03432328742980396,0.07229456616132598
-0.03432038742980396,0.07221507350185814
-0.03431748742980396,0.07062522031250125
-0.03431458742980396,0.06975080105835495
-0.03431168742980396,0.06927384510154788
-0.03430878742980396,0.06704805063644823
-0.03430588742980396,0.06490174883081642
-0.03430298742980396,0.06402732957667014
-0.03430008742980396,0.06029117458168143
-0.03429718742980396,0.05925777000859946
-0.03429428742980396,0.05766791681923403
-0.03429138742980396,0.05297784991063163
-0.03428848742980396,0.04852626098043969
-0.03428558742980396,0.04812879768309381
-0.03428268742980396,0.04407467205023504
-0.03427978742980396,0.04073598035258845
-0.03427688742980396,0.03898714184429413
-0.03427398742980398,0.03628439142240216
-0.03427108742980398,0.03350214834102789
-0.03426818742980398,0.03230975844900443
-0.03426528742980398,0.02952751536763565
-0.03426238742980398,0.02658628696732597
-0.03425948742980398,0.02507592643743172
-0.03425658742980398,0.02300911729126978
-0.03425368742980398,0.01967042559362493
-0.03425078742980397,0.01831905038266434
-0.03424788742980397,0.0165702118743732
-0.03424498742980397,0.01370847613353484
-0.03424208742980397,0.01211862294417332
-0.03423918742980397,0.0109262330521542
-0.03423628742980397,0.007826019332915199
-0.03423338742980397,0.006315658803020366
-0.03423048742980397,0.00528225422993665
-0.03422758742980397,0.002579503808036002
-0.03422468742980397,0.001387113916012837
-0.03422178742980397,0.000592187321332944
-0.03421888742980397,-0.001872085122164169
-0.03421598742980397,-0.003223460333124036
-0.03421308742980397,-0.003859401608868095
-0.03421018742980397,-0.006403166711835656
-0.03420728742980397,-0.007516063944388085
-0.03420438742980397,-0.007913527241728609
-0.03420148742980397,-0.01069577032309884
-0.03419858742980397,-0.0123651161719256
-0.03419568742980397,-0.01323953542607334
-0.03419278742980397,-0.01514735925329973
-0.03418988742980397,-0.01713467573999571
-0.03418698742980397,-0.01777061701574092
-0.03418408742980397,-0.01951945552403148
-0.03418118742980397,-0.02182474264859796
-0.03417828742980397,-0.02238119126487606
-0.03417538742980397,-0.02397104445423107
-0.03417248742980397,-0.02492495636784637
-0.03416958742980397,-0.0250044490273158
-0.03416668742980397,-0.02746872147081465
-0.03416378742980397,-0.03096639848739794
-0.03416088742980397,-0.0306484278495335
-0.03415798742980397,-0.03104589114687142
-0.03415508742980397,-0.03335117827143545
-0.03415218742980397,-0.03390762688771354
-0.03414928742980397,-0.03517950943919777
-0.03414638742980397,-0.03716682592589258
-0.03414348742980397,-0.03827972315844398
-0.03414058742980397,-0.03931312773152611
-0.03413768742980397,-0.0421748634723652
-0.03413478742980397,-0.04304928272651511
-0.03413188742980397,-0.0435262386833229
-0.03412898742980397,-0.04591101846735477
-0.03412608742980397,-0.04734188633777772
-0.03412318742980397,-0.04773934963511882
-0.03412028742980397,-0.04972666612181204
-0.03411738742980397,-0.05147550463010506
-0.03411448742980397,-0.05163448994904364
-0.03411158742980397,-0.05322434313839793
-0.03410868742980397,-0.05545013760349642
-0.03410578742980397,-0.05560912292243587
-0.03410288742980397,-0.05640404951711317
-0.03409998742980397,-0.05831187334433942
-0.03409708742980397,-0.05839136600381058
-0.03409418742980397,-0.05966324855529624
-0.03409128742980397,-0.06212752099879942
-0.03408838742980397,-0.06228650631773512
-0.03408548742980397,-0.06339940355028495
-0.03408258742980397,-0.06562519801538461
-0.03407968742980397,-0.06602266131272383
-0.03407678742980397,-0.06673809524793442
-0.03407388742980397,-0.06904338237250192
-0.03407098742980397,-0.0693613530103733
-0.03406808742980397,-0.06999729428611606
-0.03406518742980397,-0.07254105938908709
-0.03406228742980397,-0.07309750800536201
-0.03405938742980397,-0.0738129419405726
-0.03405648742980397,-0.0761182290651401
-0.03405358742980397,-0.07651569236247932
-0.03405068742980397,-0.07715163363822208
-0.03404778742980397,-0.07786706757343269
-0.03404488742980397,-0.07754909693556131
-0.03404198742980397,-0.0791389501249182
-0.03403908742980397,-0.08303409043884259
-0.03403618742980397,-0.08223916384416415
-0.03403328742980397,-0.08319307575777828
-0.03403038742980397,-0.08502140692553871
-0.03402748742980397,-0.08533937756341009
-0.03402458742980397,-0.08613430415808854
-0.03402168742980397,-0.0882011133042525
-0.03401878742980396,-0.08899603989893094
-0.03401588742980396,-0.08923451787733448
-0.03401298742980396,-0.09114234170456276
-0.03401008742980396,-0.09177828298030551
-0.03400718742980396,-0.09233473159658043
-0.03400428742980396,-0.0942425554238087
-0.03400138742980396,-0.09503748201848715
-0.03399848742980396,-0.09543494531582637
-0.03399558742980396,-0.09766073978092601
-0.03399268742980396,-0.0979787104187974
-0.03398978742980396,-0.09805820307826524
-0.03398688742980396,-0.09996602690549351
-0.03398398742980396,-0.1002045048838971
-0.03398108742980396,-0.1002839975433649
-0.03397818742980396,-0.1016353727543183
-0.03397528742980396,-0.1026687773274002
-0.03397238742980396,-0.1027482699868708
-0.03396948742980396,-0.1042586305167602
-0.03396658742980396,-0.1059279763655822
-0.03396368742980396,-0.1060869616845189
-0.03396078742980396,-0.1068023956197318
-0.03395788742980396,-0.1087897121064249
-0.03395498742980396,-0.1091076827442965
-0.03395208742980398,-0.109584638701101
-0.03394918742980398,-0.1112539845499214
-0.03394628742980398,-0.1125258671014084
-0.03394338742980398,-0.112525867101413
-0.03394048742980398,-0.1143541982691668
-0.03393758742980398,-0.1150696322043814
-0.03393468742980398,-0.1152286175233191
-0.03393178742980398,-0.1169774560316059
-0.03392888742980397,-0.1172159340100149
-0.03392598742980397,-0.1172159340100158
-0.03392308742980397,-0.1179313679452238
-0.03392018742980397,-0.1171364413505509
-0.03391728742980397,-0.1181698459236262
-0.03391438742980397,-0.1216675229402024
-0.03391148742980397,-0.1211905669834098
-0.03390858742980397,-0.1213495523023432
-0.03390568742980397,-0.1230188981511624
-0.03390278742980397,-0.1241317953837143
-0.03389988742980397,-0.1242112880431859
-0.03389698742980397,-0.1253241852757319
-0.03389408742980397,-0.1266755604866869
-0.03389118742980397,-0.1261986045298831
-0.03388828742980397,-0.1281859210165748
-0.03388538742980397,-0.1292193255896585
-0.03388248742980397,-0.1288218622923219
-0.03387958742980397,-0.1299347595248689
-0.03387668742980397,-0.1317630906926281
-0.03387378742980397,-0.1317630906926314
-0.03387088742980397,-0.1316835980331637
-0.03386798742980397,-0.1335914218603884
-0.03386508742980397,-0.1335119292009241
-0.03386218742980397,-0.1336709145198594
-0.03385928742980397,-0.1353402603686814
-0.03385638742980397,-0.1352607677092167
-0.03385348742980397,-0.1356582310065551
-0.03385058742980397,-0.1374070695148452
-0.03384768742980397,-0.1374865621743161
-0.03384478742980397,-0.137804532812187
-0.03384188742980397,-0.1393943860015416
-0.03383898742980397,-0.1399508346178184
-0.03383608742980397,-0.1399508346178194
-0.03383318742980397,-0.1416996731261088
-0.03383028742980397,-0.1424151070613213
-0.03382738742980397,-0.1422561217423872
-0.03382448742980397,-0.1442434382290794
-0.03382158742980397,-0.1445614088669538
-0.03381868742980397,-0.1447998868453575
-0.03381578742980397,-0.1459127840779057
-0.03381288742980397,-0.1467077106725848
-0.03380998742980397,-0.1467872033320539
-0.03380708742980397,-0.1479001005646018
-0.03380418742980397,-0.1485360418403455
-0.03380128742980397,-0.1482180712024758
-0.03379838742980397,-0.1486950271592815
-0.03379548742980397,-0.14877451981875
-0.03379258742980397,-0.1493309684350241
-0.03378968742980397,-0.1516362555595884
-0.03378678742980397,-0.1523516894948019
-0.03378388742980397,-0.1532261087489479
-0.03378098742980397,-0.1533056014084172
-0.03377808742980397,-0.1537030647057558
-0.03377518742980397,-0.1555313958735136
-0.03377228742980397,-0.1552134252356456
-0.03376938742980397,-0.1552134252356456
-0.03376648742980397,-0.1572802343818095
-0.03376358742980397,-0.1574392197007452
-0.03376068742980397,-0.1576776976791488
-0.03375778742980397,-0.1591880582090378
-0.03375488742980397,-0.15910856554957
-0.03375198742980397,-0.1593470435279735
-0.03374908742980397,-0.1604599407605233
-0.03374618742980397,-0.1610163893767982
-0.03374328742980397,-0.1606984187389269
-0.03374038742980397,-0.1618113159714767
-0.03373748742980397,-0.1625267499066873
-0.03373458742980397,-0.1622882719282838
-0.03373168742980397,-0.1634011691608336
-0.03372878742980397,-0.1645935590528513
-0.03372588742980397,-0.164196095755512
-0.03372298742980397,-0.1653089929880619
-0.03372008742980397,-0.1661834122422081
-0.03371718742980397,-0.1658654416043368
-0.03371428742980397,-0.1664218902206117
-0.03371138742980397,-0.167773265431565
-0.03370848742980397,-0.1670578314963544
-0.03370558742980397,-0.1680117434099686
-0.03370268742980397,-0.1692041333019862
-0.03369978742980397,-0.1688861626641149
-0.03369688742980397,-0.1687271773451792
-0.03369398742980396,-0.1704760158534718
-0.03369108742980396,-0.1704760158534718
-0.03368818742980396,-0.1700785525561326
-0.03368528742980396,-0.1711914497886824
-0.03368238742980396,-0.1716684057454894
-0.03367948742980396,-0.171350435107618
-0.03367658742980396,-0.1723838396807
-0.03367368742980396,-0.1728607956375071
-0.03367078742980396,-0.1709529718102788
-0.03366788742980396,-0.1720658690428287
-0.03366498742980396,-0.1755635460594138
-0.03366208742980396,-0.1747686194647354
-0.03365918742980396,-0.174450648826864
-0.03365628742980396,-0.1754045607404781
-0.03365338742980396,-0.1764379653135601
-0.03365048742980396,-0.1758020240378188
-0.03364758742980396,-0.1765969506324977
-0.03364468742980396,-0.1776303552055774
-0.03364178742980396,-0.177391877227176
-0.03363888742980396,-0.1783457891407901
-0.03363598742980396,-0.1792997010544017
-0.03363308742980396,-0.1788227450975975
-0.03363018742980398,-0.1799356423301412
-0.03362728742980398,-0.1804125982869506
-0.03362438742980398,-0.1800151349896146
-0.03362148742980398,-0.1806510762653536
-0.03361858742980398,-0.1816844808384341
-0.03361568742980398,-0.1816049881789703
-0.03361278742980398,-0.1821614367952429
-0.03360988742980398,-0.183035856049388
-0.03360698742980398,-0.1823999147736508
-0.03360408742980397,-0.1842282459414022
-0.03360118742980397,-0.1842282459414089
-0.03359828742980397,-0.1840692606224738
-0.03359538742980397,-0.1851026651955514
-0.03359248742980397,-0.1859770844496983
-0.03358958742980397,-0.1855796211523637
-0.03358668742980397,-0.1860565771091676
-0.03358378742980397,-0.1874874449795853
-0.03358088742980397,-0.1867720110443825
-0.03357798742980397,-0.1873284596606528
-0.03357508742980397,-0.1883618642337331
-0.03357218742980397,-0.1877259229579952
-0.03356928742980397,-0.1878054156174618
-0.03356638742980397,-0.1889978055094774
-0.03356348742980397,-0.188361864233738
-0.03356058742980397,-0.188838820190543
-0.03355768742980397,-0.1897927321041563
-0.03355478742980397,-0.1894747614662873
-0.03355188742980397,-0.1896337467852221
-0.03354898742980397,-0.1909056293367055
-0.03354608742980397,-0.1890772981689508
-0.03354318742980397,-0.1891567908284151
-0.03354028742980397,-0.1920185265692525
-0.03353738742980397,-0.1923364972071285
-0.03353448742980397,-0.1916210632719198
-0.03353158742980397,-0.1926544678449986
-0.03352868742980397,-0.1931314238018066
-0.03352578742980397,-0.1928929458234044
-0.03352288742980397,-0.1938468577370164
-0.03351998742980397,-0.1948007696506305
-0.03351708742980397,-0.194323813693826
-0.03351418742980397,-0.1945622916722283
-0.03351128742980397,-0.1958341742237119
-0.03350838742980397,-0.1955956962453111
-0.03350548742980397,-0.1952777256074399
-0.03350258742980397,-0.1963906228399871
-0.03349968742980397,-0.1969470714562631
-0.03349678742980397,-0.196708593477861
-0.03349388742980397,-0.1976625053914729
-0.03349098742980397,-0.1978214907104101
-0.03348808742980397,-0.1974240274130719
-0.03348518742980397,-0.198775402624022
-0.03348228742980397,-0.1986959099645568
-0.03347938742980397,-0.1981394613482827
-0.03347648742980397,-0.1998088071971034
-0.03347358742980397,-0.1991728659213649
-0.03347068742980397,-0.1991728659213637
-0.03346778742980397,-0.20068322645125
