synth-diodes-out/-bkp-20250403/100Hz2V/scope.csv

#Digilent WaveForms Oscilloscope Acquisition
#Device Name: Discovery3
#Serial Number: SN:210415BD5874
#Date Time: 2025-04-02 18:37:44.046.895.210
#Sample rate: 294985Hz
#Samples: 32768
#Trigger: Source: Channel 1 Type: Edge Condition: Rising Level: 0 V Hyst.: Auto HoldOff: 0 s
#Channel 1: Range: 200 mV/div Offset: 0 V Sample Mode: Average
#Wavegen Channel 1: Running
#Mode: Simple
#Type: Sine
#Frequency: 100 Hz
#Period: 10 ms
#Amplitude: 2 V
#Offset: 0 V
#Symmetry: 50 %
#Phase: 0 °

Time (s),Channel 1 (V)
-0.04990324892234714,0.05432922512160248
-0.04989985892234715,0.05949624798700298
-0.04989646892234714,0.06291443234412031
-0.04989307892234714,0.0660941387228529
-0.04988968892234714,0.0764281844536539
-0.04988629892234714,0.07459985328589884
-0.04988290892234715,0.07754108168620373
-0.04987951892234714,0.07825651562142837
-0.04987612892234715,0.08596730358978125
-0.04987273892234714,0.0862057815681988
-0.04986934892234714,0.08358252380576529
-0.04986595892234714,0.08652375220607018
-0.04986256892234714,0.08628527422768401
-0.04985917892234715,0.09582439336380802
-0.04985578892234714,0.09828866580730571
-0.04985239892234714,0.09526794474757129
-0.04984900892234714,0.1057609757972886
-0.04984561892234714,0.108702204197595
-0.04984222892234715,0.1065559023919671
-0.04983883892234714,0.1098945940896239
-0.04983544892234715,0.1139487197224766
-0.04983205892234714,0.1215800150313966
-0.04982866892234714,0.1253956626858341
-0.04982527892234714,0.1220569709881968
-0.04982188892234714,0.1257136333237311
-0.04981849892234715,0.1331064506542272
-0.04981510892234714,0.1306421782107281
-0.04981171892234715,0.1328679726758237
-0.04980832892234714,0.1295292809781852
-0.04980493892234714,0.1355707230977417
-0.04980154892234714,0.1417711505362223
-0.04979815892234714,0.1397838340495306
-0.04979476892234715,0.1422481064930294
-0.04979137892234714,0.1477330999963239
-0.04978798892234715,0.1550464246673524
-0.04978459892234714,0.1586235943434054
-0.04978120892234714,0.1530591081806639
-0.04977781892234714,0.157272219132452
-0.04977442892234714,0.1646650364629656
-0.04977103892234715,0.1668908309280612
-0.04976764892234714,0.1683216987984726
-0.04976425892234715,0.1629161979546788
-0.04976086892234714,0.1761914720857991
-0.04975747892234714,0.1814379876106713
-0.04975408892234714,0.1784172665508987
-0.04975069892234714,0.1791327004861294
-0.04974730892234715,0.1901821801521397
-0.04974391892234714,0.1885128343033238
-0.04974052892234714,0.1933618865308463
-0.04973713892234714,0.1913745700441574
-0.04973374892234714,0.1990058653530872
-0.04973035892234715,0.2082270138513405
-0.04972696892234714,0.2063986826835845
-0.04972357892234715,0.2088629551270832
-0.04972018892234714,0.2118041835274107
-0.04971679892234714,0.2212638100040826
-0.04971340892234714,0.2255564136153306
-0.04971001892234714,0.222933155852891
-0.04970662892234715,0.2225356925555525
-0.04970323892234714,0.2370033565786911
-0.04969984892234715,0.231995319032226
-0.04969645892234714,0.2310414071186145
-0.04969306892234714,0.2324722749890391
-0.04968967892234714,0.2357314740272147
-0.04968628892234714,0.2416139308278357
-0.04968289892234715,0.2418524088062388
-0.04967950892234714,0.2405805262547737
-0.04967611892234715,0.2517889912397194
-0.04967272892234714,0.2507555866666374
-0.04966933892234714,0.2528223958128014
-0.04966594892234714,0.2528223958128014
-0.04966255892234714,0.2468604463527435
-0.04965916892234715,0.2636333975004282
-0.04965577892234714,0.2598177498459646
-0.04965238892234715,0.2559226095320544
-0.04964899892234714,0.2613281103758607
-0.04964560892234714,0.2727750533392295
-0.04964221892234714,0.2722980973824233
-0.04963882892234714,0.2690388983442419
-0.04963543892234715,0.2691978836631774
-0.04963204892234714,0.2752393257827363
-0.04962865892234714,0.2767496863126365
-0.04962526892234714,0.2805653339670792
-0.04962187892234714,0.2804858413076233
-0.04961848892234715,0.2870837320434424
-0.04961509892234714,0.2935226374603347
-0.04961170892234715,0.2917737989520452
-0.04960831892234714,0.2924892328872557
-0.04960492892234714,0.292409740227821
-0.04960153892234714,0.3014719034071223
-0.04959814892234714,0.3053670437210431
-0.04959475892234715,0.3033797272343506
-0.04959136892234714,0.3020283520234293
-0.04958797892234715,0.3196757224252588
-0.04958458892234714,0.3168139866844176
-0.04958119892234714,0.3175294206196252
-0.04957780892234714,0.3165755087060128
-0.04957441892234714,0.3236503553986559
-0.04957102892234715,0.3263531058205577
-0.04956763892234714,0.3250017306096084
-0.04956424892234715,0.327227525074704
-0.04956085892234714,0.3230144141229082
-0.04955746892234714,0.3347793277241553
-0.04955407892234714,0.3381180194217988
-0.04955068892234714,0.3355742543188413
-0.04954729892234715,0.3430465643088051
-0.04954390892234714,0.3481340945147447
-0.04954051892234715,0.3467827193037962
-0.04953712892234714,0.3498829330230397
-0.04953373892234714,0.3474186605795561
-0.04953034892234714,0.3581501696076956
-0.04952695892234714,0.3572757503535524
-0.04952356892234715,0.358945096202374
-0.04952017892234714,0.361250383326956
-0.04951678892234714,0.3691996492737145
-0.04951339892234714,0.3660199428950122
-0.04951000892234714,0.3699945758684025
-0.04950661892234715,0.3688816786358546
-0.04950322892234714,0.3690406639548121
-0.04949983892234715,0.380964562874967
-0.04949644892234714,0.3797721729829517
-0.04949305892234714,0.3810440555344421
-0.04948966892234714,0.383031372021131
-0.04948627892234714,0.3946373003034425
-0.04948288892234715,0.3980554846605536
-0.04947949892234714,0.3959091828549252
-0.04947610892234715,0.3977375140226823
-0.04947271892234714,0.4084690230508357
-0.04946932892234714,0.4053688093316009
-0.04946593892234714,0.4083895303913734
-0.04946254892234714,0.4049713460342544
-0.04945915892234715,0.404017434120642
-0.04945576892234714,0.416497781657088
-0.04945237892234715,0.4133975679378477
-0.04944898892234714,0.4157028550624152
-0.04944559892234714,0.420551907289959
-0.04944220892234714,0.423493135690264
-0.04943881892234714,0.4274677686636539
-0.04943542892234715,0.4261958861121707
-0.04943203892234714,0.4251624815391108
-0.04942864892234715,0.4373248584376468
-0.04942525892234714,0.4355760199293763
-0.04942186892234714,0.4375633364160715
-0.04941847892234714,0.4370068877997976
-0.04941508892234714,0.4457510803412657
-0.04941169892234715,0.4486128160821029
-0.04940830892234714,0.446307528957529
-0.04940491892234714,0.4428098519409416
-0.04940152892234714,0.4404250721569149
-0.04939813892234714,0.4521899857581614
-0.04939474892234715,0.455210706817934
-0.04939135892234714,0.4522694784176342
-0.04938796892234715,0.4579929498993086
-0.04938457892234714,0.4649088112730058
-0.04938118892234714,0.4620470755321811
-0.04937779892234714,0.4654652598892859
-0.04937440892234714,0.4657832305271676
-0.04937101892234715,0.4714272093493743
-0.04936762892234714,0.473176047857663
-0.04936423892234715,0.4710297460520351
-0.04936084892234714,0.4738119891334199
-0.04935745892234714,0.4794559679556307
-0.04935406892234714,0.4805688651881765
-0.04935067892234714,0.4839870495452901
-0.04934728892234715,0.4819997330585977
-0.04934389892234714,0.4889155944323064
-0.04934050892234715,0.4923337787894175
-0.04933711892234714,0.4891540724107037
-0.04933372892234714,0.4913798668757906
-0.04933033892234714,0.484384512842633
-0.04932694892234714,0.4988521768657874
-0.04932355892234715,0.5025088392013016
-0.04932016892234714,0.4994881181415265
-0.04931677892234715,0.5011574639903452
-0.04931338892234714,0.5071194134504365
-0.04930999892234714,0.5058475308989555
-0.04930660892234714,0.5083118033424543
-0.04930321892234714,0.5054500676016276
-0.04929982892234715,0.514114767483607
-0.04929643892234714,0.5176124445001877
-0.04929304892234714,0.5152276647161672
-0.04928965892234714,0.5180894004569991
-0.04928626892234714,0.5167380252460438
-0.04928287892234715,0.515625128013496
-0.04927948892234714,0.512127450996903
-0.04927609892234715,0.5078348473856472
-0.04927270892234714,0.5198382389652914
-0.04926931892234714,0.5195997609868871
-0.04926592892234714,0.5192817903490169
-0.04926253892234714,0.5207921508789012
-0.04925914892234715,0.5182483857759349
-0.04925575892234714,0.526436129701123
-0.04925236892234715,0.5265156223605907
-0.04924897892234714,0.5253232324685797
-0.04924558892234714,0.5289798948040861
-0.04924219892234714,0.5268335929984621
-0.04923880892234714,0.5280259828904842
-0.04923541892234715,0.530490255333983
-0.04923202892234714,0.5267541003389957
-0.04922863892234715,0.5275490269336727
-0.04922524892234714,0.5291388801230296
-0.04922185892234714,0.5257206957659157
-0.04921846892234714,0.5276285195931405
-0.04921507892234714,0.529138880123032
-0.04921168892234715,0.530490255333983
-0.04920829892234714,0.5338289470316273
-0.04920490892234715,0.531046703950263
-0.04920151892234714,0.5328750351180183
-0.04919812892234714,0.5329545277774865
-0.04919473892234714,0.5331930057558897
-0.04919134892234714,0.535418800220985
-0.04918795892234715,0.533034020436954
-0.04918456892234714,0.5352598149020544
-0.04918117892234714,0.5356572781993844
-0.04917778892234714,0.5333519910748253
-0.04917439892234714,0.5365316974535352
-0.04917100892234715,0.5343853956479073
-0.04916761892234714,0.5346238736263127
-0.04916422892234715,0.535577785539925
-0.04916083892234714,0.5318416305449392
-0.04915744892234714,0.5334314837342744
-0.04915405892234714,0.5282644608688832
-0.04915066892234714,0.5269130856579471
-0.04914727892234715,0.5363727121346035
-0.04914388892234714,0.5331135130964193
-0.04914049892234715,0.5316826452260006
-0.04913710892234714,0.5356572781993884
-0.04913371892234714,0.533193005755892
-0.04913032892234714,0.5338289470316324
-0.04912693892234714,0.5364522047940674
-0.04912354892234715,0.5343059029884395
-0.04912015892234714,0.5368496680914111
-0.04911676892234715,0.5371676387292819
-0.04911337892234714,0.5354188002209893
-0.04910998892234714,0.5393139405349094
-0.04910659892234714,0.5370086534103462
-0.04910320892234714,0.5362137268156727
-0.04909981892234715,0.5389164772375745
-0.04909642892234714,0.5366111901130122
-0.04909303892234715,0.5394729258538442
-0.04908964892234714,0.5390754625565102
-0.04908625892234714,0.5374856093671603
-0.04908286892234714,0.5413012570216098
-0.04907947892234714,0.5402678524485265
-0.04907608892234715,0.5395524185133173
-0.04907269892234714,0.5436065441461722
-0.04906930892234714,0.5407448084053363
-0.04906591892234714,0.5411422717026741
-0.04906252892234714,0.5444014707408485
-0.04905913892234715,0.5404268377674636
-0.04905574892234714,0.5434475588272388
-0.04905235892234715,0.5419371982973525
-0.04904896892234714,0.5411422717026774
-0.04904557892234714,0.5428911102109528
-0.04904218892234714,0.5390754625565102
-0.04903879892234714,0.539790896491726
-0.04903540892234715,0.5426526322325632
-0.04903201892234714,0.5393934331943759
-0.04902862892234715,0.5362932194751356
-0.04902523892234714,0.5368496680914181
-0.04902184892234714,0.5409832863837439
-0.04901845892234714,0.5424936469136274
-0.04901506892234714,0.5420166909568166
-0.04901167892234715,0.5398703891511886
-0.04900828892234714,0.5440040074435141
-0.04900489892234715,0.5426526322325632
-0.04900150892234714,0.5423346615946918
-0.04899811892234714,0.5442424854219161
-0.04899472892234714,0.5420166909568205
-0.04899133892234714,0.5447989340381856
-0.04898794892234715,0.5396319111727851
-0.04898455892234714,0.5401088671295973
-0.04898116892234715,0.5428911102109616
-0.04897777892234714,0.5431295881893703
-0.04897438892234714,0.5405063304269382
-0.04897099892234714,0.5442424854219201
-0.04896760892234714,0.5416987203189511
-0.04896421892234715,0.5428116175514989
-0.04896082892234714,0.5438450221245764
-0.04895743892234714,0.5413807496810901
-0.04895404892234714,0.544798934038195
-0.04895065892234714,0.5431295881893737
-0.04894726892234715,0.5450374120165985
-0.04894387892234714,0.5464682798870146
-0.04894048892234715,0.5436860368056452
-0.04893709892234714,0.5459913239302102
-0.04893370892234714,0.5446399487192572
-0.04893031892234714,0.5440835001029843
-0.04892692892234714,0.5451169046760597
-0.04892353892234715,0.5414602423405455
-0.04892014892234714,0.5444809634003236
-0.04891675892234715,0.5444809634003236
-0.04891336892234714,0.5427321248920376
-0.04890997892234714,0.5463092945680736
-0.04890658892234714,0.5434475588272416
-0.04890319892234714,0.5391549552159846
-0.04889980892234715,0.542732124892031
-0.04889641892234714,0.5452758899950029
-0.04889302892234715,0.5456733532923412
-0.04888963892234714,0.5466272652059554
-0.04888624892234714,0.5434475588272478
-0.04888285892234714,0.546865743184359
-0.04887946892234714,0.546468279887019
-0.04887607892234715,0.5460708165896805
-0.04887268892234714,0.5475811771195634
-0.04886929892234715,0.5442424854219262
-0.04886590892234714,0.5451963973355343
-0.04886251892234714,0.5468657431843545
-0.04885912892234714,0.5444014707408558
-0.04885573892234714,0.5477401624385034
-0.04885234892234715,0.5467862505248912
-0.04884895892234714,0.5474221918006376
-0.04884556892234714,0.5494095082873185
-0.04884217892234714,0.5462298019086161
-0.04883878892234714,0.5490120449899902
-0.04883539892234715,0.5486940743521194
-0.04883200892234714,0.548535089033188
-0.04882861892234715,0.550919868817219
-0.04882522892234714,0.547660669779042
-0.04882183892234714,0.5502044348820073
-0.04881844892234714,0.549886464244137
-0.04881505892234714,0.5481376257358489
-0.04881166892234715,0.5506018981793477
-0.04880827892234714,0.547422191800631
-0.04880488892234715,0.545832338611277
-0.04880149892234714,0.5489325523305183
-0.04879810892234714,0.5463887872275539
-0.04879471892234714,0.5469452358438268
-0.04879132892234714,0.5497274789251967
-0.04878793892234715,0.5471837138222303
-0.04878454892234714,0.5505224055198745
-0.04878115892234715,0.5475811771195696
-0.04877776892234714,0.5433680661677738
-0.04877437892234714,0.5483761037142505
-0.04877098892234714,0.5497274789252014
-0.04876759892234714,0.5506018981793444
-0.04876420892234715,0.5487735670115872
-0.04876081892234714,0.5483761037142521
-0.04875742892234715,0.5506018981793437
-0.04875403892234714,0.5470247285032946
-0.04875064892234714,0.5487735670115886
-0.04874725892234714,0.5495684936062657
-0.04874386892234714,0.546865743184362
-0.04874047892234715,0.5485350890331837
-0.04873708892234714,0.5499659569036026
-0.04873369892234714,0.5486940743521338
-0.04873030892234714,0.5526687073255117
-0.04872691892234714,0.5512378394550884
-0.04872352892234715,0.5501249422225406
-0.04872013892234714,0.5519532733902978
-0.04871674892234715,0.5502044348820084
-0.04871335892234714,0.5533046486012515
-0.04870996892234714,0.5517147954118952
-0.04870657892234714,0.5510788541361548
-0.04870318892234714,0.5548150091311372
-0.04869979892234715,0.5513968247740261
-0.04869640892234714,0.5525892146660433
-0.04869301892234715,0.5522712440281724
-0.04868962892234714,0.5491710303089313
-0.04868623892234714,0.5518737807308236
-0.04868284892234714,0.5492505229683943
-0.04867945892234714,0.5487735670115949
-0.04867606892234715,0.552986677963383
-0.04867267892234714,0.5507608834982843
-0.04866928892234715,0.5513173321145582
-0.04866589892234714,0.552191751368702
-0.04866250892234714,0.5507608834982909
-0.04865911892234714,0.5548945017906113
-0.04865572892234714,0.549727478925195
-0.04865233892234715,0.5462298019086161
-0.04864894892234714,0.5521917513687056
-0.04864555892234715,0.5527481999849785
-0.04864216892234714,0.5541790678554007
-0.04863877892234714,0.5513968247740256
-0.04863538892234714,0.5511583467956226
-0.04863199892234714,0.5533841412607149
-0.04862860892234715,0.5493300156278621
-0.04862521892234714,0.5512378394550908
-0.04862182892234714,0.5513968247740275
-0.04861843892234714,0.5517942880713653
-0.04861504892234714,0.5545765311527352
-0.04861165892234715,0.5520327660497688
-0.04860826892234714,0.5540200825364677
-0.04860487892234715,0.555530443066354
-0.04860148892234714,0.5537021118985983
-0.04859809892234714,0.5562458770015583
-0.04859470892234714,0.554497038493272
-0.04859131892234714,0.5540200825364713
-0.04858792892234715,0.5575177595530502
-0.04858453892234714,0.5542585605148722
-0.04858114892234715,0.5562458770015646
-0.04857775892234714,0.5545765311527384
-0.04857436892234714,0.553781604558069
-0.04857097892234714,0.5558484137042254
-0.04856758892234714,0.5521917513687066
-0.04856419892234715,0.5533046486012544
-0.04856080892234714,0.5560073990231564
-0.04855741892234715,0.55346363392019
-0.04855402892234714,0.5550534871095498
-0.04855063892234714,0.5566433402988987
-0.04854724892234714,0.5538610972175293
-0.04854385892234714,0.5566433402989039
-0.04854046892234715,0.5567228329583717
-0.04853707892234714,0.5547355164716807
-0.04853368892234715,0.5575177595530451
-0.04853029892234714,0.5525892146660438
-0.04852690892234714,0.5494095082873433
-0.04852351892234714,0.5566433402989038
-0.04852012892234714,0.5564048623204971
-0.04851673892234715,0.5546560238122077
-0.04851334892234714,0.5562458770015574
-0.04850995892234714,0.5522712440281753
-0.04850656892234714,0.5530661706228508
-0.04850317892234714,0.555371457747415
-0.04849978892234715,0.5535431265796579
-0.04849639892234714,0.5569613109367727
-0.04849300892234715,0.555530443066354
-0.04848961892234714,0.5564843549799736
-0.04848622892234714,0.5595050760397353
-0.04848283892234714,0.5564843549799682
-0.04847944892234714,0.5591871054018746
-0.04847605892234715,0.5590281200829392
-0.04847266892234714,0.5571202962557172
-0.04846927892234715,0.5606179732722961
-0.04846588892234714,0.5587101494450654
-0.04846249892234714,0.5573587742341255
-0.04845910892234714,0.5603794952938925
-0.04845571892234714,0.5566433402989064
-0.04845232892234715,0.5580742081693251
-0.04844893892234714,0.5564048623204974
-0.04844554892234715,0.5547355164716756
-0.04844215892234714,0.5587896421045326
-0.04843876892234714,0.5571202962557079
-0.04843537892234714,0.5554509504068862
-0.04843198892234714,0.5594255833802758
-0.04842859892234715,0.5579947155098572
-0.04842520892234714,0.5579152228503895
-0.04842181892234715,0.5579947155098571
-0.04841842892234714,0.5533046486012544
-0.04841503892234714,0.5560868916826295
-0.04841164892234714,0.5564048623205003
-0.04840825892234714,0.5537816045580697
-0.04840486892234715,0.5583126861477286
-0.04840147892234714,0.5532251559417939
-0.04839808892234713,0.557279281574655
-0.04839469892234714,0.5595845686992141
-0.04839130892234714,0.5547355164716778
-0.04838791892234715,0.5559279063636933
-0.04838452892234714,0.5583921788071902
-0.04838113892234715,0.5549739944500791
-0.04837774892234714,0.5575972522125199
-0.04837435892234714,0.5586306567855951
-0.04837096892234714,0.5572792815746466
-0.04836757892234714,0.5610154365696315
-0.04836418892234715,0.5589486274234714
-0.04836079892234714,0.5597435540181521
-0.04835740892234715,0.5610154365696353
-0.04835401892234714,0.5589486274234786
-0.04835062892234714,0.5629232603968558
-0.04834723892234714,0.5607769585912318
-0.04834384892234714,0.5606974659317662
-0.04834045892234715,0.5618898558237816
-0.04833706892234714,0.5580742081693274
-0.04833367892234715,0.5593460907208105
-0.04833028892234714,0.559028120082936
-0.04832689892234714,0.5572792815746537
-0.04832350892234714,0.561174421888571
-0.04832011892234714,0.5548945017906126
-0.04831672892234715,0.5556099357258218
-0.04831333892234714,0.5570408035962384
-0.04830994892234715,0.5544970384932767
-0.04830655892234714,0.5582331934882607
-0.04830316892234714,0.5561663843420982
-0.04829977892234714,0.5569613109367753
-0.04829638892234714,0.5590281200829333
-0.04829299892234715,0.5557689210447576
-0.04828960892234714,0.5587101494450673
-0.04828621892234713,0.5583921788071886
-0.04828282892234714,0.5562458770015646
-0.04827943892234714,0.5537816045580622
-0.04827604892234715,0.5541790678554007
-0.04827265892234714,0.5581537008287978
-0.04826926892234715,0.5608564512506996
-0.04826587892234714,0.5583126861477267
-0.04826248892234714,0.5572792815746584
-0.04825909892234714,0.5605384806128283
-0.04825570892234714,0.5592665980613424
-0.04825231892234715,0.5591076127424071
