synth-diodes-out/100Hz200mV/scope.csv

#Digilent WaveForms Oscilloscope Acquisition
#Device Name: Discovery3
#Serial Number: SN:210415BD5874
#Date Time: 2025-04-03 12:11:05.847.623.670
#Sample rate: 352113Hz
#Samples: 32768
#Trigger: Source: Channel 1 Type: Edge Condition: Rising Level: 0 V Hyst.: Auto HoldOff: 0 s
#Channel 1: Range: 200 mV/div Offset: 0 V Sample Mode: Average
#Wavegen Channel 1: Running
#Mode: Simple
#Type: Sine
#Frequency: 100 Hz
#Period: 10 ms
#Amplitude: 200 mV
#Offset: 0 V
#Symmetry: 50 %
#Phase: 0 °

Time (s),Channel 1 (V)
-0.01320215574592556,-0.158075160976488
-0.01319931574592555,-0.1553724105545813
-0.01319647574592556,-0.1533056014084173
-0.01319363574592555,-0.1531466160894816
-0.01319079574592556,-0.1527491527921424
-0.01318795574592555,-0.155849366511386
-0.01318511574592555,-0.1545774839599028
-0.01318227574592556,-0.1510003142838563
-0.01317943574592555,-0.1596650141658449
-0.01317659574592556,-0.168806670004647
-0.01317375574592555,-0.1735762295727177
-0.01317091574592556,-0.1735762295727177
-0.01316807574592555,-0.1689656553235606
-0.01316523574592555,-0.1568032784250025
-0.01316239574592556,-0.1490129977971679
-0.01315955574592555,-0.1526696601326746
-0.01315671574592556,-0.1553724105545813
-0.01315387574592555,-0.153464586727353
-0.01315103574592556,-0.1545774839599028
-0.01314819574592555,-0.1534645867273432
-0.01314535574592555,-0.1480590858835396
-0.01314251574592556,-0.1495694464134259
-0.01313967574592555,-0.1494899537539608
-0.01313683574592556,-0.1451973501426971
-0.01313399574592555,-0.1464692326941827
-0.01313115574592556,-0.1485360418403466
-0.01312831574592555,-0.1459127840778994
-0.01312547574592555,-0.1413022098287728
-0.01312263574592556,-0.1436869896128038
-0.01311979574592555,-0.1422561217423869
-0.01311695574592556,-0.1420971364234512
-0.01311411574592555,-0.1455948134400364
-0.01311127574592556,-0.1499669097107678
-0.01310843574592555,-0.1474231446077968
-0.01310559574592556,-0.1505233583270427
-0.01310275574592556,-0.1498874170513012
-0.01309991574592555,-0.1539415426841601
-0.01309707574592556,-0.1552929178951134
-0.01309423574592555,-0.1533850940678851
-0.01309139574592556,-0.150920821624382
-0.01308855574592555,-0.1548159619383064
-0.01308571574592556,-0.1542595133220314
-0.01308287574592555,-0.1514772702406706
-0.01308003574592555,-0.1590290728901021
-0.01307719574592556,-0.1596650141658437
-0.01307435574592555,-0.151954226197464
-0.01307151574592556,-0.1513182849217212
-0.01306867574592555,-0.1552929178951134
-0.01306583574592556,-0.1511592996027855
-0.01306299574592555,-0.1537030647057588
-0.01306015574592555,-0.154974947257242
-0.01305731574592556,-0.1542595133220327
-0.01305447574592555,-0.154497991300435
-0.01305163574592556,-0.1556108885329848
-0.01304879574592555,-0.1627652278850908
-0.01304595574592556,-0.1665013828800795
-0.01304311574592555,-0.1784252818002578
-0.01304027574592555,-0.1792997010544025
-0.01303743574592556,-0.1647525443718134
-0.01303459574592555,-0.1575187123602131
-0.01303175574592556,-0.1561673371492597
-0.01302891574592555,-0.1550544399167099
-0.01302607574592556,-0.1572007417223417
-0.01302323574592555,-0.1599034921442425
-0.01302039574592555,-0.1566442931060668
-0.01301755574592556,-0.154736469278842
-0.01301471574592555,-0.1511592996027855
-0.01301187574592556,-0.1474231446077968
-0.01300903574592555,-0.1468666959915219
-0.01300619574592556,-0.148854012478218
-0.01300335574592555,-0.1470256813104557
-0.01300051574592555,-0.1459922767373756
-0.01299767574592556,-0.149330968435019
-0.01299483574592555,-0.1482975638619431
-0.01299199574592556,-0.1470256813104576
-0.01298915574592555,-0.1505233583270427
-0.01298631574592556,-0.1501258950297035
-0.01298347574592555,-0.1472641592888657
-0.01298063574592555,-0.1498079243918321
-0.01297779574592556,-0.1496489390728967
-0.01297495574592555,-0.1466282180131183
-0.01297211574592556,-0.1490129977971537
-0.01296927574592555,-0.1506028509865106
-0.01296643574592556,-0.1470256813104576
-0.01296359574592555,-0.1478206079051402
-0.01296075574592555,-0.1501258950297035
-0.01295791574592556,-0.1475026372672694
-0.01295507574592555,-0.1521132115163996
-0.01295223574592556,-0.1553724105545813
-0.01294939574592555,-0.1510003142838498
-0.01294655574592556,-0.145276842802165
-0.01294371574592555,-0.1502848803486412
-0.01294087574592555,-0.151397777581189
-0.01293803574592556,-0.148218071202481
-0.01293519574592555,-0.1511592996027855
-0.01293235574592556,-0.1527491527921424
-0.01292951574592555,-0.1486155344998145
-0.01292667574592556,-0.1521927041758675
-0.01292383574592555,-0.1503643730081071
-0.01292099574592556,-0.1479001005646039
-0.01291815574592556,-0.1578366829980664
-0.01291531574592555,-0.1667398608584831
-0.01291247574592556,-0.1715094204265538
-0.01290963574592555,-0.1703170305345361
-0.01290679574592556,-0.1618908086309445
-0.01290395574592555,-0.1503643730081071
-0.01290111574592556,-0.1477411152456682
-0.01289827574592555,-0.1533056014084092
-0.01289543574592555,-0.148854012478218
-0.01289259574592556,-0.1461512620563113
-0.01288975574592555,-0.1483770565214109
-0.01288691574592556,-0.1483770565214109
-0.01288407574592555,-0.1436074969533402
-0.01288123574592556,-0.143766482272276
-0.01287839574592555,-0.1459127840779028
-0.01287555574592555,-0.143210033656001
-0.01287271574592556,-0.1435280042938718
-0.01286987574592555,-0.1462307547157791
-0.01286703574592556,-0.1448793795048258
-0.01286419574592555,-0.1414611951477084
-0.01286135574592556,-0.1446409015264222
-0.01285851574592555,-0.1447998868453537
-0.01285567574592555,-0.1424945997207904
-0.01285283574592556,-0.1444819162074829
-0.01284999574592555,-0.1436869896128081
-0.01284715574592556,-0.1413817024882406
-0.01284431574592555,-0.1447998868453579
-0.01284147574592556,-0.1447203941858901
-0.01283863574592555,-0.1417791657855845
-0.01283579574592555,-0.1443229308885509
-0.01283295574592556,-0.1459127840779049
-0.01283011574592555,-0.1477411152456682
-0.01282727574592556,-0.1474231446077968
-0.01282443574592555,-0.1536235720462887
-0.01282159574592556,-0.1470256813104576
-0.01281875574592555,-0.1498874170513049
-0.01281591574592555,-0.1525901674732067
-0.01281307574592556,-0.1510003142838527
-0.01281023574592555,-0.1501258950297035
-0.01280739574592556,-0.1522721968353353
-0.01280455574592555,-0.1498874170513
-0.01280171574592556,-0.1483770565214109
-0.01279887574592555,-0.1506028509865106
-0.01279603574592555,-0.1506028509865106
-0.01279319574592556,-0.1455948134400455
-0.01279035574592555,-0.1504438656675749
-0.01278751574592556,-0.1579956683170201
-0.01278467574592555,-0.1651500076691262
-0.01278183574592556,-0.1721453617022965
-0.01277899574592555,-0.1645935590528254
-0.01277615574592555,-0.1503643730081071
-0.01277331574592556,-0.1444819162074972
-0.01277047574592555,-0.146310247375247
-0.01276763574592556,-0.1462307547157791
-0.01276479574592555,-0.147820607905136
-0.01276195574592556,-0.1510798069433177
-0.01275911574592555,-0.1473436519483285
-0.01275627574592555,-0.1471051739699254
-0.01275343574592556,-0.148536041840344
-0.01275059574592555,-0.1443229308885509
-0.01274775574592556,-0.143766482272276
-0.01274491574592555,-0.1459127840779078
-0.01274207574592556,-0.1434485116344046
-0.01273923574592555,-0.142176629082924
-0.01273639574592556,-0.1448793795048258
-0.01273355574592556,-0.1430510483370687
-0.01273071574592555,-0.1409842391909014
-0.01272787574592556,-0.1443229308885509
-0.01272503574592555,-0.1440844529101473
-0.01272219574592556,-0.1400303272772872
-0.01271935574592555,-0.1433690189749367
-0.01271651574592556,-0.1441639455696152
-0.01271367574592555,-0.1416201804666476
-0.01271083574592555,-0.1435280042938724
-0.01270799574592556,-0.145276842802165
-0.01270515574592555,-0.146787203332054
-0.01270231574592556,-0.1502848803486392
-0.01269947574592555,-0.1494899537539608
-0.01269663574592556,-0.1431305409965332
-0.01269379574592555,-0.1468666959915242
-0.01269095574592555,-0.1481385785430074
-0.01268811574592556,-0.144799886845364
-0.01268527574592555,-0.1467077106725862
-0.01268243574592556,-0.1482975638619431
-0.01267959574592555,-0.1446409015264222
-0.01267675574592556,-0.1448793795048258
-0.01267391574592555,-0.1463102473752408
-0.01267107574592555,-0.1428920630181297
-0.01266823574592556,-0.140427790574631
-0.01266539574592555,-0.1497284317323643
-0.01266255574592556,-0.1447998868453579
-0.01265971574592555,-0.1460717693968434
-0.01265687574592556,-0.1486950271592823
-0.01265403574592555,-0.1480590858835291
-0.01265119574592555,-0.1423356144018547
-0.01264835574592556,-0.144640901526418
-0.01264551574592555,-0.1413817024882406
-0.01264267574592556,-0.143210033656001
-0.01263983574592555,-0.1470256813104576
-0.01263699574592556,-0.1454358281211007
-0.01263415574592555,-0.143845974931749
-0.01263131574592555,-0.1467077106725862
-0.01262847574592556,-0.1444819162074906
-0.01262563574592555,-0.1436869896128081
-0.01262279574592556,-0.1464692326941827
-0.01261995574592555,-0.1433690189749367
-0.01261711574592556,-0.1436074969533402
-0.01261427574592555,-0.1461512620563078
-0.01261143574592555,-0.144243438229083
-0.01260859574592556,-0.1419381511045197
-0.01260575574592555,-0.1444024235480187
-0.01260291574592556,-0.1445614088669544
-0.01260007574592555,-0.1408252538719657
-0.01259723574592556,-0.1440049602506795
-0.01259439574592555,-0.1454358281210942
-0.01259155574592555,-0.1418586584450477
-0.01258871574592556,-0.1438459749317402
-0.01258587574592555,-0.1459127840779078
-0.01258303574592556,-0.1444819162074865
-0.01258019574592555,-0.1496489390728964
-0.01257735574592556,-0.1532261087489495
-0.01257451574592555,-0.1495694464134165
-0.01257167574592555,-0.1428920630181297
-0.01256883574592556,-0.147582129926724
-0.01256599574592555,-0.1483770565214109
-0.01256315574592556,-0.1447998868453579
-0.01256031574592555,-0.1455153207805685
-0.01255747574592556,-0.1479001005646039
-0.01255463574592555,-0.1443229308885438
-0.01255179574592555,-0.1404277905746265
-0.01254895574592556,-0.1421766290829159
-0.01254611574592555,-0.1382019961095268
-0.01254327574592556,-0.138599459406866
-0.01254043574592555,-0.1408252538719657
-0.01253759574592556,-0.1376455474932519
-0.01253475574592555,-0.1375660548337841
-0.01253191574592556,-0.1397123566394159
-0.01252907574592556,-0.1385994594068681
-0.01252623574592555,-0.1375660548337841
-0.01252339574592556,-0.1454358281211007
-0.01252055574592555,-0.1444819162074865
-0.01251771574592556,-0.1428125703586618
-0.01251487574592555,-0.146310247375247
-0.01251203574592556,-0.1454358281211007
-0.01250919574592555,-0.1396328639799508
-0.01250635574592555,-0.1411432245098371
-0.01250351574592556,-0.1397123566394185
-0.01250067574592555,-0.1378045328121876
-0.01249783574592556,-0.1401098199367551
-0.01249499574592555,-0.1392354006826088
-0.01249215574592556,-0.1375660548337841
-0.01248931574592555,-0.1394738786610104
-0.01248647574592555,-0.1384404740879303
-0.01248363574592556,-0.1367711282391086
-0.01248079574592555,-0.1433690189749367
-0.01247795574592556,-0.1440844529101473
-0.01247511574592555,-0.1412227171693049
-0.01247227574592556,-0.1440844529101473
-0.01246943574592555,-0.1441639455696107
-0.01246659574592555,-0.141699673126112
-0.01246375574592556,-0.1451973501426908
-0.01246091574592555,-0.1464692326941827
-0.01245807574592556,-0.143210033656001
-0.01245523574592555,-0.1511592996027855
-0.01245239574592556,-0.1523516894948032
-0.01244955574592555,-0.1401893125962193
-0.01244671574592555,-0.1382019961095268
-0.01244387574592556,-0.1422561217423795
-0.01244103574592555,-0.1414611951477084
-0.01243819574592556,-0.1392354006826088
-0.01243535574592555,-0.1415406878071763
-0.01243251574592556,-0.14066626855303
-0.01242967574592555,-0.1378045328121932
-0.01242683574592555,-0.1409047465314335
-0.01242399574592556,-0.140507283234095
-0.01242115574592555,-0.1378840254716554
-0.01241831574592556,-0.1399508346178194
-0.01241547574592555,-0.1400303272772872
-0.01241263574592556,-0.137089098876977
-0.01240979574592555,-0.1389174300447419
-0.01240695574592555,-0.1413817024882406
-0.01240411574592556,-0.1388379373852742
-0.01240127574592555,-0.1428125703586618
-0.01239843574592556,-0.1429715556775975
-0.01239559574592555,-0.1409842391909014
-0.01239275574592556,-0.139632863979948
-0.01238991574592555,-0.1422561217423839
-0.01238707574592555,-0.1405867758935622
-0.01238423574592556,-0.1384404740879343
-0.01238139574592555,-0.1408252538719657
-0.01237855574592556,-0.1408252538719657
-0.01237571574592555,-0.1380430107905911
-0.01237287574592556,-0.1404277905746265
-0.01237003574592555,-0.1401098199367497
-0.01236719574592555,-0.1371685915364448
-0.01236435574592556,-0.140030327277282
-0.01236151574592555,-0.14066626855303
-0.01235867574592556,-0.1362146796228307
-0.01235583574592555,-0.1378840254716554
-0.01235299574592556,-0.1405072832340943
-0.01235015574592555,-0.1397123566394159
-0.01234731574592556,-0.1374070695148484
-0.01234447574592556,-0.1409047465314272
-0.01234163574592555,-0.1422561217423869
-0.01233879574592556,-0.1397918492988837
-0.01233595574592555,-0.1418586584450477
-0.01233311574592556,-0.1428920630181297
-0.01233027574592555,-0.1458332914184399
-0.01232743574592556,-0.1454358281211007
-0.01232459574592555,-0.1448793795048187
-0.01232175574592555,-0.1409842391909014
-0.01231891574592556,-0.1397123566394159
-0.01231607574592555,-0.1413817024882406
-0.01231323574592556,-0.1429715556775975
-0.01231039574592555,-0.1394738786610123
-0.01230755574592556,-0.1401893125962229
-0.01230471574592555,-0.1424151070613184
-0.01230187574592555,-0.1401098199367551
-0.01229903574592556,-0.1383609814284657
-0.01229619574592555,-0.1416201804666441
-0.01229335574592556,-0.143210033656001
-0.01229051574592555,-0.1419381511045155
-0.01228767574592556,-0.1453563354616328
-0.01228483574592555,-0.146071769396839
-0.01228199574592555,-0.1436074969533402
-0.01227915574592556,-0.1467872033320483
-0.01227631574592555,-0.1469461886509897
-0.01227347574592556,-0.1428125703586618
-0.01227063574592555,-0.1447998868453579
-0.01226779574592556,-0.1463897400347148
-0.01226495574592555,-0.1429715556775993
-0.01226211574592555,-0.1439254675912116
-0.01225927574592556,-0.145674306099501
-0.01225643574592555,-0.1426535850397261
-0.01225359574592556,-0.1428125703586618
-0.01225075574592555,-0.1447203941858901
-0.01224791574592556,-0.1429715556775975
-0.01224507574592555,-0.1407457612125029
-0.01224223574592555,-0.1435280042938724
-0.01223939574592556,-0.1427330776991954
-0.01223655574592555,-0.1410637318503692
-0.01223371574592556,-0.1444819162074865
-0.01223087574592555,-0.145276842802165
-0.01222803574592556,-0.1419381511045155
-0.01222519574592555,-0.1441639455696201
-0.01222235574592555,-0.1468666959915219
-0.01221951574592556,-0.1389174300447519
-0.01221667574592555,-0.139155908023141
-0.01221383574592556,-0.1414611951477084
-0.01221099574592555,-0.1401893125962229
-0.01220815574592556,-0.1388379373852696
-0.01220531574592555,-0.1471051739699237
-0.01220247574592555,-0.1461512620563113
-0.01219963574592556,-0.1409842391909108
-0.01219679574592555,-0.139155908023141
-0.01219395574592556,-0.1401098199367551
-0.01219111574592555,-0.1382814887689947
-0.01218827574592556,-0.1415406878071763
-0.01218543574592555,-0.1394738786610081
-0.01218259574592555,-0.1371685915364448
-0.01217975574592556,-0.1396328639799435
-0.01217691574592555,-0.1405072832340943
-0.01217407574592556,-0.1366916355796378
-0.01217123574592555,-0.1389174300447374
-0.01216839574592556,-0.1413817024882406
-0.01216555574592555,-0.1385994594068679
-0.01216271574592555,-0.139632863979948
-0.01215987574592556,-0.1418586584450436
-0.01215703574592555,-0.138122503450059
-0.01215419574592556,-0.1393148933420766
-0.01215135574592555,-0.1405072832340943
-0.01214851574592556,-0.1374070695148484
-0.01214567574592555,-0.138599459406866
-0.01214283574592556,-0.139632863979948
-0.01213999574592555,-0.1378045328121849
-0.01213715574592555,-0.1362941722822985
-0.01213431574592556,-0.1371685915364448
-0.01213147574592555,-0.1339093924982632
-0.01212863574592556,-0.1309681640979529
-0.01212579574592555,-0.1340683778171989
-0.01212295574592556,-0.1340683778171989
-0.01212011574592555,-0.1315246127142328
-0.01211727574592555,-0.1342273631361346
-0.01211443574592556,-0.1329554805846514
-0.01211159574592555,-0.13144512005476
-0.01210875574592556,-0.1348633044118773
-0.01210591574592555,-0.1370096062175091
-0.01210307574592556,-0.1385199667473982
-0.01210023574592555,-0.1404277905746286
-0.01209739574592555,-0.1416201804666441
-0.01209455574592556,-0.1373275768553883
-0.01209171574592555,-0.139155908023141
-0.01208887574592556,-0.1407457612124978
-0.01208603574592555,-0.1363736649417664
-0.01208319574592556,-0.1380430107905911
-0.01208035574592555,-0.1451973501426939
-0.01207751574592555,-0.1434485116344046
-0.01207467574592556,-0.141461195147712
-0.01207183574592555,-0.1388379373852696
-0.01206899574592556,-0.1374070695148484
-0.01206615574592555,-0.1378840254716554
-0.01206331574592556,-0.1402688052556908
-0.01206047574592555,-0.1380430107905882
-0.01205763574592555,-0.1364531576012342
-0.01205479574592556,-0.1392354006826037
-0.01205195574592555,-0.1385199667473982
-0.01204911574592556,-0.1372480841959127
-0.01204627574592555,-0.1401098199367551
-0.01204343574592556,-0.1404277905746265
-0.01204059574592555,-0.1365326502607073
-0.01203775574592555,-0.1393943860015445
-0.01203491574592556,-0.1401893125962215
-0.01203207574592555,-0.1429715556775975
-0.01202923574592556,-0.1413022098287728
-0.01202639574592555,-0.1439254675912116
-0.01202355574592556,-0.1412227171693049
-0.01202071574592555,-0.1396328639799531
-0.01201787574592555,-0.1424151070613226
-0.01201503574592556,-0.1413817024882425
-0.01201219574592555,-0.138122503450059
-0.01200935574592556,-0.1405072832340943
-0.01200651574592555,-0.1415406878071763
-0.01200367574592556,-0.1327964952657134
-0.01200083574592555,-0.1369301135580422
-0.01199799574592555,-0.1374070695148484
-0.01199515574592556,-0.1342273631361403
-0.01199231574592555,-0.1363736649417664
-0.01198947574592556,-0.1447203941858901
-0.01198663574592555,-0.1416201804666441
-0.01198379574592556,-0.1410637318503692
-0.01198095574592555,-0.1443229308885474
-0.01197811574592555,-0.1424151070613226
-0.01197527574592556,-0.1410637318503717
-0.01197243574592555,-0.1432895263154689
-0.01196959574592556,-0.1415406878071763
-0.01196675574592555,-0.1402688052556908
-0.01196391574592556,-0.1429715556775975
-0.01196107574592555,-0.1364531576012342
-0.01195823574592556,-0.1354197530281522
-0.01195539574592556,-0.1424945997207775
-0.01195255574592555,-0.1423356144018547
-0.01194971574592556,-0.1387584447258017
-0.01194687574592555,-0.137089098876977
-0.01194403574592556,-0.1366916355796378
-0.01194119574592555,-0.1358967089849593
-0.01193835574592556,-0.1390764153636731
-0.01193551574592555,-0.1382814887689987
-0.01193267574592555,-0.1405072832340943
-0.01192983574592556,-0.1441639455696085
-0.01192699574592555,-0.1440049602506795
-0.01192415574592556,-0.1420971364234512
-0.01192131574592555,-0.1446409015264222
-0.01191847574592556,-0.1447203941858901
-0.01191563574592555,-0.142812570358665
-0.01191279574592555,-0.1445614088669544
-0.01190995574592556,-0.1429715556776004
-0.01190711574592555,-0.1397918492988837
-0.01190427574592556,-0.1423356144018547
-0.01190143574592555,-0.1429715556775975
-0.01189859574592556,-0.1384404740879303
-0.01189575574592555,-0.1404277905746296
-0.01189291574592555,-0.1421766290829191
-0.01189007574592556,-0.1393148933420819
-0.01188723574592555,-0.1388379373852696
-0.01188439574592556,-0.1412227171693049
-0.01188155574592555,-0.1401893125962229
-0.01187871574592556,-0.1382814887689947
-0.01187587574592555,-0.141938151104517
-0.01187303574592555,-0.142733077699194
-0.01187019574592556,-0.1396328639799536
-0.01186735574592555,-0.1420971364234512
-0.01186451574592556,-0.1436869896128081
-0.01186167574592555,-0.1413817024882406
-0.01185883574592556,-0.1366916355796378
-0.01185599574592555,-0.1382019961095222
-0.01185315574592555,-0.1356582310065558
