-20250405-BKP/synth-diodes-1f-1r-in-T00-L10-D00/100Hz2V/scope.csv

#Digilent WaveForms Oscilloscope Acquisition
#Device Name: Discovery3
#Serial Number: SN:210415BD5874
#Date Time: 2025-04-03 15:10:39.102.055.610
#Sample rate: 268097Hz
#Samples: 32768
#Trigger: Source: Channel 1 Type: Edge Condition: Rising Level: 0 V Hyst.: Auto HoldOff: 0 s
#Channel 1: Range: 200 mV/div Offset: 0 V Sample Mode: Average
#Wavegen Channel 1: Running
#Mode: Simple
#Type: Sine
#Frequency: 100 Hz
#Period: 10 ms
#Amplitude: 2 V
#Offset: 0 V
#Symmetry: 50 %
#Phase: 0 °

Time (s),Channel 1 (V)
-0.04471239225008965,-0.004733820863015544
-0.04470866225008965,-0.004733820863015544
-0.04470493225008965,-0.005528747457693991
-0.04470120225008965,-0.007039107987580293
-0.04469747225008965,-0.006800630009179506
-0.04469374225008965,-0.008469975858001209
-0.04469001225008964,-0.008310990539068556
-0.04468628225008965,-0.008152005220133157
-0.04468255225008966,-0.008787946495873311
-0.04467882225008965,-0.01077526298257174
-0.04467509225008966,-0.01220613085299035
-0.04467136225008965,-0.01244460883139648
-0.04466763225008966,-0.01260359415033188
-0.04466390225008965,-0.01435243265862475
-0.04466017225008966,-0.01403446202075395
-0.04465644225008965,-0.01530634457223889
-0.04465271225008965,-0.01610127116691589
-0.04464898225008965,-0.01610127116691734
-0.04464525225008965,-0.01761163169680364
-0.04464152225008965,-0.01761163169680639
-0.04463779225008965,-0.01920148488616039
-0.04463406225008965,-0.01943996286456682
-0.04463033225008965,-0.02039387477817922
-0.04462660225008964,-0.02150677201073078
-0.04462287225008965,-0.02150677201073078
-0.04461914225008964,-0.02325561051902336
-0.04461541225008965,-0.02325561051902336
-0.04461168225008966,-0.02436850775157116
-0.04460795225008965,-0.02484546370838026
-0.04460422225008966,-0.02532241966518646
-0.04460049225008965,-0.02635582423826931
-0.04459676225008966,-0.02627633157880161
-0.04459303225008965,-0.02786618476815836
-0.04458930225008965,-0.02754821413028756
-0.04458557225008965,-0.02882009668177249
-0.04458184225008965,-0.03001248657378799
-0.04457811225008965,-0.02993299391432232
-0.04457438225008965,-0.03192031040101482
-0.04457065225008965,-0.03160233976314705
-0.04456692225008965,-0.03319219295250105
-0.04456319225008964,-0.03279472965516472
-0.04455946225008965,-0.03247675901729393
-0.04455573225008964,-0.03398711954718239
-0.04455200225008965,-0.03549748007707144
-0.04454827225008966,-0.03661037730961925
-0.04454454225008965,-0.03597443603387852
-0.04454081225008966,-0.03700784060695862
-0.04453708225008965,-0.0377232745421711
-0.04453335225008966,-0.0378027672016388
-0.04452962225008965,-0.03986957634780292
-0.04452589225008965,-0.03979008368833521
-0.04452216225008965,-0.04098247358035273
-0.04451843225008965,-0.04169790751556203
-0.04451470225008965,-0.0421748634723704
-0.04451097225008965,-0.0437647166617244
-0.04450724225008965,-0.04336725336438807
-0.04450351225008965,-0.04503659921320978
-0.04449978225008965,-0.04511609187268066
-0.04449605225008965,-0.04622898910522846
-0.04449232225008964,-0.04662645240256971
-0.04448859225008965,-0.04694442304044109
-0.04448486225008966,-0.04853427622979509
-0.04448113225008965,-0.04765985697565168
-0.04447740225008966,-0.04932920282447339
-0.04447367225008965,-0.04893173952713721
-0.04446994225008966,-0.0503626073975558
-0.04446621225008965,-0.05044210005702626
-0.04446248225008965,-0.05091905601383246
-0.04445875225008965,-0.05250890920319022
-0.04445502225008965,-0.05250890920319022
-0.04445129225008965,-0.05393977707361142
-0.04444756225008965,-0.05386028441414372
-0.04444383225008965,-0.05481419632775772
-0.04444010225008965,-0.05576810824137012
-0.04443637225008965,-0.0544167330304185
-0.04443264225008965,-0.0552116596250955
-0.04442891225008964,-0.05680151281445384
-0.04442518225008965,-0.05775542472806623
-0.04442145225008966,-0.05791441004700337
-0.04441772225008965,-0.05775542472806797
-0.04441399225008966,-0.05966324855529277
-0.04441026225008965,-0.05966324855529624
-0.04440653225008966,-0.05998121919316705
-0.04440280225008965,-0.06204802833933158
-0.04439907225008966,-0.06165056504199308
-0.04439534225008965,-0.06300194025294573
-0.04439161225008965,-0.06363788152868732
-0.04438788225008965,-0.06363788152868848
-0.04438415225008965,-0.06530722737751019
-0.04438042225008965,-0.06514824205857753
-0.04437669225008965,-0.06681758790739924
-0.04437296225008965,-0.06673809524793442
-0.04436923225008965,-0.06713555854527292
-0.04436550225008964,-0.06856642641569485
-0.04436177225008965,-0.06777149982101785
-0.04435804225008966,-0.0690433823724973
-0.04435431225008965,-0.0693613530103733
-0.04435058225008966,-0.06991780162664721
-0.04434685225008965,-0.07103069885919804
-0.04434312225008966,-0.07079222088079494
-0.04433939225008965,-0.07262055204855493
-0.04433566225008966,-0.07174613279441024
-0.04433193225008965,-0.07357446396216907
-0.04432820225008965,-0.07389243460003987
-0.04432447225008965,-0.07389243460004045
-0.04432074225008965,-0.07572076576779754
-0.04431701225008965,-0.07508482449205812
-0.04431328225008965,-0.07651569236247671
-0.04430955225008965,-0.07460786853525106
-0.04430582225008965,-0.07548228778939575
-0.04430209225008964,-0.07850300884917544
-0.04429836225008965,-0.07715163363822454
-0.04429463225008966,-0.07890047214650832
-0.04429090225008965,-0.0784235161897076
-0.04428717225008966,-0.0796159060817231
-0.04428344225008965,-0.08033134001693587
-0.04427971225008966,-0.08049032533587128
-0.04427598225008965,-0.08263662714150337
-0.04427225225008966,-0.08184170054682637
-0.04426852225008965,-0.08351104639564966
-0.04426479225008965,-0.08382901703352046
-0.04426106225008965,-0.08414698767139242
-0.04425733225008965,-0.08541887022287561
-0.04425360225008965,-0.08510089958500655
-0.04424987225008965,-0.08669075277436056
-0.04424614225008965,-0.08581633352021716
-0.04424241225008965,-0.08653176745542646
-0.04423868225008964,-0.08732669405010621
-0.04423495225008965,-0.08700872341223541
-0.04423122225008964,-0.08867806926105898
-0.04422749225008965,-0.08836009862318819
-0.04422376225008966,-0.08931401053680059
-0.04422003225008965,-0.08971147383414155
-0.04421630225008966,-0.08971147383414155
-0.04421257225008965,-0.09153980500190198
-0.04420884225008966,-0.09098335638562807
-0.04420511225008965,-0.09209625361817689
-0.04420138225008965,-0.09249371691551539
-0.04419765225008965,-0.09305016553179103
-0.04419392225008965,-0.09384509212646804
-0.04419019225008965,-0.09320915085072672
-0.04418646225008965,-0.09360661414806522
-0.04418273225008965,-0.09201676095870905
-0.04417900225008965,-0.09543494531582015
-0.04417527225008964,-0.09559393063476206
-0.04417154225008965,-0.09583240861316517
-0.04416781225008964,-0.09662733520784404
-0.04416408225008965,-0.0963888572294405
-0.04416035225008966,-0.09837617371613301
-0.04415662225008965,-0.09781972509986171
-0.04415289225008966,-0.09948907094868341
-0.04414916225008965,-0.09925059297028292
-0.04414543225008966,-0.100283997543363
-0.04414170225008965,-0.100760953500172
-0.04413797225008965,-0.1009994314785751
-0.04413424225008965,-0.1021918213705932
-0.04413051225008965,-0.1018738507327224
-0.04412678225008965,-0.1030662406247395
-0.04412305225008965,-0.1029867479652718
-0.04411932225008965,-0.1029867479652716
-0.04411559225008965,-0.1048150791330287
-0.04411186225008965,-0.1044176158356928
-0.04410813225008965,-0.1056100057277083
-0.04410440225008964,-0.1054510204087748
-0.04410067225008965,-0.1060074690250487
-0.04409694225008966,-0.1072793515765329
-0.04409321225008965,-0.1067229029602603
-0.04408948225008966,-0.108392248809082
-0.04408575225008965,-0.1084717414685529
-0.04408202225008966,-0.1090281900848268
-0.04407829225008965,-0.1101410873173776
-0.04407456225008966,-0.1095846387011037
-0.04407083225008965,-0.1110949992309918
-0.04406710225008965,-0.1104590579552502
-0.04406337225008965,-0.1114129698688632
-0.04405964225008965,-0.1099821019984446
-0.04405591225008965,-0.1107770285931204
-0.04405218225008965,-0.1141157202907638
-0.04404845225008965,-0.1129233303987522
-0.04404472225008965,-0.1142747056097031
-0.04404099225008964,-0.1145131835881091
-0.04403726225008965,-0.1153081101827861
-0.04403353225008966,-0.1164210074153353
-0.04402980225008965,-0.1163415147558695
-0.04402607225008966,-0.1181698459236266
-0.04402234225008965,-0.1180903532641621
-0.04401861225008966,-0.1196802064535161
-0.04401488225008965,-0.1197596991129869
-0.04401115225008966,-0.1205546257076639
-0.04400742225008965,-0.1219060009186187
-0.04400369225008965,-0.1216675229402156
-0.04399996225008965,-0.124290780702654
-0.04399623225008965,-0.1242112880431863
-0.04399250225008965,-0.1251651999568003
-0.04398877225008965,-0.1270730237840251
-0.04398504225008965,-0.1270730237840285
-0.04398131225008965,-0.1295372962275272
-0.04397758225008964,-0.1300142521843388
-0.04397385225008965,-0.1312066420763543
-0.04397012225008966,-0.1337504071793183
-0.04396639225008965,-0.1339888851577311
-0.04396266225008966,-0.1368506208985682
-0.04395893225008965,-0.1373275768553805
-0.04395520225008966,-0.1389174300447345
-0.04395147225008965,-0.1414611951477084
-0.04394774225008966,-0.1418586584450469
-0.04394401225008965,-0.1444819162074865
-0.04394028225008965,-0.1463897400347113
-0.04393655225008965,-0.1474231446077968
-0.04393282225008965,-0.1498874170512955
-0.04392909225008965,-0.1529081381110781
-0.04392536225008965,-0.1559288591708507
-0.04392163225008965,-0.1585521169332951
-0.04391790225008965,-0.1601419701226491
-0.04391417225008964,-0.1645140663933834
-0.04391044225008965,-0.1661039195827374
-0.04390671225008966,-0.1697605819182479
-0.04390298225008965,-0.1720658690428287
-0.04389925225008966,-0.174371156167392
-0.04389552225008965,-0.1779483258434492
-0.04389179225008966,-0.1792202083949324
-0.04388806225008965,-0.182638392752052
-0.04388433225008966,-0.1836717973251321
-0.04388060225008965,-0.186215562428105
-0.04387687225008965,-0.1881233862553298
-0.04387314225008965,-0.1889978055094796
-0.04386941225008965,-0.1914620779529783
-0.04386568225008965,-0.1923364972071291
-0.04386195225008965,-0.1942443210343539
-0.04385822225008965,-0.1955956962453107
-0.04385449225008965,-0.1970265641157293
-0.04385076225008964,-0.1994908365592351
-0.04384703225008965,-0.2005242411323152
-0.04384330225008964,-0.2032269915542238
-0.04383957225008965,-0.2041014108083701
-0.04383584225008966,-0.2068836538897396
-0.04383211225008965,-0.2075990878249553
-0.04382838225008966,-0.2098248822900509
-0.04382465225008965,-0.2112557501604761
-0.04382092225008966,-0.212607125371427
-0.04381719225008965,-0.2149919051554648
-0.04381346225008965,-0.2153893684528033
-0.04380973225008965,-0.2157073390906754
-0.04380600225008965,-0.2173766849394971
-0.04380227225008965,-0.2205563913182139
-0.04379854225008965,-0.2219872591886325
-0.04379481225008965,-0.2223847224859744
-0.04379108225008965,-0.2249284875889408
-0.04378735225008965,-0.2254849362052203
-0.04378362225008965,-0.227949208648719
-0.04377989225008964,-0.2286646425839341
-0.04377616225008965,-0.2297775398164839
-0.04377243225008966,-0.2319238416221118
-0.04376870225008965,-0.2321623196005193
-0.04376497225008966,-0.2347855773629534
-0.04376124225008965,-0.2355010112981687
-0.04375751225008966,-0.2365344158712488
-0.04375378225008965,-0.238442239698479
-0.04375005225008965,-0.2395551369310268
-0.04374632225008965,-0.2419399167150642
-0.04374259225008965,-0.2420194093745319
-0.04373886225008965,-0.2441657111801638
-0.04373513225008965,-0.2458350570289855
-0.04373140225008965,-0.2464709983047313
-0.04372767225008965,-0.2488557780887623
-0.04372394225008965,-0.2489352707482345
-0.04372021225008965,-0.250922587234927
-0.04371648225008964,-0.251240557872802
-0.04371275225008965,-0.2525919330837529
-0.04370902225008966,-0.2538638156352385
-0.04370529225008965,-0.2541817862731123
-0.04370156225008966,-0.2567255513760787
-0.04369783225008965,-0.2567255513760833
-0.04369410225008966,-0.258633375203308
-0.04369037225008965,-0.25942830179799
-0.04368664225008966,-0.2596667797763931
-0.04368291225008965,-0.2603027210521363
-0.04367918225008965,-0.2618925742414903
-0.04367545225008965,-0.2645953246633999
-0.04367172225008965,-0.2646748173228676
-0.04366799225008965,-0.2659466998743533
-0.04366426225008965,-0.2672185824258365
-0.04366053225008965,-0.2678545237015815
-0.04365680225008965,-0.2696828548693386
-0.04365307225008964,-0.2695238695504063
-0.04364934225008965,-0.2710342300802926
-0.04364561225008966,-0.2723061126317785
-0.04364188225008965,-0.2727830685885879
-0.04363815225008966,-0.274611399756345
-0.04363442225008965,-0.2743729217779448
-0.04363069225008966,-0.2762807456051696
-0.04362696225008965,-0.2770756721998515
-0.04362323225008966,-0.27747313549719
-0.04361950225008965,-0.2798579152812261
-0.04361577225008965,-0.2793809593244199
-0.04361204225008965,-0.2815272611300508
-0.04360831225008965,-0.2816067537895185
-0.04360458225008965,-0.2828786363410042
-0.04360085225008965,-0.283991533573552
-0.04359712225008965,-0.2838325482546183
-0.04359339225008965,-0.2855813867629077
-0.04358966225008964,-0.2858198647413144
-0.04358593225008965,-0.2877276885685393
-0.04358220225008966,-0.2878866738874779
-0.04357847225008965,-0.2891585564389639
-0.04357474225008966,-0.2902714536715117
-0.04357101225008965,-0.2904304389904495
-0.04356728225008966,-0.2920997848392711
-0.04356355225008965,-0.2920997848392742
-0.04355982225008966,-0.2919407995203387
-0.04355609225008965,-0.2928152187744848
-0.04355236225008965,-0.2952794912179835
-0.04354863225008965,-0.2966308664289413
-0.04354490225008965,-0.2961539104721351
-0.04354117225008965,-0.2970283297262806
-0.04353744225008965,-0.2980617342993607
-0.04353371225008965,-0.2980617342993626
-0.04352998225008965,-0.2998900654671197
-0.04352625225008964,-0.2995720948292516
-0.04352252225008965,-0.3014004259970087
-0.04351879225008964,-0.3016389039754168
-0.04351506225008965,-0.3023543379106262
-0.04351133225008966,-0.3041826690783833
-0.04350760225008965,-0.3038646984405152
-0.04350387225008966,-0.3060110002461431
-0.04350014225008965,-0.3058520149272113
-0.04349641225008966,-0.306726434181356
-0.04349268225008965,-0.3077598387544396
-0.04348895225008965,-0.307918824073375
-0.04348522225008965,-0.3095086772627322
-0.04348149225008965,-0.3088727359869906
-0.04347776225008965,-0.3105420818358142
-0.04347403225008965,-0.3103036038574111
-0.04347030225008965,-0.3111780231115569
-0.04346657225008965,-0.3119729497062339
-0.04346284225008964,-0.315709104701224
-0.04345911225008965,-0.3192067817178029
-0.04345538225008964,-0.3172194652311131
-0.04345165225008965,-0.3166630166148382
-0.04344792225008966,-0.3146757001281457
-0.04344419225008965,-0.3140397588523993
-0.04344046225008966,-0.3142782368308024
-0.04343673225008965,-0.3124499056630424
-0.04343300225008966,-0.312847368960381
-0.04342927225008965,-0.3149936707660135
-0.04342554225008965,-0.3159475826796259
-0.04342181225008965,-0.3174579432095166
-0.04341808225008965,-0.3174579432095166
-0.04341435225008965,-0.3194452596962128
-0.04341062225008965,-0.3197632303340836
-0.04340689225008965,-0.3215915615018446
-0.04340316225008965,-0.322545473415457
-0.04339943225008965,-0.3224659807559909
-0.04339570225008965,-0.3240558339453449
-0.04339197225008964,-0.3235788779885407
-0.04338824225008965,-0.3252482238373623
-0.04338451225008966,-0.3253277164968331
-0.04338078225008965,-0.3252482238373654
-0.04337705225008966,-0.3269970623456548
-0.04337332225008965,-0.3262021357509796
-0.04336959225008966,-0.3273945256429951
-0.04336586225008965,-0.326997062345658
-0.04336213225008965,-0.327791988940335
-0.04335840225008965,-0.3281894522376757
-0.04335467225008965,-0.3277919889403372
-0.04335094225008965,-0.3297793054270326
-0.04334721225008965,-0.329143364151291
-0.04334348225008965,-0.3304947393622432
-0.04333975225008965,-0.3306537246811786
-0.04333602225008965,-0.3307332173406467
-0.04333229225008965,-0.3323230705300007
-0.04332856225008964,-0.3316871292542609
-0.04332483225008965,-0.3331179971246794
-0.04332110225008966,-0.3329590118057467
-0.04331737225008965,-0.3337539384004248
-0.04331364225008966,-0.3345488649951018
-0.04330991225008965,-0.3322435778705358
-0.04330618225008966,-0.3341514016977605
-0.04330245225008965,-0.3353437915897817
-0.04329872225008966,-0.3355822695681848
-0.04329499225008965,-0.3355027769087174
-0.04329126225008965,-0.3358207475465882
-0.04328753225008965,-0.3374106007359457
-0.04328380225008965,-0.3366951668007364
-0.04328007225008965,-0.3382055273306241
-0.04327634225008965,-0.3383645126495595
-0.04327261225008965,-0.3388414686063669
-0.04326888225008965,-0.3403518291362532
-0.04326515225008964,-0.3395569025415775
-0.04326142225008965,-0.3412262483903992
-0.04325769225008966,-0.3408287850930644
-0.04325396225008965,-0.3415442190282736
-0.04325023225008966,-0.3420211749850798
-0.04324650225008965,-0.3417826970066771
-0.04324277225008966,-0.3428955942392249
-0.04323904225008965,-0.3419416823256128
-0.04323531225008966,-0.3435315355149668
-0.04323158225008965,-0.3428161015797591
-0.04322785225008965,-0.3440084914717746
-0.04322412225008965,-0.3437700134933733
-0.04322039225008965,-0.3445649400880503
-0.04321666225008965,-0.3448829107259231
-0.04321293225008965,-0.3442469694501815
-0.04320920225008965,-0.3459163152990051
-0.04320547225008965,-0.3453598666827312
-0.04320174225008964,-0.3462342859368764
-0.04319801225008965,-0.346075300617941
-0.04319428225008966,-0.3465522565747461
-0.04319055225008965,-0.3468702272126192
-0.04318682225008966,-0.3455188520016683
-0.04318309225008965,-0.3458368226395372
-0.04317936225008966,-0.3463137785963434
-0.04317563225008965,-0.3480626171046369
-0.04317190225008966,-0.3481421097641045
-0.04316817225008965,-0.3478241391262333
-0.04316444225008965,-0.3489370363587811
-0.04316071225008965,-0.3483010950830404
-0.04315698225008965,-0.349731962953459
-0.04315325225008965,-0.3494139923155902
-0.04314952225008965,-0.3499704409318641
-0.04314579225008965,-0.3506063822076079
-0.04314206225008965,-0.3498114556129309
-0.04313833225008964,-0.3512423234833507
-0.04313460225008965,-0.3504473968886737
-0.04313087225008964,-0.3517987720996256
-0.04312714225008965,-0.3513218161428185
-0.04312341225008966,-0.351719279440157
-0.04311968225008965,-0.351560294121222
-0.04311595225008966,-0.3516397867806897
-0.04311222225008965,-0.3529116693321754
-0.04310849225008966,-0.3521167427374984
-0.04310476225008965,-0.3533886252889825
-0.04310103225008965,-0.3529911619916439
-0.04309730225008965,-0.3532296399700467
-0.04309357225008965,-0.3539450739052561
-0.04308984225008965,-0.3532296399700467
-0.04308611225008965,-0.3547400004999331
-0.04308238225008965,-0.3534681179484503
-0.04307865225008965,-0.3546605078404658
-0.04307492225008965,-0.3548989858188715
-0.04307119225008965,-0.3544220298620653
-0.04306746225008964,-0.3555349270946143
-0.04306373225008965,-0.3545015225215323
-0.04306000225008966,-0.3537860885863229
-0.04305627225008965,-0.3541040592241931
-0.04305254225008966,-0.3555349270946117
-0.04304881225008965,-0.3568068096460998
-0.04304508225008966,-0.3558528977324873
-0.04304135225008965,-0.3561708683703571
-0.04303762225008965,-0.356727316986631
-0.04303389225008965,-0.3564888390082284
-0.04303016225008965,-0.357919706878647
-0.04302643225008965,-0.3569657949650355
-0.04302270225008965,-0.358158184857051
-0.04301897225008965,-0.358237677516521
-0.04301524225008965,-0.3579991995381179
-0.04301151225008965,-0.3593505747490708
-0.04300778225008965,-0.358237677516523
-0.04300405225008964,-0.3587941261327959
-0.04300032225008965,-0.3586351408138605
-0.04299659225008966,-0.3585556481543926
-0.04299286225008965,-0.3598275307058779
-0.04298913225008966,-0.3588736187922655
-0.04298540225008965,-0.3601455013437493
-0.04298167225008966,-0.3599070233653462
-0.04297794225008965,-0.35974803804641
-0.04297421225008966,-0.3610199205978932
-0.04297048225008965,-0.3599865160248136
-0.04296675225008965,-0.3614173838952321
-0.04296302225008965,-0.360781442619492
-0.04295929225008965,-0.3613378912357659
-0.04295556225008965,-0.3614968765547026
