-20250405-BKP/real-diodes-out/1kHz200mV/scope.csv

#Digilent WaveForms Oscilloscope Acquisition
#Device Name: Discovery3
#Serial Number: SN:210415BD5874
#Date Time: 2025-04-03 19:56:01.147.289.950
#Sample rate: 3.22581e+06Hz
#Samples: 32768
#Trigger: Source: Channel 1 Type: Edge Condition: Rising Level: 0 V Hyst.: Auto HoldOff: 0 s
#Channel 1: Range: 200 mV/div Offset: 0 V Sample Mode: Average
#Wavegen Channel 1: Running
#Mode: Simple
#Type: Sine
#Frequency: 1 kHz
#Period: 1 ms
#Amplitude: 200 mV
#Offset: 0 V
#Symmetry: 50 %
#Phase: 0 °

Time (s),Channel 1 (V)
-0.00156739631315871,0.08302607518948502
-0.00156708631315871,0.0863647668871345
-0.001566776313158711,0.08302607518948502
-0.001566466313158711,0.08366201646522663
-0.00156615631315871,0.0850133916761739
-0.00156584631315871,0.08103875870279426
-0.00156553631315871,0.08397998710309916
-0.00156522631315871,0.08445694305990623
-0.00156491631315871,0.07905144221609278
-0.00156460631315871,0.08366201646522778
-0.001564296313158711,0.08231064125427441
-0.001563986313158711,0.07889245689716332
-0.001563676313158711,0.08262861189213899
-0.00156336631315871,0.07976687615130251
-0.00156305631315871,0.07928992019449632
-0.00156274631315871,0.08199267061640304
-0.00156243631315871,0.07793854498354295
-0.00156212631315871,0.07944890551343201
-0.00156181631315871,0.08064129540544968
-0.001561506313158711,0.07618970647525847
-0.001561196313158711,0.07913093487555528
-0.00156088631315871,0.07849499359981209
-0.00156057631315871,0.07531528722110409
-0.00156026631315871,0.07777955966460727
-0.00155995631315871,0.0765871697725896
-0.00155964631315871,0.07491782392376486
-0.00155933631315871,0.07746158902673589
-0.001559026313158711,0.07436137530749558
-0.001558716313158711,0.07436137530748994
-0.00155840631315871,0.07595122849684076
-0.00155809631315871,0.07261253679919737
-0.00155778631315871,0.07388441935068288
-0.00155747631315871,0.07420238998855426
-0.00155716631315871,0.07213558084239029
-0.00155685631315871,0.07396391201015072
-0.001556546313158711,0.07316898541547227
-0.001556236313158711,0.07110217626931208
-0.00155592631315871,0.07308949275599907
-0.00155561631315871,0.07014826435569504
-0.00155530631315871,0.07062522031250125
-0.00155499631315871,0.07221507350185814
-0.00155468631315871,0.06975080105835495
-0.00155437631315871,0.06959181573941926
-0.001554066313158711,0.07038674233409771
-0.001553756313158711,0.06927384510154991
-0.00155344631315871,0.06871739648527311
-0.00155313631315871,0.06879688914473994
-0.00155282631315871,0.06831993318793375
-0.00155251631315871,0.06839942584740159
-0.00155220631315871,0.06657109467964116
-0.00155189631315871,0.06760449925272315
-0.001551586313158711,0.0675250065932553
-0.001551276313158711,0.0663326167012398
-0.00155096631315871,0.06585566074443171
-0.00155065631315871,0.06649160202017217
-0.00155034631315871,0.06585566074443056
-0.00155003631315871,0.06442479287400936
-0.00154972631315871,0.06426580755507366
-0.00154941631315871,0.06442479287400936
-0.001549106313158711,0.06362986627933091
-0.001548796313158711,0.06235798372784771
-0.001548486313158711,0.06378885159826399
-0.00154817631315871,0.06227849106837552
-0.00154786631315871,0.06116559383582773
-0.00154755631315871,0.06211950574944186
-0.00154724631315871,0.06068863787902065
-0.00154693631315871,0.06108610117635987
-0.00154662631315871,0.0600526966032779
-0.001546316313158711,0.0597347259654071
-0.001546006313158711,0.06124508649529282
-0.00154569631315871,0.05941675532753239
-0.00154538631315871,0.05790639479764609
-0.00154507631315871,0.06068863787902065
-0.00154476631315871,0.0570319755434998
-0.00154445631315871,0.05758842415977472
-0.00154414631315871,0.05917827734913161
-0.001543836313158711,0.05615755628935901
-0.001543526313158711,0.0571909608624336
-0.00154321631315871,0.05711146820296373
-0.00154290631315871,0.05496516639733584
-0.00154259631315871,0.05663451224616058
-0.00154228631315871,0.05496516639733584
-0.00154197631315871,0.05305734257010757
-0.00154166631315871,0.05647552692722489
-0.001541356313158711,0.05377277650531817
-0.001541046313158711,0.05289835725117347
-0.00154073631315871,0.05496516639733005
-0.00154042631315871,0.05178546001862205
-0.00154011631315871,0.05337531320797895
-0.00153980631315871,0.05393176182425385
-0.00153949631315871,0.04987763619139378
-0.00153918631315871,0.05297784991063972
-0.001538876313158711,0.05194444533755774
-0.001538566313158711,0.04765184172630193
-0.00153825631315871,0.05297784991063553
-0.00153794631315871,0.05067256278606832
-0.00153763631315871,0.04852626098044041
-0.00153732631315871,0.05154698204021851
-0.00153701631315871,0.04781082704522982
-0.00153670631315871,0.04860575363990827
-0.001536396313158711,0.050275099488733
-0.001536086313158711,0.04606198853694489
-0.00153577631315871,0.04868524629937553
-0.00153546631315871,0.04836727566149634
-0.00153515631315871,0.04375670141236973
-0.00153484631315871,0.04820829034256904
-0.00153453631315871,0.04709539311001922
-0.00153422631315871,0.04327974545556267
-0.001533916313158711,0.04717488576948706
-0.001533606313158711,0.04447213534758525
-0.001533296313158711,0.04320025279609713
-0.00153298631315871,0.0455055399206548
-0.00153267631315871,0.04137192162833439
-0.00153236631315871,0.04359771609343405
-0.00153205631315871,0.04486959864491956
-0.00153174631315871,0.04002054641738104
-0.001531436313158711,0.04327974545556267
-0.001531126313158711,0.04280278949875647
-0.001530816313158711,0.0384306932280321
-0.00153050631315871,0.04264380417981586
-0.00153019631315871,0.04041800971472026
-0.00152988631315871,0.03787424461174922
-0.00152957631315871,0.04161039960673793
-0.00152926631315871,0.03827170790908845
-0.00152895631315871,0.03890764918483121
-0.001528646313158711,0.0411334436499268
-0.001528336313158711,0.03620489876293345
-0.00152802631315871,0.03858967854695954
-0.00152771631315871,0.03843069322802414
-0.00152740631315871,0.03501250887090682
-0.00152709631315871,0.03731779599547431
-0.00152678631315871,0.03699982535760293
-0.00152647631315871,0.03469453823303544
-0.001526166313158711,0.0376357666333457
-0.001525856313158711,0.03477403089250848
-0.00152554631315871,0.03445606025463551
-0.00152523631315871,0.03644337674132801
-0.00152492631315871,0.03270722174633932
-0.00152461631315871,0.03405859695729267
-0.00152430631315871,0.03421758227622837
-0.00152399631315871,0.03175330983272517
-0.001523686313158711,0.032866207065275
-0.001523376313158711,0.03223026578953341
-0.00152306631315871,0.0306404126001781
-0.00152275631315871,0.03215077313006268
-0.00152244631315871,0.03119686121645027
-0.00152213631315871,0.03048142728123967
-0.00152182631315871,0.03207128047059656
-0.00152151631315871,0.02889157409188277
-0.001521206313158711,0.02897106675135062
-0.001520896313158711,0.03000447132443072
-0.00152058631315871,0.02841461813507556
-0.00152027631315871,0.02833512547560771
-0.00151996631315871,0.02825563281614001
-0.00151965631315871,0.02754019888092941
-0.00151934631315871,0.02674527228625096
-0.00151903631315871,0.02650679430784743
-0.001518726313158711,0.02730172090252588
-0.001518416313158711,0.02642730164838118
-0.00151810631315871,0.02475795579955499
-0.00151779631315871,0.02483744845902269
-0.00151748631315871,0.02483744845902269
-0.00151717631315871,0.02372455122647286
-0.00151686631315871,0.02316810261019795
-0.00151655631315871,0.02356556590753717
-0.001516246313158711,0.0239630292048764
-0.001515936313158711,0.0228501319723286
-0.001515626313158711,0.02165774208031107
-0.00151531631315871,0.02261165399392058
-0.00151500631315871,0.02126027878296968
-0.00151469631315871,0.01990890357201632
-0.00151438631315871,0.02173723473977675
-0.00151407631315871,0.01990890357201632
-0.00151376631315871,0.01943194761520925
-0.001513456313158711,0.02046535218828935
-0.001513146313158711,0.01887549899893723
-0.00151283631315871,0.0199883962314804
-0.00151252631315871,0.0179215870853202
-0.00151221631315871,0.0172061531501096
-0.00151190631315871,0.01974991825308063
-0.00151159631315871,0.01712666049064175
-0.00151128631315871,0.01625224123649546
-0.001510976313158711,0.01823955772319158
-0.001510666313158711,0.01490086602554818
-0.00151035631315871,0.01633173389596417
-0.00151004631315871,0.01680868985277037
-0.00150973631315871,0.01331101283618521
-0.00150942631315871,0.01569579262022055
-0.00150911631315871,0.01482137336607426
-0.00150880631315871,0.01195963762523185
-0.001508496313158711,0.01521883666341348
-0.001508186313158711,0.01267507156044708
-0.00150787631315871,0.01100572571162378
-0.00150756631315871,0.01434441740926097
-0.00150725631315871,0.01092623305214986
-0.00150694631315871,0.01156217432789262
-0.00150663631315871,0.01402644677139581
-0.00150632631315871,0.00830297528971099
-0.001506016313158711,0.01140318900895693
-0.001505706313158711,0.01124420369002153
-0.00150539631315871,0.006713122100362193
-0.00150508631315871,0.01116471103055065
-0.00150477631315871,0.009654350500664349
-0.00150446631315871,0.006713122100354095
-0.00150415631315871,0.009972321138535729
-0.00150384631315871,0.007269570716629008
-0.001503536313158711,0.00679261475982194
-0.001503226313158711,0.008859423905982143
-0.00150291631315871,0.005123268911000237
-0.00150260631315871,0.006792614759823675
-0.00150229631315871,0.007746526673436076
-0.00150198631315871,0.00257950380802617
-0.00150167631315871,0.006951600078757629
-0.00150136631315871,0.005997688165143493
-0.001501056313158711,0.001307621256540655
-0.001500746313158711,0.005997688165134961
-0.001500436313158711,0.00416935699738639
-0.00150012631315871,0.002261533170160141
-0.00149981631315871,0.005202761570465045
-0.00149950631315871,0.001148635937604965
-0.00149919631315871,0.0009101579592014309
-0.00149888631315871,0.002102547851219102
-0.00149857631315871,-0.002190055760044513
-0.001498266313158711,0.0007511726402603916
-0.001497956313158711,0.0008306652997334416
-0.00149764631315871,-0.003064475014184732
-0.00149733631315871,0.0002742166834586732
-0.00149702631315871,-0.0008386805490911528
-0.00149671631315871,-0.003938894268337097
-0.00149640631315871,-0.0006796952301554634
-0.00149609631315871,-0.003461938311530029
-0.001495786313158711,-0.00441585022514243
-0.001495476313158711,-0.00139512916537156
-0.00149516631315871,-0.005528747457691099
-0.00149485631315871,-0.003938894268337097
-0.00149454631315871,-0.003461938311530029
-0.00149423631315871,-0.007277585965986575
-0.00149392631315871,-0.005051791500886923
-0.00149361631315871,-0.005131284160354768
-0.001493306313158711,-0.007516063944390109
-0.001492996313158711,-0.005926210755036106
-0.00149268631315871,-0.006641644690247721
-0.00149237631315871,-0.008787946495875625
-0.00149206631315871,-0.006085196073968904
-0.00149175631315871,-0.009423887771618383
-0.00149144631315871,-0.009026424474279159
-0.00149113631315871,-0.00719809330651873
-0.001490826313158711,-0.01005982904736114
-0.001490516313158711,-0.008867439155345637
-0.00149020631315871,-0.009185409793218607
-0.00148989631315871,-0.01125221893937693
-0.00148958631315871,-0.01021881436629683
-0.00148927631315871,-0.01133171159884666
-0.00148896631315871,-0.01228562351246079
-0.00148865631315871,-0.01085475564203959
-0.001488346313158711,-0.01363699872341415
-0.001488036313158711,-0.01308055010714025
-0.00148772631315871,-0.01188816021512562
-0.00148741631315871,-0.01411395468022137
-0.00148710631315871,-0.01419344733968906
-0.00148679631315871,-0.01395496936128553
-0.00148648631315871,-0.01459091063702829
-0.00148617631315871,-0.01427293999915691
-0.001485866313158711,-0.01530634457223889
-0.001485556313158711,-0.01570380786957739
-0.001485246313158711,-0.01578330052904581
-0.00148493631315871,-0.0175321390373371
-0.00148462631315871,-0.0167372124426601
-0.00148431631315871,-0.0174526463778707
-0.00148400631315871,-0.01761163169680639
-0.00148369631315871,-0.01785010967520992
-0.001483386313158711,-0.01904249956722759
-0.001483076313158711,-0.01848605095095369
-0.001482766313158711,-0.01928097754562968
-0.00148245631315871,-0.01991691882137244
-0.00148214631315871,-0.01912199222669544
-0.00148183631315871,-0.02102981605392371
-0.00148152631315871,-0.02190423530807
-0.00148121631315871,-0.01991691882137388
-0.00148090631315871,-0.02269916190274845
-0.001480596313158711,-0.02293763988115155
-0.001480286313158711,-0.02158626467020108
-0.00147997631315871,-0.023653073816361
-0.00147966631315871,-0.02277865456221629
-0.00147935631315871,-0.0234940884974269
-0.00147904631315871,-0.02508394168678379
-0.00147873631315871,-0.02301713254061983
-0.00147842631315871,-0.02468647838944457
-0.001478116313158711,-0.02611734625986577
-0.001477806313158711,-0.02357358115689937
-0.00147749631315871,-0.02643531689773759
-0.00147718631315871,-0.02667379487614068
-0.00147687631315871,-0.02524292700571948
-0.00147656631315871,-0.02897908200070818
-0.00147625631315871,-0.02691227285454422
-0.00147594631315871,-0.02707125817347991
-0.001475636313158711,-0.03040994987112939
-0.001475326313158711,-0.02691227285455058
-0.00147501631315871,-0.02858161870337474
-0.00147470631315871,-0.03176132508207624
-0.00147439631315871,-0.02818415540602974
-0.00147408631315871,-0.03088690582793645
-0.00147377631315871,-0.03088690582793645
-0.00147346631315871,-0.02929705263857956
-0.001473156313158711,-0.03358965624984317
-0.001472846313158711,-0.03160233976315067
-0.00147253631315871,-0.03088690582794527
-0.00147222631315871,-0.03573595805546674
-0.00147191631315871,-0.03120487646580783
-0.00147160631315871,-0.03207929571995413
-0.00147129631315871,-0.03645139199068559
-0.00147098631315871,-0.03215878837942197
-0.001470676313158711,-0.034702553482393
-0.001470366313158711,-0.03645139199068241
-0.001470056313158711,-0.03343067093091298
-0.00146974631315871,-0.03684885528802206
-0.00146943631315871,-0.03533849475813576
-0.00146912631315871,-0.03422559752558593
-0.00146881631315871,-0.03899515709365661
-0.00146850631315871,-0.03589494337441067
-0.001468196313158711,-0.03565646539600714
-0.001467886313158711,-0.04074399560193995
-0.001467576313158711,-0.03653088465016109
-0.00146726631315871,-0.03748479656377306
-0.00146695631315871,-0.04050551762354566
-0.00146664631315871,-0.0370078406069605
-0.00146633631315871,-0.0400285616667386
-0.00146602631315871,-0.04106196623982059
-0.00146571631315871,-0.03859769379631739
-0.001465406313158711,-0.042413341450767
-0.001465096313158711,-0.04066450294248454
-0.00146478631315871,-0.04042602496408548
-0.00146447631315871,-0.0446391359158736
-0.00146416631315871,-0.04145942953715981
-0.00146385631315871,-0.04209537081290256
-0.00146354631315871,-0.04583152580789127
-0.00146323631315871,-0.04169790751556333
-0.001462926313158711,-0.04320826804545239
-0.001462616313158711,-0.04591101846735419
-0.00146230631315871,-0.04257232676971628
-0.00146199631315871,-0.04622898910523049
-0.00146168631315871,-0.04527507719161634
-0.00146137631315871,-0.04376471666172729
-0.00146106631315871,-0.04797782761352307
-0.00146075631315871,-0.04567254048895557
-0.001460446313158711,-0.04567254048895557
-0.001460136313158711,-0.04932920282446978
-0.00145982631315871,-0.0471034083593788
-0.00145951631315871,-0.04821630559192863
-0.00145920631315871,-0.04932920282447643
-0.00145889631315871,-0.04765985697565168
-0.00145858631315871,-0.05004463675968704
-0.00145827631315871,-0.05004463675968704
-0.001457966313158711,-0.04781884229458738
-0.001457656313158711,-0.05076007069489228
-0.00145734631315871,-0.05028311473809071
-0.00145703631315871,-0.05036260739756173
-0.00145672631315871,-0.05219093856531884
-0.00145641631315871,-0.05139601197064039
-0.00145610631315871,-0.05171398260851177
-0.00145579631315871,-0.05314485047893297
-0.001455486313158711,-0.05187296792744746
-0.001455176313158711,-0.05401926973307537
-0.00145486631315871,-0.05378079175467385
-0.00145455631315871,-0.05274738718159779
-0.00145424631315871,-0.0549731816466934
-0.00145393631315871,-0.05505267430616125
-0.00145362631315871,-0.05401926973307927
-0.00145331631315871,-0.05576810824137185
-0.001453006313158711,-0.05632455685764677
-0.001452696313158711,-0.05616557153871136
-0.001452386313158711,-0.05608607887924338
-0.00145207631315871,-0.05672202015498802
-0.00145176631315871,-0.05783491738753581
-0.00145145631315871,-0.05640404951711461
-0.00145114631315871,-0.0572784687712609
-0.00145083631315871,-0.05839136600381073
-0.00145052631315871,-0.05831187334434289
-0.001450216313158711,-0.05934527791742298
-0.001449906313158711,-0.05934527791742486
-0.00144959631315871,-0.06069665312837765
-0.00144928631315871,-0.06037868249050685
-0.00144897631315871,-0.05894781462008564
-0.00144866631315871,-0.06141208706358883
-0.00144835631315871,-0.06204802833933158
-0.00144804631315871,-0.06006071185263546
-0.001447736313158711,-0.06355838886922063
-0.001447426313158711,-0.06331991089081754
-0.00144711631315871,-0.06125310174465863
-0.00144680631315871,-0.06427382280443124
-0.00144649631315871,-0.06339940355028495
-0.00144618631315871,-0.06387635950709201
-0.00144587631315871,-0.06514824205857753
-0.00144556631315871,-0.06371737418815633
-0.001445256313158711,-0.06538672003698107
-0.001444946313158711,-0.06673809524793196
-0.00144463631315871,-0.06387635950709751
-0.00144432631315871,-0.06689708056686983
-0.00144401631315871,-0.06673809524793442
-0.00144370631315871,-0.06467128610177046
-0.00144339631315871,-0.06872541173463055
-0.00144308631315871,-0.06737403652367718
-0.001442776313158711,-0.06618164663165951
-0.001442466313158711,-0.06975881630770601
-0.00144215631315871,-0.0672150512047428
-0.00144184631315871,-0.0679304851399586
-0.00144153631315871,-0.07150765481600511
-0.00144122631315871,-0.06761251450208072
-0.00144091631315871,-0.07039475758345529
-0.00144060631315871,-0.0716666401349408
-0.001440296313158711,-0.0686459190751627
-0.001439986313158711,-0.07230258141067691
-0.00143967631315871,-0.07150765481600295
-0.00143936631315871,-0.07031526492399569
-0.00143905631315871,-0.07484634651365459
-0.00143874631315871,-0.07134866949706942
-0.00143843631315871,-0.07118968417813373
-0.00143812631315871,-0.07572076576780087
-0.001437816313158711,-0.0716666401349408
-0.001437506313158711,-0.0738924346000364
-0.001437196313158711,-0.07595924374620065
-0.00143688631315871,-0.07301801534589877
-0.00143657631315871,-0.07556178044886519
-0.00143626631315871,-0.07675417034088286
-0.00143595631315871,-0.0739719272595083
-0.00143564631315871,-0.07866199416811114
-0.00143533631315871,-0.07619772172460795
-0.001435026313158711,-0.07492583917312474
-0.001434716313158711,-0.07985438406011984
-0.00143440631315871,-0.07595924374620586
-0.00143409631315871,-0.07675417034088286
-0.00143378631315871,-0.08120575927108216
-0.00143347631315871,-0.07675417034088286
-0.00143316631315871,-0.0791389501249182
-0.00143285631315871,-0.08096728129267863
-0.001432546313158711,-0.07770808225450292
-0.001432236313158711,-0.080887788633205
-0.00143192631315871,-0.08025184735746542
-0.00143161631315871,-0.07882097948704682
-0.00143130631315871,-0.08438546564979596
-0.00143099631315871,-0.08104677395214648
-0.00143068631315871,-0.08088778863321079
-0.00143037631315871,-0.08470343628766733
-0.001430066313158711,-0.08056981799533941
-0.001429756313158711,-0.08303409043883811
-0.00142944631315871,-0.08525988490393632
-0.00142913631315871,-0.08200068586576061
-0.00142882631315871,-0.08494191426607087
-0.00142851631315871,-0.08541887022287793
-0.00142820631315871,-0.08311358309831043
-0.00142789631315871,-0.08716770873117052
-0.001427586313158711,-0.08533937756341009
-0.001427276313158711,-0.0848624216066039
-0.00142696631315871,-0.0879626353258455
-0.00142665631315871,-0.08605481149862272
-0.00142634631315871,-0.08716770873117052
-0.00142603631315871,-0.0889165472394631
-0.00142572631315871,-0.08621379681755638
-0.00142541631315871,-0.08867806926105956
-0.001425106313158711,-0.08955248851520586
-0.001424796313158711,-0.08677024543383637
-0.00142448631315871,-0.08994995181254437
-0.00142417631315871,-0.08955248851520442
-0.00142386631315871,-0.08875756192052742
-0.00142355631315871,-0.09114234170456276
-0.00142324631315871,-0.09074487840722353
