synth-diodes-2f-1r-in-T00-L10-D00/100Hz-2V/scope.csv

#Digilent WaveForms Oscilloscope Acquisition
#Device Name: Discovery3
#Serial Number: SN:210415BD5874
#Date Time: 2025-04-06 20:01:11.879.916.780
#Sample rate: 208333Hz
#Samples: 32768
#Trigger: Source: Channel 1 Type: Edge Condition: Rising Level: 0 V Hyst.: Auto HoldOff: 0 s
#Channel 1: Range: 200 mV/div Offset: 0 V Sample Mode: Average
#Wavegen Channel 1: Running
#Mode: Simple
#Type: Sine
#Frequency: 100 Hz
#Period: 10 ms
#Amplitude: 2 V
#Offset: 0 V
#Symmetry: 50 %
#Phase: 0 °

Time (s),Channel 1 (V)
-0.0914946205670729,-0.3724668635612652
-0.0914898205670729,-0.3713539663287154
-0.0914850205670729,-0.3721488929233938
-0.0914802205670729,-0.371035995690844
-0.0914754205670729,-0.3713539663287154
-0.09147062056707291,-0.3708770103719083
-0.09146582056707291,-0.3706385323935052
-0.09146102056707291,-0.3704795470745694
-0.09145622056707291,-0.3698436057988275
-0.09145142056707291,-0.3697641131393586
-0.09144662056707289,-0.3688102012257449
-0.0914418205670729,-0.369128171863615
-0.0914370205670729,-0.368730708566277
-0.0914322205670729,-0.3690486792041479
-0.0914274205670729,-0.3676973039931945
-0.0914226205670729,-0.3685717232473408
-0.0914178205670729,-0.3675383186742588
-0.0914130205670729,-0.3666638994201125
-0.0914082205670729,-0.3659484654849019
-0.0914034205670729,-0.367458826014791
-0.0913986205670729,-0.3665049141011769
-0.0913938205670729,-0.3656304948470305
-0.0913890205670729,-0.3658689728254341
-0.0913842205670729,-0.3645970902739485
-0.09137942056707291,-0.3656304948470305
-0.09137462056707291,-0.3645175976144827
-0.09136982056707291,-0.3646765829334161
-0.09136502056707291,-0.3642791196360779
-0.09136022056707289,-0.3640406416576729
-0.0913554205670729,-0.3636431783603342
-0.0913506205670729,-0.3634841930413989
-0.0913458205670729,-0.3635636857008651
-0.0913410205670729,-0.3627687591061881
-0.0913362205670729,-0.3630072370845916
-0.0913314205670729,-0.3617353545331062
-0.0913266205670729,-0.3619738325115097
-0.0913218205670729,-0.3609404279384277
-0.0913170205670729,-0.3612583985762991
-0.0913122205670729,-0.3603044866626849
-0.0913074205670729,-0.3604634719816207
-0.0913026205670729,-0.3591915894301351
-0.0912978205670729,-0.3595095600680065
-0.09129302056707291,-0.3599070233653457
-0.09128822056707291,-0.3576017362407825
-0.09128342056707291,-0.3578402142191813
-0.09127862056707291,-0.3583966628354557
-0.09127382056707291,-0.3582376775165212
-0.09126902056707289,-0.3569657949650367
-0.0912642205670729,-0.3576017362407765
-0.0912594205670729,-0.3566478243271648
-0.0912546205670729,-0.3570452876245033
-0.0912498205670729,-0.3561708683703571
-0.0912450205670729,-0.3568068096460998
-0.0912402205670729,-0.3561708683703571
-0.0912354205670729,-0.3562503610298249
-0.0912306205670729,-0.35569391241355
-0.0912258205670729,-0.3552169564567429
-0.0912210205670729,-0.3548194931594036
-0.0912162205670729,-0.3541835518836609
-0.0912114205670729,-0.3533091326295146
-0.0912066205670729,-0.3531501473105789
-0.09120182056707291,-0.3527526840132397
-0.09119702056707291,-0.3522757280564335
-0.09119222056707291,-0.3519577574185618
-0.09118742056707291,-0.3514013088022873
-0.09118262056707289,-0.3517987720996241
-0.0911778205670729,-0.3510038455049477
-0.0911730205670729,-0.351321816142816
-0.0911682205670729,-0.3499704409318641
-0.0911634205670729,-0.3494139923155902
-0.0911586205670729,-0.347983124445169
-0.0911538205670729,-0.3490960216777189
-0.0911490205670729,-0.3480626171046369
-0.0911442205670729,-0.347506168488362
-0.0911394205670729,-0.3477446464667655
-0.0911346205670729,-0.3463137785963443
-0.0911298205670729,-0.3471087051910227
-0.0911250205670729,-0.3457573299800694
-0.0911202205670729,-0.3461547932774086
-0.09111542056707291,-0.3456778373206015
-0.09111062056707291,-0.3453598666827307
-0.09110582056707291,-0.3450418960448593
-0.09110102056707291,-0.3439289988123109
-0.09109622056707291,-0.3440879841312444
-0.09109142056707289,-0.3428955942392277
-0.0910866205670729,-0.3432930575365639
-0.0910818205670729,-0.3420211749850812
-0.0910770205670729,-0.342339145622952
-0.0910722205670729,-0.34130574104987
-0.0910674205670729,-0.3419416823256128
-0.0910626205670729,-0.3405903071146595
-0.0910578205670729,-0.3405108144551916
-0.0910530205670729,-0.3400338584983845
-0.0910482205670729,-0.3395569025415775
-0.0910434205670729,-0.339318424563174
-0.0910386205670729,-0.3394774098821096
-0.0910338205670729,-0.3404313217957238
-0.0910290205670729,-0.3401928438173202
-0.09102422056707291,-0.3374900933954135
-0.09101942056707291,-0.3350258209519148
-0.09101462056707291,-0.3343898796761687
-0.09100982056707291,-0.3326410411678781
-0.09100502056707289,-0.3331179971246815
-0.0910002205670729,-0.3328000264868128
-0.0909954205670729,-0.3339924163788275
-0.0909906205670729,-0.3335154604220213
-0.0909858205670729,-0.334151401697764
-0.0909810205670729,-0.3335949530814891
-0.0909762205670729,-0.3336744457409569
-0.0909714205670729,-0.3328000264868107
-0.0909666205670729,-0.3327205338273428
-0.0909618205670729,-0.3321640852110679
-0.0909570205670729,-0.3314486512758573
-0.0909522205670729,-0.3307332173406467
-0.0909474205670729,-0.3301767687243718
-0.0909426205670729,-0.3296998127675647
-0.09093782056707291,-0.3294613347891612
-0.09093302056707291,-0.3287459008539519
-0.09092822056707291,-0.3285074228755475
-0.09092342056707291,-0.3279509742592732
-0.09091862056707291,-0.3277124962808691
-0.09091382056707289,-0.3258046724536391
-0.0909090205670729,-0.3250892385184316
-0.0909042205670729,-0.3261226430915103
-0.0908994205670729,-0.3253277164968333
-0.0908946205670729,-0.324453297242687
-0.0908898205670729,-0.3241353266048156
-0.0908850205670729,-0.3239763412858799
-0.0908802205670729,-0.3231814146912015
-0.0908754205670729,-0.3235788779885407
-0.0908706205670729,-0.3225454734154587
-0.0908658205670729,-0.3227044587343944
-0.0908610205670729,-0.3211940982045053
-0.0908562205670729,-0.3215915615018446
-0.0908514205670729,-0.3202401862908912
-0.09084662056707291,-0.3207171422476983
-0.09084182056707291,-0.3196837376746182
-0.09083702056707291,-0.3198427229935517
-0.09083222056707291,-0.3189683037394073
-0.09082742056707289,-0.3193657670367427
-0.0908226205670729,-0.3181733771447278
-0.0908178205670729,-0.3184913477825955
-0.0908130205670729,-0.316742509274306
-0.0908082205670729,-0.3172989578905809
-0.0908034205670729,-0.3159475826796276
-0.0907986205670729,-0.3156296120417562
-0.0907938205670729,-0.315232148744417
-0.0907890205670729,-0.314198744171335
-0.0907842205670729,-0.3132448322577209
-0.0907794205670729,-0.3141192515118671
-0.0907746205670729,-0.3141192515118671
-0.0907698205670729,-0.3126088909819781
-0.0907650205670729,-0.3134038175766566
-0.09076022056707291,-0.3117344717278318
-0.09075542056707291,-0.3123704130035734
-0.09075062056707291,-0.3111780231115591
-0.09074582056707291,-0.3112575157710246
-0.09074102056707291,-0.3102241111979447
-0.09073622056707289,-0.310542081835812
-0.0907314205670729,-0.3093496919437966
-0.0907266205670729,-0.3094291846032622
-0.0907218205670729,-0.3082367947112467
-0.0907170205670729,-0.308554765349118
-0.0907122205670729,-0.3073623754571004
-0.0907074205670729,-0.3077598387544396
-0.0907026205670729,-0.3063289708840184
-0.0906978205670729,-0.3069649121597611
-0.0906930205670729,-0.3055340442893399
-0.0906882205670729,-0.3056930296082757
-0.0906834205670729,-0.3041826690783866
-0.0906786205670729,-0.3045801323757258
-0.0906738205670729,-0.3035467278026438
-0.09066902056707291,-0.3038646984405152
-0.09066422056707291,-0.3024338305700966
-0.09065942056707291,-0.3014799186564816
-0.09065462056707291,-0.3022748452511569
-0.09064982056707289,-0.3021953525916884
-0.0906450205670729,-0.3010824553591414
-0.0906402205670729,-0.3014799186564777
-0.0906354205670729,-0.3002875287644622
-0.0906306205670729,-0.3001285434455265
-0.0906258205670729,-0.299333616850848
-0.0906210205670729,-0.299333616850848
-0.0906162205670729,-0.298856660894041
-0.0906114205670729,-0.2982207196182982
-0.0906066205670729,-0.2983002122777661
-0.0906018205670729,-0.2966308664289413
-0.0905970205670729,-0.2974257930236198
-0.0905922205670729,-0.2959949251531986
-0.0905874205670729,-0.2964718811100057
-0.09058262056707291,-0.2951205058990523
-0.09057782056707291,-0.2954384765369231
-0.09057302056707291,-0.2940871013259728
-0.09056822056707291,-0.2940871013259703
-0.09056342056707291,-0.2928152187744871
-0.09055862056707289,-0.2928947114339506
-0.0905538205670729,-0.2917818142014024
-0.0905490205670729,-0.2915433362229976
-0.0905442205670729,-0.2905894243093851
-0.0905394205670729,-0.2901919610120459
-0.0905346205670729,-0.2880456592064141
-0.0905298205670729,-0.2897944977147067
-0.0905250205670729,-0.288602107822689
-0.0905202205670729,-0.2882046445253498
-0.0905154205670729,-0.2876481959090749
-0.0905106205670729,-0.2865352986765251
-0.0905058205670729,-0.2862968206981215
-0.0905010205670729,-0.2851839234655717
-0.0904962205670729,-0.2855813867629109
-0.09049142056707291,-0.2839120409140862
-0.09048662056707291,-0.2839915335735538
-0.09048182056707291,-0.2828786363410062
-0.09047702056707291,-0.2822426950652626
-0.09047222056707289,-0.282083709746323
-0.0904674205670729,-0.2805733492164374
-0.0904626205670729,-0.2809708125137726
-0.0904578205670729,-0.2791424813460155
-0.0904530205670729,-0.2791424813460155
-0.0904482205670729,-0.2777116134755943
-0.0904434205670729,-0.2773936428377229
-0.0904386205670729,-0.276360238264641
-0.0904338205670729,-0.2760422676267695
-0.0904290205670729,-0.274293429118477
-0.0904242205670729,-0.2743729217779448
-0.0904194205670729,-0.2730215465669915
-0.0904146205670729,-0.2725445906101844
-0.0904098205670729,-0.2693648842314706
-0.09040502056707291,-0.2710342300802953
-0.09040022056707291,-0.2687289429557321
-0.09039542056707291,-0.2680135090205185
-0.09039062056707291,-0.2664236558311632
-0.09038582056707291,-0.2655492365770157
-0.0903810205670729,-0.2645158320039289
-0.0903762205670729,-0.2627669934956386
-0.0903714205670729,-0.2622900375388292
-0.0903666205670729,-0.2605411990305398
-0.0903618205670729,-0.2600642430737328
-0.0903570205670729,-0.2578384486086331
-0.0903522205670729,-0.2572819999923582
-0.0903474205670729,-0.254817727548855
-0.0903426205670729,-0.2540228009541766
-0.0903378205670729,-0.2515585285106734
-0.0903330205670729,-0.2505251239375914
-0.0903282205670729,-0.2479813588346204
-0.0903234205670729,-0.2472659248994098
-0.0903186205670729,-0.244563174477503
-0.09031382056707291,-0.2434502772449532
-0.09030902056707291,-0.2408270194825191
-0.09030422056707291,-0.239316658952628
-0.09029942056707291,-0.2370908644875297
-0.09029462056707289,-0.2355805039576312
-0.0902898205670729,-0.2326392755573201
-0.0902850205670729,-0.2292210912002081
-0.0902802205670729,-0.228744135243402
-0.0902754205670729,-0.2264388481188344
-0.0902706205670729,-0.2237360976969277
-0.0902658205670729,-0.2216692885507638
-0.0902610205670729,-0.2194434940856641
-0.0902562205670729,-0.2168997289826931
-0.0902514205670729,-0.2150713978149326
-0.0902466205670729,-0.2122891547335581
-0.0902418205670729,-0.2105403162252655
-0.0902370205670729,-0.2071221318681482
-0.0902322205670729,-0.2057707566571948
-0.09022742056707291,-0.2017961236838026
-0.09022262056707291,-0.1999677925160455
-0.09021782056707291,-0.1961521448615925
-0.09021302056707291,-0.1940853357154254
-0.09020822056707289,-0.1901107027420269
-0.0902034205670729,-0.1887593275310685
-0.0901986205670729,-0.1846257092387444
-0.0901938205670729,-0.1825589000925772
-0.0901890205670729,-0.1787432524381276
-0.0901842205670729,-0.1764379653135601
-0.0901794205670729,-0.1724633323401679
-0.0901746205670729,-0.1699990598966647
-0.0901698205670729,-0.1661834122422081
-0.0901650205670729,-0.1626062425661551
-0.0901602205670729,-0.1572007417223417
-0.0901554205670729,-0.1558493665113883
-0.0901506205670729,-0.1517157482190604
-0.0901458205670729,-0.1480590858835396
-0.0901410205670729,-0.1444819162074865
-0.09013622056707291,-0.1403482979151586
-0.09013142056707291,-0.1371685915364506
-0.09012662056707291,-0.1330349732441244
-0.09012182056707291,-0.1297757742059412
-0.09011702056707289,-0.12532418527573
-0.0901122205670729,-0.1220649862375448
-0.0901074205670729,-0.1168184707126707
-0.0901026205670729,-0.113559271674495
-0.0900978205670729,-0.1082332634901494
-0.0900930205670729,-0.1051330497709034
-0.0900882205670729,-0.09996602690549351
-0.0900834205670729,-0.0965478425483762
-0.0900786205670729,-0.09114234170456276
-0.0900738205670729,-0.08772415734744543
-0.0900690205670729,-0.08287510511990691
-0.0900642205670729,-0.0784235161897076
-0.0900594205670729,-0.07373344928110476
-0.0900546205670729,-0.069520338329309
-0.09004982056707291,-0.06427382280443124
-0.09004502056707291,-0.05982223387424004
-0.09004022056707291,-0.05401926973308983
-0.09003542056707291,-0.04789833495406636
-0.09003062056707289,-0.04440065793746124
-0.0900258205670729,-0.03955160570992141
-0.0900210205670729,-0.03398711954717459
-0.0900162205670729,-0.02969451593590837
-0.0900114205670729,-0.02397104445423397
-0.0900066205670729,-0.01928097754563113
-0.0900018205670729,-0.01395496936128553
-0.0899970205670729,-0.008867439155343469
-0.0899922205670729,-0.003461938311530029
-0.0899874205670729,0.002023055191751257
-0.0899826205670729,0.007428556035564698
-0.0899778205670729,0.01354949081458874
-0.0899730205670729,0.01903448431787003
-0.0899682205670729,0.02459897048061916
-0.0899634205670729,0.03040193462177182
-0.08995862056707291,0.03636388408186017
-0.08995382056707291,0.04161039960672839
-0.08994902056707291,0.04836727566149244
-0.08994422056707291,0.05337531320796984
-0.08993942056707289,0.06013218926275515
-0.0899346205670729,0.06529921212816822
-0.0899298205670729,0.07221507350186826
-0.0899250205670729,0.07777955966460727
-0.0899202205670729,0.08493389901671329
-0.0899154205670729,0.09033939986052673
-0.0899106205670729,0.09860663644518258
-0.0899058205670729,0.1030582253753819
-0.0899010205670729,0.1092586528138738
-0.0898962205670729,0.1160950215281084
-0.0898914205670729,0.1222159563071325
-0.0898866205670729,0.1288138470429636
-0.0898818205670729,0.1346963038435841
-0.0898770205670729,0.1416916578767544
-0.08987222056707291,0.1473356366989714
-0.08986742056707291,0.1549669320078706
-0.08986262056707291,0.1608493888084943
-0.08985782056707291,0.1681627134795334
-0.08985302056707289,0.1735682143233745
-0.0898482205670729,0.1814379876106862
-0.0898434205670729,0.1866050104761
-0.0898386205670729,0.1939183351471393
-0.0898338205670729,0.1998802846072168
-0.0898290205670729,0.2071141166187906
-0.0898242205670729,0.2127580954410076
-0.0898194205670729,0.2201509127715172
-0.0898146205670729,0.2256359062747985
-0.0898098205670729,0.2326312603079688
-0.0898050205670729,0.2382752391301858
-0.0898002205670729,0.2453500858228239
-0.0897954205670729,0.2506760940071696
-0.0897906205670729,0.2572739847430007
-0.0897858205670729,0.2644283240951067
-0.08978102056707291,0.268879913025306
-0.08977622056707291,0.274444399188045
-0.08977142056707291,0.2801678706697295
-0.08976662056707291,0.285970834810882
-0.08976182056707289,0.2914558283141833
-0.0897570205670729,0.2966228511795945
-0.0897522205670729,0.3025053079802136
-0.0897474205670729,0.3075928381861464
-0.0897426205670729,0.3130778316894277
-0.0897378205670729,0.317529420619627
-0.0897330205670729,0.3232528921013118
-0.0897282205670729,0.3278634663504468
-0.0897234205670729,0.3332689671942602
-0.0897186205670729,0.3378795414433952
-0.0897138205670729,0.3427285936709337
-0.0897090205670729,0.3475776458984722
-0.0897042205670729,0.3523472054665429
-0.0896994205670729,0.3569577797156779
-0.08969462056707291,0.3619658172621522
-0.08968982056707291,0.3671328401275527
-0.08968502056707291,0.370868995122544
-0.08968022056707291,0.3760360179879513
-0.08967542056707289,0.3796131876640232
-0.0896706205670729,0.3848597031888979
-0.0896658205670729,0.3884368728649563
-0.0896610205670729,0.3949552709413112
-0.0896562205670729,0.396863094768536
-0.0896514205670729,0.4017121469960745
-0.0896466205670729,0.4052098240126596
-0.0896418205670729,0.4097409056023268
-0.0896370205670729,0.4137950312351869
-0.0896322205670729,0.4179286495275149
-0.0896274205670729,0.4217442971819714
-0.0896226205670729,0.4256394374958958
-0.0896178205670729,0.4298525484476916
-0.0896130205670729,0.4329527621669375
-0.0896082205670729,0.437801814394476
-0.08960342056707291,0.4405840574758506
-0.08959862056707291,0.4448766610871063
-0.08959382056707291,0.447579411509016
-0.08958902056707291,0.4514745518229382
-0.08958422056707289,0.4546542582016676
-0.0895794205670729,0.4593443251102668
-0.0895746205670729,0.4620470755321766
-0.0895698205670729,0.4664191718029001
-0.0895650205670729,0.4689629369058712
-0.0895602205670729,0.4728580772197955
-0.0895554205670729,0.4759582909390415
-0.0895506205670729,0.4792174899772231
-0.0895458205670729,0.4826356743343404
-0.0895410205670729,0.4858153807130542
-0.0895362205670729,0.4904259549621892
-0.0895314205670729,0.4919363154920783
-0.0895266205670729,0.4951955145302599
-0.0895218205670729,0.4986136988873772
-0.08951702056707291,0.501793405266091
-0.08951222056707291,0.5047346336663959
-0.08950742056707291,0.5083118033424477
-0.08950262056707291,0.5100606418507436
-0.08949782056707289,0.5140352748241426
-0.0894930205670729,0.5159430986513739
-0.0894882205670729,0.5195202683274236
-0.0894834205670729,0.5212691068357195
-0.0894786205670729,0.524846276511766
-0.0894738205670729,0.5267541003389943
-0.0894690205670729,0.5304107626745151
-0.0894642205670729,0.5331930057558897
-0.0894594205670729,0.5354982928804571
-0.0894546205670729,0.5392344478754458
-0.0894498205670729,0.5406653157458671
-0.0894450205670729,0.5438450221245809
-0.0894402205670729,0.5453553826544699
-0.0894354205670729,0.5487735670115872
-0.0894306205670729,0.5508403761577512
-0.08942582056707291,0.55346363392019
-0.08942102056707291,0.5555304430663502
-0.08941622056707291,0.5578357301909173
-0.08941142056707291,0.5622873191211127
-0.08940662056707289,0.5626847824184658
-0.0894018205670729,0.5657849961377097
-0.0893970205670729,0.5678518052838754
-0.0893922205670729,0.570872526343648
-0.0893874205670729,0.5723033942140693
-0.0893826205670729,0.5755625932522509
-0.0893778205670729,0.5765959978253329
-0.0893730205670729,0.5795372262256431
-0.0893682205670729,0.5808091087771287
-0.0893634205670729,0.5835913518585032
-0.0893586205670729,0.5850222197289244
-0.0893538205670729,0.5880429407887026
-0.0893490205670729,0.5890763453617845
-0.0893442205670729,0.5920175737620947
-0.08933942056707291,0.5940843829082587
-0.08933462056707291,0.5959922067354836
-0.08932982056707291,0.5980590158816472
-0.08932502056707291,0.5995693764115372
-0.08932022056707289,0.6019541561955786
-0.0893154205670729,0.6037029947038727
-0.0893106205670729,0.6063262524663079
-0.0893058205670729,0.6069621937420557
-0.0893010205670729,0.6103803780991669
-0.0892962205670729,0.6110163193749096
-0.0892914205670729,0.6130036358616058
-0.0892866205670729,0.616421820218723
-0.0892818205670729,0.6170577614944658
-0.0892770205670729,0.6187271073432906
-0.0892722205670729,0.620555438511051
-0.0892674205670729,0.622622247657215
-0.0892626205670729,0.6234966669113613
-0.0892578205670729,0.6260404320143322
-0.0892530205670729,0.6265968806306073
-0.08924822056707291,0.6287431824362352
-0.08924342056707291,0.6293791237119807
-0.08923862056707291,0.6319228888149482
-0.08923382056707291,0.632399844771759
-0.08922902056707289,0.6351820878531358
-0.0892242205670729,0.6358975217883487
-0.0892194205670729,0.6378848382750434
-0.0892146205670729,0.6390772281670588
-0.0892098205670729,0.641541500610562
-0.0892050205670729,0.6418594712484333
-0.0892002205670729,0.6440852657135331
-0.0891954205670729,0.6451186702866151
-0.0891906205670729,0.6467880161354398
-0.0891858205670729,0.6479009133679896
-0.0891810205670729,0.6491727959194751
-0.0891762205670729,0.6510806197467034
-0.0891714205670729,0.6520345316603176
-0.0891666205670729,0.6538628628280779
-0.08916182056707291,0.6566451059094525
-0.08915702056707291,0.6573605398446618
