-20250405-BKP/real-diodes-out/100Hz2V/scope.csv

#Digilent WaveForms Oscilloscope Acquisition
#Device Name: Discovery3
#Serial Number: SN:210415BD5874
#Date Time: 2025-04-03 19:53:31.259.440.410
#Sample rate: 323625Hz
#Samples: 32768
#Trigger: Source: Channel 1 Type: Edge Condition: Rising Level: 0 V Hyst.: Auto HoldOff: 0 s
#Channel 1: Range: 200 mV/div Offset: 0 V Sample Mode: Average
#Wavegen Channel 1: Running
#Mode: Simple
#Type: Sine
#Frequency: 100 Hz
#Period: 10 ms
#Amplitude: 2 V
#Offset: 0 V
#Symmetry: 50 %
#Phase: 0 °

Time (s),Channel 1 (V)
-0.004917454165278584,-0.1009994314785755
-0.004914364165278587,-0.1045766011546285
-0.00491127416527859,-0.1083127561496104
-0.004908184165278585,-0.1122873891230095
-0.004905094165278588,-0.1160235441179981
-0.004902004165278584,-0.119680206453519
-0.004898914165278587,-0.1236548394269112
-0.004895824165278589,-0.1277089650597713
-0.004892734165278585,-0.1313656273952922
-0.004889644165278588,-0.1355787383470879
-0.004886554165278584,-0.1389969227042131
-0.004883464165278587,-0.1432895263154689
-0.004880374165278589,-0.1469461886509897
-0.004877284165278585,-0.1506028509865106
-0.004874194165278588,-0.154497991300435
-0.004871104165278584,-0.158154653635964
-0.004868014165278586,-0.1626062425661551
-0.004864924165278589,-0.1667398608584831
-0.004861834165278585,-0.1702375378750682
-0.004858744165278588,-0.1742121708484605
-0.004855654165278583,-0.1781073111623915
-0.004852564165278586,-0.1817639734979057
-0.004849474165278589,-0.1858180991307658
-0.004846384165278585,-0.1896337467852224
-0.004843294165278587,-0.1934493944396789
-0.00484020416527859,-0.1972650420941285
-0.004837114165278586,-0.2009217044296563
-0.004834024165278589,-0.2049758300625164
-0.004830934165278584,-0.2090299556953765
-0.004827844165278587,-0.2122891547335581
-0.00482475416527859,-0.2162637877069431
-0.004821664165278586,-0.2205563913182139
-0.004818574165278589,-0.2236566050374599
-0.004815484165278584,-0.2281081939676592
-0.004812394165278587,-0.2315263783247765
-0.00480930416527859,-0.2352625333197584
-0.004806214165278586,-0.2391576736336896
-0.004803124165278588,-0.2431323066070818
-0.004800034165278584,-0.2467094762831349
-0.004796944165278587,-0.2506841092565271
-0.00479385416527859,-0.2542612789325736
-0.004790764165278585,-0.2585538825438437
-0.004787674165278588,-0.261972066900961
-0.004784584165278584,-0.2655492365770141
-0.004781494165278587,-0.2696033622098741
-0.004778404165278589,-0.2728625612480557
-0.004775314165278585,-0.276837194221448
-0.004772224165278588,-0.2801758859190975
-0.004769134165278584,-0.284230011551964
-0.004766044165278586,-0.2878071812280106
-0.004762954165278589,-0.291702321541935
-0.004759864165278585,-0.2946435499422452
-0.004756774165278588,-0.2992541241913802
-0.004753684165278584,-0.3021158599322293
-0.004750594165278586,-0.3057725222677435
-0.004747504165278589,-0.3091112139653929
-0.004744414165278585,-0.3127678763009138
-0.004741324165278588,-0.3165040312959025
-0.004738234165278583,-0.320240186290897
-0.004735144165278586,-0.323419892669605
-0.004732054165278589,-0.3265995990483188
-0.004728964165278585,-0.3307332173406467
-0.004725874165278587,-0.3333564751030856
-0.00472278416527859,-0.3368541521196644
-0.004719694165278586,-0.3393979172226418
-0.004716604165278589,-0.3427366089202913
-0.004713514165278584,-0.3460753006179407
-0.004710424165278587,-0.3493344996561224
-0.00470733416527859,-0.3522757280564273
-0.004704244165278586,-0.3557734050730178
-0.004701154165278588,-0.3587941261327959
-0.004698064165278584,-0.361814847192574
-0.004694974165278587,-0.3647560755928843
-0.00469188416527859,-0.3677767966526568
-0.004688794165278586,-0.371035995690844
-0.004685704165278588,-0.3736592534532829
-0.004682614165278584,-0.377156930469868
-0.004679524165278587,-0.3793827249349677
-0.00467643416527859,-0.3820854753568695
-0.004673344165278585,-0.3852651817355882
-0.004670254165278588,-0.3877294541790914
-0.004667164165278584,-0.3903527119415303
-0.004664074165278587,-0.3936119109797119
-0.004660984165278589,-0.3956787201258758
-0.004657894165278585,-0.3983814705477826
-0.004654804165278588,-0.4013226989480928
-0.004651714165278584,-0.4029920447969228
-0.004648624165278586,-0.4058537805377599
-0.004645534165278589,-0.4084770383001988
-0.004642444165278585,-0.4106233401058307
-0.004639354165278588,-0.4123721786141232
-0.004636264165278584,-0.4145979730792264
-0.004633174165278586,-0.4165057969064512
-0.004630084165278589,-0.4192085473283579
-0.004626994165278585,-0.4211163711555861
-0.004623904165278588,-0.4229447023233466
-0.004620814165278583,-0.4249320188100465
-0.004617724165278586,-0.4269988279562066
-0.004614634165278589,-0.4292246224213063
-0.004611544165278585,-0.4302580269943883
-0.004608454165278587,-0.4328812847568272
-0.00460536416527859,-0.4343121526272458
-0.004602274165278586,-0.436060991135541
-0.004599184165278589,-0.4377303369843657
-0.004596094165278584,-0.4399561314494654
-0.004593004165278587,-0.4414664919793544
-0.00458991416527859,-0.4435333011255146
-0.004586824165278586,-0.4446461983580682
-0.004583734165278588,-0.4465540221852964
-0.004580644165278584,-0.4483823533530569
-0.004577554165278587,-0.4494157579261389
-0.00457446416527859,-0.4511645964344283
-0.004571374165278586,-0.4525159716453848
-0.004568284165278588,-0.4537083615374025
-0.004565194165278584,-0.4557751706835664
-0.004562104165278587,-0.4565700972782449
-0.00455901416527859,-0.4577624871702604
-0.004555924165278585,-0.4592728477001516
-0.004552834165278588,-0.4600677742948301
-0.004549744165278584,-0.4615781348247191
-0.004546654165278587,-0.4628500173762046
-0.004543564165278589,-0.4636449439708831
-0.004540474165278585,-0.46523479716024
-0.004537384165278588,-0.4668246503495969
-0.004534294165278584,-0.4673810989658745
-0.004531204165278586,-0.4688914594957608
-0.004528114165278589,-0.4701633420472464
-0.004525024165278585,-0.4704018200256499
-0.004521934165278588,-0.4723096438528782
-0.004518844165278584,-0.4731045704475586
-0.004515754165278586,-0.4742174676801064
-0.004512664165278589,-0.4746149309774457
-0.004509574165278585,-0.4757278282099955
-0.004506484165278588,-0.4773176813993524
-0.004503394165278583,-0.4781126079940328
-0.004500304165278586,-0.4792255052265806
-0.004497214165278589,-0.4797819538428555
-0.004494124165278585,-0.4803384024591305
-0.004491034165278587,-0.4820077483079552
-0.00448794416527859,-0.4828026749026322
-0.004484854165278586,-0.4834386161783764
-0.004481764165278589,-0.4850284693677333
-0.004478674165278584,-0.4851079620272011
-0.004475584165278587,-0.4864593372381545
-0.00447249416527859,-0.4875722344707024
-0.004469404165278586,-0.4878902051085757
-0.004466314165278588,-0.4892415803195291
-0.004463224165278584,-0.4902749848926111
-0.004460134165278587,-0.4901159995736754
-0.00445704416527859,-0.4920238234009002
-0.004453954165278586,-0.4926597646766464
-0.004450864165278588,-0.4925802720171786
-0.004447774165278584,-0.494408603184939
-0.004444684165278587,-0.4941701252065355
-0.00444159416527859,-0.4949650518012125
-0.004438504165278585,-0.4961574416932316
-0.004435414165278588,-0.4959984563742959
-0.004432324165278584,-0.4968728756284422
-0.004429234165278587,-0.4984627288177991
-0.004426144165278589,-0.4975883095636528
-0.004423054165278585,-0.499019177434074
-0.004419964165278588,-0.5002115673260916
-0.004416874165278584,-0.5002115673260935
-0.004413784165278586,-0.5012449718991736
-0.004410694165278589,-0.5016424351965129
-0.004407604165278585,-0.5021193911533199
-0.004404514165278588,-0.5033117810453376
-0.004401424165278583,-0.5040272149805486
-0.004398334165278586,-0.5042656929589517
-0.004395244165278589,-0.5051401122130981
-0.004392154165278585,-0.5057760534888408
-0.004389064165278588,-0.5052196048725659
-0.004385974165278583,-0.5056170681699065
-0.004382884165278586,-0.5064119947645835
-0.004379794165278589,-0.5073659066781977
-0.004376704165278585,-0.5080813406134083
-0.004373614165278587,-0.5084788039107475
-0.00437052416527859,-0.508876267208086
-0.004367434165278586,-0.5096711938027652
-0.004364344165278589,-0.5103866277379758
-0.004361254165278584,-0.5105456130569115
-0.004358164165278587,-0.5119764809273327
-0.00435507416527859,-0.5126124222030743
-0.004351984165278586,-0.5121354662462684
-0.004348894165278588,-0.5134073487977538
-0.004345804165278584,-0.5138048120950931
-0.004342714165278587,-0.5138048120950931
-0.00433962416527859,-0.5150766946465762
-0.004336534165278585,-0.5147587240087073
-0.004333444165278588,-0.5156331432628535
-0.004330354165278584,-0.5165870551764676
-0.004327264165278587,-0.5161100992196606
-0.004324174165278589,-0.5168255331548699
-0.004321084165278585,-0.5180179230468889
-0.004317994165278588,-0.5170640111332747
-0.004314904165278584,-0.5181769083658264
-0.004311814165278587,-0.5192103129389065
-0.004308724165278589,-0.5192898055983743
-0.004305634165278585,-0.5190513276199709
-0.004302544165278588,-0.5204027028309242
-0.004299454165278584,-0.5207206734687959
-0.004296364165278586,-0.5208796587877312
-0.004293274165278589,-0.5214361074040061
-0.004290184165278585,-0.5215156000634741
-0.004287094165278588,-0.5219130633608132
-0.004284004165278583,-0.5230259605933638
-0.004280914165278586,-0.5234234238907023
-0.004277824165278589,-0.523105453252831
-0.004274734165278585,-0.5244568284637843
-0.004271644165278587,-0.5242978431448486
-0.004268554165278583,-0.5246953064421886
-0.004265464165278586,-0.525092769739527
-0.004262374165278589,-0.5242183504853808
-0.004259284165278585,-0.5242978431448486
-0.004256194165278587,-0.5273185642046267
-0.00425310416527859,-0.5259671889936758
-0.004250014165278586,-0.5265236376099482
-0.004246924165278589,-0.5274775495235624
-0.004243834165278584,-0.5274775495235624
-0.004240744165278587,-0.5277160275019659
-0.00423765416527859,-0.5289879100534491
-0.004234564165278586,-0.5285904467561122
-0.004231474165278588,-0.5287494320750479
-0.004228384165278584,-0.5302597926049369
-0.004225294165278587,-0.5295443586697264
-0.00422220416527859,-0.530180299945468
-0.004219114165278585,-0.5310547191996154
-0.004216024165278588,-0.5312931971780189
-0.004212934165278584,-0.5318496457942938
-0.004209844165278587,-0.5324855870700366
-0.004206754165278589,-0.5318496457942949
-0.004203664165278585,-0.5324060944105687
-0.004200574165278588,-0.5332010210052472
-0.004197484165278584,-0.5328035577079089
-0.004194394165278587,-0.5332805136647151
-0.004191304165278589,-0.5339164549404578
-0.004188214165278585,-0.5337574696215222
-0.004185124165278588,-0.5340754402593935
-0.004182034165278584,-0.5352678301514098
-0.004178944165278586,-0.5344729035567327
-0.004175854165278589,-0.5351088448324754
-0.004172764165278585,-0.5355063081298147
-0.004169674165278588,-0.5355858007892825
-0.004166584165278583,-0.5364602200434299
-0.004163494165278586,-0.5370166686597038
-0.004160404165278589,-0.536380727383961
-0.004157314165278585,-0.5378115952543822
-0.004154224165278587,-0.5377321025949143
-0.004151134165278583,-0.5373346392975776
-0.004148044165278586,-0.5387655071679963
-0.004144954165278589,-0.5383680438706571
-0.004141864165278585,-0.5386860145085285
-0.004138774165278587,-0.5381295658922536
-0.00413568416527859,-0.5374141319570443
-0.004132594165278586,-0.5386860145085285
-0.004129504165278589,-0.540514345676289
-0.004126414165278584,-0.5393219557842712
-0.004123324165278587,-0.5400373897194819
-0.00412023416527859,-0.5411502869520297
-0.004117144165278586,-0.5401963750384176
-0.004114054165278588,-0.5409118089736281
-0.004110964165278584,-0.5413887649304352
-0.004107874165278587,-0.5413092722709674
-0.00410478416527859,-0.5416272429088382
-0.004101694165278585,-0.5426606474819208
-0.004098604165278588,-0.5422631841845815
-0.004095514165278584,-0.5428991254603243
-0.004092424165278587,-0.5431376034387277
-0.004089334165278589,-0.5433760814171313
-0.004086244165278585,-0.5436145593955348
-0.004083154165278588,-0.5439325300334062
-0.004080064165278584,-0.5434555740766017
-0.004076974165278587,-0.5448864419470204
-0.004073884165278589,-0.5442505006712777
-0.004070794165278585,-0.5443299933307455
-0.004067704165278588,-0.5452839052443597
-0.004064614165278584,-0.5449659346064897
-0.004061524165278586,-0.5457608612011666
-0.004058434165278589,-0.5461583244985059
-0.004055344165278585,-0.5459198465201024
-0.004052254165278588,-0.5459993391795702
-0.004049164165278583,-0.54671477311478
-0.004046074165278586,-0.5463173098174415
-0.004042984165278589,-0.5473507143905235
-0.004039894165278585,-0.5476686850283949
-0.004036804165278587,-0.54711223641212
-0.004033714165278583,-0.5477481776878639
-0.004030624165278586,-0.5483841189636055
-0.004027534165278589,-0.5479071630067984
-0.004024444165278585,-0.5482251336446698
-0.004021354165278587,-0.5485431042825413
-0.00401826416527859,-0.5481456409852028
-0.004015174165278586,-0.5493380308772197
-0.004012084165278589,-0.5478276703473306
-0.004008994165278584,-0.5482251336446698
-0.004005904165278587,-0.5504509281097695
-0.00400281416527859,-0.5498944794934956
-0.003999724165278586,-0.5495765088556233
-0.003996634165278588,-0.5508483914071087
-0.003993544165278584,-0.5498944794934946
-0.003990454165278587,-0.5507688987476409
-0.00398736416527859,-0.5514843326828501
-0.003984274165278585,-0.5506099134287052
-0.003981184165278588,-0.5514843326828515
-0.003978094165278584,-0.5521997666180621
-0.003975004165278587,-0.5516433180017872
-0.003971914165278589,-0.5521997666180621
-0.003968824165278585,-0.55227925927753
-0.003965734165278588,-0.5518817959801907
-0.003962644165278584,-0.5532331711911428
-0.003959554165278587,-0.5525177372559334
-0.003956464165278589,-0.5531536785316762
-0.003953374165278585,-0.5539486051263547
-0.003950284165278588,-0.5531536785316762
-0.003947194165278584,-0.5537896198074204
-0.003944104165278586,-0.5545050537426296
-0.003941014165278589,-0.553789619807419
-0.003937924165278585,-0.5541870831047582
-0.003934834165278588,-0.5549025170399688
-0.003931744165278583,-0.554584546402099
-0.003928654165278586,-0.5554589656562438
-0.003925564165278589,-0.5554589656562438
-0.003922474165278585,-0.5554589656562438
-0.003919384165278587,-0.5553794729967759
-0.003916294165278583,-0.5560949069319857
-0.003913204165278586,-0.5556974436346472
-0.003910114165278589,-0.5562538922509221
-0.003907024165278584,-0.5559359216130508
-0.003903934165278587,-0.555856428953583
-0.00390084416527859,-0.5562538922509214
-0.003897754165278586,-0.5572078041645363
-0.003894664165278588,-0.5566513555482614
-0.003891574165278584,-0.5570488188456006
-0.003888484165278587,-0.5566513555482614
-0.00388539416527859,-0.5558564289535844
-0.003882304165278586,-0.5576052674618756
-0.003879214165278588,-0.5580027307592148
-0.003876124165278584,-0.5577642527808112
-0.003873034165278587,-0.5581617160781505
-0.00386994416527859,-0.5588771500133597
-0.003866854165278585,-0.5580027307592148
-0.003863764165278588,-0.558877150013361
-0.003860674165278584,-0.5591951206512324
-0.003857584165278587,-0.5585591793754897
-0.003854494165278589,-0.5595925839485717
-0.003851404165278585,-0.5591951206512324
-0.003848314165278588,-0.5589566426728289
-0.003845224165278584,-0.5602285252243133
-0.003842134165278586,-0.5595925839485717
-0.003839044165278589,-0.558877150013361
-0.003835954165278585,-0.5610234518189928
-0.003832864165278588,-0.559910554586443
-0.003829774165278584,-0.5606259885216546
-0.003826684165278586,-0.5611029444784607
-0.003823594165278589,-0.5611824371379286
-0.003820504165278585,-0.5610234518189928
-0.003817414165278588,-0.5618978710731392
-0.003814324165278583,-0.5613414224568644
-0.003811234165278586,-0.5614209151163321
-0.003808144165278589,-0.5625338123488819
-0.003805054165278585,-0.5618978710731392
-0.003801964165278587,-0.5618978710731392
-0.003798874165278583,-0.5625338123488822
-0.003795784165278586,-0.5626927976678175
-0.003792694165278589,-0.561977363732607
-0.003789604165278584,-0.5634082316030282
-0.003786514165278587,-0.5626927976678175
-0.00378342416527859,-0.5627722903272854
-0.003780334165278586,-0.5638851875598353
-0.003777244165278588,-0.5631697536246246
-0.003774154165278584,-0.5633287389435604
-0.003771064165278587,-0.5639646802193031
-0.00376797416527859,-0.562931275646223
-0.003764884165278586,-0.5636467095814317
-0.003761794165278588,-0.5628517829867533
-0.003758704165278584,-0.5627722903272855
-0.003755614165278587,-0.5654750407491922
-0.00375252416527859,-0.5640441728787735
-0.003749434165278585,-0.564044172878771
-0.003746344165278588,-0.5650775774518529
-0.003743254165278584,-0.564521128835578
-0.003740164165278587,-0.564044172878771
-0.003737074165278589,-0.5653160554302564
-0.003733984165278585,-0.5650775774518529
-0.003730894165278588,-0.5648390994734495
-0.003727804165278584,-0.5660314893654658
-0.003724714165278586,-0.5653160554302564
-0.003721624165278589,-0.5654750407491922
-0.003718534165278585,-0.5661904746844028
-0.003715444165278588,-0.5659519967059993
-0.003712354165278584,-0.5657930113870646
-0.003709264165278586,-0.5664289526628064
-0.003706174165278589,-0.5660314893654671
-0.003703084165278585,-0.5664289526628064
-0.003699994165278588,-0.5666674306412098
-0.003696904165278583,-0.5669059086196134
-0.003693814165278586,-0.5669854012790813
-0.003690724165278589,-0.5673033719169526
-0.003687634165278585,-0.5669854012790813
-0.003684544165278587,-0.5671443865980169
-0.003681454165278583,-0.5681777911710975
-0.003678364165278586,-0.5673828645764204
-0.003675274165278589,-0.5677008352142918
-0.003672184165278584,-0.5679393131926953
-0.003669094165278587,-0.567621342554824
-0.00366600416527859,-0.5675418498953563
-0.003662914165278586,-0.5684957618089702
-0.003659824165278588,-0.5680188058521632
-0.003656734165278584,-0.5681777911710989
-0.003653644165278587,-0.5688137324468416
-0.00365055416527859,-0.5678598205332293
-0.003647464165278586,-0.5684957618089702
-0.003644374165278588,-0.5692111957441809
-0.003641284165278584,-0.5683367764900346
-0.003638194165278587,-0.5678598205332275
-0.00363510416527859,-0.5687342397873723
-0.003632014165278585,-0.5689727177657773
-0.003628924165278588,-0.5699266296793914
-0.003625834165278584,-0.5695291663820522
-0.003622744165278587,-0.5694496737225844
-0.003619654165278589,-0.5695291663820522
-0.003616564165278585,-0.5704035856361985
-0.003613474165278588,-0.5695291663820522
-0.003610384165278584,-0.569529166382054
-0.003607294165278586,-0.5704830782956664
-0.003604204165278589,-0.5702446003172629
-0.003601114165278585,-0.570165107657795
-0.003598024165278588,-0.5709600342524734
-0.003594934165278584,-0.5708010489335373
-0.003591844165278586,-0.5705625709551342
-0.003588754165278589,-0.5712780048903449
-0.003585664165278585,-0.5706420636146021
-0.003582574165278588,-0.571198512230877
-0.003579484165278583,-0.5721524241444895
-0.003576394165278586,-0.5712780048903449
-0.003573304165278589,-0.5717549608471519
-0.003570214165278585,-0.5725498874418303
-0.003567124165278587,-0.5715959755282162
-0.00356403416527859,-0.5727883654202317
-0.003560944165278586,-0.5723909021228947
-0.003557854165278589,-0.5715164828687483
-0.003554764165278584,-0.5727883654202339
-0.003551674165278587,-0.5720729314850233
-0.00354858416527859,-0.5717549608471525
-0.003545494165278586,-0.5727883654202339
-0.003542404165278588,-0.5726293801012982
-0.003539314165278584,-0.5719934388255554
-0.003536224165278587,-0.5732653213770409
-0.00353313416527859,-0.5723909021228962
-0.003530044165278585,-0.5729473507391696
-0.003526954165278588,-0.5736627846743801
-0.003523864165278584,-0.5728678580797018
-0.003520774165278587,-0.5735037993554445
-0.00351768416527859,-0.5737422773338475
-0.003514594165278585,-0.5729473507391696
-0.003511504165278588,-0.5723114094634268
-0.003508414165278584,-0.5733448140365088
-0.003505324165278587,-0.5739807553122516
-0.003502234165278589,-0.5739807553122516
-0.003499144165278585,-0.5734243066959767
-0.003496054165278588,-0.5734243066959767
-0.003492964165278584,-0.5737422773338483
-0.003489874165278586,-0.5739012626527837
-0.003486784165278589,-0.573742277333848
-0.003483694165278585,-0.5745372039285265
-0.003480604165278588,-0.5741397406311872
