-20250405-BKP/real-diodes-in-T00-L10-D00/100Hz5V/scope.csv

#Digilent WaveForms Oscilloscope Acquisition
#Device Name: Discovery3
#Serial Number: SN:210415BD5874
#Date Time: 2025-04-03 16:15:28.176.030.600
#Sample rate: 344828Hz
#Samples: 32768
#Trigger: Source: Channel 1 Type: Edge Condition: Rising Level: 0 V Hyst.: Auto HoldOff: 0 s
#Channel 1: Range: 200 mV/div Offset: 0 V Sample Mode: Average
#Wavegen Channel 1: Running
#Mode: Simple
#Type: Sine
#Frequency: 100 Hz
#Period: 10 ms
#Amplitude: 5 V
#Offset: 0 V
#Symmetry: 50 %
#Phase: 0 °

Time (s),Channel 1 (V)
-0.03483955187424841,0.06045015990061713
-0.03483665187424841,0.0593372626680673
-0.03483375187424841,0.05862182873285669
-0.03483085187424841,0.05878081405179239
-0.03482795187424841,0.05854233607338885
-0.03482505187424841,0.05949624798700298
-0.03482215187424841,0.05862182873285669
-0.03481925187424841,0.05822436543551747
-0.03481635187424841,0.05949624798700298
-0.03481345187424841,0.0598937112843422
-0.03481055187424841,0.05870132139232453
-0.03480765187424841,0.05854233607338885
-0.03480475187424841,0.05965523330593868
-0.03480185187424841,0.05846284341392101
-0.03479895187424841,0.05814487277604963
-0.03479605187424841,0.05901929203019592
-0.03479315187424841,0.05830385809498531
-0.03479025187424841,0.05798588745711394
-0.03478735187424841,0.05893979937072807
-0.03478445187424841,0.05862182873285669
-0.03478155187424841,0.05766791681924256
-0.03477865187424841,0.05846284341392101
-0.03477575187424841,0.05886030671125806
-0.03477285187424841,0.05766791681924401
-0.03476995187424841,0.05846284341392173
-0.03476705187424841,0.05886030671125748
-0.03476415187424841,0.05734994618137321
-0.03476125187424841,0.05846284341392217
-0.03475835187424842,0.0590987846896626
-0.03475545187424842,0.05782690213818056
-0.03475255187424842,0.05917827734912916
-0.03474965187424842,0.05957574064647012
-0.03474675187424842,0.05830385809498762
-0.03474385187424842,0.05870132139232381
-0.03474095187424842,0.05941675532753384
-0.03473805187424842,0.05782690213817825
-0.03473515187424842,0.05854233607338885
-0.03473225187424842,0.0593372626680673
-0.03472935187424842,0.0577474094787104
-0.03472645187424842,0.05838335075445317
-0.03472355187424842,0.05949624798700298
-0.03472065187424841,0.05766791681924256
-0.03471775187424841,0.05957574064647084
-0.03471485187424841,0.06116559383582773
-0.03471195187424841,0.05878081405179239
-0.03470905187424841,0.05734994618137118
-0.03470615187424841,0.05917827734913161
-0.03470325187424841,0.05798588745711394
-0.03470035187424841,0.05878081405179239
-0.03469745187424841,0.05917827734913161
-0.03469455187424841,0.05798588745711394
-0.03469165187424841,0.05893979937072807
-0.03468875187424841,0.0593372626680673
-0.03468585187424841,0.05806538011658179
-0.03468295187424841,0.05862182873285669
-0.03468005187424841,0.05878081405179239
-0.03467715187424841,0.0577474094787104
-0.03467425187424841,0.05870132139232453
-0.03467135187424841,0.05862182873285669
-0.03466845187424841,0.05734994618137118
-0.03466555187424841,0.05750893150030686
-0.03466265187424841,0.05870132139232453
-0.03465975187424841,0.05727045352190334
-0.03465685187424841,0.05711146820296764
-0.03465395187424841,0.05830385809498531
-0.03465105187424841,0.05742943884083902
-0.03464815187424841,0.05758842415977472
-0.03464525187424841,0.05854233607338885
-0.03464235187424841,0.05782690213817825
-0.03463945187424841,0.05719096086243548
-0.03463655187424841,0.05862182873285669
-0.03463365187424841,0.05838335075445317
-0.03463075187424841,0.05782690213817825
-0.03462785187424841,0.05893979937072807
-0.03462495187424841,0.05870132139232453
-0.03462205187424841,0.05750893150030686
-0.03461915187424841,0.05830385809498531
-0.03461625187424841,0.05846284341391913
-0.03461335187424841,0.05742943884084047
-0.03461045187424841,0.05822436543551791
-0.03460755187424841,0.05846284341391898
-0.03460465187424841,0.05734994618137249
-0.03460175187424841,0.05806538011658251
-0.03459885187424841,0.05846284341391841
-0.03459595187424842,0.0570319755435024
-0.03459305187424842,0.0586218287328538
-0.03459015187424842,0.06068863787901689
-0.03458725187424842,0.05917827734913436
-0.03458435187424842,0.0562370489488267
-0.03458145187424842,0.05838335075444926
-0.03457855187424842,0.05854233607338885
-0.03457565187424842,0.05790639479764609
-0.03457275187424842,0.05917827734913161
-0.03456985187424842,0.05886030671126023
-0.03456695187424842,0.05758842415977472
-0.03456405187424842,0.05870132139232453
-0.03456115187424842,0.05893979937072807
-0.03455825187424841,0.0577474094787104
-0.03455535187424841,0.05758842415977472
-0.03455245187424841,0.05862182873285669
-0.03454955187424841,0.05790639479764609
-0.03454665187424841,0.05727045352190334
-0.03454375187424841,0.05846284341392101
-0.03454085187424841,0.05822436543551747
-0.03453795187424841,0.05679349756509626
-0.03453505187424841,0.0577474094787104
-0.03453215187424841,0.05822436543551747
-0.03452925187424841,0.05687299022456412
-0.03452635187424841,0.05742943884083902
-0.03452345187424841,0.05862182873285669
-0.03452055187424841,0.05766791681924256
-0.03451765187424841,0.05790639479764609
-0.03451475187424841,0.05893979937072807
-0.03451185187424841,0.05806538011658179
-0.03450895187424841,0.05806538011658179
-0.03450605187424841,0.05893979937072807
-0.03450315187424841,0.05790639479764609
-0.03450025187424841,0.05814487277604963
-0.03449735187424841,0.05886030671126023
-0.03449445187424841,0.05822436543551747
-0.03449155187424841,0.0577474094787104
-0.03448865187424841,0.05854233607338885
-0.03448575187424841,0.05782690213817825
-0.03448285187424841,0.05750893150030686
-0.03447995187424841,0.05822436543551747
-0.03447705187424841,0.05766791681924256
-0.03447415187424841,0.05711146820296764
-0.03447125187424841,0.05798588745711394
-0.03446835187424841,0.05909878468966376
-0.03446545187424841,0.05917827734913161
-0.03446255187424841,0.05925777000859946
-0.03445965187424841,0.05758842415977472
-0.03445675187424841,0.05750893150030686
-0.03445385187424841,0.05830385809498675
-0.03445095187424841,0.05909878468966245
-0.03444805187424841,0.05838335075445143
-0.03444515187424841,0.05742943884084133
-0.03444225187424841,0.05870132139232338
-0.03443935187424841,0.05806538011658034
-0.03443645187424842,0.05727045352190478
-0.03443355187424842,0.05838335075445114
-0.03443065187424842,0.05822436543551776
-0.03442775187424842,0.05679349756509886
-0.03442485187424842,0.05790639479764406
-0.03442195187424842,0.0577474094787107
-0.03441905187424842,0.0567140049056303
-0.03441615187424842,0.05742943884083902
-0.03441325187424842,0.05790639479764609
-0.03441035187424842,0.05695248288403196
-0.03440745187424842,0.0570319755434998
-0.03440455187424842,0.05838335075445317
-0.03440165187424842,0.0577474094787104
-0.03439875187424841,0.05719096086243548
-0.03439585187424841,0.05870132139232453
-0.03439295187424841,0.05798588745711394
-0.03439005187424841,0.05727045352190334
-0.03438715187424841,0.05838335075445317
-0.03438425187424841,0.05798588745711394
-0.03438135187424841,0.05750893150030686
-0.03437845187424841,0.05846284341392101
-0.03437555187424841,0.0577474094787104
-0.03437265187424841,0.05719096086243548
-0.03436975187424841,0.05838335075445317
-0.03436685187424841,0.05758842415977472
-0.03436395187424841,0.05679349756509626
-0.03436105187424841,0.05798588745711394
-0.03435815187424841,0.05742943884083902
-0.03435525187424841,0.05639603426775704
-0.03435235187424841,0.05766791681924256
-0.03434945187424841,0.05806538011658179
-0.03434655187424841,0.05671400490562842
-0.03434365187424841,0.05830385809498531
-0.03434075187424841,0.06068863787902065
-0.03433785187424841,0.05862182873285669
-0.03433495187424841,0.05734994618137118
-0.03433205187424841,0.05830385809498531
-0.03432915187424841,0.05742943884083902
-0.03432625187424841,0.05830385809498531
-0.03432335187424841,0.05838335075445317
-0.03432045187424841,0.05727045352190334
-0.03431755187424841,0.05798588745711394
-0.03431465187424841,0.05838335075445317
-0.03431175187424841,0.05734994618137118
-0.03430885187424841,0.05782690213817825
-0.03430595187424841,0.05814487277604963
-0.03430305187424841,0.05734994618137118
-0.03430015187424841,0.05695248288403196
-0.03429725187424841,0.0577474094787104
-0.03429435187424841,0.05703197554349965
-0.03429145187424841,0.05695248288403355
-0.03428855187424841,0.05782690213817781
-0.03428565187424841,0.05758842415977328
-0.03428275187424841,0.05679349756509857
-0.03427985187424841,0.05806538011658208
-0.03427695187424841,0.05822436543551501
-0.03427405187424842,0.05687299022456657
-0.03427115187424842,0.05806538011657961
-0.03426825187424842,0.05830385809498487
-0.03426535187424842,0.05703197554350211
-0.03426245187424842,0.05806538011657991
-0.03425955187424842,0.05854233607338798
-0.03425665187424842,0.05711146820296764
-0.03425375187424842,0.05798588745711394
-0.03425085187424842,0.05846284341392101
-0.03424795187424842,0.05727045352190334
-0.03424505187424842,0.05862182873285669
-0.03424215187424842,0.05886030671126023
-0.03423925187424842,0.0577474094787104
-0.03423635187424841,0.05846284341392101
-0.03423345187424841,0.05941675532753514
-0.03423055187424841,0.05854233607338885
-0.03422765187424841,0.05917827734913161
-0.03422475187424841,0.05981421862487436
-0.03422185187424841,0.05957574064647084
-0.03421895187424841,0.06076813053848851
-0.03421605187424841,0.06307341766305599
-0.03421315187424841,0.06196052043050618
-0.03421025187424841,0.06092711585742419
-0.03420735187424841,0.06156305713316695
-0.03420445187424841,0.06108610117635987
-0.03420155187424841,0.06172204245210264
-0.03419865187424841,0.06227849106837755
-0.03419575187424841,0.06132457915476341
-0.03419285187424841,0.06180153511157048
-0.03418995187424841,0.06188102777103832
-0.03418705187424841,0.06132457915476341
-0.03418415187424841,0.06156305713316695
-0.03418125187424841,0.06204001308997402
-0.03417835187424841,0.06116559383582773
-0.03417545187424841,0.06132457915476341
-0.03417255187424841,0.06196052043050618
-0.03416965187424841,0.06108610117635987
-0.03416675187424841,0.06172204245210264
-0.03416385187424841,0.06243747638731324
-0.03416095187424841,0.06156305713316695
-0.03415805187424841,0.0623579837278454
-0.03415515187424841,0.06275544702518461
-0.03415225187424841,0.06188102777103832
-0.03414935187424841,0.06204001308997402
-0.03414645187424841,0.06259646170624893
-0.03414355187424841,0.06172204245210264
-0.03414065187424841,0.06188102777103832
-0.03413775187424841,0.06251696904678108
-0.03413485187424841,0.06156305713316695
-0.03413195187424841,0.06164254979263638
-0.03412905187424841,0.06251696904677921
-0.03412615187424841,0.06148356447370026
-0.03412325187424841,0.06211950574944287
-0.03412035187424841,0.06267595436571503
-0.03411745187424841,0.06172204245210408
-0.03411455187424842,0.06251696904677964
-0.03411165187424842,0.06259646170624879
-0.03410875187424842,0.06180153511157192
-0.03410585187424842,0.06227849106837668
-0.03410295187424842,0.06299392500358685
-0.03410005187424842,0.06204001308997575
-0.03409715187424842,0.06251696904678021
-0.03409425187424842,0.06339138830092737
-0.03409135187424842,0.06410682223613798
-0.03408845187424842,0.06402732957667014
-0.03408555187424842,0.06307341766305599
-0.03408265187424842,0.06227849106837755
-0.03407975187424842,0.06204001308997402
-0.03407685187424841,0.06307341766305599
-0.03407395187424841,0.06315291032252383
-0.03407105187424841,0.0621989984089097
-0.03406815187424841,0.06251696904678108
-0.03406525187424841,0.06291443234412031
-0.03406235187424841,0.06188102777103832
-0.03405945187424841,0.0621989984089097
-0.03405655187424841,0.06243747638731324
-0.03405365187424841,0.06156305713316695
-0.03405075187424841,0.06204001308997402
-0.03404785187424841,0.06243747638731324
-0.03404495187424841,0.06196052043050618
-0.03404205187424841,0.0623579837278454
-0.03403915187424841,0.06299392500358815
-0.03403625187424841,0.0623579837278454
-0.03403335187424841,0.06180153511157048
-0.03403045187424841,0.0623579837278454
-0.03402755187424841,0.0621989984089097
-0.03402465187424841,0.06211950574944186
-0.03402175187424841,0.06275544702518461
-0.03401885187424841,0.06180153511157048
-0.03401595187424841,0.06172204245210264
-0.03401305187424841,0.06227849106837755
-0.03401015187424841,0.06172204245210264
-0.03400725187424841,0.06116559383582773
-0.03400435187424841,0.06188102777103832
-0.03400145187424841,0.06180153511157048
-0.03399855187424841,0.06132457915476341
-0.03399565187424841,0.0621989984089097
-0.03399275187424841,0.06172204245210264
-0.03398985187424841,0.06132457915476341
-0.03398695187424841,0.0621989984089097
-0.03398405187424841,0.06196052043050618
-0.03398115187424841,0.06188102777103832
-0.03397825187424841,0.06267595436571677
-0.03397535187424841,0.06227849106837755
-0.03397245187424841,0.06172204245210437
-0.03396955187424841,0.06267595436571965
-0.03396665187424841,0.06426580755507179
-0.03396375187424841,0.06323240298199038
-0.03396085187424841,0.06251696904678138
-0.03395795187424841,0.06267595436571546
-0.03395505187424841,0.06196052043050719
-0.03395215187424842,0.06251696904678007
-0.03394925187424842,0.06307341766305498
-0.03394635187424842,0.0619605204305082
-0.03394345187424842,0.06227849106837697
-0.03394055187424842,0.06267595436571605
-0.03393765187424842,0.06188102777103976
-0.03393475187424842,0.06219899840890913
-0.03393185187424842,0.06267595436571677
-0.03392895187424842,0.06180153511157048
-0.03392605187424842,0.06196052043050618
-0.03392315187424842,0.06267595436571677
-0.03392025187424842,0.06140407181423126
-0.03391735187424842,0.0623579837278454
-0.03391445187424841,0.06251696904678108
-0.03391155187424841,0.06124508649529557
-0.03390865187424841,0.06204001308997402
-0.03390575187424841,0.06188102777103832
-0.03390285187424841,0.06116559383582773
-0.03389995187424841,0.0614835644736991
-0.03389705187424841,0.0616425497926348
-0.03389415187424841,0.06037066724114928
-0.03389125187424841,0.06060914521955281
-0.03388835187424841,0.06037066724114928
-0.03388545187424841,0.0598937112843422
-0.03388255187424841,0.06013218926274574
-0.03387965187424841,0.05893979937072807
-0.03387675187424841,0.05790639479764609
-0.03387385187424841,0.05814487277604963
-0.03387095187424841,0.05830385809498531
-0.03386805187424841,0.05727045352190334
-0.03386515187424841,0.05655501958669273
-0.03386225187424841,0.05734994618137118
-0.03385935187424841,0.05679349756509626
-0.03385645187424841,0.05528313703520722
-0.03385355187424841,0.05591907831094997
-0.03385065187424841,0.05576009299201429
-0.03384775187424841,0.05409074714318955
-0.03384485187424841,0.05440871778106092
-0.03384195187424841,0.05647552692722489
-0.03383905187424841,0.05528313703520722
-0.03383615187424841,0.05424973246212524
-0.03383325187424841,0.05409074714318955
-0.03383035187424841,0.05409074714318955
-0.03382745187424841,0.05504465905680368
-0.03382455187424841,0.05639603426775704
-0.03382165187424841,0.05591907831094997
-0.03381875187424841,0.05560110767307859
-0.03381585187424841,0.05647552692722489
-0.03381295187424841,0.05631654160828919
-0.03381005187424841,0.05536262969467709
-0.03380715187424841,0.05647552692722518
-0.03380425187424841,0.05663451224615812
-0.03380135187424841,0.05528313703520853
-0.03379845187424841,0.05599857097041868
-0.03379555187424841,0.05647552692722214
-0.03379265187424842,0.05496516639733859
-0.03378975187424842,0.05520364437573893
-0.03378685187424842,0.05583958565148097
-0.03378395187424842,0.05480618107840202
-0.03378105187424842,0.05488567373786785
-0.03377815187424842,0.0552831370352065
-0.03377525187424842,0.05448821044053022
-0.03377235187424842,0.0547266884189323
-0.03376945187424842,0.05520364437573937
-0.03376655187424842,0.05369328384585033
-0.03376365187424842,0.0540112544837217
-0.03376075187424842,0.05409074714318955
-0.03375785187424842,0.05321632788904325
-0.03375495187424842,0.05393176182425385
-0.03375205187424841,0.05440871778106092
-0.03374915187424841,0.05329582054851111
-0.03374625187424841,0.05377277650531817
-0.03374335187424841,0.05417023980265739
-0.03374045187424841,0.05337531320797895
-0.03373755187424841,0.05289835725117188
-0.03373465187424841,0.05353429852691463
-0.03373175187424841,0.05297784991063972
-0.03372885187424841,0.0525803866133005
-0.03372595187424841,0.05337531320797895
-0.03372305187424841,0.0525803866133005
-0.03372015187424841,0.05234190863489696
-0.03371725187424841,0.05432922512159308
-0.03371435187424841,0.05369328384585033
-0.03371145187424841,0.0525803866133005
-0.03370855187424841,0.05226241597542912
-0.03370565187424841,0.05146748938075067
-0.03370275187424841,0.0517059673591542
-0.03369985187424841,0.0524214012943648
-0.03369695187424841,0.05162647469968636
-0.03369405187424841,0.05138799672128283
-0.03369115187424841,0.05234190863489696
-0.03368825187424841,0.05178546001862205
-0.03368535187424841,0.05091104076447575
-0.03368245187424841,0.05154698204021851
-0.03367955187424841,0.05114951874287929
-0.03367665187424841,0.04987763619139378
-0.03367375187424841,0.050275099488733
-0.03367085187424841,0.04995712885086162
-0.03366795187424841,0.04900321693724749
-0.03366505187424841,0.04924169491565102
-0.03366215187424841,0.04852626098044041
-0.03365925187424841,0.0472543784289549
-0.03365635187424841,0.04693640779108352
-0.03365345187424841,0.04598249587746939
-0.03365055187424841,0.04391568673130399
-0.03364765187424841,0.04312076013662409
-0.03364475187424841,0.04153090694726371
-0.03364185187424841,0.03803322993068203
-0.03363895187424841,0.03644337674132324
-0.03363605187424841,0.03382011897888119
-0.03363315187424841,0.02944802270815248
-0.03363025187424842,0.02658628696732048
-0.03362735187424842,0.02221419069659177
-0.03362445187424842,0.01609325591757091
-0.03362155187424842,0.01188014496577167
-0.03361865187424842,0.006713122100363494
-0.03361575187424842,3.573870506728451e-05
-0.03361285187424842,-0.004177372246732967
-0.03360995187424842,-0.009026424474279159
-0.03360705187424842,-0.01427293999915691
-0.03360415187424842,-0.01785010967520992
-0.03360125187424842,-0.02198372796753785
-0.03359835187424842,-0.02683278019507638
-0.03359545187424842,-0.02913806731964387
-0.03359255187424841,-0.0309663984874043
-0.03358965187424841,-0.03422559752558593
-0.03358675187424841,-0.0377232745421711
-0.03358385187424841,-0.04106196623982059
-0.03358095187424841,-0.04392370198066299
-0.03357805187424841,-0.04591101846735911
-0.03357515187424841,-0.04710340835937678
-0.03357225187424841,-0.04948818814341212
-0.03356935187424841,-0.05298586515999729
-0.03356645187424841,-0.05393977707361142
-0.03356355187424841,-0.05584760090083969
-0.03356065187424841,-0.05870933664168211
-0.03355775187424841,-0.06133259440412098
-0.03355485187424841,-0.06212752099879942
-0.03355195187424841,-0.06498925673964184
-0.03354905187424841,-0.06761251450208072
-0.03354615187424841,-0.06848693375622701
-0.03354325187424841,-0.07087171354026235
-0.03354035187424841,-0.07341547864323338
-0.03353745187424841,-0.0739719272595083
-0.03353455187424841,-0.07635670704354364
-0.03353165187424841,-0.07866199416811114
-0.03352875187424841,-0.07961590608172527
-0.03352585187424841,-0.08128525193055001
-0.03352295187424841,-0.08422648033086026
-0.03352005187424841,-0.08486242160660303
-0.03351715187424841,-0.08629328947702422
-0.03351425187424841,-0.08923451787733448
-0.03351135187424841,-0.08955248851520586
-0.03350845187424841,-0.09066538574775569
-0.03350555187424841,-0.09376559946700162
-0.03350265187424841,-0.09464001872114793
-0.03349975187424841,-0.09575291595369775
-0.03349685187424841,-0.09829668105666878
-0.03349395187424841,-0.09980704158655783
-0.03349105187424841,-0.1004429828623006
-0.03348815187424841,-0.103463703922081
-0.03348525187424841,-0.1047355864735649
-0.03348235187424841,-0.1051330497709088
-0.03347945187424841,-0.1080742781712156
-0.03347655187424841,-0.1091076827442971
-0.03347365187424841,-0.1099026093389793
-0.03347075187424842,-0.1127643450798113
-0.03346785187424842,-0.1122873891230103
-0.03346495187424842,-0.112128403804074
